0, 6, 0
0, 4, 0
0, 5, 0
0, 9, 0
3, 7, 0
3, 2, 0
3, 8, 0
3, 1, 0
4, 0, 0
4, 6, 0
4, 9, 0
2, 7, 0
2, 3, 0
2, 8, 0
2, 1, 1
6, 0, 0
6, 4, 0
6, 5, 0
6, 9, 0
1, 7, 0
1, 3, 0
1, 8, 0
1, 2, 1
8, 7, 0
8, 3, 0
8, 1, 0
8, 2, 0
5, 0, 0
5, 6, 0
7, 3, 0
7, 1, 0
7, 8, 0
7, 9, 0
7, 2, 0
9, 7, 0
9, 6, 0
9, 4, 0
9, 0, 0
