0, 7, 0
0, 12, 0
0, 4, 0
0, 9, 0
0, 2, 0
13, 7, 0
13, 6, 0
13, 12, 0
13, 5, 0
13, 1, 0
3, 8, 0
3, 14, 0
3, 10, 0
3, 11, 0
3, 9, 0
6, 13, 0
6, 5, 1
6, 1, 0
8, 3, 0
8, 14, 0
8, 11, 0
8, 10, 0
5, 6, 1
5, 13, 0
5, 1, 0
11, 3, 0
11, 8, 0
11, 14, 0
11, 10, 0
11, 9, 0
10, 3, 0
10, 8, 0
10, 14, 0
10, 11, 0
7, 0, 0
7, 12, 0
7, 13, 0
7, 2, 0
12, 7, 0
12, 0, 0
12, 13, 0
12, 2, 0
4, 0, 0
4, 9, 0
14, 3, 0
14, 8, 0
14, 9, 0
14, 11, 0
14, 10, 0
2, 0, 0
2, 12, 0
2, 7, 0
1, 6, 0
1, 13, 0
1, 5, 0
9, 0, 0
9, 3, 0
9, 4, 0
9, 14, 0
9, 11, 0
