0, 2, 0
0, 12, 0
0, 1, 0
0, 5, 0
0, 3, 0
8, 7, 1
8, 4, 0
8, 11, 0
3, 0, 0
3, 12, 0
3, 4, 0
3, 1, 0
3, 9, 0
3, 11, 0
3, 10, 0
6, 5, 0
6, 1, 0
5, 0, 0
5, 6, 0
5, 2, 0
11, 7, 0
11, 3, 0
11, 2, 0
11, 8, 0
11, 10, 0
10, 12, 0
10, 11, 0
10, 3, 0
7, 2, 0
7, 8, 1
7, 11, 0
7, 4, 0
7, 9, 0
12, 0, 0
12, 3, 0
12, 2, 0
12, 10, 0
12, 1, 0
4, 7, 0
4, 3, 0
4, 8, 0
4, 9, 0
2, 0, 0
2, 12, 0
2, 7, 0
2, 5, 0
2, 11, 0
2, 1, 0
1, 0, 0
1, 12, 0
1, 2, 0
1, 3, 0
1, 6, 0
9, 7, 0
9, 3, 0
9, 4, 0
