0, 16, 0
0, 19, 0
0, 17, 0
13, 12, 0
13, 14, 0
13, 3, 0
13, 19, 0
13, 1, 0
13, 15, 0
13, 10, 0
17, 0, 0
17, 8, 0
3, 12, 0
3, 19, 0
3, 13, 0
3, 1, 0
16, 0, 0
16, 19, 0
6, 7, 1
6, 4, 0
6, 2, 0
8, 17, 0
5, 18, 0
5, 9, 0
11, 18, 0
11, 4, 0
10, 12, 0
10, 13, 0
10, 14, 0
10, 19, 0
10, 15, 0
10, 1, 0
7, 6, 1
7, 4, 0
7, 2, 0
12, 3, 0
12, 13, 0
12, 19, 0
12, 1, 0
12, 15, 0
12, 10, 0
4, 7, 0
4, 6, 0
4, 11, 0
4, 2, 0
14, 9, 0
14, 13, 0
14, 15, 0
14, 10, 0
14, 1, 0
2, 7, 0
2, 6, 0
2, 4, 0
19, 0, 0
19, 12, 0
19, 13, 0
19, 3, 0
19, 16, 0
19, 10, 0
1, 3, 0
1, 13, 0
1, 14, 0
1, 12, 0
1, 9, 0
1, 15, 0
1, 10, 0
15, 12, 0
15, 13, 0
15, 14, 0
15, 1, 0
15, 9, 0
15, 10, 0
18, 5, 0
18, 11, 0
9, 15, 0
9, 14, 0
9, 5, 0
9, 1, 0
