0, 12, 0
0, 2, 0
0, 5, 0
0, 1, 0
13, 7, 0
13, 14, 0
13, 16, 0
13, 10, 0
13, 8, 0
13, 15, 0
13, 5, 0
13, 9, 0
17, 14, 0
17, 5, 0
17, 1, 0
3, 4, 0
3, 14, 0
3, 2, 1
3, 10, 0
3, 5, 0
3, 9, 0
16, 6, 0
16, 14, 0
16, 13, 0
16, 15, 0
16, 9, 0
6, 16, 0
6, 9, 0
8, 7, 1
8, 13, 0
8, 14, 0
8, 9, 0
8, 10, 0
5, 0, 0
5, 13, 0
5, 17, 0
5, 12, 0
5, 18, 0
5, 11, 0
5, 10, 0
5, 3, 0
5, 4, 0
5, 14, 0
5, 2, 0
5, 1, 0
5, 9, 0
11, 12, 0
11, 4, 0
11, 14, 0
11, 2, 0
11, 18, 0
11, 5, 0
11, 10, 0
10, 7, 0
10, 3, 0
10, 4, 0
10, 13, 0
10, 2, 0
10, 14, 0
10, 8, 0
10, 5, 0
10, 11, 0
10, 9, 0
7, 13, 0
7, 8, 1
7, 14, 0
7, 9, 0
7, 10, 0
12, 0, 0
12, 14, 0
12, 2, 0
12, 18, 0
12, 5, 0
12, 11, 0
4, 3, 0
4, 14, 0
4, 2, 0
4, 18, 0
4, 5, 0
4, 11, 0
4, 10, 0
14, 13, 0
14, 17, 0
14, 12, 0
14, 16, 0
14, 1, 0
14, 5, 0
14, 11, 0
14, 10, 0
14, 7, 0
14, 3, 0
14, 4, 0
14, 2, 0
14, 8, 0
14, 15, 0
14, 9, 0
2, 0, 0
2, 3, 1
2, 4, 0
2, 14, 0
2, 12, 0
2, 18, 0
2, 1, 0
2, 9, 0
2, 5, 0
2, 11, 0
2, 10, 0
1, 0, 0
1, 14, 0
1, 17, 0
1, 5, 0
1, 2, 0
15, 16, 0
15, 13, 0
15, 14, 0
15, 9, 0
18, 12, 0
18, 4, 0
18, 5, 0
18, 11, 0
18, 2, 0
9, 7, 0
9, 3, 0
9, 13, 0
9, 14, 0
9, 2, 0
9, 16, 0
9, 6, 0
9, 8, 0
9, 15, 0
9, 5, 0
9, 10, 0
