0, 7, 0
0, 3, 0
0, 6, 0
0, 8, 0
0, 11, 0
0, 9, 0
13, 7, 0
13, 3, 0
13, 2, 0
13, 6, 0
13, 8, 0
13, 10, 0
13, 9, 0
3, 0, 0
3, 7, 0
3, 13, 0
3, 8, 0
3, 11, 0
3, 9, 0
6, 0, 0
6, 7, 0
6, 4, 0
6, 13, 0
6, 2, 0
6, 10, 0
6, 8, 0
6, 5, 0
6, 11, 0
6, 1, 0
8, 0, 0
8, 7, 0
8, 13, 0
8, 3, 0
8, 6, 0
8, 9, 0
8, 5, 0
8, 11, 0
8, 1, 0
5, 6, 0
5, 8, 0
5, 4, 1
5, 11, 0
5, 1, 0
11, 0, 0
11, 7, 0
11, 4, 0
11, 9, 0
11, 3, 0
11, 6, 0
11, 8, 0
11, 5, 0
11, 10, 0
11, 1, 0
10, 7, 0
10, 12, 0
10, 13, 0
10, 2, 0
10, 6, 0
10, 11, 0
7, 0, 0
7, 3, 0
7, 13, 0
7, 6, 0
7, 8, 0
7, 11, 0
7, 10, 0
12, 9, 0
12, 10, 0
12, 2, 0
4, 6, 0
4, 5, 1
4, 11, 0
4, 1, 0
2, 12, 0
2, 13, 0
2, 9, 0
2, 10, 0
2, 6, 0
1, 4, 0
1, 6, 0
1, 8, 0
1, 5, 0
1, 11, 0
9, 0, 0
9, 3, 0
9, 13, 0
9, 2, 0
9, 8, 0
9, 11, 0
9, 12, 0
