0, 4, 0
13, 12, 0
13, 10, 0
13, 1, 0
3, 16, 0
3, 9, 0
3, 11, 0
3, 2, 0
16, 6, 0
16, 3, 0
16, 11, 0
16, 9, 0
6, 16, 0
6, 12, 0
6, 5, 0
6, 11, 0
6, 9, 0
8, 15, 0
8, 10, 0
5, 12, 0
5, 6, 0
11, 16, 0
11, 6, 0
11, 3, 0
11, 9, 0
10, 13, 0
10, 8, 0
10, 15, 0
10, 1, 0
7, 15, 0
7, 4, 0
7, 14, 0
12, 6, 0
12, 13, 0
12, 5, 0
12, 1, 0
4, 0, 0
4, 7, 0
4, 14, 0
14, 7, 0
14, 4, 0
14, 15, 0
2, 3, 0
1, 12, 0
1, 13, 0
1, 10, 0
15, 7, 0
15, 8, 0
15, 14, 0
15, 10, 0
9, 16, 0
9, 3, 0
9, 11, 0
9, 6, 0
