0, 9, 0
0, 10, 0
6, 2, 0
1, 8, 0
1, 5, 0
1, 2, 0
5, 2, 0
5, 8, 0
5, 1, 0
11, 3, 0
11, 4, 0
11, 9, 0
10, 0, 0
10, 9, 0
7, 3, 0
7, 8, 0
3, 7, 0
3, 11, 0
4, 11, 0
4, 9, 0
2, 6, 0
2, 5, 0
2, 1, 0
8, 7, 0
8, 5, 0
8, 1, 0
9, 0, 0
9, 4, 0
9, 11, 0
9, 10, 0
