12, 13, 0
12, 25, 0
12, 31, 0
12, 24, 0
12, 16, 0
12, 29, 0
12, 8, 0
12, 10, 0
13, 12, 0
13, 31, 0
13, 29, 0
17, 20, 0
17, 3, 0
17, 4, 0
17, 29, 0
17, 21, 0
17, 19, 0
17, 5, 0
26, 18, 0
26, 21, 0
26, 22, 0
26, 11, 0
26, 23, 0
23, 26, 0
23, 11, 0
2, 20, 0
2, 3, 0
2, 14, 0
2, 21, 0
5, 19, 0
5, 4, 1
5, 17, 0
5, 29, 0
11, 21, 0
11, 26, 0
11, 23, 0
1, 21, 0
1, 7, 0
1, 20, 0
1, 14, 0
20, 3, 0
20, 1, 0
20, 17, 0
20, 2, 0
4, 19, 0
4, 17, 0
4, 5, 1
4, 29, 0
14, 21, 0
14, 3, 0
14, 2, 0
14, 1, 0
24, 16, 0
24, 12, 0
24, 8, 0
24, 25, 1
24, 10, 0
28, 0, 0
28, 15, 0
30, 18, 0
30, 15, 0
8, 12, 0
8, 25, 0
8, 21, 0
8, 16, 0
8, 29, 0
8, 24, 0
8, 10, 0
15, 0, 0
15, 28, 0
15, 18, 0
15, 30, 0
15, 22, 0
15, 9, 0
22, 18, 0
22, 15, 0
22, 26, 0
0, 21, 0
0, 15, 0
0, 28, 0
0, 9, 0
3, 20, 0
3, 21, 0
3, 14, 0
3, 17, 0
3, 2, 0
16, 12, 0
16, 25, 0
16, 31, 0
16, 24, 0
16, 8, 0
16, 10, 0
6, 7, 0
6, 27, 0
6, 21, 0
6, 9, 0
27, 21, 0
27, 6, 0
27, 9, 0
7, 21, 0
7, 6, 0
7, 1, 0
18, 21, 0
18, 15, 0
18, 26, 0
18, 22, 0
18, 30, 0
25, 12, 0
25, 31, 0
25, 24, 1
25, 16, 0
25, 8, 0
25, 10, 0
31, 12, 0
31, 13, 0
31, 25, 0
31, 29, 0
31, 16, 0
31, 10, 0
29, 12, 0
29, 13, 0
29, 17, 0
29, 31, 0
29, 21, 0
29, 4, 0
29, 19, 0
29, 8, 0
29, 5, 0
21, 0, 0
21, 6, 0
21, 17, 0
21, 18, 0
21, 27, 0
21, 29, 0
21, 11, 0
21, 1, 0
21, 7, 0
21, 3, 0
21, 14, 0
21, 26, 0
21, 2, 0
21, 19, 0
21, 8, 0
21, 10, 0
21, 9, 0
19, 21, 0
19, 4, 0
19, 17, 0
19, 5, 0
19, 29, 0
10, 12, 0
10, 21, 0
10, 25, 0
10, 31, 0
10, 24, 0
10, 16, 0
10, 8, 0
9, 0, 0
9, 6, 0
9, 21, 0
9, 15, 0
9, 27, 0
