0, 4, 0
0, 5, 0
0, 11, 0
0, 1, 0
6, 2, 0
1, 0, 0
1, 5, 0
1, 11, 0
5, 0, 0
5, 3, 0
5, 4, 1
5, 8, 0
5, 11, 0
5, 1, 0
11, 0, 0
11, 10, 0
11, 5, 0
11, 1, 0
10, 11, 0
10, 2, 0
7, 3, 0
7, 8, 1
7, 9, 0
3, 7, 0
3, 8, 0
3, 5, 0
3, 4, 0
4, 0, 0
4, 3, 0
4, 5, 1
2, 6, 0
2, 10, 0
8, 7, 1
8, 3, 0
8, 5, 0
8, 9, 0
9, 7, 0
9, 8, 0
