0, 7, 0
0, 5, 0
13, 3, 0
13, 9, 0
3, 2, 0
3, 12, 0
3, 13, 0
3, 4, 0
3, 9, 0
6, 12, 0
6, 8, 0
6, 11, 0
6, 9, 0
8, 12, 0
8, 9, 0
8, 11, 0
8, 6, 0
5, 0, 0
5, 7, 0
5, 2, 0
11, 12, 0
11, 8, 0
11, 9, 0
11, 6, 0
10, 2, 0
10, 4, 0
10, 1, 0
7, 0, 0
7, 5, 0
12, 6, 0
12, 8, 0
12, 3, 0
12, 11, 0
12, 9, 0
4, 3, 0
4, 10, 0
4, 1, 0
2, 3, 0
2, 9, 0
2, 5, 0
2, 10, 0
2, 1, 0
1, 2, 0
1, 4, 0
1, 9, 0
1, 10, 0
9, 12, 0
9, 13, 0
9, 3, 0
9, 2, 0
9, 6, 0
9, 8, 0
9, 11, 0
9, 1, 0
