0, 7, 0
0, 3, 0
0, 8, 0
0, 2, 0
13, 12, 0
13, 2, 0
13, 6, 0
13, 8, 0
13, 15, 0
13, 10, 0
13, 1, 0
17, 7, 0
17, 14, 0
17, 16, 0
17, 6, 0
17, 5, 0
17, 11, 0
17, 9, 0
3, 7, 0
3, 6, 0
3, 8, 0
3, 0, 0
3, 2, 1
16, 6, 0
16, 14, 0
16, 17, 0
16, 9, 0
6, 13, 0
6, 17, 0
6, 3, 0
6, 16, 0
6, 5, 0
6, 11, 0
6, 1, 0
6, 7, 0
6, 12, 0
6, 4, 0
6, 14, 0
6, 2, 0
6, 8, 0
6, 15, 0
6, 10, 0
6, 9, 0
8, 0, 0
8, 3, 0
8, 13, 0
8, 14, 0
8, 2, 0
8, 6, 0
8, 7, 0
8, 1, 0
5, 6, 0
5, 17, 0
5, 11, 0
5, 2, 0
11, 6, 0
11, 2, 0
11, 17, 0
11, 5, 0
11, 9, 0
10, 12, 0
10, 13, 0
10, 4, 0
10, 6, 0
10, 15, 0
10, 1, 0
7, 0, 0
7, 3, 0
7, 17, 0
7, 2, 0
7, 6, 0
7, 14, 0
7, 8, 0
7, 1, 0
12, 6, 0
12, 1, 0
12, 13, 0
12, 15, 0
12, 10, 0
4, 6, 0
4, 15, 0
4, 10, 0
14, 7, 0
14, 17, 0
14, 2, 0
14, 16, 0
14, 6, 0
14, 8, 0
14, 1, 0
2, 7, 0
2, 3, 1
2, 13, 0
2, 14, 0
2, 6, 0
2, 8, 0
2, 0, 0
2, 5, 0
2, 11, 0
2, 1, 1
1, 7, 0
1, 12, 0
1, 13, 0
1, 14, 0
1, 2, 1
1, 6, 0
1, 8, 0
1, 10, 0
15, 12, 0
15, 13, 0
15, 10, 0
15, 4, 0
15, 6, 0
9, 16, 0
9, 6, 0
9, 17, 0
9, 11, 0
