0, 3, 0
0, 4, 0
0, 5, 0
13, 12, 0
13, 1, 0
13, 10, 0
13, 9, 0
17, 7, 0
17, 11, 0
17, 2, 0
3, 0, 0
3, 4, 1
3, 5, 0
16, 6, 0
16, 14, 0
16, 8, 0
16, 15, 0
16, 1, 0
6, 14, 0
6, 16, 0
6, 8, 0
6, 15, 0
6, 5, 0
6, 1, 0
8, 16, 0
8, 6, 0
8, 15, 0
8, 14, 0
8, 1, 0
5, 0, 0
5, 6, 0
5, 4, 0
5, 15, 0
5, 3, 0
11, 7, 0
11, 17, 0
11, 2, 0
10, 13, 0
10, 9, 1
10, 1, 0
7, 12, 0
7, 17, 0
7, 11, 0
7, 9, 0
12, 7, 0
12, 13, 0
4, 0, 0
4, 3, 1
4, 5, 0
14, 16, 0
14, 6, 0
14, 8, 0
14, 15, 0
14, 1, 0
2, 17, 0
2, 11, 0
1, 13, 0
1, 14, 0
1, 16, 0
1, 6, 0
1, 8, 0
1, 10, 0
1, 9, 0
15, 16, 0
15, 6, 0
15, 8, 0
15, 14, 0
15, 5, 0
9, 7, 0
9, 13, 0
9, 10, 1
9, 1, 0
