0, 13, 0
0, 6, 0
0, 5, 0
0, 11, 0
0, 1, 0
0, 7, 0
0, 12, 0
0, 4, 0
0, 14, 0
0, 2, 0
0, 10, 0
0, 9, 0
13, 0, 0
13, 3, 0
13, 9, 0
13, 11, 0
13, 10, 0
3, 13, 0
3, 10, 0
3, 9, 0
6, 0, 0
6, 7, 0
6, 14, 0
6, 8, 0
6, 5, 1
6, 1, 0
8, 7, 1
8, 6, 0
8, 14, 0
8, 5, 0
8, 1, 0
5, 0, 0
5, 7, 0
5, 14, 0
5, 6, 1
5, 8, 0
5, 1, 0
11, 0, 0
11, 12, 0
11, 13, 0
11, 14, 0
11, 4, 0
11, 2, 0
11, 1, 0
11, 10, 0
11, 9, 0
10, 0, 0
10, 3, 0
10, 4, 0
10, 13, 0
10, 11, 0
7, 0, 0
7, 14, 0
7, 6, 0
7, 8, 1
7, 5, 0
7, 1, 0
12, 0, 0
12, 14, 0
12, 11, 0
12, 2, 0
4, 0, 0
4, 2, 0
4, 11, 0
4, 10, 0
14, 0, 0
14, 12, 0
14, 7, 0
14, 6, 0
14, 8, 0
14, 5, 0
14, 11, 0
14, 1, 0
2, 0, 0
2, 12, 0
2, 4, 0
2, 11, 0
1, 0, 0
1, 7, 0
1, 14, 0
1, 6, 0
1, 8, 0
1, 5, 0
1, 11, 0
9, 0, 0
9, 3, 0
9, 13, 0
9, 11, 0
