0, 3, 0
0, 8, 0
0, 5, 0
0, 4, 0
0, 9, 0
6, 7, 0
6, 3, 0
6, 4, 0
6, 10, 0
1, 4, 0
1, 11, 0
1, 2, 0
5, 0, 0
5, 8, 0
5, 11, 0
5, 4, 0
5, 9, 0
11, 4, 0
11, 5, 0
11, 1, 0
10, 7, 0
10, 6, 0
10, 3, 0
7, 6, 0
7, 4, 0
7, 10, 0
3, 0, 0
3, 4, 0
3, 9, 0
3, 6, 0
3, 8, 0
3, 10, 0
4, 0, 0
4, 3, 0
4, 7, 0
4, 6, 0
4, 8, 0
4, 5, 0
4, 11, 0
4, 1, 0
2, 1, 0
8, 0, 0
8, 3, 0
8, 4, 0
8, 5, 0
8, 9, 1
9, 0, 0
9, 3, 0
9, 8, 1
9, 5, 0
