0, 2, 0
0, 1, 0
3, 6, 0
3, 4, 1
3, 1, 0
4, 3, 1
4, 6, 0
4, 1, 0
7, 8, 0
7, 2, 0
2, 0, 0
2, 7, 0
2, 8, 0
6, 3, 0
6, 4, 0
6, 5, 0
6, 1, 0
8, 7, 0
8, 2, 0
5, 6, 0
5, 1, 0
1, 0, 0
1, 3, 0
1, 4, 0
1, 5, 0
1, 6, 0
