0, 4, 0
0, 9, 0
0, 2, 0
0, 1, 0
0, 8, 0
0, 5, 0
0, 10, 0
3, 7, 0
3, 2, 0
3, 1, 0
4, 0, 0
4, 8, 0
4, 9, 0
4, 5, 0
4, 10, 0
2, 0, 0
2, 3, 0
2, 7, 0
2, 9, 0
2, 8, 0
2, 1, 0
6, 7, 0
1, 0, 0
1, 3, 0
1, 2, 0
1, 8, 0
1, 5, 0
1, 9, 0
8, 0, 0
8, 4, 0
8, 9, 1
8, 2, 0
8, 10, 0
8, 5, 0
8, 1, 0
5, 0, 0
5, 7, 0
5, 4, 0
5, 9, 0
5, 8, 0
5, 1, 0
7, 3, 0
7, 2, 0
7, 5, 0
7, 6, 0
10, 0, 0
10, 8, 0
10, 4, 0
10, 9, 0
9, 0, 0
9, 4, 0
9, 2, 0
9, 10, 0
9, 8, 1
9, 5, 0
9, 1, 0
