0, 7, 0
0, 8, 0
0, 4, 0
3, 4, 0
3, 2, 1
4, 0, 0
4, 3, 0
4, 8, 0
4, 2, 0
7, 0, 0
7, 6, 0
7, 8, 0
7, 5, 0
7, 1, 0
2, 3, 1
2, 4, 0
6, 7, 0
6, 5, 1
6, 1, 0
8, 0, 0
8, 7, 0
8, 4, 0
5, 7, 0
5, 6, 1
5, 1, 0
1, 7, 0
1, 6, 0
1, 5, 0
