0, 13, 0
0, 15, 0
0, 10, 0
13, 0, 0
13, 14, 0
13, 15, 0
13, 6, 0
3, 8, 0
3, 5, 0
3, 4, 0
3, 9, 0
6, 15, 0
6, 13, 0
6, 14, 0
6, 9, 0
8, 7, 0
8, 3, 0
8, 4, 0
5, 3, 0
5, 9, 0
11, 12, 0
11, 10, 0
11, 1, 0
10, 0, 0
10, 12, 0
10, 11, 0
7, 8, 0
7, 4, 0
7, 2, 0
12, 11, 0
12, 10, 0
4, 7, 0
4, 3, 0
4, 8, 0
14, 6, 0
14, 13, 0
14, 15, 1
2, 7, 0
1, 11, 0
15, 0, 0
15, 6, 0
15, 13, 0
15, 14, 1
9, 6, 0
9, 5, 0
9, 3, 0
