0, 3, 0
0, 6, 0
0, 9, 0
0, 4, 0
0, 1, 1
3, 0, 0
3, 4, 0
3, 2, 0
3, 6, 0
3, 9, 0
3, 1, 0
4, 0, 0
4, 3, 0
4, 1, 0
4, 9, 0
2, 3, 0
2, 6, 0
6, 0, 0
6, 3, 0
6, 2, 0
6, 10, 0
6, 5, 0
6, 9, 0
1, 0, 1
1, 3, 0
1, 4, 0
1, 9, 0
8, 7, 0
5, 6, 0
5, 10, 0
7, 8, 0
7, 10, 0
10, 7, 0
10, 6, 0
10, 5, 0
9, 0, 0
9, 3, 0
9, 6, 0
9, 4, 0
9, 1, 0
