12, 7, 0
12, 28, 0
12, 31, 0
12, 16, 0
12, 11, 0
12, 10, 0
12, 20, 0
12, 33, 0
12, 4, 0
12, 32, 0
12, 29, 0
12, 21, 0
12, 8, 0
12, 38, 0
12, 18, 0
12, 22, 0
12, 36, 0
13, 0, 0
13, 17, 0
13, 26, 0
13, 24, 0
13, 25, 0
13, 19, 0
13, 9, 0
13, 1, 0
17, 0, 0
17, 13, 0
17, 25, 0
17, 9, 0
17, 26, 0
17, 24, 0
17, 30, 0
17, 39, 0
17, 1, 0
31, 12, 0
31, 4, 0
31, 26, 0
31, 33, 0
31, 16, 0
31, 9, 0
31, 38, 0
31, 5, 0
31, 18, 0
31, 1, 0
23, 6, 0
23, 4, 0
23, 14, 0
23, 9, 0
23, 26, 0
23, 24, 0
23, 25, 0
23, 27, 0
23, 30, 0
23, 1, 0
24, 0, 0
24, 13, 0
24, 17, 0
24, 32, 0
24, 23, 0
24, 27, 0
24, 36, 0
24, 35, 0
24, 11, 0
24, 30, 0
24, 20, 0
24, 3, 0
24, 4, 0
24, 25, 1
24, 26, 0
24, 6, 0
24, 37, 0
24, 28, 0
24, 1, 0
24, 15, 0
24, 9, 0
5, 20, 0
5, 28, 0
5, 32, 0
5, 18, 0
5, 11, 0
5, 10, 0
5, 7, 0
5, 33, 0
5, 4, 0
5, 31, 0
5, 29, 0
5, 8, 0
5, 38, 0
5, 36, 0
11, 12, 0
11, 4, 0
11, 28, 0
11, 32, 0
11, 24, 0
11, 30, 0
11, 29, 0
11, 38, 0
11, 5, 0
11, 1, 0
1, 13, 0
1, 17, 0
1, 31, 0
1, 23, 0
1, 24, 0
1, 11, 0
1, 30, 0
1, 20, 0
1, 4, 0
1, 14, 0
1, 35, 0
1, 28, 0
1, 39, 0
1, 0, 0
1, 34, 0
1, 18, 0
1, 6, 0
1, 27, 0
1, 3, 0
1, 25, 0
1, 26, 0
1, 2, 0
1, 37, 0
1, 19, 0
20, 28, 0
20, 16, 0
20, 35, 0
20, 5, 0
20, 1, 0
20, 12, 0
20, 4, 0
20, 26, 0
20, 24, 0
20, 21, 1
20, 19, 0
20, 30, 0
20, 38, 0
20, 22, 1
20, 9, 0
21, 20, 1
21, 12, 0
21, 4, 0
21, 28, 0
21, 29, 0
21, 16, 0
21, 38, 0
21, 7, 0
21, 22, 1
21, 9, 0
4, 12, 0
4, 28, 0
4, 31, 0
4, 23, 0
4, 35, 0
4, 5, 0
4, 11, 0
4, 30, 0
4, 20, 0
4, 14, 0
4, 24, 0
4, 8, 0
4, 38, 0
4, 22, 0
4, 36, 0
4, 0, 0
4, 3, 0
4, 16, 0
4, 6, 0
4, 1, 0
4, 10, 0
4, 7, 0
4, 33, 0
4, 25, 0
4, 32, 0
4, 2, 0
4, 21, 0
4, 29, 0
4, 19, 0
4, 26, 0
4, 18, 0
4, 9, 0
14, 0, 0
14, 34, 0
14, 4, 0
14, 25, 0
14, 23, 0
14, 26, 0
14, 2, 0
14, 6, 0
14, 19, 0
14, 9, 0
14, 1, 0
39, 0, 0
39, 17, 0
39, 26, 0
39, 37, 0
39, 9, 0
39, 15, 0
39, 1, 0
35, 20, 0
35, 3, 0
35, 4, 0
35, 26, 0
35, 24, 0
35, 30, 0
35, 9, 0
35, 1, 0
28, 16, 0
28, 5, 0
28, 11, 0
28, 1, 0
28, 20, 0
28, 12, 0
28, 4, 0
28, 26, 0
28, 24, 0
28, 21, 0
28, 19, 0
28, 30, 0
28, 38, 0
28, 18, 0
28, 22, 0
28, 9, 0
30, 0, 0
30, 17, 0
30, 23, 0
30, 27, 0
30, 35, 0
30, 11, 0
30, 1, 0
30, 20, 0
30, 4, 0
30, 25, 0
30, 26, 0
30, 24, 0
30, 37, 0
30, 28, 0
30, 36, 0
30, 15, 0
30, 9, 0
8, 33, 0
8, 4, 0
8, 12, 0
8, 29, 0
8, 38, 0
8, 5, 0
8, 36, 0
15, 0, 0
15, 24, 0
15, 37, 0
15, 27, 0
15, 39, 0
15, 30, 0
22, 20, 1
22, 12, 0
22, 4, 0
22, 28, 0
22, 21, 1
22, 16, 0
22, 38, 0
22, 7, 0
22, 9, 0
36, 24, 0
36, 12, 0
36, 4, 0
36, 32, 0
36, 33, 0
36, 8, 0
36, 38, 0
36, 5, 0
36, 30, 0
0, 13, 0
0, 17, 0
0, 18, 0
0, 27, 0
0, 15, 0
0, 2, 0
0, 1, 0
0, 3, 0
0, 4, 0
0, 25, 0
0, 26, 0
0, 24, 0
0, 14, 0
0, 19, 0
0, 30, 0
0, 39, 0
0, 9, 0
6, 34, 0
6, 4, 0
6, 14, 0
6, 26, 0
6, 23, 0
6, 3, 0
6, 9, 0
6, 25, 0
6, 24, 0
6, 1, 0
3, 0, 0
3, 34, 0
3, 4, 0
3, 25, 0
3, 9, 0
3, 26, 0
3, 35, 0
3, 6, 0
3, 19, 0
3, 24, 0
3, 1, 0
16, 20, 0
16, 34, 0
16, 4, 0
16, 28, 0
16, 31, 0
16, 12, 0
16, 21, 0
16, 22, 0
16, 9, 0
38, 20, 0
38, 28, 0
38, 31, 0
38, 33, 0
38, 18, 0
38, 5, 0
38, 11, 0
38, 10, 0
38, 7, 0
38, 12, 0
38, 4, 0
38, 32, 0
38, 29, 0
38, 21, 0
38, 8, 0
38, 22, 0
38, 36, 0
27, 0, 0
27, 9, 0
27, 25, 0
27, 26, 0
27, 23, 0
27, 24, 0
27, 37, 0
27, 1, 0
27, 15, 0
27, 30, 0
10, 7, 0
10, 12, 0
10, 4, 0
10, 38, 0
10, 5, 0
7, 12, 0
7, 4, 0
7, 32, 0
7, 29, 0
7, 21, 0
7, 38, 0
7, 5, 0
7, 22, 0
7, 10, 0
34, 3, 0
34, 14, 0
34, 26, 0
34, 16, 0
34, 6, 0
34, 1, 0
34, 9, 0
25, 0, 0
25, 13, 0
25, 17, 0
25, 23, 0
25, 18, 0
25, 6, 0
25, 1, 0
25, 2, 0
25, 27, 0
25, 3, 0
25, 4, 0
25, 14, 0
25, 26, 0
25, 24, 1
25, 19, 0
25, 30, 0
25, 9, 0
33, 12, 0
33, 4, 0
33, 31, 0
33, 8, 0
33, 38, 0
33, 5, 0
33, 36, 0
32, 7, 0
32, 12, 0
32, 4, 0
32, 29, 0
32, 24, 0
32, 38, 0
32, 5, 0
32, 11, 0
32, 36, 0
2, 0, 0
2, 4, 0
2, 14, 0
2, 26, 0
2, 18, 0
2, 25, 0
2, 9, 0
2, 1, 0
37, 1, 0
37, 24, 0
37, 27, 0
37, 15, 0
37, 9, 0
37, 39, 0
37, 30, 0
29, 7, 0
29, 12, 0
29, 4, 0
29, 32, 0
29, 21, 0
29, 8, 0
29, 38, 0
29, 5, 0
29, 11, 0
19, 20, 0
19, 0, 0
19, 13, 0
19, 14, 0
19, 26, 0
19, 3, 0
19, 28, 0
19, 9, 0
19, 25, 0
19, 4, 0
19, 1, 0
26, 13, 0
26, 28, 0
26, 23, 0
26, 35, 0
26, 1, 0
26, 20, 0
26, 4, 0
26, 14, 0
26, 24, 0
26, 17, 0
26, 30, 0
26, 39, 0
26, 0, 0
26, 34, 0
26, 18, 0
26, 6, 0
26, 27, 0
26, 3, 0
26, 25, 0
26, 31, 0
26, 2, 0
26, 19, 0
26, 9, 0
18, 0, 0
18, 28, 0
18, 26, 0
18, 5, 0
18, 1, 0
18, 12, 0
18, 4, 0
18, 25, 0
18, 31, 0
18, 2, 0
18, 38, 0
18, 9, 0
9, 13, 0
9, 28, 0
9, 31, 0
9, 23, 0
9, 24, 0
9, 30, 0
9, 20, 0
9, 37, 0
9, 4, 0
9, 14, 0
9, 35, 0
9, 17, 0
9, 39, 0
9, 22, 0
9, 0, 0
9, 34, 0
9, 16, 0
9, 6, 0
9, 27, 0
9, 3, 0
9, 25, 0
9, 26, 0
9, 2, 0
9, 21, 0
9, 19, 0
9, 18, 0
