0, 7, 0
0, 3, 0
0, 4, 0
0, 2, 0
0, 6, 0
0, 8, 0
0, 1, 1
3, 0, 0
3, 1, 0
3, 4, 1
3, 10, 0
3, 2, 1
4, 0, 0
4, 3, 1
4, 1, 0
4, 10, 0
2, 0, 0
2, 3, 1
2, 6, 0
2, 10, 0
2, 1, 0
6, 0, 0
6, 7, 1
6, 2, 0
6, 8, 1
6, 5, 0
6, 1, 0
1, 0, 1
1, 3, 0
1, 4, 0
1, 2, 0
1, 6, 0
1, 8, 0
1, 5, 0
1, 7, 0
1, 10, 0
1, 9, 0
8, 0, 0
8, 7, 1
8, 6, 1
8, 9, 1
8, 5, 0
8, 1, 0
5, 6, 0
5, 1, 0
5, 8, 0
5, 9, 0
7, 0, 0
7, 6, 1
7, 8, 1
7, 1, 0
10, 3, 0
10, 1, 0
10, 4, 0
10, 2, 0
9, 8, 1
9, 5, 0
9, 1, 0
