0, 2, 0
0, 3, 0
0, 10, 0
0, 5, 0
0, 1, 0
3, 0, 0
3, 4, 0
3, 2, 1
3, 10, 0
3, 5, 0
3, 1, 0
4, 3, 0
4, 1, 0
4, 5, 0
4, 10, 0
2, 0, 0
2, 3, 1
2, 1, 0
2, 5, 0
2, 10, 0
6, 7, 0
6, 10, 0
6, 8, 0
6, 9, 0
6, 1, 0
1, 0, 0
1, 3, 0
1, 7, 0
1, 4, 0
1, 2, 0
1, 6, 0
1, 5, 0
1, 10, 0
8, 7, 1
8, 6, 0
8, 10, 0
8, 9, 0
5, 0, 0
5, 3, 0
5, 4, 0
5, 2, 0
5, 10, 0
5, 7, 0
5, 1, 0
7, 6, 0
7, 1, 0
7, 8, 1
7, 5, 0
7, 9, 0
10, 0, 0
10, 3, 0
10, 4, 0
10, 9, 0
10, 2, 0
10, 6, 0
10, 8, 0
10, 5, 0
10, 1, 0
9, 7, 0
9, 6, 0
9, 8, 0
9, 10, 0
