0, 3, 0
0, 19, 0
0, 1, 1
7, 16, 0
7, 15, 0
13, 12, 1
13, 4, 0
13, 14, 1
13, 6, 0
13, 17, 0
13, 19, 0
13, 5, 0
13, 11, 0
17, 13, 0
17, 16, 0
17, 6, 0
17, 5, 0
17, 11, 0
17, 12, 0
17, 4, 0
17, 14, 0
17, 2, 0
17, 19, 0
17, 8, 0
17, 18, 0
3, 0, 0
3, 19, 0
3, 1, 0
16, 7, 0
16, 17, 0
16, 2, 0
16, 18, 0
16, 8, 0
16, 15, 0
16, 11, 0
6, 12, 0
6, 13, 0
6, 17, 0
6, 4, 0
6, 19, 0
6, 5, 0
6, 11, 0
8, 18, 0
8, 16, 0
8, 17, 0
8, 2, 0
5, 13, 0
5, 14, 0
5, 4, 0
5, 2, 0
5, 6, 0
5, 17, 0
11, 12, 0
11, 13, 0
11, 14, 0
11, 4, 0
11, 16, 0
11, 6, 0
11, 19, 0
11, 17, 0
10, 20, 0
10, 15, 0
10, 9, 0
20, 10, 0
20, 15, 0
20, 9, 0
12, 13, 1
12, 17, 0
12, 4, 0
12, 6, 0
12, 19, 0
12, 11, 0
4, 12, 0
4, 13, 0
4, 17, 0
4, 6, 0
4, 5, 0
4, 11, 0
14, 19, 0
14, 13, 1
14, 17, 0
14, 5, 0
14, 11, 0
2, 18, 0
2, 16, 0
2, 8, 0
2, 17, 0
2, 5, 0
19, 0, 0
19, 12, 0
19, 13, 0
19, 17, 0
19, 3, 0
19, 6, 0
19, 14, 0
19, 11, 0
19, 1, 0
1, 0, 1
1, 3, 0
1, 19, 0
15, 20, 0
15, 7, 0
15, 16, 0
15, 9, 0
15, 10, 0
18, 16, 0
18, 8, 0
18, 17, 0
18, 2, 0
9, 20, 0
9, 15, 0
9, 10, 0
