13, 0, 0
13, 3, 0
13, 14, 1
13, 2, 0
13, 5, 0
13, 9, 0
17, 18, 1
17, 16, 0
17, 20, 0
17, 12, 0
17, 1, 0
23, 0, 0
23, 7, 0
23, 2, 0
23, 6, 0
23, 15, 0
23, 5, 0
23, 22, 0
5, 3, 0
5, 13, 0
5, 14, 0
5, 23, 0
5, 2, 0
5, 6, 1
5, 8, 0
5, 15, 0
5, 9, 0
11, 7, 0
11, 16, 0
11, 4, 0
11, 10, 1
1, 20, 0
1, 21, 0
1, 17, 0
1, 12, 0
1, 16, 0
1, 19, 0
1, 18, 0
20, 18, 0
20, 4, 0
20, 17, 0
20, 16, 0
20, 19, 0
20, 1, 0
20, 22, 0
20, 10, 0
4, 20, 0
4, 7, 0
4, 11, 0
4, 16, 0
4, 22, 0
4, 10, 0
14, 0, 0
14, 13, 1
14, 2, 0
14, 6, 0
14, 15, 1
14, 5, 0
14, 9, 0
8, 3, 0
8, 2, 0
8, 5, 0
8, 9, 0
15, 6, 0
15, 14, 1
15, 5, 0
15, 23, 0
15, 2, 0
22, 0, 0
22, 7, 0
22, 4, 0
22, 23, 0
22, 16, 0
22, 20, 0
0, 7, 0
0, 3, 0
0, 13, 0
0, 14, 0
0, 23, 0
0, 2, 0
0, 16, 0
0, 6, 0
0, 22, 0
0, 9, 0
3, 0, 0
3, 13, 0
3, 2, 1
3, 6, 0
3, 8, 0
3, 5, 0
3, 9, 0
16, 20, 0
16, 7, 0
16, 4, 0
16, 17, 0
16, 11, 0
16, 12, 0
16, 18, 0
16, 0, 0
16, 19, 0
16, 22, 0
16, 1, 0
6, 0, 0
6, 3, 0
6, 14, 0
6, 23, 0
6, 2, 0
6, 15, 0
6, 5, 1
6, 9, 0
10, 20, 0
10, 7, 0
10, 4, 0
10, 11, 1
7, 0, 0
7, 4, 0
7, 11, 0
7, 23, 0
7, 16, 0
7, 22, 0
7, 10, 0
12, 16, 0
12, 21, 0
12, 19, 0
12, 17, 0
12, 1, 0
2, 0, 0
2, 3, 1
2, 13, 0
2, 14, 0
2, 23, 0
2, 6, 0
2, 8, 0
2, 15, 0
2, 5, 0
2, 9, 0
21, 12, 0
21, 1, 0
19, 16, 0
19, 18, 1
19, 20, 0
19, 12, 0
19, 1, 0
18, 20, 0
18, 16, 0
18, 19, 1
18, 17, 1
18, 1, 0
9, 0, 0
9, 3, 0
9, 13, 0
9, 14, 0
9, 2, 0
9, 6, 0
9, 8, 0
9, 5, 0
