0, 6, 0
0, 8, 0
0, 5, 0
0, 3, 0
3, 0, 0
3, 6, 0
3, 5, 0
3, 1, 0
4, 2, 0
2, 4, 0
2, 1, 0
6, 0, 0
6, 3, 0
6, 8, 0
6, 5, 1
1, 3, 0
1, 2, 0
8, 0, 0
8, 6, 0
8, 5, 0
8, 9, 0
5, 0, 0
5, 3, 0
5, 8, 0
5, 6, 1
7, 9, 0
9, 7, 0
9, 8, 0
