13, 43, 0
13, 32, 0
13, 31, 0
13, 19, 0
13, 15, 0
13, 41, 0
13, 11, 0
13, 44, 0
17, 42, 0
17, 3, 0
17, 30, 0
23, 34, 0
23, 26, 0
23, 2, 0
42, 7, 0
42, 3, 0
42, 8, 0
42, 17, 0
42, 29, 0
42, 16, 0
42, 28, 0
42, 34, 0
42, 40, 0
42, 18, 0
42, 30, 0
46, 45, 0
46, 14, 0
46, 34, 0
46, 21, 0
46, 28, 0
46, 18, 0
46, 36, 0
20, 3, 0
20, 28, 0
20, 34, 0
20, 27, 0
20, 29, 0
20, 5, 0
20, 30, 0
14, 34, 0
14, 46, 0
14, 36, 0
24, 32, 0
24, 11, 0
24, 31, 0
24, 1, 0
28, 45, 0
28, 34, 0
28, 16, 0
28, 27, 0
28, 29, 1
28, 40, 0
28, 46, 0
28, 30, 0
28, 7, 0
28, 3, 0
28, 35, 0
28, 42, 0
28, 20, 0
28, 8, 0
28, 18, 0
39, 33, 0
39, 43, 0
39, 3, 0
39, 31, 0
39, 12, 0
39, 15, 0
39, 44, 0
39, 22, 0
41, 12, 0
41, 13, 0
41, 43, 0
41, 32, 0
41, 19, 0
41, 15, 0
41, 11, 0
0, 12, 0
0, 25, 0
0, 33, 0
8, 34, 0
8, 4, 0
8, 28, 0
8, 3, 0
8, 29, 0
8, 42, 0
8, 40, 0
8, 30, 0
12, 0, 0
12, 3, 0
12, 39, 0
12, 1, 0
12, 33, 0
12, 25, 0
12, 31, 0
12, 35, 0
12, 43, 0
12, 10, 0
12, 15, 0
12, 41, 0
15, 12, 0
15, 13, 0
15, 25, 0
15, 33, 0
15, 32, 0
15, 3, 0
15, 43, 0
15, 39, 0
15, 41, 0
15, 1, 0
10, 37, 0
10, 12, 0
10, 3, 0
10, 33, 0
7, 34, 0
7, 28, 0
7, 3, 0
7, 29, 0
7, 16, 0
7, 42, 0
7, 35, 0
7, 18, 0
7, 30, 0
3, 28, 0
3, 15, 0
3, 42, 0
3, 40, 0
3, 30, 0
3, 20, 0
3, 4, 0
3, 35, 0
3, 17, 0
3, 8, 0
3, 39, 0
3, 34, 0
3, 16, 0
3, 27, 0
3, 44, 0
3, 10, 0
3, 7, 0
3, 12, 0
3, 25, 0
3, 31, 0
3, 29, 0
3, 37, 0
3, 33, 0
3, 18, 0
32, 13, 0
32, 43, 0
32, 24, 0
32, 19, 0
32, 15, 0
32, 41, 0
32, 11, 0
32, 1, 0
2, 34, 0
2, 38, 0
2, 23, 0
21, 45, 0
21, 38, 0
21, 46, 0
21, 34, 0
33, 0, 0
33, 12, 0
33, 43, 0
33, 31, 0
33, 3, 0
33, 37, 0
33, 25, 0
33, 39, 0
33, 15, 0
33, 44, 0
33, 10, 0
19, 13, 0
19, 41, 0
19, 11, 0
19, 32, 0
18, 45, 0
18, 28, 0
18, 34, 0
18, 16, 0
18, 29, 0
18, 40, 0
18, 46, 0
18, 30, 0
18, 7, 0
18, 3, 0
18, 35, 0
18, 42, 0
31, 13, 0
31, 3, 0
31, 44, 0
31, 11, 0
31, 1, 0
31, 12, 0
31, 43, 0
31, 24, 0
31, 33, 0
31, 39, 0
31, 22, 0
31, 9, 0
29, 20, 0
29, 28, 1
29, 34, 0
29, 16, 0
29, 27, 0
29, 40, 0
29, 5, 0
29, 30, 0
29, 7, 0
29, 3, 0
29, 4, 0
29, 35, 0
29, 42, 0
29, 8, 0
29, 18, 0
40, 3, 0
40, 35, 0
40, 4, 0
40, 28, 0
40, 29, 0
40, 18, 0
40, 42, 0
40, 8, 0
40, 34, 0
40, 30, 0
11, 13, 0
11, 32, 0
11, 31, 0
11, 24, 0
11, 19, 0
11, 41, 0
11, 44, 0
5, 20, 0
5, 34, 0
5, 6, 0
5, 27, 0
5, 29, 0
37, 3, 0
37, 33, 0
37, 10, 0
4, 34, 0
4, 3, 0
4, 29, 0
4, 8, 0
4, 40, 0
4, 30, 0
35, 7, 0
35, 3, 0
35, 28, 0
35, 29, 0
35, 18, 0
35, 12, 0
35, 40, 0
35, 30, 0
30, 20, 0
30, 17, 0
30, 16, 0
30, 27, 0
30, 29, 0
30, 40, 0
30, 7, 0
30, 3, 0
30, 4, 0
30, 35, 0
30, 28, 0
30, 8, 0
30, 42, 0
30, 18, 0
38, 21, 0
38, 34, 0
38, 2, 0
22, 43, 0
22, 1, 0
22, 39, 0
22, 31, 0
22, 9, 0
36, 6, 0
36, 14, 0
36, 46, 0
36, 34, 0
45, 18, 0
45, 21, 0
45, 28, 0
45, 46, 0
45, 34, 0
16, 7, 0
16, 3, 0
16, 28, 0
16, 29, 0
16, 18, 0
16, 27, 0
16, 34, 0
16, 42, 0
16, 30, 0
27, 20, 0
27, 3, 0
27, 28, 0
27, 29, 0
27, 16, 0
27, 34, 0
27, 5, 0
27, 30, 0
1, 12, 0
1, 43, 0
1, 31, 0
1, 32, 0
1, 24, 0
1, 15, 0
1, 22, 0
1, 9, 0
44, 3, 0
44, 13, 0
44, 31, 0
44, 33, 0
44, 39, 0
44, 11, 0
34, 28, 0
34, 23, 0
34, 2, 0
34, 40, 0
34, 46, 0
34, 5, 0
34, 20, 0
34, 4, 0
34, 14, 0
34, 42, 0
34, 8, 0
34, 38, 0
34, 36, 0
34, 45, 0
34, 16, 0
34, 6, 0
34, 7, 0
34, 3, 0
34, 26, 0
34, 27, 0
34, 21, 0
34, 29, 0
34, 18, 0
25, 0, 0
25, 12, 0
25, 15, 0
25, 33, 0
25, 3, 0
26, 34, 0
26, 23, 0
6, 34, 0
6, 5, 0
6, 36, 0
43, 12, 0
43, 13, 0
43, 32, 0
43, 31, 0
43, 33, 0
43, 39, 0
43, 15, 0
43, 41, 0
43, 22, 0
43, 1, 0
9, 22, 0
9, 31, 0
9, 1, 0
