12, 0, 0
12, 34, 0
12, 38, 0
12, 11, 0
12, 10, 0
13, 0, 0
13, 4, 0
13, 28, 0
13, 23, 0
13, 24, 0
13, 37, 0
13, 6, 0
13, 14, 1
13, 38, 0
13, 5, 0
17, 7, 0
17, 16, 0
17, 19, 0
17, 1, 0
17, 2, 0
31, 20, 0
31, 6, 0
31, 38, 0
31, 32, 1
31, 24, 0
23, 13, 0
23, 28, 0
23, 24, 1
23, 37, 0
23, 6, 0
23, 14, 0
23, 38, 0
24, 13, 0
24, 28, 0
24, 32, 0
24, 23, 1
24, 31, 0
24, 37, 0
24, 6, 0
24, 14, 0
24, 5, 0
24, 11, 0
5, 0, 0
5, 13, 0
5, 14, 0
5, 4, 1
5, 24, 0
5, 38, 0
5, 11, 0
11, 0, 0
11, 12, 0
11, 14, 0
11, 24, 0
11, 37, 0
11, 5, 0
11, 10, 1
1, 16, 0
1, 7, 0
1, 19, 0
1, 17, 0
1, 2, 1
20, 3, 0
20, 32, 0
20, 31, 0
20, 34, 0
20, 6, 0
20, 38, 0
20, 30, 0
21, 33, 0
21, 15, 0
21, 22, 1
21, 34, 0
4, 0, 0
4, 13, 0
4, 28, 0
4, 14, 0
4, 38, 0
4, 5, 1
14, 0, 0
14, 13, 1
14, 28, 0
14, 23, 0
14, 24, 0
14, 37, 0
14, 6, 0
14, 38, 0
14, 4, 0
14, 11, 0
14, 5, 0
39, 34, 0
39, 38, 0
39, 9, 0
39, 35, 0
39, 16, 0
39, 29, 0
39, 8, 0
39, 15, 0
39, 36, 0
35, 34, 0
35, 29, 0
35, 15, 0
35, 39, 0
35, 36, 1
28, 0, 0
28, 34, 0
28, 13, 0
28, 14, 0
28, 23, 0
28, 24, 0
28, 37, 0
28, 6, 0
28, 38, 0
28, 4, 0
30, 20, 0
30, 34, 0
30, 25, 0
30, 32, 0
30, 26, 0
30, 3, 0
30, 18, 0
30, 27, 0
30, 38, 0
8, 16, 0
8, 34, 0
8, 39, 0
8, 9, 1
15, 34, 0
15, 38, 0
15, 35, 0
15, 21, 0
15, 33, 0
15, 36, 0
15, 29, 0
15, 39, 0
15, 22, 0
15, 27, 0
22, 33, 0
22, 34, 0
22, 21, 1
22, 27, 0
22, 15, 0
22, 36, 0
36, 34, 0
36, 35, 1
36, 16, 0
36, 15, 0
36, 29, 0
36, 39, 0
36, 22, 0
36, 9, 0
0, 34, 0
0, 4, 0
0, 13, 0
0, 12, 0
0, 6, 0
0, 28, 0
0, 14, 0
0, 38, 0
0, 5, 0
0, 11, 0
0, 10, 0
6, 0, 0
6, 13, 0
6, 28, 0
6, 31, 0
6, 23, 0
6, 20, 0
6, 34, 0
6, 14, 0
6, 32, 0
6, 24, 0
6, 37, 0
6, 38, 0
3, 20, 0
3, 38, 0
3, 32, 0
3, 30, 0
16, 7, 0
16, 34, 0
16, 17, 0
16, 9, 0
16, 36, 0
16, 2, 0
16, 39, 0
16, 19, 0
16, 8, 0
16, 38, 0
16, 1, 0
38, 13, 0
38, 28, 0
38, 31, 0
38, 23, 0
38, 15, 0
38, 5, 0
38, 30, 0
38, 20, 0
38, 4, 0
38, 14, 0
38, 34, 0
38, 39, 0
38, 0, 0
38, 6, 0
38, 12, 0
38, 16, 0
38, 27, 0
38, 7, 0
38, 3, 0
38, 32, 0
38, 29, 0
38, 37, 0
38, 19, 0
27, 34, 0
27, 25, 0
27, 26, 0
27, 33, 0
27, 18, 0
27, 38, 0
27, 15, 0
27, 22, 0
27, 30, 0
10, 0, 0
10, 12, 0
10, 11, 1
7, 34, 0
7, 17, 0
7, 2, 0
7, 16, 0
7, 19, 0
7, 38, 0
7, 1, 0
34, 0, 0
34, 20, 0
34, 38, 0
34, 33, 0
34, 16, 0
34, 6, 0
34, 15, 0
34, 29, 0
34, 30, 0
34, 7, 0
34, 12, 0
34, 27, 0
34, 35, 0
34, 21, 0
34, 28, 0
34, 19, 0
34, 8, 0
34, 39, 0
34, 22, 0
34, 36, 0
25, 18, 0
25, 27, 0
25, 26, 1
25, 30, 0
33, 21, 0
33, 34, 0
33, 15, 0
33, 22, 0
33, 27, 0
32, 20, 0
32, 3, 0
32, 26, 0
32, 31, 1
32, 24, 0
32, 6, 0
32, 38, 0
32, 30, 0
2, 16, 0
2, 7, 0
2, 19, 0
2, 17, 0
2, 1, 1
37, 6, 0
37, 13, 0
37, 28, 0
37, 23, 0
37, 24, 0
37, 14, 0
37, 38, 0
37, 11, 0
29, 34, 0
29, 39, 0
29, 35, 0
29, 38, 0
29, 15, 0
29, 36, 0
19, 7, 0
19, 34, 0
19, 17, 0
19, 2, 0
19, 16, 0
19, 38, 0
19, 1, 0
26, 18, 0
26, 27, 0
26, 25, 1
26, 32, 0
26, 30, 0
18, 27, 0
18, 25, 0
18, 26, 0
18, 30, 0
9, 16, 0
9, 8, 1
9, 39, 0
9, 36, 0
