2, 0, 0
2, 17, 0
2, 12, 0
2, 6, 0
2, 5, 0
2, 30, 0
2, 20, 0
2, 3, 0
2, 14, 0
2, 26, 0
2, 29, 0
2, 21, 0
2, 25, 0
2, 8, 0
2, 10, 0
2, 22, 0
2, 9, 0
13, 7, 0
13, 21, 0
13, 23, 0
13, 18, 0
13, 19, 0
13, 0, 0
17, 2, 0
17, 4, 0
17, 5, 0
17, 22, 0
17, 29, 0
23, 7, 0
23, 19, 0
23, 13, 0
23, 11, 0
29, 20, 0
29, 17, 0
29, 2, 0
29, 5, 0
29, 22, 0
29, 30, 1
5, 20, 0
5, 17, 0
5, 2, 0
5, 29, 0
5, 22, 0
5, 30, 0
11, 7, 0
11, 0, 0
11, 28, 0
11, 23, 0
11, 21, 0
11, 10, 0
1, 0, 0
1, 24, 0
1, 16, 0
1, 8, 0
1, 15, 0
1, 9, 0
20, 12, 0
20, 3, 0
20, 2, 0
20, 29, 0
20, 5, 0
20, 22, 0
20, 30, 0
4, 17, 0
14, 0, 0
14, 3, 0
14, 25, 0
14, 26, 0
14, 2, 0
14, 6, 0
14, 27, 0
14, 12, 0
24, 0, 0
24, 28, 0
24, 16, 0
24, 1, 0
24, 8, 0
24, 15, 0
24, 9, 0
28, 0, 0
28, 24, 0
28, 16, 0
28, 10, 0
28, 11, 0
28, 9, 0
30, 20, 0
30, 12, 0
30, 25, 0
30, 2, 0
30, 29, 1
30, 5, 0
30, 22, 0
8, 0, 0
8, 26, 0
8, 6, 0
8, 27, 0
8, 2, 0
8, 15, 0
8, 24, 0
8, 1, 0
15, 0, 0
15, 24, 0
15, 16, 1
15, 1, 0
15, 8, 0
15, 9, 0
22, 20, 0
22, 17, 0
22, 29, 0
22, 25, 0
22, 2, 0
22, 5, 0
22, 30, 0
0, 13, 0
0, 28, 0
0, 16, 0
0, 1, 0
0, 2, 0
0, 11, 0
0, 10, 0
0, 7, 0
0, 3, 0
0, 14, 0
0, 24, 0
0, 21, 0
0, 19, 0
0, 8, 0
0, 15, 0
0, 18, 0
0, 9, 0
12, 20, 0
12, 3, 0
12, 14, 0
12, 2, 0
12, 25, 0
12, 30, 0
16, 0, 0
16, 28, 0
16, 24, 0
16, 9, 0
16, 15, 1
16, 1, 0
6, 27, 0
6, 8, 0
6, 14, 0
6, 26, 0
6, 2, 0
10, 0, 0
10, 7, 0
10, 28, 0
10, 2, 0
10, 21, 0
10, 11, 0
10, 9, 0
7, 0, 0
7, 18, 0
7, 13, 0
7, 23, 0
7, 21, 0
7, 19, 0
7, 11, 0
7, 10, 0
3, 20, 0
3, 0, 0
3, 14, 0
3, 26, 0
3, 2, 0
3, 25, 0
3, 12, 0
25, 3, 0
25, 14, 0
25, 2, 0
25, 12, 0
25, 22, 0
25, 30, 0
26, 3, 0
26, 6, 0
26, 14, 0
26, 2, 0
26, 27, 1
26, 8, 0
27, 6, 0
27, 8, 0
27, 14, 0
27, 26, 1
21, 0, 0
21, 7, 0
21, 13, 0
21, 2, 0
21, 9, 0
21, 11, 0
21, 10, 0
19, 7, 0
19, 18, 1
19, 13, 0
19, 23, 0
19, 0, 0
18, 7, 0
18, 0, 0
18, 19, 1
18, 13, 0
9, 0, 0
9, 21, 0
9, 28, 0
9, 24, 0
9, 16, 0
9, 2, 0
9, 15, 0
9, 10, 0
9, 1, 0
