0, 16, 0
0, 18, 0
0, 1, 1
13, 6, 0
13, 4, 0
13, 17, 0
13, 5, 0
13, 3, 0
17, 6, 0
17, 13, 0
17, 5, 0
17, 11, 0
17, 10, 0
3, 12, 0
3, 13, 0
3, 4, 0
3, 2, 0
3, 16, 0
3, 6, 0
3, 15, 0
3, 5, 0
3, 18, 0
3, 10, 0
16, 0, 0
16, 3, 0
16, 9, 0
16, 18, 0
16, 8, 0
16, 15, 0
16, 1, 0
6, 7, 0
6, 3, 0
6, 13, 0
6, 14, 0
6, 4, 0
6, 17, 0
6, 8, 0
6, 5, 0
6, 11, 0
6, 10, 0
8, 12, 0
8, 2, 0
8, 16, 0
8, 6, 0
8, 15, 0
8, 5, 0
8, 18, 0
8, 9, 1
5, 3, 0
5, 13, 0
5, 17, 0
5, 4, 0
5, 2, 0
5, 6, 0
5, 8, 0
11, 6, 0
11, 14, 0
11, 17, 0
11, 10, 1
10, 7, 0
10, 3, 0
10, 14, 0
10, 11, 1
10, 6, 0
10, 15, 0
10, 17, 0
7, 6, 0
7, 14, 0
7, 10, 0
12, 2, 0
12, 3, 0
12, 8, 0
12, 15, 0
12, 9, 0
4, 6, 0
4, 13, 0
4, 5, 0
4, 3, 0
14, 7, 0
14, 6, 0
14, 11, 0
14, 10, 0
2, 12, 0
2, 3, 0
2, 8, 0
2, 15, 0
2, 5, 0
2, 9, 0
1, 0, 1
1, 16, 0
1, 18, 0
15, 12, 0
15, 9, 0
15, 3, 0
15, 2, 0
15, 16, 0
15, 8, 0
15, 10, 0
18, 0, 0
18, 16, 0
18, 8, 0
18, 3, 0
18, 1, 0
9, 16, 0
9, 12, 0
9, 8, 1
9, 15, 0
9, 2, 0
