13, 20, 0
13, 43, 0
13, 28, 0
13, 2, 0
13, 37, 0
13, 27, 0
13, 14, 0
17, 7, 0
17, 3, 0
17, 19, 0
17, 6, 0
23, 31, 0
23, 26, 0
23, 18, 0
23, 32, 0
23, 9, 0
23, 5, 0
23, 10, 0
42, 8, 0
42, 25, 0
42, 41, 0
42, 29, 0
5, 0, 0
5, 4, 1
5, 23, 0
5, 9, 0
20, 38, 0
20, 19, 0
20, 13, 0
20, 39, 0
20, 2, 0
14, 37, 0
14, 27, 0
14, 13, 0
14, 39, 0
14, 2, 0
24, 33, 0
24, 43, 0
24, 45, 0
24, 8, 0
24, 40, 0
24, 44, 0
28, 37, 0
28, 27, 1
28, 13, 0
28, 43, 0
39, 20, 0
39, 7, 0
39, 14, 0
39, 2, 0
39, 19, 0
39, 38, 1
41, 42, 0
41, 29, 0
41, 25, 0
41, 1, 0
0, 4, 0
0, 25, 0
0, 21, 0
0, 30, 0
0, 5, 0
0, 22, 0
0, 9, 0
8, 45, 0
8, 25, 0
8, 33, 0
8, 24, 0
8, 42, 0
8, 40, 0
12, 34, 0
12, 32, 0
12, 35, 0
12, 16, 0
12, 15, 0
12, 18, 0
12, 11, 0
12, 36, 0
15, 12, 0
15, 32, 0
15, 35, 0
15, 16, 1
15, 34, 0
15, 18, 0
15, 11, 0
15, 36, 0
10, 23, 0
10, 26, 0
10, 31, 0
10, 18, 0
10, 11, 1
10, 32, 0
7, 39, 0
7, 19, 0
7, 17, 0
7, 6, 1
3, 6, 0
3, 19, 0
3, 17, 0
32, 26, 0
32, 23, 0
32, 34, 0
32, 16, 0
32, 11, 0
32, 10, 0
32, 12, 0
32, 31, 0
32, 35, 0
32, 15, 0
32, 18, 0
32, 36, 0
2, 20, 0
2, 39, 0
2, 13, 0
2, 14, 0
2, 27, 0
21, 0, 0
21, 25, 0
21, 22, 1
33, 45, 0
33, 43, 0
33, 24, 0
33, 8, 0
33, 40, 0
33, 44, 0
19, 20, 0
19, 7, 0
19, 38, 0
19, 17, 0
19, 3, 0
19, 6, 0
19, 39, 0
18, 12, 0
18, 23, 0
18, 31, 0
18, 34, 0
18, 16, 0
18, 26, 0
18, 32, 0
18, 15, 0
18, 11, 0
18, 10, 0
31, 18, 0
31, 10, 0
31, 26, 0
31, 23, 0
31, 32, 0
29, 42, 0
29, 1, 0
29, 25, 0
29, 41, 0
29, 30, 1
40, 24, 0
40, 33, 0
40, 43, 0
40, 45, 0
40, 8, 0
40, 44, 0
11, 12, 0
11, 26, 0
11, 32, 0
11, 35, 0
11, 16, 0
11, 36, 0
11, 15, 0
11, 18, 0
11, 10, 1
1, 30, 0
1, 25, 0
1, 41, 0
1, 29, 0
37, 28, 0
37, 13, 0
37, 14, 0
37, 27, 0
4, 0, 0
4, 5, 1
4, 9, 0
35, 12, 0
35, 32, 0
35, 34, 0
35, 16, 0
35, 15, 0
35, 11, 0
35, 36, 1
30, 0, 0
30, 1, 0
30, 25, 0
30, 29, 1
38, 20, 0
38, 19, 0
38, 39, 1
22, 0, 0
22, 21, 1
22, 25, 0
36, 12, 0
36, 26, 0
36, 32, 0
36, 35, 1
36, 16, 0
36, 34, 0
36, 15, 0
36, 11, 0
45, 33, 0
45, 43, 0
45, 24, 0
45, 8, 0
45, 40, 0
45, 44, 1
16, 12, 0
16, 32, 0
16, 35, 0
16, 18, 0
16, 34, 0
16, 15, 1
16, 11, 0
16, 36, 0
27, 37, 0
27, 14, 0
27, 13, 0
27, 28, 1
27, 2, 0
44, 33, 0
44, 43, 0
44, 45, 1
44, 40, 0
44, 24, 0
34, 12, 0
34, 32, 0
34, 35, 0
34, 16, 0
34, 15, 0
34, 18, 0
34, 36, 0
25, 0, 0
25, 29, 0
25, 21, 0
25, 42, 0
25, 30, 0
25, 8, 0
25, 41, 0
25, 22, 0
25, 1, 0
26, 23, 0
26, 31, 0
26, 18, 0
26, 32, 0
26, 36, 0
26, 11, 0
26, 10, 0
6, 7, 1
6, 3, 0
6, 19, 0
6, 17, 0
43, 33, 0
43, 13, 0
43, 28, 0
43, 24, 0
43, 40, 0
43, 44, 0
43, 45, 0
9, 0, 0
9, 4, 0
9, 5, 0
9, 23, 0
