0, 7, 0
0, 6, 0
0, 5, 0
3, 4, 1
3, 9, 0
3, 2, 0
3, 1, 0
3, 8, 0
3, 10, 0
4, 3, 1
4, 9, 0
4, 2, 0
4, 1, 0
4, 8, 0
4, 10, 0
2, 7, 0
2, 3, 0
2, 4, 0
2, 9, 0
2, 6, 0
2, 8, 0
2, 10, 0
2, 1, 0
6, 0, 0
6, 7, 0
6, 2, 0
1, 3, 0
1, 4, 0
1, 2, 0
1, 8, 0
1, 10, 0
1, 9, 0
8, 3, 0
8, 4, 0
8, 2, 0
8, 9, 0
8, 10, 0
8, 1, 0
5, 0, 0
7, 0, 0
7, 6, 0
7, 2, 0
10, 3, 0
10, 4, 0
10, 9, 0
10, 2, 0
10, 8, 0
10, 1, 0
9, 3, 0
9, 4, 0
9, 2, 0
9, 8, 0
9, 10, 0
9, 1, 0
