12, 34, 0
12, 13, 0
12, 9, 0
12, 11, 0
12, 24, 0
13, 12, 0
13, 24, 0
13, 34, 0
13, 10, 0
13, 11, 0
13, 9, 0
17, 18, 1
17, 37, 0
17, 22, 0
31, 6, 0
31, 36, 0
31, 8, 0
31, 1, 0
23, 28, 0
23, 4, 0
23, 14, 0
24, 7, 0
24, 3, 0
24, 13, 0
24, 26, 0
24, 12, 0
24, 10, 0
5, 21, 0
5, 2, 0
5, 10, 0
5, 30, 0
11, 34, 0
11, 13, 0
11, 12, 0
11, 30, 0
11, 9, 0
11, 10, 0
1, 27, 0
1, 8, 0
1, 22, 0
1, 31, 0
1, 6, 0
20, 0, 0
20, 16, 0
20, 19, 1
21, 5, 0
21, 2, 0
4, 28, 0
4, 23, 0
4, 2, 0
14, 27, 0
14, 23, 0
35, 16, 0
35, 15, 0
35, 32, 0
35, 29, 0
28, 4, 0
28, 23, 0
28, 2, 0
30, 5, 0
30, 11, 0
8, 6, 0
8, 36, 0
8, 22, 0
8, 31, 0
8, 1, 0
15, 33, 0
15, 29, 0
15, 25, 0
15, 32, 0
15, 35, 0
22, 18, 0
22, 17, 0
22, 37, 0
22, 36, 0
22, 8, 0
22, 1, 0
36, 6, 0
36, 8, 0
36, 22, 0
36, 31, 0
36, 27, 0
0, 20, 0
0, 16, 0
0, 19, 0
6, 27, 0
6, 36, 0
6, 8, 0
6, 31, 0
6, 1, 0
3, 7, 0
3, 26, 0
3, 24, 0
16, 20, 0
16, 0, 0
16, 25, 0
16, 32, 0
16, 35, 0
16, 19, 0
16, 29, 0
27, 6, 0
27, 36, 0
27, 14, 0
27, 1, 0
10, 34, 0
10, 13, 0
10, 24, 0
10, 5, 0
10, 11, 0
10, 9, 1
7, 3, 0
7, 24, 0
7, 26, 0
7, 33, 0
34, 12, 0
34, 13, 0
34, 10, 0
34, 11, 0
34, 9, 0
25, 16, 0
25, 15, 0
25, 32, 0
33, 7, 0
33, 15, 0
32, 16, 0
32, 15, 0
32, 29, 0
32, 25, 0
32, 35, 0
2, 21, 0
2, 4, 0
2, 28, 0
2, 5, 0
37, 18, 0
37, 17, 0
37, 22, 0
29, 16, 0
29, 15, 0
29, 32, 0
29, 35, 0
19, 20, 1
19, 0, 0
19, 16, 0
26, 7, 0
26, 3, 0
26, 24, 0
18, 37, 0
18, 17, 1
18, 22, 0
9, 34, 0
9, 13, 0
9, 12, 0
9, 11, 0
9, 10, 1
