58, 45, 0
58, 13, 0
58, 17, 0
58, 51, 0
58, 56, 1
58, 16, 0
58, 71, 0
58, 59, 1
58, 9, 0
58, 57, 1
58, 67, 0
58, 52, 0
58, 37, 0
58, 8, 0
58, 15, 0
58, 36, 0
13, 58, 0
13, 17, 0
13, 23, 0
13, 33, 0
13, 63, 0
13, 27, 0
13, 71, 0
13, 59, 0
13, 44, 0
13, 73, 0
13, 34, 0
13, 69, 0
13, 39, 0
13, 9, 0
17, 58, 0
17, 13, 0
17, 28, 0
17, 63, 0
17, 40, 0
17, 15, 0
17, 59, 0
17, 20, 0
17, 4, 0
17, 24, 0
17, 8, 0
17, 38, 0
17, 36, 0
17, 45, 0
17, 34, 0
17, 39, 0
17, 44, 0
17, 73, 0
17, 12, 0
17, 69, 0
17, 52, 0
17, 50, 0
17, 27, 0
17, 61, 0
17, 33, 0
17, 67, 0
17, 10, 0
17, 9, 0
23, 68, 0
23, 13, 0
23, 51, 0
23, 63, 0
23, 16, 0
23, 6, 0
23, 75, 0
23, 71, 0
23, 69, 0
23, 41, 0
63, 68, 0
63, 13, 0
63, 17, 0
63, 51, 0
63, 23, 0
63, 16, 0
63, 6, 0
63, 71, 0
63, 59, 0
63, 44, 0
63, 73, 0
63, 34, 0
63, 4, 0
63, 52, 0
63, 27, 0
63, 75, 0
63, 69, 0
63, 9, 0
63, 36, 0
24, 20, 0
24, 17, 0
24, 62, 0
24, 61, 0
24, 44, 0
24, 10, 0
46, 7, 0
46, 47, 0
46, 22, 0
46, 26, 0
46, 31, 0
46, 18, 0
46, 42, 0
46, 19, 0
46, 64, 0
46, 11, 0
46, 1, 0
65, 0, 0
65, 56, 0
65, 67, 0
65, 38, 0
65, 12, 0
65, 52, 0
65, 66, 0
65, 37, 0
65, 25, 0
65, 9, 0
65, 15, 0
65, 36, 0
20, 57, 0
20, 17, 0
20, 62, 0
20, 56, 0
20, 24, 0
20, 19, 0
20, 8, 0
20, 44, 0
20, 10, 0
34, 13, 0
34, 17, 0
34, 51, 0
34, 67, 0
34, 16, 0
34, 27, 0
34, 15, 0
34, 71, 0
34, 59, 0
34, 44, 0
34, 73, 0
34, 33, 0
34, 4, 0
34, 52, 0
34, 2, 0
34, 21, 0
34, 9, 0
34, 39, 0
34, 63, 0
34, 36, 0
14, 7, 0
14, 3, 0
14, 28, 0
14, 31, 0
14, 35, 0
14, 72, 0
14, 43, 0
14, 29, 0
14, 30, 0
53, 33, 0
53, 21, 0
53, 75, 0
53, 2, 0
53, 39, 0
53, 73, 0
66, 70, 0
66, 12, 0
66, 15, 0
66, 25, 0
66, 65, 0
42, 28, 0
42, 18, 0
42, 54, 0
42, 46, 0
42, 47, 0
42, 1, 0
42, 7, 0
42, 12, 0
42, 52, 0
42, 11, 0
42, 31, 0
42, 25, 0
42, 49, 0
42, 64, 0
42, 48, 0
42, 22, 0
15, 58, 0
15, 17, 0
15, 34, 0
15, 59, 0
15, 65, 0
15, 7, 0
15, 12, 0
15, 52, 0
15, 66, 0
15, 37, 0
15, 70, 0
15, 1, 0
15, 38, 0
15, 67, 0
15, 36, 0
41, 16, 0
41, 6, 0
41, 69, 0
41, 23, 0
0, 12, 0
0, 8, 0
0, 25, 0
0, 37, 0
0, 52, 0
0, 36, 0
0, 9, 0
0, 59, 0
0, 47, 0
0, 65, 0
68, 16, 0
68, 69, 0
68, 23, 0
68, 51, 0
68, 63, 0
68, 27, 0
62, 61, 0
62, 20, 0
62, 10, 0
62, 24, 0
51, 58, 0
51, 68, 0
51, 23, 0
51, 63, 0
51, 27, 0
51, 71, 0
51, 59, 0
51, 44, 0
51, 73, 0
51, 34, 0
51, 4, 0
51, 69, 0
51, 9, 0
33, 34, 0
33, 13, 0
33, 17, 0
33, 75, 0
33, 2, 0
33, 21, 0
33, 53, 0
33, 39, 0
33, 73, 0
6, 63, 0
6, 16, 0
6, 69, 0
6, 41, 0
6, 23, 0
74, 60, 0
74, 55, 0
74, 5, 0
74, 32, 0
47, 0, 0
47, 12, 0
47, 7, 0
47, 25, 0
47, 48, 1
47, 28, 0
47, 42, 0
47, 70, 0
47, 52, 0
47, 46, 0
47, 1, 0
10, 20, 0
10, 17, 0
10, 62, 0
10, 24, 0
10, 61, 0
10, 44, 0
7, 25, 0
7, 28, 0
7, 31, 0
7, 12, 0
7, 64, 0
7, 54, 0
7, 46, 0
7, 11, 0
7, 1, 0
7, 3, 0
7, 43, 0
7, 47, 0
7, 26, 0
7, 35, 0
7, 42, 0
7, 14, 0
7, 15, 0
3, 7, 0
3, 43, 0
3, 31, 0
3, 35, 0
3, 14, 0
3, 19, 0
3, 29, 0
3, 30, 0
69, 68, 0
69, 13, 0
69, 17, 0
69, 51, 0
69, 23, 0
69, 16, 0
69, 6, 0
69, 71, 0
69, 63, 0
69, 41, 0
32, 28, 0
32, 26, 0
32, 60, 0
32, 55, 0
32, 74, 0
32, 5, 0
2, 33, 0
2, 75, 0
2, 34, 0
2, 21, 0
2, 53, 0
2, 39, 0
2, 73, 0
37, 58, 0
37, 67, 0
37, 8, 0
37, 52, 0
37, 0, 0
37, 15, 0
37, 36, 1
37, 38, 1
37, 65, 0
52, 58, 0
52, 0, 0
52, 17, 0
52, 45, 0
52, 63, 0
52, 15, 0
52, 36, 0
52, 59, 0
52, 44, 0
52, 47, 0
52, 65, 0
52, 12, 0
52, 34, 0
52, 25, 0
52, 37, 0
52, 42, 0
52, 8, 0
52, 38, 0
52, 67, 0
52, 9, 0
19, 20, 0
19, 3, 0
19, 43, 0
19, 31, 0
19, 29, 0
19, 18, 0
19, 35, 0
19, 46, 0
49, 12, 0
49, 25, 0
49, 26, 0
49, 42, 0
49, 48, 1
49, 11, 0
60, 28, 0
60, 55, 0
60, 74, 0
60, 26, 0
60, 32, 0
48, 12, 0
48, 25, 0
48, 26, 0
48, 42, 0
48, 49, 1
48, 47, 1
16, 58, 0
16, 68, 0
16, 23, 0
16, 63, 0
16, 6, 0
16, 59, 0
16, 44, 0
16, 34, 0
16, 69, 0
16, 27, 0
16, 41, 0
16, 9, 0
70, 12, 0
70, 25, 0
70, 26, 0
70, 66, 0
70, 54, 0
70, 15, 0
70, 47, 0
70, 1, 0
31, 64, 0
31, 35, 0
31, 46, 0
31, 11, 0
31, 30, 0
31, 7, 0
31, 3, 0
31, 43, 0
31, 26, 0
31, 29, 0
31, 14, 0
31, 19, 0
31, 1, 0
31, 42, 0
28, 17, 0
28, 26, 0
28, 60, 0
28, 55, 0
28, 5, 0
28, 47, 0
28, 7, 0
28, 14, 0
28, 11, 0
28, 32, 0
28, 72, 0
28, 42, 0
28, 50, 0
45, 58, 0
45, 57, 0
45, 17, 0
45, 9, 0
45, 56, 0
45, 52, 0
45, 8, 0
45, 59, 0
45, 44, 0
45, 36, 0
75, 33, 0
75, 21, 0
75, 54, 0
75, 23, 0
75, 2, 0
75, 63, 0
75, 53, 0
75, 73, 0
40, 61, 0
40, 39, 0
40, 17, 0
40, 44, 0
71, 58, 0
71, 13, 0
71, 51, 0
71, 23, 0
71, 63, 0
71, 27, 0
71, 59, 0
71, 44, 0
71, 73, 0
71, 34, 0
71, 69, 0
71, 9, 0
59, 58, 1
59, 45, 0
59, 13, 0
59, 17, 0
59, 51, 0
59, 16, 0
59, 27, 0
59, 8, 0
59, 71, 0
59, 0, 0
59, 44, 0
59, 34, 0
59, 52, 0
59, 25, 0
59, 36, 0
59, 15, 0
59, 63, 0
59, 9, 0
11, 28, 0
11, 31, 0
11, 18, 0
11, 46, 0
11, 1, 0
11, 7, 0
11, 12, 0
11, 54, 0
11, 26, 0
11, 42, 0
11, 49, 0
11, 64, 0
11, 22, 0
5, 28, 0
5, 26, 0
5, 32, 0
5, 72, 0
5, 55, 0
5, 74, 0
61, 17, 0
61, 62, 0
61, 24, 0
61, 40, 0
61, 44, 0
61, 10, 0
29, 3, 0
29, 43, 0
29, 31, 0
29, 35, 0
29, 14, 0
29, 19, 0
29, 30, 1
4, 34, 0
4, 17, 0
4, 51, 0
4, 63, 0
4, 27, 0
4, 73, 0
39, 13, 0
39, 17, 0
39, 34, 0
39, 53, 0
39, 40, 0
39, 44, 0
39, 73, 0
39, 33, 0
39, 54, 0
39, 2, 0
39, 21, 0
39, 9, 0
39, 36, 0
35, 7, 0
35, 3, 0
35, 43, 0
35, 31, 0
35, 29, 0
35, 14, 0
35, 19, 0
35, 30, 0
30, 3, 0
30, 43, 0
30, 31, 0
30, 29, 1
30, 14, 0
30, 35, 0
8, 58, 0
8, 45, 0
8, 17, 0
8, 56, 0
8, 59, 0
8, 44, 0
8, 9, 0
8, 57, 0
8, 52, 0
8, 37, 0
8, 20, 0
8, 36, 0
8, 0, 0
38, 67, 0
38, 17, 0
38, 37, 1
38, 52, 0
38, 15, 0
38, 65, 0
22, 26, 0
22, 42, 0
22, 64, 0
22, 46, 0
22, 11, 0
22, 1, 0
36, 58, 0
36, 0, 0
36, 17, 0
36, 39, 0
36, 45, 0
36, 63, 0
36, 27, 0
36, 59, 0
36, 44, 0
36, 65, 0
36, 12, 0
36, 34, 0
36, 52, 0
36, 37, 1
36, 8, 0
36, 15, 0
36, 67, 0
36, 9, 0
25, 0, 0
25, 70, 0
25, 1, 0
25, 59, 0
25, 47, 0
25, 65, 0
25, 7, 0
25, 12, 0
25, 52, 0
25, 66, 0
25, 42, 0
25, 49, 0
25, 48, 0
57, 58, 1
57, 45, 0
57, 56, 1
57, 20, 0
57, 8, 0
57, 44, 0
57, 9, 0
56, 58, 1
56, 57, 1
56, 45, 0
56, 20, 0
56, 8, 0
56, 44, 0
56, 65, 0
64, 7, 0
64, 31, 0
64, 26, 0
64, 42, 0
64, 22, 0
64, 46, 0
64, 11, 0
64, 1, 0
18, 54, 0
18, 26, 0
18, 42, 0
18, 19, 0
18, 46, 0
18, 11, 0
27, 68, 0
27, 13, 0
27, 17, 0
27, 51, 0
27, 16, 0
27, 71, 0
27, 59, 0
27, 73, 0
27, 34, 0
27, 4, 0
27, 9, 0
27, 63, 0
27, 36, 0
1, 70, 0
1, 31, 0
1, 15, 0
1, 54, 0
1, 46, 0
1, 11, 0
1, 7, 0
1, 12, 0
1, 25, 0
1, 47, 0
1, 26, 0
1, 42, 0
1, 64, 0
1, 22, 0
55, 28, 0
55, 26, 0
55, 32, 0
55, 60, 0
55, 74, 0
55, 5, 0
44, 45, 0
44, 13, 0
44, 17, 0
44, 56, 0
44, 51, 0
44, 16, 0
44, 40, 0
44, 71, 0
44, 59, 0
44, 10, 0
44, 20, 0
44, 34, 0
44, 52, 0
44, 9, 0
44, 57, 0
44, 24, 0
44, 61, 0
44, 8, 0
44, 39, 0
44, 63, 0
44, 36, 0
73, 13, 0
73, 17, 0
73, 51, 0
73, 34, 0
73, 63, 0
73, 27, 0
73, 53, 0
73, 71, 0
73, 33, 0
73, 4, 0
73, 21, 0
73, 2, 0
73, 75, 0
73, 39, 0
73, 9, 0
12, 0, 0
12, 70, 0
12, 17, 0
12, 65, 0
12, 36, 0
12, 42, 0
12, 54, 0
12, 11, 0
12, 1, 0
12, 7, 0
12, 67, 0
12, 25, 0
12, 47, 0
12, 26, 0
12, 66, 0
12, 52, 0
12, 49, 0
12, 15, 0
12, 48, 0
12, 9, 0
21, 33, 0
21, 34, 0
21, 2, 0
21, 75, 0
21, 53, 0
21, 39, 0
21, 73, 0
54, 7, 0
54, 12, 0
54, 70, 0
54, 26, 0
54, 18, 0
54, 42, 0
54, 75, 0
54, 39, 0
54, 11, 0
54, 1, 0
50, 28, 0
50, 17, 0
50, 26, 0
26, 70, 0
26, 32, 0
26, 18, 0
26, 64, 0
26, 55, 0
26, 46, 0
26, 11, 0
26, 1, 0
26, 7, 0
26, 12, 0
26, 54, 0
26, 50, 0
26, 31, 0
26, 28, 0
26, 49, 0
26, 5, 0
26, 48, 0
26, 22, 0
26, 60, 0
72, 28, 0
72, 14, 0
72, 5, 0
43, 7, 0
43, 3, 0
43, 14, 0
43, 31, 0
43, 35, 0
43, 19, 0
43, 29, 0
43, 30, 0
67, 58, 0
67, 12, 0
67, 17, 0
67, 9, 0
67, 34, 0
67, 37, 0
67, 52, 0
67, 15, 0
67, 36, 0
67, 38, 0
67, 65, 0
9, 58, 0
9, 13, 0
9, 17, 0
9, 63, 0
9, 71, 0
9, 59, 0
9, 65, 0
9, 57, 0
9, 8, 0
9, 39, 0
9, 36, 0
9, 0, 0
9, 45, 0
9, 51, 0
9, 34, 0
9, 16, 0
9, 27, 0
9, 44, 0
9, 73, 0
9, 12, 0
9, 52, 0
9, 67, 0
