0, 3, 0
0, 13, 0
0, 2, 0
0, 6, 0
0, 1, 1
0, 8, 0
0, 10, 0
0, 9, 0
13, 0, 0
13, 2, 0
13, 6, 0
13, 9, 0
13, 5, 0
13, 10, 0
13, 1, 0
3, 0, 0
3, 12, 0
3, 4, 0
3, 9, 0
3, 11, 0
3, 2, 1
3, 6, 0
3, 8, 0
3, 5, 0
3, 10, 0
3, 1, 0
6, 0, 0
6, 3, 0
6, 13, 0
6, 9, 0
6, 4, 0
6, 2, 0
6, 10, 0
6, 8, 0
6, 5, 0
6, 7, 0
6, 1, 0
8, 0, 0
8, 12, 0
8, 7, 0
8, 9, 0
8, 4, 0
8, 3, 0
8, 6, 0
8, 2, 0
8, 5, 0
8, 11, 0
8, 1, 0
5, 7, 0
5, 12, 0
5, 4, 1
5, 13, 0
5, 3, 0
5, 2, 0
5, 6, 0
5, 8, 0
5, 11, 0
5, 1, 0
11, 7, 0
11, 12, 1
11, 4, 0
11, 3, 0
11, 8, 0
11, 5, 0
11, 1, 0
10, 0, 0
10, 3, 0
10, 13, 0
10, 6, 0
10, 1, 0
10, 9, 1
7, 12, 0
7, 4, 0
7, 2, 0
7, 6, 0
7, 8, 0
7, 5, 0
7, 11, 0
12, 7, 0
12, 3, 0
12, 4, 0
12, 9, 0
12, 2, 0
12, 8, 0
12, 5, 0
12, 11, 1
12, 1, 0
4, 7, 0
4, 12, 0
4, 9, 0
4, 3, 0
4, 2, 0
4, 6, 0
4, 8, 0
4, 5, 1
4, 11, 0
4, 1, 0
2, 0, 0
2, 12, 0
2, 13, 0
2, 9, 0
2, 7, 0
2, 4, 0
2, 3, 1
2, 6, 0
2, 8, 0
2, 5, 0
2, 1, 0
1, 0, 1
1, 13, 0
1, 3, 0
1, 6, 0
1, 5, 0
1, 11, 0
1, 10, 0
1, 12, 0
1, 4, 0
1, 2, 0
1, 8, 0
1, 9, 0
9, 0, 0
9, 12, 0
9, 13, 0
9, 4, 0
9, 3, 0
9, 2, 0
9, 6, 0
9, 8, 0
9, 10, 1
9, 1, 0
