0, 16, 0
0, 15, 0
0, 11, 0
13, 3, 0
13, 4, 0
13, 17, 0
13, 18, 0
13, 6, 0
13, 14, 0
13, 8, 0
13, 15, 0
13, 5, 0
13, 11, 0
17, 3, 0
17, 4, 0
17, 13, 0
17, 2, 0
17, 16, 0
17, 8, 0
17, 15, 0
17, 18, 1
17, 11, 0
3, 13, 0
3, 17, 0
3, 16, 0
3, 6, 0
3, 5, 0
3, 11, 0
3, 10, 0
3, 7, 0
3, 12, 0
3, 4, 0
3, 14, 0
3, 2, 0
3, 1, 0
3, 15, 0
3, 18, 0
3, 9, 0
16, 0, 0
16, 3, 0
16, 17, 0
16, 18, 0
16, 6, 0
16, 15, 0
16, 11, 0
16, 9, 0
6, 7, 1
6, 3, 0
6, 13, 0
6, 2, 0
6, 16, 0
6, 9, 0
6, 18, 0
6, 11, 0
6, 10, 0
8, 4, 0
8, 14, 0
8, 18, 0
8, 17, 0
8, 11, 0
8, 13, 0
5, 7, 0
5, 3, 0
5, 4, 0
5, 13, 0
5, 2, 0
5, 18, 0
5, 14, 0
5, 11, 0
5, 1, 0
11, 0, 0
11, 13, 0
11, 17, 0
11, 3, 0
11, 16, 0
11, 6, 0
11, 5, 0
11, 1, 0
11, 12, 0
11, 4, 0
11, 14, 0
11, 8, 0
11, 15, 0
11, 10, 0
11, 18, 0
11, 9, 0
10, 7, 0
10, 12, 0
10, 3, 0
10, 2, 0
10, 6, 0
10, 11, 0
10, 1, 0
7, 12, 0
7, 9, 0
7, 3, 0
7, 2, 0
7, 6, 1
7, 10, 0
7, 5, 0
7, 1, 0
12, 7, 0
12, 3, 0
12, 14, 0
12, 2, 0
12, 10, 0
12, 11, 0
12, 1, 0
4, 3, 0
4, 13, 0
4, 14, 0
4, 18, 0
4, 17, 0
4, 8, 0
4, 5, 0
4, 11, 0
14, 12, 0
14, 13, 0
14, 4, 0
14, 3, 0
14, 18, 0
14, 8, 0
14, 5, 0
14, 11, 0
14, 1, 0
2, 7, 0
2, 12, 0
2, 17, 0
2, 9, 0
2, 3, 0
2, 6, 0
2, 10, 0
2, 5, 0
2, 1, 0
1, 7, 0
1, 12, 0
1, 14, 0
1, 3, 0
1, 2, 0
1, 9, 0
1, 5, 0
1, 11, 0
1, 10, 0
15, 0, 0
15, 3, 0
15, 13, 0
15, 17, 0
15, 16, 0
15, 18, 0
15, 11, 0
18, 3, 0
18, 13, 0
18, 17, 1
18, 4, 0
18, 16, 0
18, 6, 0
18, 14, 0
18, 8, 0
18, 15, 0
18, 5, 0
18, 11, 0
9, 7, 0
9, 3, 0
9, 2, 0
9, 16, 0
9, 6, 0
9, 11, 0
9, 1, 0
