0, 7, 0
0, 8, 0
0, 1, 1
8, 0, 0
8, 7, 0
8, 5, 0
8, 1, 0
3, 12, 0
3, 4, 0
3, 9, 0
3, 11, 0
3, 10, 0
6, 7, 0
6, 5, 0
6, 9, 0
5, 7, 0
5, 6, 0
5, 8, 0
5, 1, 0
11, 12, 1
11, 4, 0
11, 9, 0
11, 10, 0
11, 3, 0
10, 12, 0
10, 4, 0
10, 11, 0
10, 3, 0
7, 0, 0
7, 6, 0
7, 8, 0
7, 5, 0
7, 1, 0
12, 3, 0
12, 4, 0
12, 9, 0
12, 11, 1
12, 10, 0
4, 12, 0
4, 2, 0
4, 3, 0
4, 11, 0
4, 10, 0
2, 4, 0
1, 0, 1
1, 7, 0
1, 8, 0
1, 5, 0
9, 12, 0
9, 3, 0
9, 11, 0
9, 6, 0
