13, 0, 0
13, 12, 1
13, 39, 0
13, 5, 0
13, 36, 0
17, 37, 0
17, 0, 0
17, 40, 0
17, 29, 0
23, 18, 0
23, 9, 0
23, 40, 0
23, 5, 0
23, 29, 0
42, 3, 0
42, 2, 0
42, 31, 0
42, 10, 0
5, 13, 0
5, 32, 0
5, 23, 0
5, 21, 0
5, 18, 0
5, 27, 0
5, 39, 0
5, 12, 0
5, 26, 0
5, 29, 0
5, 37, 0
5, 19, 0
5, 38, 0
5, 9, 0
20, 4, 0
20, 43, 0
20, 28, 0
20, 16, 0
20, 6, 0
20, 14, 0
20, 15, 0
20, 22, 0
14, 28, 0
14, 6, 0
14, 44, 0
14, 11, 0
14, 27, 0
14, 20, 0
14, 4, 0
14, 25, 0
14, 31, 0
14, 2, 0
14, 21, 0
14, 43, 0
14, 15, 0
14, 22, 0
24, 21, 0
24, 28, 0
24, 26, 0
24, 35, 0
28, 0, 0
28, 16, 0
28, 6, 0
28, 24, 0
28, 27, 0
28, 20, 0
28, 4, 0
28, 43, 0
28, 26, 0
28, 35, 0
28, 21, 0
28, 25, 0
28, 14, 0
28, 22, 0
39, 0, 0
39, 12, 0
39, 13, 0
39, 33, 0
39, 21, 0
39, 27, 0
39, 19, 0
39, 36, 0
39, 38, 0
39, 41, 0
39, 5, 0
41, 0, 0
41, 33, 0
41, 40, 0
41, 32, 0
41, 29, 0
41, 21, 0
41, 27, 0
41, 19, 0
41, 39, 0
41, 18, 0
41, 9, 0
0, 13, 0
0, 28, 0
0, 21, 0
0, 18, 0
0, 27, 0
0, 40, 0
0, 12, 0
0, 29, 0
0, 37, 0
0, 17, 0
0, 19, 0
0, 9, 0
0, 39, 0
0, 41, 0
0, 36, 0
8, 7, 0
8, 3, 0
8, 22, 0
8, 16, 0
8, 44, 0
8, 11, 0
8, 30, 0
12, 0, 0
12, 13, 1
12, 26, 0
12, 21, 0
12, 27, 0
12, 19, 0
12, 39, 0
12, 5, 0
12, 36, 0
15, 20, 0
15, 6, 0
15, 14, 0
15, 22, 0
10, 3, 0
10, 31, 0
10, 2, 0
10, 42, 0
10, 44, 0
10, 30, 0
7, 8, 0
7, 25, 0
7, 44, 0
7, 11, 0
7, 30, 0
3, 31, 0
3, 2, 0
3, 16, 0
3, 42, 0
3, 8, 0
3, 44, 0
3, 10, 0
3, 30, 0
32, 21, 0
32, 18, 0
32, 27, 0
32, 19, 0
32, 36, 0
32, 38, 0
32, 41, 0
32, 5, 0
2, 3, 0
2, 14, 0
2, 31, 0
2, 42, 0
2, 6, 0
2, 44, 0
2, 22, 0
2, 10, 0
21, 0, 0
21, 38, 0
21, 28, 0
21, 26, 0
21, 33, 0
21, 16, 0
21, 27, 0
21, 35, 0
21, 5, 0
21, 12, 0
21, 4, 0
21, 25, 0
21, 32, 0
21, 24, 0
21, 14, 0
21, 34, 0
21, 39, 0
21, 41, 0
21, 18, 0
33, 25, 0
33, 39, 0
33, 21, 0
33, 27, 0
33, 40, 0
33, 41, 0
19, 0, 0
19, 39, 0
19, 18, 0
19, 27, 0
19, 40, 0
19, 5, 0
19, 12, 0
19, 32, 0
19, 37, 0
19, 38, 0
19, 41, 0
19, 36, 0
18, 0, 0
18, 23, 0
18, 27, 0
18, 5, 0
18, 37, 0
18, 32, 0
18, 29, 0
18, 21, 0
18, 19, 0
18, 9, 0
18, 38, 0
18, 41, 0
18, 36, 0
31, 3, 0
31, 14, 0
31, 2, 0
31, 16, 0
31, 6, 0
31, 42, 0
31, 22, 0
31, 10, 0
29, 0, 0
29, 18, 0
29, 17, 0
29, 23, 0
29, 37, 0
29, 40, 0
29, 5, 0
29, 41, 0
40, 0, 0
40, 33, 0
40, 17, 0
40, 23, 0
40, 29, 0
40, 37, 0
40, 27, 0
40, 19, 0
40, 1, 0
40, 41, 0
40, 9, 0
11, 7, 0
11, 25, 0
11, 8, 0
11, 14, 0
11, 44, 0
1, 40, 0
1, 9, 0
37, 0, 0
37, 17, 0
37, 29, 0
37, 18, 0
37, 19, 0
37, 40, 0
37, 5, 0
4, 20, 0
4, 16, 0
4, 43, 0
4, 28, 0
4, 27, 0
4, 21, 0
4, 6, 0
4, 14, 0
35, 21, 0
35, 34, 0
35, 16, 0
35, 28, 0
35, 24, 0
30, 7, 0
30, 3, 0
30, 8, 0
30, 25, 0
30, 10, 0
38, 21, 0
38, 32, 0
38, 18, 0
38, 27, 0
38, 19, 0
38, 39, 0
38, 5, 0
38, 36, 0
22, 20, 0
22, 14, 0
22, 31, 0
22, 2, 0
22, 16, 0
22, 6, 0
22, 28, 0
22, 8, 0
22, 15, 0
22, 44, 0
36, 0, 0
36, 12, 0
36, 13, 0
36, 38, 0
36, 32, 0
36, 18, 0
36, 27, 0
36, 19, 0
36, 39, 0
16, 28, 0
16, 3, 0
16, 27, 0
16, 44, 0
16, 20, 0
16, 34, 0
16, 4, 0
16, 43, 0
16, 31, 0
16, 35, 0
16, 21, 0
16, 8, 0
16, 22, 0
27, 0, 0
27, 28, 0
27, 26, 0
27, 33, 0
27, 16, 0
27, 38, 0
27, 40, 0
27, 5, 0
27, 12, 0
27, 4, 0
27, 25, 0
27, 32, 0
27, 21, 0
27, 14, 0
27, 19, 0
27, 34, 0
27, 39, 0
27, 41, 0
27, 18, 0
27, 36, 0
44, 7, 0
44, 3, 0
44, 14, 0
44, 22, 0
44, 2, 0
44, 16, 0
44, 25, 0
44, 8, 0
44, 11, 0
44, 10, 0
34, 21, 0
34, 16, 0
34, 27, 0
34, 35, 0
25, 7, 0
25, 33, 0
25, 28, 0
25, 6, 0
25, 21, 0
25, 27, 0
25, 14, 0
25, 44, 0
25, 11, 0
25, 30, 0
26, 12, 0
26, 28, 0
26, 24, 0
26, 21, 0
26, 27, 0
26, 5, 0
6, 20, 0
6, 25, 0
6, 4, 0
6, 14, 0
6, 31, 0
6, 2, 0
6, 28, 0
6, 15, 0
6, 22, 0
43, 20, 0
43, 16, 0
43, 4, 0
43, 14, 0
43, 28, 0
9, 0, 0
9, 23, 0
9, 18, 0
9, 1, 0
9, 40, 0
9, 41, 0
9, 5, 0
