0, 6, 0
0, 12, 0
0, 5, 0
0, 10, 0
8, 7, 0
8, 1, 0
3, 1, 0
6, 0, 0
6, 12, 0
6, 5, 1
6, 10, 0
5, 0, 0
5, 12, 0
5, 10, 0
5, 6, 1
11, 12, 0
11, 4, 0
11, 2, 0
10, 0, 0
10, 12, 0
10, 2, 0
10, 5, 0
10, 6, 0
7, 8, 0
7, 9, 0
12, 0, 0
12, 6, 0
12, 5, 0
12, 11, 0
12, 10, 0
4, 11, 0
4, 2, 0
2, 4, 0
2, 9, 0
2, 11, 0
2, 10, 0
1, 3, 0
1, 8, 0
9, 7, 0
9, 2, 0
