0, 3, 0
0, 2, 0
0, 1, 0
0, 8, 0
0, 11, 0
0, 9, 0
8, 0, 0
8, 3, 0
8, 2, 0
8, 11, 0
8, 1, 0
3, 0, 0
3, 8, 0
3, 11, 0
3, 2, 0
6, 2, 0
6, 11, 0
6, 10, 0
5, 7, 0
5, 12, 0
5, 4, 1
5, 9, 0
11, 0, 0
11, 6, 0
11, 8, 0
11, 3, 0
11, 2, 0
10, 6, 0
7, 12, 0
7, 4, 0
7, 9, 0
7, 5, 0
7, 1, 0
12, 7, 0
12, 4, 0
12, 5, 0
12, 9, 0
4, 7, 0
4, 12, 0
4, 5, 1
4, 9, 0
2, 0, 0
2, 6, 0
2, 8, 0
2, 11, 0
2, 3, 0
1, 0, 0
1, 7, 0
1, 8, 0
1, 9, 0
9, 0, 0
9, 12, 0
9, 7, 0
9, 4, 0
9, 5, 0
9, 1, 0
