0, 12, 0
0, 13, 0
0, 9, 0
0, 4, 0
0, 8, 0
0, 10, 0
0, 5, 0
0, 11, 0
0, 1, 0
13, 0, 0
13, 4, 0
13, 9, 0
13, 8, 0
13, 10, 0
13, 11, 0
13, 1, 0
3, 7, 0
3, 12, 0
3, 4, 0
3, 2, 0
3, 6, 0
3, 5, 0
6, 7, 0
6, 3, 0
6, 2, 0
8, 0, 0
8, 12, 0
8, 13, 0
8, 4, 0
8, 1, 0
8, 10, 0
5, 0, 0
5, 12, 0
5, 4, 0
5, 3, 0
11, 0, 0
11, 13, 0
11, 10, 0
11, 9, 0
10, 0, 0
10, 12, 0
10, 13, 0
10, 9, 0
10, 8, 0
10, 11, 0
10, 1, 0
7, 6, 0
7, 3, 0
7, 2, 0
12, 0, 0
12, 3, 0
12, 4, 0
12, 9, 0
12, 8, 0
12, 10, 0
12, 5, 0
12, 1, 0
4, 0, 0
4, 12, 0
4, 13, 0
4, 3, 0
4, 8, 0
4, 5, 0
4, 1, 0
2, 7, 0
2, 3, 0
2, 6, 0
1, 0, 0
1, 12, 0
1, 4, 0
1, 13, 0
1, 8, 0
1, 10, 0
9, 0, 0
9, 12, 0
9, 13, 0
9, 11, 0
9, 10, 0
