0, 13, 0
0, 2, 0
13, 0, 0
13, 4, 0
13, 14, 0
3, 11, 0
3, 1, 0
6, 8, 0
6, 9, 0
8, 12, 0
8, 9, 0
8, 11, 0
8, 6, 0
5, 7, 0
5, 12, 0
5, 9, 0
11, 12, 0
11, 8, 0
11, 3, 0
11, 1, 0
10, 2, 0
7, 14, 0
7, 5, 0
12, 1, 0
12, 8, 0
12, 5, 0
12, 11, 0
12, 9, 0
4, 13, 0
4, 14, 0
14, 7, 0
14, 13, 0
14, 4, 0
2, 0, 0
2, 10, 0
1, 12, 0
1, 11, 0
1, 3, 0
9, 12, 0
9, 8, 0
9, 5, 0
9, 6, 0
