0, 4, 0
0, 17, 0
0, 2, 0
0, 6, 0
0, 8, 0
0, 15, 0
0, 5, 0
0, 11, 0
0, 1, 0
13, 7, 0
13, 12, 1
13, 4, 0
13, 17, 0
17, 0, 0
17, 12, 0
17, 13, 0
17, 7, 0
17, 4, 0
3, 9, 0
3, 14, 0
3, 10, 0
3, 1, 0
16, 1, 0
16, 11, 0
16, 2, 0
6, 0, 0
6, 8, 0
6, 5, 1
6, 11, 0
6, 2, 0
8, 0, 0
8, 2, 0
8, 6, 0
8, 5, 0
8, 11, 0
8, 1, 0
5, 0, 0
5, 6, 1
5, 8, 0
5, 11, 0
5, 2, 0
11, 0, 0
11, 2, 0
11, 16, 0
11, 6, 0
11, 8, 0
11, 5, 0
11, 1, 0
10, 3, 0
10, 9, 1
10, 14, 0
10, 1, 0
7, 12, 0
7, 13, 0
7, 17, 0
7, 4, 0
12, 7, 0
12, 13, 1
12, 17, 0
4, 0, 0
4, 7, 0
4, 13, 0
4, 15, 0
4, 17, 0
14, 3, 0
14, 10, 0
2, 0, 0
2, 16, 0
2, 6, 0
2, 8, 0
2, 5, 0
2, 11, 0
2, 1, 0
1, 0, 0
1, 3, 0
1, 9, 0
1, 2, 0
1, 16, 0
1, 8, 0
1, 11, 0
1, 10, 0
15, 0, 0
15, 4, 0
9, 3, 0
9, 10, 1
9, 1, 0
