0, 5, 0
0, 9, 0
6, 7, 1
6, 2, 0
6, 1, 0
6, 9, 0
6, 11, 0
6, 10, 0
1, 7, 0
1, 4, 0
1, 6, 0
1, 10, 0
1, 5, 0
1, 11, 0
1, 9, 0
5, 0, 0
5, 9, 0
5, 1, 0
11, 7, 0
11, 3, 0
11, 4, 0
11, 9, 0
11, 2, 0
11, 6, 0
11, 8, 0
11, 10, 0
11, 1, 0
10, 3, 0
10, 4, 0
10, 2, 0
10, 6, 0
10, 1, 0
10, 11, 0
10, 9, 0
7, 4, 0
7, 2, 0
7, 6, 1
7, 1, 0
7, 8, 1
7, 11, 0
7, 9, 0
3, 4, 0
3, 9, 0
3, 2, 0
3, 8, 0
3, 11, 0
3, 10, 0
4, 7, 0
4, 3, 0
4, 1, 0
4, 9, 0
4, 11, 0
4, 10, 0
2, 7, 0
2, 3, 0
2, 9, 0
2, 6, 0
2, 8, 0
2, 11, 0
2, 10, 0
8, 7, 1
8, 3, 0
8, 9, 0
8, 11, 0
8, 2, 0
9, 7, 0
9, 3, 0
9, 4, 0
9, 2, 0
9, 6, 0
9, 1, 0
9, 8, 0
9, 0, 0
9, 5, 0
9, 11, 0
9, 10, 0
