0, 7, 0
0, 3, 0
0, 4, 0
0, 2, 0
0, 6, 0
0, 1, 1
3, 0, 0
3, 6, 0
3, 7, 0
3, 1, 0
4, 0, 0
4, 6, 0
2, 0, 0
2, 7, 0
2, 10, 0
2, 5, 0
2, 9, 0
6, 0, 0
6, 3, 0
6, 4, 0
1, 0, 1
1, 3, 0
1, 7, 0
8, 7, 0
8, 10, 0
5, 2, 0
5, 9, 0
5, 10, 0
7, 0, 0
7, 3, 0
7, 2, 0
7, 8, 0
7, 1, 0
10, 2, 0
10, 8, 0
10, 5, 0
10, 9, 0
9, 2, 0
9, 5, 0
9, 10, 0
