0, 3, 0
0, 6, 0
0, 5, 0
0, 2, 0
3, 0, 0
3, 6, 0
3, 5, 0
3, 2, 1
4, 5, 0
4, 1, 0
2, 0, 0
2, 3, 1
2, 5, 0
2, 6, 0
6, 0, 0
6, 3, 0
6, 1, 0
6, 5, 0
6, 2, 0
5, 0, 0
5, 3, 0
5, 4, 0
5, 2, 0
5, 6, 0
5, 1, 0
1, 6, 0
1, 4, 0
1, 5, 0
