0, 4, 0
0, 1, 0
3, 5, 0
3, 2, 0
4, 0, 0
4, 6, 0
4, 8, 0
4, 1, 0
7, 6, 1
7, 8, 1
7, 2, 0
2, 7, 0
2, 3, 0
2, 8, 0
2, 5, 0
2, 6, 0
6, 7, 1
6, 8, 1
6, 4, 0
6, 2, 0
8, 7, 1
8, 6, 1
8, 4, 0
8, 2, 0
5, 3, 0
5, 2, 0
1, 0, 0
1, 4, 0
