0, 6, 0
0, 4, 0
0, 5, 0
0, 11, 0
0, 10, 0
8, 7, 1
8, 3, 0
8, 12, 0
8, 2, 0
8, 6, 0
8, 1, 0
8, 11, 0
8, 9, 1
3, 7, 0
3, 4, 0
3, 9, 0
3, 2, 0
3, 6, 0
3, 8, 0
3, 11, 0
3, 1, 0
6, 0, 0
6, 12, 0
6, 1, 0
6, 5, 0
6, 11, 0
6, 10, 0
6, 7, 0
6, 3, 0
6, 4, 0
6, 2, 0
6, 8, 0
6, 9, 0
5, 0, 0
5, 6, 0
5, 4, 0
5, 10, 0
11, 7, 0
11, 12, 0
11, 3, 0
11, 2, 0
11, 6, 0
11, 1, 0
11, 8, 0
11, 0, 0
11, 9, 0
10, 0, 0
10, 6, 0
10, 5, 0
7, 3, 0
7, 12, 0
7, 2, 0
7, 6, 0
7, 8, 1
7, 11, 0
7, 1, 0
12, 7, 0
12, 2, 0
12, 6, 0
12, 8, 0
12, 11, 0
12, 9, 0
4, 0, 0
4, 3, 0
4, 2, 0
4, 6, 0
4, 5, 0
4, 1, 0
2, 7, 0
2, 3, 0
2, 4, 0
2, 9, 0
2, 12, 0
2, 6, 0
2, 8, 0
2, 11, 0
2, 1, 0
1, 7, 0
1, 3, 0
1, 4, 0
1, 2, 0
1, 6, 0
1, 8, 0
1, 11, 0
1, 9, 0
9, 3, 0
9, 12, 0
9, 2, 0
9, 6, 0
9, 8, 1
9, 11, 0
9, 1, 0
