2, 0, 0
2, 7, 0
2, 25, 0
2, 18, 0
2, 15, 0
2, 9, 0
13, 6, 0
13, 14, 1
13, 22, 0
13, 10, 0
17, 18, 0
17, 1, 0
17, 9, 0
23, 20, 0
23, 22, 0
23, 10, 0
29, 28, 1
29, 11, 0
5, 21, 0
5, 18, 0
5, 11, 0
5, 1, 0
11, 18, 0
11, 28, 0
11, 5, 0
11, 29, 0
1, 21, 0
1, 17, 0
1, 5, 0
20, 19, 0
20, 22, 0
20, 23, 0
20, 10, 0
4, 0, 0
4, 3, 0
4, 25, 0
4, 24, 0
4, 27, 0
4, 15, 0
4, 22, 0
14, 6, 0
14, 13, 1
14, 10, 0
24, 3, 0
24, 19, 0
24, 4, 0
24, 27, 0
28, 11, 0
28, 29, 1
8, 16, 0
8, 12, 0
8, 22, 0
15, 0, 0
15, 7, 0
15, 4, 0
15, 25, 0
15, 2, 0
15, 27, 0
22, 20, 0
22, 13, 0
22, 23, 0
22, 6, 0
22, 16, 0
22, 27, 0
22, 19, 0
22, 8, 0
22, 4, 0
22, 10, 0
0, 7, 0
0, 4, 0
0, 25, 0
0, 2, 0
0, 18, 0
0, 27, 0
0, 15, 0
12, 16, 0
12, 8, 0
16, 12, 0
16, 8, 0
16, 26, 0
16, 22, 0
16, 6, 0
6, 13, 0
6, 14, 0
6, 26, 0
6, 16, 0
6, 22, 0
6, 10, 0
10, 20, 0
10, 13, 0
10, 14, 0
10, 23, 0
10, 6, 0
10, 22, 0
7, 0, 0
7, 25, 0
7, 2, 0
7, 18, 0
7, 15, 0
7, 9, 0
3, 4, 0
3, 24, 0
25, 0, 0
25, 7, 0
25, 4, 0
25, 2, 0
25, 18, 0
25, 27, 0
25, 15, 0
26, 16, 0
26, 6, 0
27, 0, 0
27, 4, 0
27, 25, 0
27, 24, 0
27, 19, 0
27, 15, 0
27, 22, 0
21, 5, 0
21, 1, 0
19, 20, 0
19, 27, 0
19, 22, 0
19, 24, 0
18, 0, 0
18, 7, 0
18, 25, 0
18, 2, 0
18, 17, 0
18, 5, 0
18, 11, 0
18, 9, 0
9, 7, 0
9, 18, 0
9, 17, 0
9, 2, 0
