0, 3, 0
0, 1, 0
3, 0, 0
3, 7, 0
3, 1, 0
4, 6, 0
4, 5, 1
4, 2, 0
7, 3, 0
7, 1, 0
7, 2, 0
2, 7, 0
2, 6, 0
2, 4, 0
2, 5, 0
2, 1, 0
6, 1, 0
6, 4, 0
6, 5, 0
6, 2, 0
5, 6, 0
5, 4, 1
5, 2, 0
1, 0, 0
1, 3, 0
1, 6, 0
1, 7, 0
1, 2, 0
