0, 13, 0
0, 17, 0
0, 16, 0
0, 11, 0
0, 1, 0
0, 7, 0
0, 12, 0
0, 4, 0
0, 14, 0
0, 2, 0
0, 19, 0
0, 8, 0
13, 0, 0
13, 12, 1
13, 14, 0
13, 3, 0
13, 16, 0
13, 17, 0
13, 19, 0
13, 11, 0
13, 9, 0
17, 0, 0
17, 13, 0
17, 12, 0
17, 16, 0
17, 6, 0
17, 11, 0
17, 3, 0
17, 14, 0
17, 19, 0
17, 8, 0
17, 18, 0
17, 9, 0
3, 16, 0
3, 12, 0
3, 13, 0
3, 17, 0
3, 11, 0
16, 0, 0
16, 12, 0
16, 13, 0
16, 17, 0
16, 3, 0
16, 18, 0
16, 19, 0
16, 11, 0
16, 1, 0
6, 7, 0
6, 12, 0
6, 4, 0
6, 17, 0
6, 2, 0
6, 8, 0
6, 5, 0
6, 11, 0
8, 7, 1
8, 12, 0
8, 4, 0
8, 17, 0
8, 2, 0
8, 6, 0
8, 5, 0
8, 11, 0
8, 0, 0
5, 7, 0
5, 4, 0
5, 2, 0
5, 6, 0
5, 8, 0
5, 11, 0
11, 0, 0
11, 13, 0
11, 17, 0
11, 3, 0
11, 16, 0
11, 6, 0
11, 1, 0
11, 5, 0
11, 10, 0
11, 7, 0
11, 12, 0
11, 4, 0
11, 14, 0
11, 2, 0
11, 19, 0
11, 8, 0
11, 15, 0
11, 18, 0
11, 9, 0
10, 11, 0
10, 9, 0
7, 0, 0
7, 4, 0
7, 2, 0
7, 6, 0
7, 8, 1
7, 15, 0
7, 5, 0
7, 11, 0
12, 0, 0
12, 3, 0
12, 13, 1
12, 14, 0
12, 16, 0
12, 6, 0
12, 19, 0
12, 8, 0
12, 17, 0
12, 11, 0
12, 9, 0
4, 0, 0
4, 7, 0
4, 2, 0
4, 6, 0
4, 8, 0
4, 15, 0
4, 5, 0
4, 11, 0
14, 0, 0
14, 12, 0
14, 13, 0
14, 17, 0
14, 18, 0
14, 19, 0
14, 11, 0
14, 9, 0
2, 7, 0
2, 0, 0
2, 4, 0
2, 6, 0
2, 8, 0
2, 15, 0
2, 5, 0
2, 11, 0
19, 0, 0
19, 12, 0
19, 13, 0
19, 17, 0
19, 16, 0
19, 14, 0
19, 18, 0
19, 11, 0
19, 1, 0
1, 0, 0
1, 16, 0
1, 19, 0
1, 15, 0
1, 11, 0
15, 7, 0
15, 2, 0
15, 4, 0
15, 11, 0
15, 1, 0
18, 14, 0
18, 16, 0
18, 17, 0
18, 19, 0
18, 11, 0
18, 9, 0
9, 12, 0
9, 13, 0
9, 14, 0
9, 18, 0
9, 17, 0
9, 11, 0
9, 10, 0
