58, 57, 0
58, 69, 0
58, 28, 0
58, 51, 0
58, 26, 0
58, 29, 0
58, 18, 0
58, 42, 0
58, 46, 0
13, 25, 0
13, 56, 0
13, 63, 0
13, 19, 0
13, 49, 0
13, 48, 0
13, 36, 0
17, 7, 0
17, 45, 0
17, 46, 0
17, 9, 0
17, 32, 0
17, 37, 0
17, 30, 0
17, 65, 0
17, 44, 0
17, 1, 0
23, 16, 0
23, 51, 0
23, 66, 0
63, 33, 0
63, 13, 0
63, 56, 0
63, 6, 0
63, 19, 0
63, 49, 0
24, 56, 0
24, 38, 0
24, 50, 0
24, 22, 0
46, 58, 0
46, 7, 0
46, 35, 0
46, 17, 0
46, 26, 0
46, 51, 0
46, 18, 0
46, 27, 0
46, 55, 0
46, 59, 0
46, 1, 0
46, 57, 0
46, 16, 0
46, 54, 0
46, 32, 0
46, 29, 0
46, 37, 0
46, 28, 0
46, 30, 0
46, 42, 0
46, 65, 0
65, 7, 0
65, 45, 0
65, 17, 0
65, 9, 0
65, 32, 0
65, 46, 0
65, 30, 0
65, 44, 0
65, 1, 0
20, 38, 0
20, 43, 0
20, 40, 0
20, 41, 0
20, 52, 0
34, 61, 0
34, 21, 0
34, 50, 0
34, 0, 0
14, 31, 0
14, 66, 0
14, 6, 0
14, 48, 0
14, 11, 0
14, 36, 0
53, 52, 0
53, 38, 0
53, 41, 0
53, 2, 0
66, 28, 0
66, 51, 0
66, 23, 0
66, 60, 0
66, 6, 0
66, 11, 0
66, 56, 0
66, 33, 0
66, 69, 0
66, 14, 0
66, 22, 0
66, 31, 0
66, 25, 0
66, 19, 0
66, 49, 0
66, 18, 0
66, 48, 0
66, 36, 0
42, 57, 0
42, 3, 0
42, 58, 0
42, 69, 0
42, 51, 0
42, 26, 0
42, 29, 0
42, 18, 0
42, 46, 0
15, 4, 0
15, 59, 0
15, 32, 0
41, 20, 0
41, 47, 0
41, 43, 0
41, 50, 0
41, 2, 0
41, 52, 0
41, 53, 0
41, 40, 0
41, 22, 0
0, 34, 0
0, 61, 0
0, 50, 0
0, 56, 0
0, 67, 0
0, 21, 0
0, 48, 0
0, 22, 0
68, 60, 0
68, 6, 0
68, 11, 0
68, 36, 0
62, 16, 0
62, 27, 0
62, 55, 0
62, 51, 0
51, 58, 0
51, 28, 0
51, 62, 0
51, 23, 0
51, 16, 0
51, 27, 0
51, 55, 0
51, 46, 0
51, 57, 0
51, 3, 0
51, 69, 0
51, 26, 0
51, 66, 0
51, 29, 0
51, 42, 0
51, 18, 0
33, 56, 0
33, 66, 0
33, 63, 0
33, 6, 0
33, 49, 0
33, 39, 0
33, 36, 0
6, 33, 0
6, 14, 0
6, 56, 0
6, 66, 0
6, 63, 0
6, 49, 0
6, 39, 0
6, 68, 0
6, 11, 0
6, 60, 0
64, 8, 0
64, 52, 0
64, 50, 0
47, 50, 0
47, 41, 0
47, 8, 0
47, 5, 0
47, 36, 0
10, 12, 0
10, 59, 0
10, 32, 0
10, 9, 0
7, 45, 0
7, 54, 0
7, 9, 0
7, 32, 0
7, 44, 0
7, 37, 0
7, 17, 0
7, 30, 0
7, 65, 0
7, 46, 0
7, 1, 0
3, 57, 0
3, 69, 0
3, 28, 0
3, 26, 0
3, 51, 0
3, 29, 0
3, 42, 0
69, 57, 0
69, 3, 0
69, 58, 0
69, 28, 0
69, 26, 0
69, 51, 0
69, 66, 0
69, 18, 0
69, 42, 0
69, 29, 0
32, 45, 0
32, 17, 0
32, 65, 0
32, 46, 0
32, 59, 0
32, 44, 0
32, 30, 0
32, 7, 0
32, 35, 0
32, 1, 0
32, 15, 0
32, 10, 0
32, 9, 0
2, 52, 0
2, 53, 0
2, 40, 0
2, 41, 0
37, 7, 0
37, 45, 0
37, 44, 0
37, 54, 0
37, 9, 0
37, 35, 0
37, 17, 0
37, 30, 0
37, 46, 0
37, 1, 0
52, 20, 0
52, 43, 0
52, 50, 0
52, 56, 0
52, 2, 0
52, 40, 0
52, 53, 0
52, 64, 0
52, 41, 0
52, 22, 0
19, 13, 0
19, 50, 0
19, 56, 0
19, 66, 0
19, 63, 0
19, 49, 0
19, 36, 0
49, 33, 0
49, 13, 0
49, 50, 0
49, 56, 0
49, 66, 0
49, 63, 0
49, 6, 0
49, 19, 0
49, 48, 0
49, 36, 0
48, 0, 0
48, 67, 0
48, 13, 0
48, 25, 0
48, 50, 0
48, 56, 0
48, 66, 0
48, 14, 0
48, 49, 0
48, 11, 0
31, 14, 0
31, 66, 0
28, 57, 0
28, 3, 0
28, 58, 0
28, 69, 0
28, 26, 0
28, 51, 0
28, 29, 0
28, 66, 0
28, 46, 0
45, 7, 0
45, 17, 0
45, 32, 0
45, 37, 0
45, 9, 0
45, 44, 1
45, 65, 0
60, 68, 0
60, 6, 0
60, 36, 0
60, 39, 0
60, 66, 0
40, 20, 0
40, 52, 0
40, 38, 0
40, 41, 0
40, 2, 0
29, 57, 0
29, 3, 0
29, 58, 0
29, 69, 0
29, 28, 0
29, 26, 0
29, 51, 0
29, 42, 0
29, 46, 0
59, 4, 0
59, 15, 0
59, 46, 0
59, 32, 0
59, 10, 0
11, 68, 0
11, 14, 0
11, 66, 0
11, 6, 0
11, 48, 0
11, 36, 0
5, 47, 0
5, 8, 0
5, 50, 0
5, 56, 0
5, 36, 0
61, 0, 0
61, 34, 0
61, 50, 0
61, 56, 0
61, 21, 0
61, 38, 0
4, 59, 0
4, 15, 0
39, 60, 0
39, 33, 0
39, 36, 0
39, 6, 0
35, 54, 0
35, 32, 0
35, 37, 0
35, 1, 0
35, 46, 0
35, 30, 0
30, 7, 0
30, 54, 0
30, 32, 0
30, 35, 0
30, 37, 0
30, 17, 0
30, 46, 0
30, 65, 0
8, 22, 0
8, 50, 0
8, 56, 0
8, 64, 0
8, 5, 0
8, 47, 0
8, 36, 0
38, 20, 0
38, 43, 0
38, 50, 0
38, 56, 0
38, 24, 0
38, 61, 0
38, 53, 0
38, 40, 0
38, 22, 0
22, 0, 0
22, 38, 0
22, 43, 0
22, 50, 0
22, 56, 0
22, 66, 0
22, 52, 0
22, 8, 0
22, 24, 0
22, 41, 0
22, 36, 0
36, 68, 0
36, 13, 0
36, 56, 0
36, 33, 0
36, 60, 0
36, 8, 0
36, 5, 0
36, 47, 0
36, 67, 0
36, 25, 0
36, 11, 0
36, 66, 0
36, 14, 0
36, 19, 0
36, 49, 0
36, 39, 0
36, 22, 0
36, 50, 0
25, 67, 0
25, 13, 0
25, 50, 0
25, 56, 0
25, 66, 0
25, 48, 0
25, 36, 0
57, 58, 0
57, 3, 0
57, 69, 0
57, 28, 0
57, 51, 0
57, 26, 0
57, 29, 0
57, 18, 0
57, 42, 0
57, 46, 0
56, 0, 0
56, 13, 0
56, 33, 0
56, 63, 0
56, 6, 0
56, 8, 0
56, 24, 0
56, 5, 0
56, 67, 0
56, 25, 0
56, 50, 0
56, 66, 0
56, 61, 0
56, 52, 0
56, 19, 0
56, 49, 0
56, 38, 0
56, 48, 0
56, 22, 0
56, 36, 0
16, 23, 0
16, 62, 0
16, 51, 0
16, 27, 0
16, 55, 0
16, 46, 0
27, 16, 0
27, 55, 0
27, 62, 0
27, 51, 0
27, 46, 0
1, 7, 0
1, 54, 0
1, 32, 0
1, 35, 0
1, 37, 0
1, 17, 0
1, 46, 0
1, 65, 0
55, 16, 0
55, 27, 0
55, 62, 0
55, 51, 0
55, 46, 0
44, 7, 0
44, 45, 1
44, 17, 0
44, 32, 0
44, 37, 0
44, 9, 0
44, 65, 0
12, 9, 0
12, 10, 0
18, 57, 0
18, 58, 0
18, 69, 0
18, 26, 0
18, 51, 0
18, 66, 0
18, 42, 0
18, 46, 0
21, 0, 0
21, 61, 0
21, 50, 0
21, 34, 0
54, 7, 0
54, 35, 0
54, 37, 0
54, 30, 0
54, 46, 0
54, 1, 0
50, 0, 0
50, 8, 0
50, 56, 0
50, 67, 0
50, 64, 0
50, 5, 0
50, 47, 0
50, 48, 0
50, 34, 0
50, 21, 0
50, 25, 0
50, 24, 0
50, 61, 0
50, 52, 0
50, 19, 0
50, 49, 0
50, 38, 0
50, 41, 0
50, 22, 0
50, 36, 0
26, 58, 0
26, 57, 0
26, 69, 0
26, 28, 0
26, 51, 0
26, 3, 0
26, 18, 0
26, 42, 0
26, 29, 0
26, 46, 0
43, 20, 0
43, 52, 0
43, 38, 0
43, 41, 0
43, 22, 0
67, 0, 0
67, 25, 0
67, 50, 0
67, 56, 0
67, 48, 0
67, 36, 0
9, 7, 0
9, 45, 0
9, 17, 0
9, 32, 0
9, 12, 0
9, 37, 0
9, 65, 0
9, 44, 0
9, 10, 0
