13, 20, 0
13, 21, 0
13, 26, 0
13, 34, 0
13, 37, 0
13, 19, 0
13, 38, 0
17, 12, 0
17, 28, 0
17, 27, 0
17, 29, 0
23, 2, 0
23, 4, 0
23, 40, 0
23, 22, 0
23, 24, 1
42, 41, 1
42, 8, 0
42, 39, 0
42, 5, 0
42, 11, 0
42, 9, 0
46, 18, 0
46, 3, 0
46, 14, 0
46, 47, 1
46, 1, 0
20, 21, 0
20, 37, 0
20, 13, 0
20, 38, 0
20, 34, 0
14, 18, 0
14, 3, 0
14, 46, 0
14, 47, 0
14, 1, 0
24, 45, 0
24, 4, 0
24, 23, 1
24, 2, 0
24, 40, 0
24, 22, 0
28, 27, 0
28, 17, 0
28, 29, 1
39, 12, 0
39, 8, 0
39, 9, 0
39, 11, 0
39, 42, 0
41, 42, 1
41, 8, 0
41, 5, 0
41, 11, 0
41, 9, 0
0, 34, 0
0, 43, 0
0, 31, 0
0, 35, 0
0, 44, 0
0, 30, 0
8, 41, 0
8, 42, 0
8, 39, 0
8, 5, 0
8, 11, 0
8, 9, 0
34, 20, 0
34, 0, 0
34, 13, 0
34, 31, 0
34, 21, 0
34, 37, 0
34, 38, 0
34, 44, 0
34, 30, 0
15, 16, 1
15, 10, 0
15, 36, 0
47, 14, 0
47, 46, 1
47, 1, 0
10, 16, 0
10, 27, 0
10, 29, 0
10, 15, 0
10, 36, 0
7, 33, 0
7, 38, 0
7, 25, 0
7, 26, 0
7, 32, 0
3, 18, 0
3, 14, 0
3, 46, 0
3, 1, 0
32, 7, 0
32, 33, 1
32, 19, 0
32, 25, 0
32, 26, 0
2, 4, 0
2, 40, 0
2, 22, 0
2, 23, 0
2, 24, 0
21, 20, 0
21, 34, 0
21, 13, 0
21, 37, 0
33, 7, 0
33, 18, 0
33, 26, 0
33, 32, 1
19, 38, 0
19, 13, 0
19, 25, 0
19, 32, 0
19, 26, 0
18, 3, 0
18, 14, 0
18, 26, 0
18, 33, 0
18, 46, 0
18, 1, 0
31, 0, 0
31, 34, 0
31, 30, 1
29, 28, 1
29, 35, 0
29, 16, 0
29, 27, 0
29, 17, 0
29, 10, 0
40, 45, 0
40, 4, 0
40, 23, 0
40, 2, 0
40, 24, 0
40, 22, 0
11, 41, 0
11, 42, 0
11, 8, 0
11, 39, 0
11, 5, 0
11, 9, 0
5, 42, 0
5, 6, 0
5, 8, 0
5, 41, 0
5, 11, 0
5, 9, 0
37, 20, 0
37, 21, 0
37, 13, 0
37, 38, 1
37, 34, 0
4, 2, 0
4, 40, 0
4, 22, 0
4, 23, 0
4, 24, 0
35, 0, 0
35, 43, 0
35, 29, 0
35, 16, 0
35, 44, 0
35, 36, 0
30, 0, 0
30, 34, 0
30, 31, 1
38, 20, 0
38, 34, 0
38, 13, 0
38, 25, 0
38, 37, 1
38, 19, 0
38, 7, 0
22, 2, 0
22, 4, 0
22, 40, 0
22, 23, 0
22, 24, 0
36, 16, 0
36, 35, 0
36, 15, 0
36, 10, 0
45, 6, 0
45, 40, 0
45, 24, 0
16, 35, 0
16, 36, 0
16, 15, 1
16, 10, 0
16, 29, 0
27, 28, 0
27, 29, 0
27, 17, 0
27, 10, 0
1, 18, 0
1, 3, 0
1, 14, 0
1, 46, 0
1, 47, 0
44, 0, 0
44, 34, 0
44, 43, 1
44, 35, 0
12, 39, 0
12, 17, 0
25, 7, 0
25, 19, 0
25, 38, 0
25, 26, 0
25, 32, 0
26, 7, 0
26, 33, 0
26, 13, 0
26, 25, 0
26, 32, 0
26, 18, 0
26, 19, 0
6, 45, 0
6, 5, 0
43, 0, 0
43, 44, 1
43, 35, 0
9, 42, 0
9, 8, 0
9, 39, 0
9, 41, 0
9, 11, 0
9, 5, 0
