0, 3, 0
0, 2, 0
0, 1, 1
13, 7, 0
13, 12, 0
13, 4, 0
13, 14, 1
13, 17, 0
13, 5, 0
13, 11, 0
17, 7, 0
17, 13, 0
17, 14, 0
17, 4, 0
17, 16, 0
17, 15, 0
17, 5, 0
17, 11, 0
3, 0, 0
3, 12, 0
3, 2, 0
3, 6, 0
3, 1, 0
3, 8, 0
3, 10, 0
3, 9, 0
16, 7, 0
16, 12, 0
16, 14, 0
16, 17, 0
16, 15, 1
16, 5, 0
16, 11, 0
16, 10, 0
6, 12, 0
6, 3, 0
6, 8, 0
6, 10, 0
6, 9, 0
8, 6, 0
8, 9, 1
8, 3, 0
5, 7, 0
5, 13, 0
5, 14, 0
5, 4, 1
5, 16, 0
5, 17, 0
11, 7, 0
11, 12, 0
11, 13, 0
11, 17, 0
11, 4, 0
11, 16, 0
11, 15, 0
10, 12, 0
10, 3, 0
10, 2, 0
10, 16, 0
10, 6, 0
10, 9, 1
10, 1, 0
7, 12, 0
7, 13, 0
7, 17, 0
7, 4, 0
7, 16, 0
7, 14, 0
7, 15, 0
7, 5, 0
7, 11, 0
12, 7, 0
12, 3, 0
12, 13, 0
12, 4, 0
12, 16, 0
12, 6, 0
12, 9, 0
12, 11, 0
12, 10, 0
4, 7, 0
4, 12, 0
4, 13, 0
4, 14, 0
4, 17, 0
4, 5, 1
4, 11, 0
14, 7, 0
14, 13, 1
14, 17, 0
14, 4, 0
14, 16, 0
14, 5, 0
2, 0, 0
2, 3, 0
2, 10, 0
2, 1, 0
1, 0, 1
1, 3, 0
1, 10, 0
1, 2, 0
15, 16, 1
15, 7, 0
15, 17, 0
15, 11, 0
9, 6, 0
9, 8, 1
9, 12, 0
9, 10, 1
9, 3, 0
