0, 7, 0
0, 3, 0
0, 4, 0
0, 9, 0
0, 2, 0
0, 6, 0
0, 8, 0
0, 5, 0
0, 10, 0
6, 0, 0
6, 7, 1
6, 4, 0
6, 3, 0
6, 1, 0
6, 8, 0
6, 5, 0
6, 9, 0
1, 6, 0
1, 4, 0
1, 10, 0
1, 11, 0
1, 3, 0
5, 0, 0
5, 7, 0
5, 3, 0
5, 2, 0
5, 6, 0
5, 8, 0
5, 10, 0
5, 9, 0
11, 10, 0
11, 1, 0
10, 0, 0
10, 4, 0
10, 2, 0
10, 9, 0
10, 5, 0
10, 11, 0
10, 1, 0
7, 0, 0
7, 3, 0
7, 2, 0
7, 6, 1
7, 8, 0
7, 5, 0
7, 9, 0
3, 0, 0
3, 7, 0
3, 4, 1
3, 6, 0
3, 5, 0
3, 1, 0
4, 0, 0
4, 6, 0
4, 10, 0
4, 3, 1
4, 1, 0
2, 0, 0
2, 7, 0
2, 10, 0
2, 8, 0
2, 5, 0
2, 9, 0
8, 0, 0
8, 7, 0
8, 2, 0
8, 6, 0
8, 5, 0
8, 9, 1
9, 0, 0
9, 7, 0
9, 2, 0
9, 6, 0
9, 8, 1
9, 5, 0
9, 10, 0
