13, 2, 0
13, 8, 0
13, 22, 0
13, 4, 0
13, 10, 0
17, 7, 0
17, 0, 0
17, 6, 0
17, 14, 0
17, 9, 0
23, 21, 0
23, 20, 0
23, 1, 0
23, 5, 0
23, 10, 0
5, 23, 0
5, 10, 0
11, 18, 0
11, 3, 0
11, 19, 0
11, 10, 0
11, 1, 0
1, 20, 0
1, 21, 0
1, 11, 0
1, 23, 0
20, 21, 1
20, 10, 0
20, 23, 0
20, 1, 0
4, 12, 0
4, 8, 0
4, 13, 0
14, 0, 0
14, 6, 0
14, 7, 0
14, 17, 0
24, 16, 0
24, 3, 0
8, 12, 0
8, 13, 0
8, 4, 0
8, 2, 0
8, 22, 0
8, 10, 0
15, 16, 0
15, 25, 0
15, 9, 0
22, 8, 0
22, 13, 0
22, 2, 0
0, 7, 0
0, 14, 0
0, 17, 0
0, 6, 0
3, 16, 0
3, 19, 0
3, 11, 0
3, 24, 0
16, 25, 0
16, 3, 0
16, 9, 0
16, 15, 0
16, 24, 0
6, 0, 0
6, 7, 1
6, 14, 0
6, 17, 0
10, 20, 0
10, 13, 0
10, 23, 0
10, 2, 0
10, 8, 0
10, 5, 0
10, 11, 0
7, 0, 0
7, 6, 1
7, 14, 0
7, 17, 0
7, 9, 0
12, 8, 0
12, 4, 0
25, 16, 0
25, 15, 0
25, 9, 0
2, 8, 0
2, 13, 0
2, 22, 0
2, 10, 0
21, 20, 1
21, 23, 0
21, 1, 0
19, 18, 0
19, 3, 0
19, 11, 0
18, 19, 0
18, 11, 0
9, 16, 0
9, 7, 0
9, 15, 0
9, 25, 0
9, 17, 0
