0, 13, 0
0, 5, 0
0, 2, 0
13, 0, 0
13, 5, 0
13, 11, 0
13, 2, 0
3, 6, 0
3, 9, 0
6, 3, 0
6, 10, 0
8, 12, 0
8, 10, 0
5, 0, 0
5, 13, 0
5, 2, 0
11, 12, 0
11, 13, 0
10, 2, 0
10, 12, 0
10, 8, 0
10, 6, 0
7, 4, 0
7, 1, 0
12, 8, 0
12, 11, 0
12, 10, 0
4, 7, 0
2, 0, 0
2, 13, 0
2, 5, 0
2, 10, 0
1, 7, 0
1, 9, 0
9, 3, 0
9, 1, 0
