13, 15, 0
13, 14, 0
13, 22, 0
17, 16, 0
17, 22, 0
5, 0, 0
5, 20, 0
5, 9, 0
11, 21, 0
11, 12, 0
1, 21, 0
1, 7, 0
20, 0, 0
20, 9, 0
20, 5, 0
20, 10, 0
4, 12, 0
14, 16, 0
14, 13, 0
14, 15, 1
14, 22, 0
14, 2, 0
8, 0, 0
8, 18, 0
8, 19, 0
8, 7, 0
15, 16, 0
15, 13, 0
15, 14, 1
15, 2, 0
22, 14, 0
22, 13, 0
22, 17, 0
0, 20, 0
0, 8, 0
0, 5, 0
0, 9, 0
3, 6, 0
3, 2, 0
16, 14, 0
16, 15, 0
16, 17, 0
16, 2, 0
6, 3, 0
6, 10, 0
10, 20, 0
10, 6, 0
7, 18, 0
7, 21, 0
7, 19, 0
7, 8, 0
7, 1, 0
12, 4, 0
12, 11, 0
2, 16, 0
2, 15, 0
2, 14, 0
2, 3, 0
21, 7, 0
21, 11, 0
21, 1, 0
19, 7, 0
19, 18, 1
19, 8, 0
18, 7, 0
18, 19, 1
18, 8, 0
9, 20, 0
9, 0, 0
9, 5, 0
