13, 21, 0
13, 12, 1
13, 5, 0
17, 7, 0
17, 4, 0
17, 8, 0
17, 11, 0
17, 24, 0
23, 15, 0
23, 22, 1
23, 2, 0
5, 21, 0
5, 12, 0
5, 19, 0
5, 13, 0
5, 1, 0
11, 7, 0
11, 20, 0
11, 17, 0
1, 21, 0
1, 19, 0
1, 5, 0
20, 7, 0
20, 6, 0
20, 14, 0
20, 11, 0
4, 17, 0
4, 24, 0
14, 20, 0
14, 6, 0
24, 21, 0
24, 4, 0
24, 17, 0
8, 7, 1
8, 17, 0
15, 22, 0
15, 23, 0
15, 2, 0
22, 15, 0
22, 23, 1
22, 2, 0
0, 18, 0
0, 2, 0
3, 16, 0
3, 18, 0
3, 9, 0
16, 3, 0
16, 19, 0
16, 9, 0
6, 20, 0
6, 14, 0
10, 19, 0
10, 9, 1
7, 20, 0
7, 8, 1
7, 17, 0
7, 11, 0
12, 21, 0
12, 13, 1
12, 5, 0
2, 0, 0
2, 15, 0
2, 22, 0
2, 23, 0
21, 12, 0
21, 1, 0
21, 13, 0
21, 5, 0
21, 24, 0
19, 16, 0
19, 10, 0
19, 9, 0
19, 5, 0
19, 1, 0
18, 0, 0
18, 3, 0
9, 16, 0
9, 3, 0
9, 19, 0
9, 10, 1
