0, 12, 0
0, 17, 0
0, 11, 0
13, 2, 0
17, 0, 0
17, 14, 0
3, 14, 0
3, 4, 0
3, 15, 0
16, 10, 0
16, 1, 0
6, 2, 0
6, 5, 1
6, 10, 0
8, 18, 0
8, 1, 0
5, 6, 1
5, 2, 0
5, 10, 0
11, 0, 0
11, 12, 0
10, 16, 0
10, 6, 0
10, 2, 0
10, 5, 0
10, 1, 0
7, 12, 0
12, 7, 0
12, 0, 0
12, 11, 0
4, 3, 0
4, 9, 0
14, 15, 0
14, 17, 0
14, 3, 0
2, 6, 0
2, 13, 0
2, 5, 0
2, 10, 0
1, 16, 0
1, 8, 0
1, 10, 0
15, 3, 0
15, 14, 0
18, 8, 0
18, 9, 0
9, 18, 0
9, 4, 0
