13, 24, 0
13, 12, 0
13, 10, 0
13, 1, 0
17, 18, 1
17, 6, 0
17, 23, 0
17, 2, 0
23, 0, 0
23, 16, 0
23, 17, 0
23, 2, 0
23, 21, 0
23, 6, 0
5, 0, 0
5, 20, 0
5, 16, 0
5, 11, 0
5, 1, 0
5, 7, 0
5, 3, 0
5, 14, 0
5, 26, 0
5, 24, 0
5, 25, 0
5, 19, 0
5, 8, 0
11, 3, 0
11, 19, 0
11, 5, 0
1, 24, 0
1, 12, 0
1, 13, 0
1, 5, 0
1, 10, 0
20, 7, 0
20, 3, 0
20, 8, 0
20, 5, 0
4, 22, 0
4, 2, 0
14, 19, 0
14, 5, 0
14, 26, 0
24, 12, 0
24, 13, 0
24, 1, 0
24, 15, 0
24, 5, 0
24, 10, 0
8, 20, 0
8, 7, 1
8, 5, 0
8, 3, 0
15, 25, 0
15, 24, 0
22, 4, 0
22, 9, 0
0, 21, 0
0, 16, 0
0, 5, 0
0, 23, 0
0, 6, 0
3, 20, 0
3, 7, 0
3, 8, 0
3, 5, 0
3, 11, 0
16, 0, 0
16, 7, 0
16, 23, 0
16, 21, 0
16, 6, 0
16, 5, 0
6, 0, 0
6, 16, 0
6, 17, 0
6, 23, 0
6, 2, 0
6, 21, 0
6, 18, 0
10, 24, 0
10, 12, 0
10, 13, 0
10, 1, 0
7, 20, 0
7, 3, 0
7, 16, 0
7, 8, 1
7, 5, 0
12, 24, 0
12, 13, 0
12, 10, 0
12, 1, 0
25, 15, 0
25, 5, 0
25, 26, 0
26, 25, 0
26, 19, 0
26, 14, 0
26, 5, 0
2, 18, 0
2, 6, 0
2, 4, 0
2, 17, 0
2, 23, 0
21, 0, 0
21, 6, 0
21, 16, 0
21, 23, 0
19, 26, 0
19, 14, 0
19, 5, 0
19, 11, 0
18, 6, 0
18, 17, 1
18, 2, 0
9, 22, 0
