0, 8, 0
0, 5, 0
3, 7, 0
3, 2, 0
3, 10, 0
4, 7, 0
4, 1, 0
4, 10, 0
4, 2, 0
2, 7, 0
2, 3, 0
2, 4, 0
2, 9, 0
2, 6, 0
2, 10, 0
2, 1, 1
6, 2, 0
6, 8, 0
6, 9, 0
1, 7, 0
1, 4, 0
1, 2, 1
8, 0, 0
8, 6, 0
8, 10, 0
8, 5, 0
8, 9, 0
5, 0, 0
5, 8, 0
7, 3, 0
7, 1, 0
7, 4, 0
7, 2, 0
10, 2, 0
10, 3, 0
10, 8, 0
10, 4, 0
10, 9, 0
9, 2, 0
9, 6, 0
9, 8, 0
9, 10, 0
