0, 11, 0
0, 2, 0
13, 6, 0
13, 15, 0
13, 5, 0
3, 16, 0
3, 9, 0
3, 1, 0
16, 3, 0
16, 1, 0
16, 9, 0
6, 13, 0
6, 5, 0
8, 5, 0
8, 1, 0
5, 6, 0
5, 8, 0
5, 13, 0
11, 0, 0
11, 7, 0
11, 14, 0
10, 12, 0
10, 4, 0
7, 15, 0
7, 14, 0
7, 11, 0
12, 10, 0
4, 2, 0
4, 10, 0
14, 7, 0
14, 11, 0
2, 0, 0
2, 4, 0
1, 16, 0
1, 3, 0
1, 8, 0
1, 9, 0
15, 7, 0
15, 13, 0
9, 16, 0
9, 3, 0
9, 1, 0
