0, 13, 0
0, 10, 0
0, 11, 0
0, 2, 0
13, 0, 0
13, 9, 0
13, 11, 0
13, 10, 0
17, 7, 0
17, 18, 0
17, 5, 0
17, 12, 0
3, 12, 0
3, 1, 0
3, 6, 0
16, 15, 0
6, 3, 0
6, 1, 0
8, 4, 0
5, 18, 0
5, 7, 0
5, 17, 0
5, 12, 0
11, 0, 0
11, 13, 0
11, 9, 0
11, 10, 0
10, 0, 0
10, 13, 0
10, 11, 0
10, 9, 0
7, 18, 0
7, 12, 0
7, 17, 0
7, 5, 0
12, 7, 0
12, 3, 0
12, 17, 0
12, 5, 0
4, 8, 0
4, 14, 0
14, 18, 0
14, 4, 0
2, 0, 0
2, 1, 0
1, 6, 0
1, 3, 0
1, 2, 0
15, 16, 0
15, 9, 0
18, 7, 0
18, 14, 0
18, 17, 0
18, 5, 0
9, 13, 0
9, 15, 0
9, 11, 0
9, 10, 0
