0, 7, 0
0, 3, 0
0, 4, 0
0, 5, 0
13, 6, 0
13, 8, 0
13, 9, 0
13, 1, 0
3, 0, 0
3, 4, 0
3, 9, 0
6, 8, 0
6, 13, 0
6, 9, 0
8, 12, 0
8, 13, 0
8, 9, 0
8, 11, 0
8, 6, 0
5, 0, 0
5, 10, 0
5, 9, 0
5, 1, 0
11, 12, 0
11, 8, 0
11, 9, 0
11, 2, 0
10, 7, 0
10, 4, 0
10, 5, 0
10, 9, 0
7, 0, 0
7, 4, 0
7, 9, 0
7, 10, 0
12, 8, 0
12, 9, 0
12, 11, 0
12, 2, 0
4, 0, 0
4, 7, 0
4, 9, 0
4, 3, 0
4, 10, 0
2, 12, 0
2, 11, 0
1, 13, 0
1, 5, 0
1, 9, 0
9, 7, 0
9, 3, 0
9, 13, 0
9, 4, 0
9, 12, 0
9, 6, 0
9, 1, 0
9, 8, 0
9, 5, 0
9, 11, 0
9, 10, 0
