0, 10, 0
0, 8, 0
0, 9, 0
0, 2, 0
3, 7, 0
3, 6, 0
3, 4, 1
3, 5, 0
3, 1, 0
4, 7, 0
4, 3, 1
4, 6, 0
4, 10, 0
4, 5, 0
4, 1, 0
2, 0, 0
2, 7, 0
2, 10, 0
2, 9, 0
6, 7, 0
6, 3, 0
6, 4, 0
6, 10, 0
6, 5, 1
6, 1, 0
1, 7, 0
1, 3, 0
1, 4, 0
1, 6, 0
1, 8, 0
1, 5, 0
8, 0, 0
8, 7, 0
8, 9, 0
8, 10, 0
8, 5, 0
8, 1, 0
5, 7, 0
5, 3, 0
5, 4, 0
5, 6, 1
5, 8, 0
5, 1, 0
7, 3, 0
7, 4, 0
7, 9, 0
7, 2, 0
7, 6, 0
7, 8, 0
7, 5, 0
7, 10, 0
7, 1, 0
10, 0, 0
10, 7, 0
10, 4, 0
10, 2, 0
10, 6, 0
10, 8, 0
10, 9, 1
9, 0, 0
9, 7, 0
9, 2, 0
9, 8, 0
9, 10, 1
