13, 23, 0
13, 26, 0
17, 0, 0
17, 6, 0
17, 5, 0
17, 22, 0
17, 12, 0
23, 19, 0
23, 13, 0
23, 26, 0
2, 7, 0
2, 4, 0
5, 6, 0
5, 17, 0
5, 22, 0
5, 1, 0
11, 16, 0
11, 3, 0
11, 10, 1
1, 19, 0
1, 5, 0
1, 22, 0
20, 18, 0
20, 3, 0
20, 15, 0
20, 26, 0
4, 2, 0
4, 8, 0
4, 25, 0
4, 24, 0
14, 16, 0
14, 27, 0
24, 8, 0
24, 25, 1
24, 4, 0
8, 21, 0
8, 4, 0
8, 25, 0
8, 9, 0
8, 24, 0
15, 20, 0
15, 3, 0
15, 18, 0
22, 6, 0
22, 17, 0
22, 5, 0
22, 1, 0
0, 21, 0
0, 12, 0
0, 17, 0
3, 20, 0
3, 27, 0
3, 15, 0
3, 18, 0
3, 11, 0
16, 27, 0
16, 14, 0
16, 11, 0
16, 10, 0
6, 17, 0
6, 5, 0
6, 22, 0
10, 16, 0
10, 11, 1
7, 2, 0
12, 0, 0
12, 21, 0
12, 17, 0
25, 8, 0
25, 4, 0
25, 24, 1
26, 20, 0
26, 18, 0
26, 13, 0
26, 23, 0
27, 16, 0
27, 3, 0
27, 14, 0
21, 0, 0
21, 12, 0
21, 8, 0
21, 9, 0
19, 23, 0
19, 1, 0
18, 20, 0
18, 3, 0
18, 15, 0
18, 26, 0
9, 21, 0
9, 8, 0
