13, 20, 0
13, 4, 0
13, 19, 0
13, 8, 0
13, 5, 0
13, 22, 0
13, 1, 0
17, 0, 0
17, 18, 0
17, 30, 0
17, 14, 0
17, 29, 0
31, 12, 0
31, 1, 0
23, 2, 0
23, 19, 0
23, 9, 0
23, 11, 0
23, 10, 0
10, 19, 0
10, 2, 0
10, 11, 1
10, 23, 0
10, 9, 1
2, 20, 0
2, 7, 0
2, 23, 0
2, 19, 0
2, 10, 0
2, 9, 0
5, 20, 0
5, 33, 0
5, 13, 0
5, 32, 0
5, 34, 0
5, 19, 0
5, 8, 0
5, 15, 0
5, 7, 0
5, 22, 0
5, 1, 0
11, 19, 0
11, 23, 0
11, 10, 1
1, 20, 0
1, 12, 0
1, 13, 0
1, 31, 0
1, 8, 0
1, 5, 0
1, 22, 0
20, 0, 0
20, 13, 0
20, 28, 0
20, 32, 0
20, 3, 0
20, 18, 0
20, 2, 0
20, 5, 0
20, 1, 0
20, 7, 0
20, 12, 0
20, 4, 0
20, 14, 0
20, 26, 0
20, 24, 0
20, 21, 0
20, 33, 0
20, 19, 0
20, 34, 0
20, 15, 0
20, 30, 0
4, 20, 0
4, 21, 0
4, 13, 0
14, 20, 0
14, 30, 0
14, 24, 0
14, 17, 0
14, 29, 0
24, 20, 0
24, 16, 0
24, 14, 0
24, 6, 0
28, 20, 0
28, 12, 0
28, 25, 0
28, 33, 0
30, 20, 0
30, 0, 0
30, 7, 0
30, 14, 0
30, 29, 1
30, 17, 0
8, 13, 0
8, 5, 0
8, 22, 0
8, 1, 0
15, 20, 0
15, 32, 0
15, 27, 0
15, 16, 0
15, 6, 0
15, 5, 0
22, 8, 0
22, 13, 0
22, 5, 0
22, 1, 0
0, 20, 0
0, 18, 0
0, 17, 0
0, 30, 0
3, 20, 0
3, 34, 0
3, 25, 0
3, 32, 0
34, 20, 0
34, 3, 0
34, 5, 0
34, 32, 0
34, 33, 0
16, 6, 0
16, 15, 0
16, 24, 0
6, 16, 0
6, 15, 0
6, 24, 0
27, 15, 0
27, 32, 0
7, 20, 0
7, 2, 0
7, 18, 0
7, 19, 0
7, 5, 0
7, 30, 0
12, 20, 0
12, 25, 0
12, 28, 0
12, 31, 0
12, 1, 0
25, 3, 0
25, 12, 0
25, 28, 0
25, 32, 0
25, 33, 0
32, 20, 0
32, 34, 0
32, 25, 0
32, 3, 0
32, 27, 0
32, 15, 0
32, 5, 0
29, 14, 0
29, 17, 0
29, 30, 1
21, 20, 0
21, 4, 0
21, 26, 0
33, 20, 0
33, 25, 0
33, 28, 0
33, 5, 0
33, 34, 0
19, 20, 0
19, 7, 0
19, 13, 0
19, 26, 0
19, 23, 0
19, 2, 0
19, 9, 0
19, 5, 0
19, 11, 0
19, 10, 0
26, 20, 0
26, 21, 0
26, 19, 0
18, 20, 0
18, 0, 0
18, 7, 0
18, 17, 0
9, 19, 0
9, 2, 0
9, 23, 0
9, 10, 1
