13, 34, 0
13, 9, 0
13, 31, 0
13, 23, 0
13, 12, 0
13, 16, 0
13, 5, 0
13, 29, 0
13, 15, 0
13, 41, 0
13, 10, 0
17, 39, 0
17, 16, 0
17, 27, 0
17, 15, 0
17, 29, 0
17, 5, 0
17, 1, 0
17, 34, 0
17, 43, 0
17, 25, 0
17, 44, 0
17, 37, 0
17, 42, 0
17, 19, 0
17, 38, 0
17, 41, 0
17, 18, 0
17, 36, 0
23, 13, 0
23, 31, 0
23, 32, 0
23, 29, 0
23, 16, 0
23, 26, 0
23, 15, 0
23, 41, 0
23, 22, 0
23, 5, 0
42, 17, 0
42, 21, 0
42, 27, 0
42, 15, 0
42, 40, 0
42, 5, 0
42, 34, 0
42, 25, 0
42, 31, 0
42, 29, 0
42, 37, 0
42, 39, 0
42, 41, 0
42, 36, 0
46, 18, 0
46, 14, 0
46, 37, 0
46, 43, 0
46, 19, 0
46, 44, 0
20, 4, 0
20, 9, 0
20, 2, 0
14, 37, 0
14, 46, 0
14, 44, 0
24, 19, 0
24, 43, 0
28, 7, 0
28, 25, 0
28, 31, 0
28, 29, 0
28, 6, 0
28, 15, 0
28, 41, 0
28, 5, 0
39, 17, 0
39, 16, 0
39, 5, 0
39, 1, 0
39, 34, 0
39, 25, 0
39, 31, 0
39, 29, 0
39, 37, 0
39, 42, 0
39, 8, 0
39, 41, 0
39, 36, 0
41, 13, 0
41, 28, 0
41, 31, 0
41, 23, 0
41, 40, 0
41, 17, 0
41, 30, 0
41, 39, 0
41, 35, 0
41, 42, 0
41, 8, 0
41, 15, 0
41, 0, 0
41, 45, 0
41, 38, 0
41, 3, 0
41, 16, 0
41, 6, 0
41, 1, 0
41, 7, 0
41, 34, 0
41, 25, 0
41, 32, 0
41, 27, 0
41, 37, 0
41, 26, 0
41, 18, 0
0, 34, 0
0, 31, 0
0, 33, 0
0, 16, 0
0, 29, 0
0, 2, 0
0, 35, 0
0, 15, 0
0, 41, 0
0, 5, 0
0, 9, 0
8, 34, 0
8, 25, 0
8, 31, 0
8, 26, 0
8, 29, 0
8, 16, 0
8, 39, 0
8, 41, 0
8, 5, 0
12, 34, 0
12, 13, 0
12, 10, 0
12, 33, 0
15, 0, 0
15, 13, 0
15, 28, 0
15, 31, 0
15, 23, 0
15, 16, 1
15, 6, 0
15, 35, 0
15, 5, 0
15, 27, 0
15, 7, 0
15, 34, 0
15, 26, 0
15, 25, 0
15, 32, 0
15, 29, 0
15, 37, 0
15, 17, 0
15, 42, 0
15, 41, 0
15, 36, 0
10, 34, 0
10, 13, 0
10, 12, 0
10, 33, 0
10, 9, 0
7, 28, 0
7, 27, 0
7, 5, 0
7, 1, 0
7, 3, 0
7, 25, 0
7, 31, 0
7, 29, 0
7, 30, 0
7, 15, 0
7, 41, 0
7, 36, 0
3, 7, 0
3, 25, 0
3, 26, 0
3, 31, 0
3, 29, 0
3, 16, 0
3, 6, 0
3, 35, 0
3, 41, 0
3, 5, 0
32, 45, 0
32, 31, 0
32, 23, 0
32, 16, 0
32, 6, 0
32, 5, 0
32, 25, 0
32, 26, 0
32, 29, 0
32, 15, 0
32, 41, 0
32, 22, 0
2, 20, 0
2, 0, 0
2, 4, 0
2, 11, 0
2, 9, 0
21, 37, 0
21, 42, 0
21, 40, 0
21, 5, 0
33, 0, 0
33, 34, 0
33, 10, 0
33, 12, 0
33, 9, 0
19, 17, 0
19, 24, 0
19, 37, 0
19, 43, 0
19, 46, 0
19, 44, 0
18, 46, 0
18, 17, 0
18, 29, 0
18, 16, 0
18, 25, 0
18, 36, 0
18, 38, 0
18, 41, 0
18, 5, 0
31, 13, 0
31, 28, 0
31, 26, 0
31, 23, 0
31, 15, 0
31, 29, 0
31, 1, 0
31, 35, 0
31, 42, 0
31, 8, 0
31, 39, 0
31, 41, 0
31, 0, 0
31, 45, 0
31, 3, 0
31, 16, 0
31, 6, 0
31, 7, 0
31, 34, 0
31, 32, 0
31, 27, 0
31, 37, 0
29, 13, 0
29, 28, 0
29, 31, 0
29, 23, 0
29, 15, 0
29, 17, 0
29, 1, 0
29, 35, 0
29, 42, 0
29, 8, 0
29, 39, 0
29, 22, 0
29, 0, 0
29, 45, 0
29, 38, 0
29, 3, 0
29, 16, 0
29, 6, 0
29, 7, 0
29, 34, 0
29, 32, 0
29, 27, 0
29, 37, 0
29, 26, 0
29, 18, 0
40, 25, 0
40, 27, 0
40, 21, 0
40, 42, 0
40, 1, 0
40, 41, 0
40, 5, 0
11, 4, 0
11, 9, 0
11, 2, 0
5, 13, 0
5, 28, 0
5, 26, 0
5, 23, 0
5, 15, 0
5, 40, 0
5, 1, 0
5, 21, 0
5, 35, 0
5, 17, 0
5, 8, 0
5, 39, 0
5, 36, 0
5, 0, 0
5, 38, 0
5, 34, 0
5, 16, 0
5, 6, 0
5, 44, 0
5, 7, 0
5, 3, 0
5, 42, 0
5, 32, 0
5, 27, 0
5, 37, 0
5, 25, 0
5, 18, 0
37, 17, 0
37, 15, 0
37, 5, 0
37, 46, 0
37, 44, 0
37, 34, 0
37, 43, 0
37, 25, 0
37, 31, 0
37, 29, 0
37, 21, 0
37, 42, 0
37, 14, 0
37, 36, 0
37, 39, 0
37, 41, 0
37, 19, 0
4, 20, 0
4, 9, 0
4, 11, 0
4, 2, 0
35, 0, 0
35, 3, 0
35, 31, 0
35, 29, 0
35, 16, 0
35, 15, 0
35, 41, 0
35, 5, 0
30, 7, 0
30, 27, 0
30, 41, 0
30, 45, 0
38, 17, 0
38, 29, 0
38, 18, 0
38, 25, 0
38, 36, 0
38, 5, 0
38, 41, 0
38, 1, 0
22, 32, 0
22, 23, 0
22, 29, 0
36, 17, 0
36, 39, 0
36, 18, 0
36, 27, 0
36, 15, 0
36, 44, 0
36, 5, 0
36, 7, 0
36, 16, 0
36, 37, 0
36, 42, 0
36, 1, 0
36, 38, 0
45, 31, 0
45, 26, 0
45, 29, 0
45, 6, 0
45, 32, 0
45, 41, 0
45, 30, 0
16, 0, 0
16, 13, 0
16, 17, 0
16, 31, 0
16, 23, 0
16, 3, 0
16, 18, 0
16, 39, 0
16, 35, 0
16, 5, 0
16, 1, 0
16, 34, 0
16, 25, 0
16, 32, 0
16, 29, 0
16, 26, 0
16, 8, 0
16, 15, 1
16, 41, 0
16, 36, 0
27, 17, 0
27, 40, 0
27, 5, 0
27, 30, 0
27, 7, 0
27, 25, 0
27, 31, 0
27, 29, 0
27, 42, 0
27, 1, 0
27, 15, 0
27, 41, 0
27, 36, 0
1, 17, 0
1, 39, 0
1, 16, 0
1, 27, 0
1, 40, 0
1, 5, 0
1, 7, 0
1, 34, 0
1, 25, 0
1, 31, 0
1, 29, 0
1, 38, 0
1, 41, 0
1, 36, 0
44, 43, 0
44, 37, 0
44, 14, 0
44, 19, 0
44, 5, 0
44, 46, 0
44, 17, 0
44, 36, 0
34, 0, 0
34, 13, 0
34, 17, 0
34, 26, 0
34, 33, 0
34, 16, 0
34, 39, 0
34, 1, 0
34, 5, 0
34, 10, 0
34, 12, 0
34, 31, 0
34, 29, 0
34, 37, 0
34, 42, 0
34, 8, 0
34, 15, 0
34, 41, 0
25, 28, 0
25, 32, 0
25, 39, 0
25, 16, 0
25, 27, 0
25, 15, 0
25, 40, 0
25, 5, 0
25, 17, 0
25, 1, 0
25, 7, 0
25, 3, 0
25, 26, 0
25, 6, 0
25, 37, 0
25, 42, 0
25, 8, 0
25, 38, 0
25, 41, 0
25, 18, 0
26, 45, 0
26, 31, 0
26, 23, 0
26, 34, 0
26, 16, 0
26, 5, 0
26, 3, 0
26, 25, 0
26, 32, 0
26, 29, 0
26, 8, 0
26, 15, 0
26, 41, 0
6, 3, 0
6, 28, 0
6, 32, 0
6, 31, 0
6, 45, 0
6, 25, 0
6, 29, 0
6, 15, 0
6, 41, 0
6, 5, 0
43, 17, 0
43, 24, 0
43, 37, 0
43, 19, 0
43, 44, 0
43, 46, 0
9, 20, 0
9, 0, 0
9, 13, 0
9, 4, 0
9, 33, 0
9, 2, 0
9, 11, 0
9, 10, 0
