0, 8, 0
0, 9, 0
0, 5, 0
0, 11, 0
0, 2, 0
8, 0, 0
8, 6, 0
8, 11, 0
8, 9, 0
3, 7, 0
3, 12, 0
3, 6, 0
3, 9, 0
3, 5, 0
3, 11, 0
3, 1, 0
6, 3, 0
6, 8, 0
6, 5, 0
6, 9, 0
5, 0, 0
5, 3, 0
5, 12, 0
5, 6, 0
5, 9, 0
5, 10, 0
11, 0, 0
11, 3, 0
11, 2, 0
11, 1, 0
11, 8, 0
11, 10, 0
10, 5, 0
10, 11, 0
10, 2, 0
7, 12, 0
7, 3, 0
7, 1, 0
12, 7, 0
12, 3, 0
12, 9, 0
12, 5, 0
12, 1, 0
4, 1, 0
2, 0, 0
2, 11, 0
2, 10, 0
1, 7, 0
1, 12, 0
1, 4, 0
1, 11, 0
1, 3, 0
9, 0, 0
9, 3, 0
9, 12, 0
9, 6, 0
9, 8, 0
9, 5, 0
