58, 25, 0
58, 56, 0
58, 23, 0
58, 24, 0
58, 14, 0
58, 27, 0
58, 8, 0
58, 46, 0
58, 22, 0
58, 36, 0
61, 13, 0
61, 28, 0
61, 62, 1
61, 71, 0
13, 33, 0
13, 28, 0
13, 62, 0
13, 51, 0
13, 61, 0
13, 52, 0
13, 71, 0
13, 72, 0
13, 41, 0
17, 73, 0
17, 67, 0
17, 25, 0
17, 31, 0
17, 26, 0
17, 24, 0
17, 16, 1
17, 2, 0
17, 53, 0
17, 64, 0
17, 30, 0
29, 0, 0
29, 34, 0
29, 54, 0
29, 77, 0
29, 51, 0
29, 38, 0
29, 49, 0
29, 15, 0
29, 52, 0
23, 58, 0
23, 70, 0
23, 56, 0
23, 24, 0
23, 27, 0
23, 8, 0
63, 83, 0
63, 69, 0
63, 43, 0
63, 51, 0
63, 66, 0
63, 52, 0
63, 1, 0
63, 40, 0
63, 5, 0
63, 80, 0
63, 65, 0
79, 68, 0
79, 69, 0
79, 43, 0
79, 77, 0
79, 32, 0
79, 80, 1
24, 58, 0
24, 53, 0
24, 17, 0
24, 23, 0
24, 71, 0
24, 46, 0
24, 30, 0
24, 57, 0
24, 14, 0
24, 42, 0
24, 8, 0
24, 15, 0
24, 22, 0
24, 36, 0
24, 56, 0
24, 16, 0
24, 55, 0
24, 47, 0
24, 12, 0
24, 25, 1
24, 2, 0
24, 37, 0
24, 9, 0
46, 58, 0
46, 55, 0
46, 75, 0
46, 71, 0
46, 82, 0
46, 24, 0
46, 8, 0
46, 15, 0
46, 22, 0
46, 36, 0
46, 0, 0
46, 45, 0
46, 56, 0
46, 51, 0
46, 16, 0
46, 39, 0
46, 53, 0
46, 47, 1
46, 73, 0
46, 60, 0
46, 52, 0
46, 37, 0
46, 25, 0
46, 14, 0
80, 68, 0
80, 69, 0
80, 43, 0
80, 77, 0
80, 32, 0
80, 83, 0
80, 63, 0
80, 84, 0
80, 79, 1
65, 3, 0
65, 52, 0
65, 51, 0
65, 66, 0
65, 63, 0
65, 40, 0
65, 5, 0
20, 7, 0
20, 37, 0
20, 22, 0
20, 56, 0
20, 21, 1
20, 6, 0
20, 11, 0
43, 68, 0
43, 69, 0
43, 52, 0
43, 32, 0
43, 51, 0
43, 83, 0
43, 63, 0
43, 38, 0
43, 79, 0
43, 80, 0
43, 77, 0
53, 17, 0
53, 31, 0
53, 16, 0
53, 55, 0
53, 46, 0
53, 30, 0
53, 78, 0
53, 25, 0
53, 50, 0
53, 26, 0
53, 24, 0
53, 14, 0
53, 42, 0
66, 83, 0
66, 52, 0
66, 51, 0
66, 63, 0
66, 40, 0
66, 65, 0
66, 72, 0
66, 5, 0
66, 1, 0
42, 78, 0
42, 53, 0
42, 14, 0
42, 50, 0
42, 26, 0
42, 24, 0
42, 16, 0
42, 31, 0
42, 55, 0
42, 67, 0
42, 56, 0
15, 0, 0
15, 45, 0
15, 77, 0
15, 51, 0
15, 18, 0
15, 29, 0
15, 59, 0
15, 46, 0
15, 47, 0
15, 44, 0
15, 16, 0
15, 56, 0
15, 52, 0
15, 32, 0
15, 24, 0
15, 54, 0
15, 14, 1
15, 49, 0
15, 38, 0
15, 36, 0
41, 33, 0
41, 13, 0
41, 52, 0
41, 4, 0
41, 72, 0
41, 81, 0
41, 71, 0
41, 74, 0
41, 10, 0
0, 45, 0
0, 54, 0
0, 77, 0
0, 29, 0
0, 18, 0
0, 15, 0
0, 38, 0
0, 46, 0
0, 47, 0
0, 44, 0
68, 83, 0
68, 69, 1
68, 43, 0
68, 32, 0
68, 84, 0
68, 79, 0
68, 80, 0
84, 68, 0
84, 52, 0
84, 51, 0
84, 83, 0
84, 40, 0
84, 80, 0
62, 61, 1
62, 74, 0
62, 13, 0
62, 28, 0
62, 71, 0
51, 13, 0
51, 28, 0
51, 65, 0
51, 63, 0
51, 71, 0
51, 40, 0
51, 46, 0
51, 1, 0
51, 83, 0
51, 43, 0
51, 66, 0
51, 84, 0
51, 38, 0
51, 36, 0
51, 77, 0
51, 15, 0
51, 55, 0
51, 10, 0
51, 33, 0
51, 25, 0
51, 32, 0
51, 29, 0
51, 72, 0
51, 52, 1
51, 14, 0
51, 49, 0
12, 57, 0
12, 25, 0
12, 2, 0
12, 36, 0
12, 9, 0
12, 64, 0
12, 73, 0
12, 24, 0
12, 30, 0
76, 70, 0
76, 56, 0
76, 35, 0
76, 60, 0
76, 27, 0
76, 8, 0
74, 33, 0
74, 4, 0
74, 62, 0
74, 81, 0
74, 71, 0
74, 41, 0
47, 0, 0
47, 45, 0
47, 56, 0
47, 16, 0
47, 15, 0
47, 55, 0
47, 46, 1
47, 75, 0
47, 14, 0
47, 24, 0
47, 37, 0
47, 82, 0
47, 8, 0
47, 39, 0
47, 18, 0
47, 36, 0
10, 3, 0
10, 4, 0
10, 51, 0
10, 72, 0
10, 41, 0
10, 1, 0
7, 20, 0
7, 75, 0
7, 82, 0
7, 21, 0
7, 37, 0
7, 6, 1
7, 11, 0
7, 27, 0
3, 4, 0
3, 72, 0
3, 81, 0
3, 71, 0
3, 65, 0
3, 10, 0
3, 1, 0
69, 83, 0
69, 43, 0
69, 32, 0
69, 34, 0
69, 63, 0
69, 79, 0
69, 68, 1
69, 80, 0
32, 68, 0
32, 77, 0
32, 51, 0
32, 34, 0
32, 15, 0
32, 79, 0
32, 80, 0
32, 83, 0
32, 69, 0
32, 43, 0
32, 49, 0
32, 38, 0
2, 17, 0
2, 67, 0
2, 16, 0
2, 73, 0
2, 57, 0
2, 12, 0
2, 25, 0
2, 31, 0
2, 24, 0
2, 30, 0
2, 64, 0
2, 48, 0
2, 9, 0
37, 7, 0
37, 56, 0
37, 6, 0
37, 46, 0
37, 11, 0
37, 20, 0
37, 82, 0
37, 47, 0
37, 24, 0
37, 21, 0
37, 14, 0
37, 22, 0
37, 36, 0
33, 4, 0
33, 13, 0
33, 51, 0
33, 72, 0
33, 74, 0
33, 41, 0
19, 71, 0
49, 34, 0
49, 14, 0
49, 51, 0
49, 32, 0
49, 29, 0
49, 38, 0
49, 15, 0
49, 77, 0
60, 73, 0
60, 25, 0
60, 14, 0
60, 9, 0
60, 56, 0
60, 35, 0
60, 46, 0
60, 76, 0
60, 8, 0
60, 48, 0
60, 36, 0
48, 60, 0
48, 35, 0
48, 8, 0
48, 9, 0
48, 2, 0
16, 71, 0
16, 17, 1
16, 31, 0
16, 56, 0
16, 15, 0
16, 53, 0
16, 46, 0
16, 47, 0
16, 55, 0
16, 24, 0
16, 67, 0
16, 25, 0
16, 26, 0
16, 2, 0
16, 42, 0
16, 14, 0
16, 73, 0
16, 64, 0
70, 76, 0
70, 8, 0
70, 56, 0
70, 23, 0
31, 67, 0
31, 78, 0
31, 17, 0
31, 26, 0
31, 2, 0
31, 16, 0
31, 42, 0
31, 53, 0
31, 30, 0
28, 72, 0
28, 13, 0
28, 52, 0
28, 62, 0
28, 51, 0
28, 61, 0
28, 71, 0
45, 0, 0
45, 75, 0
45, 39, 0
45, 59, 0
45, 46, 0
45, 47, 0
45, 44, 0
45, 34, 0
45, 54, 0
45, 14, 0
45, 15, 0
45, 18, 0
75, 7, 0
75, 45, 0
75, 82, 0
75, 21, 0
75, 6, 0
75, 39, 0
75, 46, 0
75, 47, 0
40, 83, 0
40, 52, 0
40, 51, 0
40, 66, 0
40, 63, 0
40, 84, 0
40, 65, 0
71, 13, 0
71, 28, 0
71, 62, 0
71, 51, 0
71, 16, 0
71, 74, 0
71, 46, 0
71, 3, 0
71, 77, 0
71, 14, 0
71, 24, 0
71, 61, 0
71, 52, 0
71, 19, 0
71, 72, 0
71, 41, 0
71, 36, 0
59, 15, 0
59, 14, 0
59, 44, 0
59, 54, 0
59, 45, 0
11, 20, 0
11, 7, 0
11, 21, 0
11, 37, 0
11, 6, 0
11, 22, 0
11, 27, 0
5, 63, 0
5, 1, 0
5, 65, 0
5, 52, 0
5, 66, 0
54, 0, 0
54, 45, 0
54, 38, 0
54, 14, 0
54, 29, 0
54, 18, 0
54, 15, 0
54, 34, 0
54, 59, 0
54, 44, 0
83, 68, 0
83, 69, 0
83, 52, 0
83, 32, 0
83, 51, 0
83, 66, 0
83, 63, 0
83, 43, 0
83, 84, 0
83, 40, 0
83, 80, 0
78, 67, 0
78, 50, 0
78, 26, 0
78, 31, 0
78, 42, 0
78, 53, 0
4, 3, 0
4, 33, 0
4, 72, 0
4, 81, 0
4, 74, 0
4, 41, 0
4, 10, 0
82, 7, 0
82, 75, 0
82, 21, 0
82, 37, 0
82, 39, 0
82, 18, 0
82, 47, 0
82, 46, 0
39, 45, 0
39, 82, 0
39, 47, 0
39, 75, 0
39, 44, 0
39, 18, 0
39, 46, 0
35, 60, 0
35, 76, 0
35, 8, 0
35, 48, 0
35, 27, 0
81, 3, 0
81, 4, 0
81, 74, 0
81, 41, 0
30, 53, 0
30, 17, 0
30, 31, 0
30, 2, 0
30, 73, 0
30, 12, 0
30, 25, 0
30, 26, 0
30, 24, 0
30, 9, 0
30, 64, 0
30, 36, 0
8, 58, 0
8, 70, 0
8, 23, 0
8, 56, 0
8, 60, 0
8, 76, 0
8, 35, 0
8, 46, 0
8, 47, 0
8, 14, 0
8, 24, 0
8, 25, 0
8, 48, 0
8, 36, 0
38, 0, 0
38, 77, 0
38, 51, 0
38, 18, 0
38, 52, 0
38, 44, 0
38, 54, 0
38, 32, 0
38, 29, 0
38, 43, 0
38, 14, 0
38, 49, 0
38, 15, 0
22, 58, 0
22, 20, 0
22, 14, 0
22, 56, 0
22, 24, 0
22, 37, 0
22, 6, 0
22, 27, 0
22, 46, 0
22, 11, 0
22, 36, 0
36, 58, 0
36, 51, 0
36, 56, 0
36, 60, 0
36, 71, 0
36, 46, 0
36, 47, 0
36, 73, 0
36, 12, 0
36, 25, 0
36, 24, 0
36, 37, 0
36, 14, 0
36, 30, 0
36, 8, 0
36, 15, 0
36, 22, 0
36, 9, 0
25, 58, 0
25, 16, 0
25, 53, 0
25, 17, 0
25, 51, 0
25, 56, 0
25, 60, 0
25, 8, 0
25, 55, 0
25, 46, 0
25, 73, 0
25, 57, 0
25, 12, 0
25, 14, 0
25, 9, 0
25, 24, 1
25, 2, 0
25, 30, 0
25, 36, 0
57, 24, 0
57, 12, 0
57, 9, 0
57, 25, 0
57, 2, 0
77, 0, 0
77, 51, 0
77, 15, 0
77, 71, 0
77, 79, 0
77, 80, 0
77, 34, 0
77, 43, 0
77, 32, 0
77, 29, 0
77, 52, 0
77, 14, 0
77, 49, 0
77, 38, 0
64, 12, 0
64, 17, 0
64, 26, 0
64, 2, 0
64, 16, 0
64, 67, 0
64, 30, 0
18, 0, 0
18, 45, 0
18, 38, 0
18, 82, 0
18, 15, 0
18, 54, 0
18, 14, 0
18, 39, 0
18, 44, 0
18, 47, 0
27, 58, 0
27, 7, 0
27, 23, 0
27, 56, 0
27, 35, 0
27, 76, 0
27, 22, 0
27, 11, 0
1, 3, 0
1, 14, 0
1, 51, 0
1, 66, 0
1, 63, 0
1, 52, 0
1, 72, 0
1, 5, 0
1, 10, 0
55, 14, 0
55, 56, 0
55, 51, 0
55, 24, 0
55, 16, 0
55, 25, 0
55, 53, 0
55, 42, 0
55, 46, 0
55, 47, 0
44, 0, 0
44, 45, 0
44, 38, 0
44, 14, 0
44, 18, 0
44, 54, 0
44, 15, 0
44, 39, 0
44, 59, 0
73, 12, 0
73, 25, 0
73, 9, 0
73, 56, 0
73, 2, 0
73, 16, 0
73, 17, 0
73, 36, 0
73, 60, 0
73, 46, 0
73, 30, 0
34, 45, 0
34, 69, 0
34, 54, 0
34, 77, 0
34, 32, 0
34, 29, 0
34, 49, 0
56, 58, 0
56, 70, 0
56, 23, 0
56, 60, 0
56, 46, 0
56, 20, 0
56, 21, 0
56, 14, 0
56, 27, 0
56, 24, 0
56, 42, 0
56, 8, 0
56, 15, 0
56, 22, 0
56, 36, 0
56, 16, 0
56, 76, 0
56, 55, 0
56, 47, 0
56, 73, 0
56, 25, 0
56, 6, 0
56, 37, 0
21, 20, 1
21, 7, 0
21, 82, 0
21, 56, 0
21, 37, 0
21, 6, 0
21, 75, 0
21, 11, 0
52, 46, 0
52, 13, 0
52, 28, 0
52, 77, 0
52, 51, 1
52, 63, 0
52, 38, 0
52, 71, 0
52, 40, 0
52, 5, 0
52, 1, 0
52, 83, 0
52, 43, 0
52, 66, 0
52, 72, 0
52, 29, 0
52, 14, 0
52, 84, 0
52, 15, 0
52, 41, 0
52, 65, 0
50, 42, 0
50, 53, 0
50, 26, 0
50, 78, 0
26, 78, 0
26, 17, 0
26, 50, 0
26, 31, 0
26, 67, 0
26, 16, 0
26, 42, 0
26, 53, 0
26, 64, 0
26, 30, 0
6, 20, 0
6, 7, 1
6, 22, 0
6, 56, 0
6, 21, 0
6, 37, 0
6, 75, 0
6, 11, 0
72, 13, 0
72, 28, 0
72, 51, 0
72, 33, 0
72, 71, 0
72, 1, 0
72, 3, 0
72, 4, 0
72, 52, 0
72, 66, 0
72, 10, 0
72, 41, 0
14, 58, 0
14, 55, 0
14, 60, 0
14, 71, 0
14, 59, 0
14, 46, 0
14, 1, 0
14, 24, 0
14, 42, 0
14, 8, 0
14, 38, 0
14, 22, 0
14, 36, 0
14, 25, 0
14, 45, 0
14, 77, 0
14, 51, 0
14, 18, 0
14, 15, 1
14, 53, 0
14, 44, 0
14, 47, 0
14, 56, 0
14, 16, 0
14, 54, 0
14, 37, 0
14, 52, 0
14, 49, 0
67, 78, 0
67, 17, 0
67, 26, 0
67, 31, 0
67, 2, 0
67, 16, 0
67, 42, 0
67, 64, 0
9, 57, 0
9, 12, 0
9, 25, 0
9, 2, 0
9, 60, 0
9, 36, 0
9, 24, 0
9, 48, 0
9, 73, 0
9, 30, 0
