13, 23, 0
13, 9, 0
17, 14, 0
17, 22, 0
17, 23, 0
17, 29, 0
17, 21, 0
17, 42, 0
17, 30, 0
17, 11, 0
17, 9, 0
23, 13, 0
23, 17, 0
23, 18, 0
23, 29, 0
23, 44, 0
23, 11, 0
23, 5, 0
23, 20, 0
23, 3, 0
23, 14, 0
23, 31, 0
23, 35, 0
23, 21, 0
23, 42, 0
23, 1, 0
23, 10, 0
23, 22, 0
23, 9, 0
42, 17, 0
42, 31, 0
42, 23, 0
42, 34, 0
42, 5, 0
42, 11, 0
42, 1, 0
42, 7, 0
42, 12, 0
42, 32, 0
42, 35, 0
42, 21, 0
42, 33, 0
42, 19, 0
42, 41, 1
5, 12, 0
5, 14, 0
5, 23, 0
5, 42, 0
5, 21, 0
5, 6, 0
5, 41, 0
5, 30, 0
20, 6, 0
20, 14, 0
20, 44, 0
20, 23, 0
20, 30, 0
14, 20, 0
14, 17, 0
14, 23, 0
14, 29, 0
14, 21, 0
14, 6, 0
14, 30, 0
14, 44, 0
14, 22, 0
14, 5, 0
24, 3, 0
24, 18, 0
24, 27, 0
24, 15, 0
24, 11, 0
24, 1, 0
28, 0, 0
28, 3, 0
28, 4, 0
28, 37, 0
28, 39, 0
28, 40, 0
39, 28, 0
39, 3, 0
39, 4, 0
39, 40, 0
39, 11, 0
41, 21, 0
41, 42, 1
41, 5, 0
41, 12, 0
0, 37, 0
0, 3, 0
0, 4, 0
0, 28, 0
0, 16, 0
0, 6, 0
0, 40, 0
0, 30, 0
8, 12, 0
8, 43, 0
8, 34, 0
8, 6, 0
8, 19, 0
8, 35, 0
8, 38, 0
12, 34, 0
12, 35, 0
12, 42, 0
12, 21, 0
12, 6, 0
12, 19, 0
12, 8, 0
12, 38, 0
12, 5, 0
12, 11, 0
12, 41, 0
15, 18, 0
15, 27, 0
15, 24, 0
15, 11, 0
15, 36, 0
10, 11, 0
10, 30, 0
10, 31, 0
10, 23, 0
10, 1, 0
7, 34, 0
7, 43, 0
7, 32, 0
7, 33, 0
7, 42, 0
7, 35, 0
7, 11, 0
7, 30, 0
3, 0, 0
3, 18, 0
3, 4, 0
3, 28, 0
3, 23, 0
3, 2, 1
3, 37, 0
3, 24, 0
3, 39, 0
3, 11, 0
3, 36, 0
32, 7, 0
32, 25, 0
32, 26, 0
32, 35, 0
32, 42, 0
32, 11, 0
32, 30, 0
2, 37, 0
2, 3, 1
2, 18, 0
2, 36, 0
21, 12, 0
21, 14, 0
21, 23, 0
21, 42, 0
21, 9, 0
21, 41, 0
21, 17, 0
21, 5, 0
33, 7, 0
33, 34, 1
33, 43, 0
33, 42, 0
33, 6, 0
33, 30, 0
19, 12, 0
19, 35, 0
19, 42, 0
19, 34, 0
19, 6, 0
19, 8, 0
19, 38, 0
18, 3, 0
18, 23, 0
18, 2, 0
18, 37, 0
18, 1, 0
18, 24, 0
18, 15, 0
18, 11, 0
18, 36, 0
31, 34, 0
31, 25, 0
31, 23, 0
31, 42, 0
31, 6, 0
31, 30, 0
31, 35, 0
31, 11, 0
31, 10, 0
29, 14, 0
29, 23, 0
29, 17, 0
29, 44, 0
29, 22, 0
29, 30, 0
40, 0, 0
40, 39, 0
40, 4, 0
40, 28, 0
40, 30, 0
11, 17, 0
11, 32, 0
11, 23, 0
11, 24, 0
11, 1, 0
11, 4, 0
11, 43, 0
11, 35, 0
11, 42, 0
11, 15, 0
11, 36, 0
11, 3, 0
11, 34, 0
11, 18, 0
11, 39, 0
11, 10, 0
11, 7, 0
11, 12, 0
11, 25, 0
11, 31, 0
11, 37, 0
11, 26, 0
11, 9, 0
1, 34, 0
1, 23, 0
1, 24, 0
1, 18, 0
1, 6, 0
1, 30, 0
1, 35, 0
1, 42, 0
1, 11, 0
1, 10, 0
37, 0, 0
37, 3, 0
37, 4, 0
37, 28, 0
37, 2, 0
37, 16, 0
37, 30, 0
37, 18, 0
37, 11, 0
37, 36, 0
4, 0, 0
4, 3, 0
4, 37, 0
4, 28, 0
4, 16, 0
4, 39, 0
4, 40, 0
4, 11, 0
35, 31, 0
35, 23, 0
35, 12, 0
35, 11, 0
35, 1, 0
35, 7, 0
35, 34, 1
35, 43, 0
35, 32, 0
35, 42, 0
35, 25, 0
35, 19, 0
35, 8, 0
35, 38, 0
30, 0, 0
30, 7, 0
30, 17, 0
30, 32, 0
30, 16, 0
30, 27, 0
30, 36, 0
30, 29, 0
30, 40, 0
30, 44, 0
30, 5, 0
30, 20, 0
30, 33, 0
30, 14, 0
30, 31, 0
30, 6, 0
30, 37, 0
30, 25, 0
30, 1, 0
30, 10, 0
30, 9, 0
38, 12, 0
38, 35, 0
38, 34, 0
38, 6, 0
38, 19, 0
38, 8, 0
22, 17, 0
22, 14, 0
22, 44, 0
22, 23, 0
22, 29, 0
36, 3, 0
36, 2, 0
36, 37, 0
36, 15, 0
36, 18, 0
36, 11, 0
36, 30, 0
16, 0, 0
16, 6, 0
16, 37, 0
16, 4, 0
16, 30, 0
27, 30, 0
27, 15, 0
27, 24, 0
44, 20, 0
44, 14, 0
44, 23, 0
44, 29, 0
44, 22, 0
44, 30, 0
34, 12, 0
34, 6, 0
34, 11, 0
34, 1, 0
34, 7, 0
34, 33, 1
34, 43, 0
34, 31, 0
34, 35, 1
34, 42, 0
34, 19, 0
34, 8, 0
34, 38, 0
25, 31, 0
25, 32, 0
25, 26, 1
25, 35, 0
25, 6, 0
25, 11, 0
25, 30, 0
26, 25, 1
26, 11, 0
26, 32, 0
6, 0, 0
6, 25, 0
6, 12, 0
6, 16, 0
6, 5, 0
6, 1, 0
6, 20, 0
6, 34, 0
6, 43, 0
6, 9, 0
6, 31, 0
6, 33, 0
6, 14, 0
6, 8, 0
6, 38, 0
6, 19, 0
6, 30, 0
43, 7, 0
43, 34, 0
43, 33, 0
43, 35, 0
43, 6, 0
43, 8, 0
43, 11, 0
9, 13, 0
9, 17, 0
9, 23, 0
9, 21, 0
9, 6, 0
9, 11, 0
9, 30, 0
