0, 3, 0
0, 4, 0
0, 14, 0
13, 7, 0
13, 12, 1
13, 9, 0
13, 14, 0
13, 10, 0
3, 0, 0
3, 4, 0
3, 14, 0
3, 2, 0
3, 6, 0
3, 11, 0
6, 2, 0
6, 3, 0
6, 4, 0
6, 11, 0
6, 1, 0
8, 5, 0
8, 11, 0
5, 8, 0
5, 11, 0
11, 3, 0
11, 4, 0
11, 6, 0
11, 8, 0
11, 5, 0
11, 1, 0
10, 7, 0
10, 12, 0
10, 13, 0
10, 14, 0
10, 9, 0
7, 12, 0
7, 13, 0
7, 14, 0
7, 9, 0
7, 10, 0
12, 7, 0
12, 13, 1
12, 14, 0
12, 10, 0
4, 0, 0
4, 3, 0
4, 14, 0
4, 2, 0
4, 6, 0
4, 11, 0
4, 1, 0
14, 0, 0
14, 12, 0
14, 13, 0
14, 4, 0
14, 3, 0
14, 7, 0
14, 10, 0
2, 6, 0
2, 4, 0
2, 3, 0
2, 1, 1
1, 6, 0
1, 4, 0
1, 11, 0
1, 2, 1
9, 7, 0
9, 13, 0
9, 10, 0
