0, 15, 0
0, 11, 0
0, 9, 0
13, 7, 0
13, 14, 0
13, 1, 0
3, 4, 0
3, 10, 0
6, 8, 0
6, 5, 1
6, 9, 0
8, 6, 0
8, 5, 0
8, 9, 0
5, 6, 1
5, 8, 0
5, 9, 0
11, 0, 0
11, 12, 0
11, 15, 0
11, 9, 0
10, 3, 0
7, 12, 0
7, 13, 0
7, 14, 0
7, 2, 0
7, 15, 0
7, 1, 0
12, 7, 0
12, 15, 0
12, 11, 0
12, 2, 0
4, 3, 0
4, 1, 0
14, 7, 0
14, 1, 0
14, 13, 0
14, 2, 0
2, 7, 0
2, 12, 0
2, 14, 0
1, 7, 0
1, 13, 0
1, 14, 0
1, 4, 0
15, 0, 0
15, 12, 0
15, 7, 0
15, 11, 0
15, 9, 0
9, 0, 0
9, 6, 0
9, 8, 0
9, 15, 0
9, 5, 0
9, 11, 0
