0, 12, 0
0, 5, 0
0, 2, 0
13, 7, 0
13, 9, 0
3, 14, 0
3, 9, 0
16, 1, 0
16, 10, 0
16, 11, 0
16, 2, 0
6, 8, 0
6, 4, 0
8, 6, 0
5, 0, 0
5, 12, 0
5, 7, 0
5, 9, 0
11, 16, 0
11, 4, 0
11, 15, 0
11, 10, 1
11, 1, 0
10, 16, 0
10, 4, 0
10, 11, 1
10, 1, 0
7, 13, 0
7, 5, 0
7, 9, 0
12, 0, 0
12, 5, 0
12, 2, 0
4, 6, 0
4, 10, 0
4, 15, 0
4, 11, 0
4, 1, 0
14, 3, 0
2, 0, 0
2, 12, 0
2, 16, 0
1, 16, 0
1, 4, 0
1, 15, 0
1, 11, 0
1, 10, 0
15, 4, 0
15, 11, 0
15, 1, 0
9, 7, 0
9, 3, 0
9, 13, 0
9, 5, 0
