2, 18, 0
2, 5, 0
13, 7, 0
13, 4, 0
13, 11, 0
13, 21, 0
13, 27, 0
13, 1, 0
13, 22, 0
13, 30, 0
17, 19, 0
17, 28, 0
17, 23, 0
23, 28, 0
23, 19, 0
23, 17, 0
23, 24, 1
29, 25, 0
29, 28, 0
29, 27, 0
29, 9, 0
5, 18, 0
5, 20, 0
5, 2, 0
11, 3, 0
11, 4, 0
11, 13, 0
11, 21, 0
11, 15, 0
11, 22, 0
11, 1, 0
1, 7, 0
1, 16, 0
1, 13, 0
1, 14, 0
1, 21, 0
1, 27, 0
1, 11, 0
1, 30, 0
20, 12, 0
20, 26, 0
20, 18, 0
20, 6, 0
20, 8, 0
20, 5, 0
20, 10, 0
4, 0, 0
4, 3, 0
4, 13, 0
4, 11, 0
4, 27, 0
4, 15, 0
4, 22, 0
14, 16, 0
14, 27, 0
14, 30, 0
14, 1, 0
24, 19, 0
24, 23, 1
28, 25, 0
28, 23, 0
28, 29, 0
28, 27, 0
28, 17, 0
28, 9, 0
30, 7, 0
30, 16, 0
30, 13, 0
30, 14, 0
30, 21, 0
30, 25, 0
30, 9, 0
30, 1, 0
8, 20, 0
8, 3, 0
8, 12, 0
8, 18, 0
8, 6, 0
8, 15, 0
8, 10, 0
15, 0, 0
15, 3, 0
15, 4, 0
15, 22, 0
15, 8, 0
15, 11, 0
22, 21, 0
22, 4, 0
22, 15, 0
22, 11, 0
22, 13, 0
0, 3, 0
0, 4, 0
0, 15, 0
12, 20, 0
12, 3, 0
12, 6, 0
12, 8, 0
12, 10, 0
16, 25, 0
16, 27, 0
16, 1, 0
16, 14, 0
16, 30, 0
6, 20, 0
6, 12, 0
6, 26, 0
6, 18, 0
6, 8, 0
6, 10, 0
10, 20, 0
10, 6, 0
10, 8, 0
10, 12, 0
7, 21, 0
7, 30, 0
7, 13, 0
7, 1, 0
3, 0, 0
3, 12, 0
3, 4, 0
3, 27, 0
3, 8, 0
3, 15, 0
3, 11, 0
25, 28, 0
25, 29, 0
25, 16, 0
25, 27, 0
25, 9, 0
25, 30, 0
26, 20, 0
26, 6, 0
26, 18, 0
27, 3, 0
27, 13, 0
27, 25, 0
27, 4, 0
27, 29, 0
27, 16, 0
27, 28, 0
27, 14, 0
27, 18, 0
27, 1, 0
21, 7, 0
21, 13, 0
21, 11, 0
21, 1, 0
21, 22, 0
21, 30, 0
19, 17, 0
19, 23, 0
19, 24, 0
18, 20, 0
18, 2, 0
18, 26, 0
18, 6, 0
18, 27, 0
18, 8, 0
18, 5, 0
9, 28, 0
9, 30, 0
9, 25, 0
9, 29, 0
