0, 6, 0
0, 1, 1
3, 7, 0
3, 4, 0
3, 2, 0
4, 7, 0
4, 3, 0
4, 5, 0
4, 1, 0
7, 3, 0
7, 6, 0
7, 8, 0
7, 4, 0
7, 2, 0
2, 7, 0
2, 3, 0
2, 8, 0
6, 0, 0
6, 7, 0
6, 5, 0
6, 1, 0
8, 7, 0
8, 2, 0
5, 6, 0
5, 4, 0
5, 1, 0
1, 0, 1
1, 6, 0
1, 4, 0
1, 5, 0
