0, 20, 0
0, 7, 0
0, 12, 0
0, 6, 0
0, 5, 0
0, 9, 0
7, 0, 0
7, 6, 1
7, 5, 0
7, 9, 0
13, 16, 0
13, 4, 0
13, 14, 0
13, 18, 0
13, 19, 0
13, 15, 0
17, 15, 0
17, 11, 0
17, 1, 0
3, 8, 0
3, 15, 0
3, 11, 0
16, 4, 0
16, 13, 0
16, 2, 0
16, 1, 0
16, 19, 0
16, 8, 0
16, 15, 0
16, 5, 0
16, 11, 0
16, 10, 0
6, 0, 0
6, 20, 0
6, 7, 1
6, 5, 0
8, 3, 0
8, 4, 0
8, 16, 0
8, 15, 0
8, 5, 0
8, 11, 0
5, 0, 0
5, 7, 0
5, 16, 0
5, 6, 0
5, 10, 0
5, 20, 0
5, 12, 0
5, 4, 0
5, 2, 0
5, 8, 0
5, 15, 0
5, 18, 0
5, 9, 0
11, 3, 0
11, 4, 0
11, 17, 0
11, 16, 0
11, 8, 0
11, 15, 0
11, 1, 0
10, 18, 0
10, 4, 0
10, 14, 0
10, 2, 0
10, 16, 0
10, 15, 0
10, 5, 0
20, 0, 0
20, 12, 0
20, 6, 0
20, 5, 0
20, 9, 0
12, 0, 0
12, 20, 0
12, 5, 0
12, 9, 0
4, 13, 0
4, 2, 0
4, 16, 0
4, 1, 0
4, 8, 0
4, 15, 0
4, 5, 0
4, 11, 0
4, 10, 0
14, 18, 0
14, 13, 0
14, 15, 0
14, 10, 0
2, 18, 0
2, 4, 0
2, 16, 0
2, 15, 0
2, 5, 0
2, 10, 0
19, 16, 0
19, 18, 0
19, 13, 0
19, 15, 0
19, 1, 0
1, 18, 0
1, 4, 0
1, 17, 0
1, 16, 0
1, 19, 0
1, 15, 0
1, 11, 0
15, 13, 0
15, 17, 0
15, 16, 0
15, 8, 0
15, 5, 0
15, 11, 0
15, 10, 0
15, 3, 0
15, 4, 0
15, 14, 0
15, 2, 0
15, 19, 0
15, 1, 0
15, 18, 0
18, 13, 0
18, 14, 0
18, 2, 0
18, 19, 0
18, 10, 0
18, 15, 0
18, 5, 0
18, 1, 0
9, 0, 0
9, 20, 0
9, 7, 0
9, 5, 0
9, 12, 0
