0, 3, 0
0, 2, 0
0, 8, 0
0, 5, 0
0, 11, 0
0, 9, 0
8, 0, 0
8, 12, 0
8, 5, 0
8, 6, 0
3, 0, 0
3, 9, 0
3, 11, 0
3, 2, 1
6, 12, 0
6, 8, 0
6, 9, 0
5, 0, 0
5, 8, 0
11, 0, 0
11, 3, 0
11, 2, 0
11, 10, 0
11, 9, 0
10, 2, 0
10, 4, 0
10, 11, 0
10, 9, 0
7, 4, 0
7, 1, 0
12, 6, 0
12, 8, 0
4, 7, 0
4, 9, 0
4, 10, 0
4, 1, 0
2, 0, 0
2, 3, 1
2, 11, 0
2, 10, 0
1, 7, 0
1, 4, 0
9, 0, 0
9, 3, 0
9, 4, 0
9, 6, 0
9, 11, 0
9, 10, 0
