0, 6, 0
0, 5, 0
0, 2, 0
13, 3, 0
17, 16, 0
17, 12, 0
17, 19, 0
17, 4, 0
3, 13, 0
3, 14, 0
16, 6, 0
16, 4, 0
16, 17, 0
6, 0, 0
6, 16, 0
6, 4, 0
6, 5, 0
6, 2, 0
8, 9, 0
8, 15, 0
8, 1, 0
5, 0, 0
5, 6, 0
5, 2, 0
11, 19, 0
11, 14, 0
11, 10, 1
10, 19, 0
10, 14, 0
10, 11, 1
7, 18, 0
7, 2, 0
12, 19, 0
12, 17, 0
4, 16, 0
4, 6, 0
4, 17, 0
14, 3, 0
14, 19, 0
14, 11, 0
14, 10, 0
2, 0, 0
2, 6, 0
2, 7, 0
2, 5, 0
19, 12, 0
19, 14, 0
19, 17, 0
19, 11, 0
19, 10, 0
1, 8, 0
1, 15, 0
1, 9, 0
15, 18, 0
15, 8, 0
15, 9, 0
15, 1, 0
18, 7, 0
18, 15, 0
9, 8, 0
9, 15, 0
9, 1, 0
