13, 18, 0
13, 15, 0
13, 8, 0
13, 14, 0
17, 16, 0
17, 12, 0
17, 10, 0
23, 0, 0
23, 12, 0
23, 9, 0
5, 19, 0
5, 11, 0
5, 22, 0
11, 21, 0
11, 7, 0
11, 19, 0
11, 5, 0
11, 22, 0
1, 20, 0
1, 6, 0
1, 9, 0
1, 2, 0
20, 2, 0
20, 6, 0
20, 9, 0
20, 12, 0
20, 1, 0
4, 16, 0
4, 6, 0
4, 12, 0
14, 18, 0
14, 13, 0
14, 15, 1
8, 0, 0
8, 13, 0
15, 18, 0
15, 13, 0
15, 14, 1
22, 21, 0
22, 7, 0
22, 5, 0
22, 11, 0
0, 8, 0
0, 23, 0
0, 9, 0
3, 7, 0
3, 18, 0
16, 12, 0
16, 4, 0
16, 17, 0
6, 20, 0
6, 12, 0
6, 2, 0
6, 4, 0
6, 1, 0
10, 12, 0
10, 17, 0
7, 21, 0
7, 3, 0
7, 22, 0
7, 11, 0
12, 20, 0
12, 4, 0
12, 17, 0
12, 23, 0
12, 16, 0
12, 6, 0
12, 9, 0
12, 10, 0
2, 20, 0
2, 6, 0
2, 9, 0
2, 1, 0
21, 7, 0
21, 22, 0
21, 11, 0
19, 5, 0
19, 11, 0
18, 15, 0
18, 13, 0
18, 14, 0
18, 3, 0
9, 20, 0
9, 0, 0
9, 12, 0
9, 23, 0
9, 2, 0
9, 1, 0
