58, 45, 0
58, 13, 0
58, 62, 0
58, 56, 0
58, 55, 0
58, 44, 0
58, 1, 0
58, 20, 0
58, 54, 0
58, 50, 0
58, 61, 0
58, 43, 0
58, 30, 0
13, 58, 0
13, 0, 0
13, 56, 0
13, 6, 0
13, 55, 0
13, 59, 0
13, 48, 0
13, 30, 0
17, 21, 0
17, 39, 0
17, 8, 0
17, 25, 0
17, 11, 0
23, 20, 0
23, 33, 0
23, 61, 0
23, 43, 0
23, 50, 0
23, 31, 0
23, 45, 0
23, 37, 0
23, 28, 0
23, 42, 0
23, 1, 0
63, 62, 0
63, 53, 0
63, 49, 0
63, 24, 0
42, 45, 0
42, 62, 0
42, 51, 0
42, 16, 0
42, 29, 0
42, 40, 0
42, 47, 0
42, 10, 0
42, 57, 0
42, 21, 0
42, 23, 0
42, 24, 0
42, 2, 0
42, 19, 0
42, 49, 0
42, 64, 0
42, 41, 1
42, 9, 0
5, 16, 0
5, 14, 0
5, 4, 1
5, 28, 0
5, 36, 0
65, 21, 0
65, 34, 0
65, 19, 0
65, 8, 0
65, 39, 0
57, 28, 0
57, 12, 0
57, 16, 0
57, 38, 0
57, 1, 0
57, 20, 0
57, 33, 0
57, 4, 0
57, 14, 0
57, 50, 0
57, 2, 0
57, 61, 0
57, 42, 0
57, 49, 0
57, 64, 0
57, 22, 0
57, 36, 0
34, 60, 0
34, 27, 0
34, 19, 0
34, 21, 0
34, 65, 0
14, 28, 0
14, 62, 0
14, 16, 0
14, 64, 0
14, 53, 0
14, 24, 0
14, 5, 0
14, 1, 0
14, 57, 0
14, 12, 0
14, 4, 0
14, 35, 0
14, 49, 0
14, 38, 0
24, 62, 0
24, 63, 0
24, 53, 0
24, 40, 0
24, 46, 0
24, 47, 0
24, 16, 0
24, 14, 0
24, 29, 0
24, 42, 0
24, 49, 0
24, 64, 0
28, 45, 0
28, 23, 0
28, 16, 0
28, 5, 0
28, 1, 0
28, 57, 0
28, 33, 0
28, 4, 0
28, 14, 0
28, 31, 0
28, 2, 0
28, 49, 0
28, 22, 0
28, 36, 0
39, 17, 0
39, 18, 0
39, 27, 0
39, 11, 0
39, 65, 0
39, 7, 0
39, 25, 0
39, 47, 0
39, 32, 0
39, 29, 0
39, 21, 0
39, 52, 0
39, 19, 0
39, 8, 0
41, 51, 0
41, 29, 0
41, 42, 1
41, 19, 0
41, 9, 0
41, 15, 0
41, 47, 0
41, 10, 0
0, 13, 0
0, 59, 0
0, 48, 0
0, 22, 0
8, 17, 0
8, 21, 0
8, 25, 0
8, 19, 0
8, 39, 0
8, 65, 0
38, 57, 0
38, 62, 0
38, 16, 0
38, 53, 0
38, 46, 0
38, 47, 0
38, 1, 0
38, 20, 0
38, 12, 0
38, 14, 0
38, 50, 0
38, 26, 0
38, 35, 0
38, 61, 0
38, 29, 0
38, 2, 0
38, 49, 0
38, 64, 0
38, 36, 0
62, 58, 0
62, 53, 0
62, 63, 0
62, 64, 0
62, 24, 0
62, 1, 0
62, 12, 0
62, 14, 0
62, 50, 0
62, 35, 0
62, 61, 0
62, 42, 0
62, 49, 0
62, 38, 0
51, 26, 0
51, 21, 0
51, 42, 0
51, 19, 0
51, 10, 0
51, 15, 0
51, 41, 0
51, 47, 0
51, 9, 0
33, 45, 0
33, 28, 0
33, 23, 0
33, 47, 0
33, 30, 0
33, 57, 0
33, 37, 0
33, 43, 0
33, 31, 0
33, 2, 0
33, 61, 0
33, 49, 0
33, 22, 0
15, 3, 0
15, 51, 0
15, 26, 0
15, 21, 0
15, 27, 0
15, 19, 0
15, 60, 0
15, 41, 0
15, 47, 0
54, 58, 0
54, 20, 0
54, 44, 0
54, 56, 0
54, 30, 0
47, 26, 0
47, 39, 0
47, 15, 0
47, 40, 0
47, 46, 0
47, 20, 0
47, 21, 0
47, 24, 0
47, 42, 0
47, 38, 0
47, 41, 0
47, 22, 0
47, 51, 0
47, 33, 0
47, 16, 0
47, 64, 0
47, 53, 0
47, 10, 0
47, 3, 0
47, 50, 0
47, 32, 0
47, 29, 0
47, 61, 0
47, 19, 0
47, 49, 0
47, 9, 0
10, 42, 0
10, 51, 0
10, 41, 0
10, 47, 0
10, 9, 1
7, 18, 0
7, 21, 0
7, 19, 0
7, 39, 0
3, 60, 0
3, 26, 0
3, 29, 0
3, 21, 0
3, 19, 0
3, 15, 0
3, 47, 0
53, 62, 0
53, 16, 0
53, 29, 0
53, 40, 0
53, 46, 0
53, 47, 0
53, 63, 0
53, 14, 0
53, 50, 0
53, 24, 0
53, 61, 0
53, 49, 0
53, 38, 0
32, 21, 0
32, 26, 0
32, 29, 0
32, 18, 0
32, 19, 0
32, 39, 0
32, 47, 0
2, 57, 0
2, 28, 0
2, 12, 0
2, 16, 0
2, 1, 0
2, 20, 0
2, 33, 0
2, 4, 0
2, 43, 0
2, 50, 0
2, 61, 0
2, 42, 0
2, 38, 0
2, 36, 0
37, 33, 0
37, 50, 0
37, 23, 0
37, 45, 0
37, 61, 0
37, 1, 0
25, 17, 0
25, 21, 0
25, 52, 0
25, 8, 0
25, 39, 0
25, 11, 0
19, 32, 0
19, 51, 0
19, 34, 0
19, 60, 0
19, 27, 0
19, 39, 0
19, 47, 0
19, 65, 0
19, 7, 0
19, 3, 0
19, 52, 0
19, 11, 0
19, 26, 0
19, 29, 0
19, 21, 0
19, 42, 0
19, 8, 0
19, 15, 0
19, 41, 0
19, 18, 0
19, 9, 0
49, 28, 0
49, 62, 0
49, 63, 0
49, 16, 0
49, 38, 0
49, 53, 0
49, 40, 0
49, 46, 0
49, 47, 0
49, 57, 0
49, 33, 0
49, 4, 0
49, 14, 0
49, 35, 0
49, 42, 0
49, 64, 0
49, 24, 0
48, 0, 0
48, 45, 0
48, 13, 0
48, 56, 0
48, 55, 0
48, 22, 0
48, 30, 0
31, 28, 0
31, 33, 0
31, 43, 0
31, 50, 0
31, 23, 0
45, 58, 0
45, 37, 0
45, 28, 0
45, 56, 0
45, 23, 0
45, 55, 0
45, 30, 0
45, 20, 0
45, 33, 0
45, 50, 0
45, 61, 0
45, 42, 0
45, 1, 0
45, 48, 0
45, 22, 0
60, 3, 0
60, 34, 0
60, 21, 0
60, 27, 0
60, 19, 0
60, 15, 0
59, 0, 0
59, 6, 0
59, 13, 0
59, 22, 0
29, 26, 0
29, 39, 0
29, 53, 0
29, 47, 0
29, 3, 0
29, 50, 0
29, 32, 0
29, 24, 0
29, 21, 0
29, 42, 0
29, 19, 0
29, 38, 0
29, 41, 0
40, 49, 0
40, 24, 0
40, 16, 0
40, 42, 0
40, 53, 0
40, 46, 0
40, 47, 0
11, 25, 0
11, 21, 0
11, 17, 0
11, 19, 0
11, 39, 0
11, 52, 0
46, 20, 0
46, 53, 0
46, 50, 0
46, 24, 0
46, 61, 0
46, 38, 0
46, 49, 0
46, 40, 0
46, 47, 0
61, 58, 0
61, 45, 0
61, 62, 0
61, 23, 0
61, 53, 0
61, 46, 0
61, 47, 0
61, 1, 0
61, 20, 0
61, 33, 0
61, 43, 0
61, 50, 0
61, 57, 0
61, 2, 0
61, 37, 0
61, 30, 0
61, 38, 0
4, 57, 0
4, 14, 0
4, 2, 0
4, 16, 0
4, 28, 0
4, 49, 0
4, 5, 1
4, 36, 0
35, 14, 0
35, 62, 0
35, 16, 0
35, 38, 0
35, 49, 0
35, 64, 0
35, 1, 0
30, 58, 0
30, 45, 0
30, 13, 0
30, 56, 0
30, 55, 0
30, 44, 0
30, 20, 0
30, 33, 0
30, 54, 0
30, 61, 0
30, 48, 0
30, 22, 0
64, 62, 0
64, 16, 0
64, 35, 0
64, 47, 0
64, 1, 0
64, 57, 0
64, 12, 0
64, 14, 0
64, 24, 0
64, 42, 0
64, 49, 0
64, 38, 0
22, 0, 0
22, 45, 0
22, 28, 0
22, 56, 0
22, 16, 0
22, 55, 0
22, 59, 0
22, 47, 0
22, 30, 0
22, 57, 0
22, 33, 0
22, 48, 0
36, 57, 0
36, 12, 0
36, 4, 0
36, 28, 0
36, 2, 0
36, 16, 0
36, 38, 0
36, 5, 0
36, 1, 0
20, 58, 0
20, 45, 0
20, 23, 0
20, 55, 0
20, 46, 0
20, 47, 0
20, 1, 0
20, 57, 0
20, 54, 0
20, 50, 0
20, 2, 0
20, 61, 0
20, 43, 0
20, 30, 0
20, 38, 0
56, 58, 0
56, 45, 0
56, 13, 0
56, 54, 0
56, 55, 1
56, 48, 0
56, 22, 0
56, 30, 0
16, 2, 0
16, 53, 0
16, 28, 0
16, 64, 0
16, 24, 0
16, 40, 0
16, 5, 0
16, 47, 0
16, 57, 0
16, 4, 0
16, 14, 0
16, 35, 0
16, 42, 0
16, 49, 0
16, 38, 0
16, 22, 0
16, 36, 0
27, 34, 0
27, 21, 0
27, 39, 0
27, 19, 0
27, 15, 0
27, 60, 0
1, 58, 0
1, 45, 0
1, 37, 0
1, 28, 0
1, 62, 0
1, 23, 0
1, 64, 0
1, 35, 0
1, 57, 0
1, 12, 0
1, 14, 0
1, 50, 0
1, 2, 0
1, 61, 0
1, 43, 0
1, 20, 0
1, 38, 0
1, 36, 0
55, 58, 0
55, 20, 0
55, 13, 0
55, 56, 1
55, 45, 0
55, 48, 0
55, 22, 0
55, 30, 0
44, 58, 0
44, 54, 0
44, 30, 0
12, 57, 0
12, 14, 0
12, 62, 0
12, 2, 0
12, 38, 0
12, 1, 0
12, 64, 0
12, 36, 0
18, 7, 0
18, 21, 0
18, 19, 0
18, 39, 0
18, 32, 0
21, 17, 0
21, 26, 0
21, 39, 0
21, 60, 0
21, 11, 0
21, 65, 0
21, 42, 0
21, 8, 0
21, 15, 0
21, 51, 0
21, 3, 0
21, 18, 0
21, 27, 0
21, 47, 0
21, 7, 0
21, 34, 0
21, 52, 0
21, 32, 0
21, 29, 0
21, 25, 0
21, 19, 0
21, 9, 0
52, 21, 0
52, 25, 0
52, 19, 0
52, 39, 0
52, 11, 0
50, 58, 0
50, 45, 0
50, 62, 0
50, 23, 0
50, 53, 0
50, 46, 0
50, 47, 0
50, 1, 0
50, 57, 0
50, 61, 0
50, 43, 0
50, 31, 0
50, 2, 0
50, 37, 0
50, 29, 0
50, 20, 0
50, 38, 0
50, 26, 0
26, 3, 0
26, 32, 0
26, 51, 0
26, 29, 0
26, 21, 0
26, 38, 0
26, 19, 0
26, 15, 0
26, 47, 0
26, 50, 0
6, 13, 0
6, 59, 0
43, 20, 0
43, 33, 0
43, 58, 0
43, 50, 0
43, 23, 0
43, 31, 0
43, 61, 0
43, 2, 0
43, 1, 0
9, 51, 0
9, 21, 0
9, 42, 0
9, 19, 0
9, 41, 0
9, 47, 0
9, 10, 1
