13, 7, 0
13, 18, 0
13, 19, 0
13, 22, 0
13, 10, 0
17, 20, 0
17, 12, 0
17, 14, 0
17, 23, 0
17, 6, 0
17, 8, 0
17, 0, 0
17, 5, 0
17, 1, 0
23, 0, 0
23, 12, 0
23, 14, 0
23, 17, 0
23, 20, 0
23, 1, 0
5, 20, 0
5, 4, 0
5, 17, 0
5, 6, 0
5, 22, 0
5, 1, 0
11, 16, 0
11, 21, 0
11, 4, 0
11, 22, 0
11, 10, 0
1, 0, 0
1, 20, 0
1, 17, 0
1, 23, 0
1, 12, 0
1, 6, 0
1, 14, 0
1, 5, 0
20, 0, 0
20, 12, 0
20, 14, 0
20, 23, 0
20, 6, 0
20, 8, 0
20, 5, 0
20, 17, 0
20, 1, 0
4, 7, 0
4, 3, 0
4, 16, 0
4, 14, 0
4, 22, 0
4, 24, 0
4, 21, 0
4, 6, 0
4, 18, 0
4, 11, 0
4, 5, 0
14, 20, 0
14, 0, 0
14, 4, 0
14, 17, 0
14, 9, 0
14, 23, 0
14, 12, 0
14, 8, 0
14, 22, 0
14, 1, 0
24, 21, 0
24, 4, 0
24, 22, 0
24, 10, 0
8, 20, 0
8, 12, 0
8, 14, 0
8, 17, 0
8, 15, 0
8, 25, 0
15, 8, 0
15, 25, 0
15, 9, 0
22, 13, 0
22, 16, 0
22, 6, 0
22, 2, 0
22, 5, 0
22, 11, 0
22, 7, 0
22, 3, 0
22, 4, 0
22, 14, 0
22, 24, 0
22, 21, 0
22, 18, 0
0, 20, 0
0, 12, 0
0, 14, 0
0, 23, 0
0, 17, 0
0, 25, 0
0, 1, 0
3, 7, 0
3, 4, 0
3, 2, 1
3, 18, 0
3, 6, 0
3, 19, 0
3, 22, 0
16, 18, 0
16, 4, 0
16, 22, 0
16, 11, 0
16, 10, 0
6, 7, 0
6, 17, 0
6, 12, 0
6, 5, 0
6, 10, 0
6, 20, 0
6, 3, 0
6, 4, 0
6, 25, 0
6, 2, 0
6, 19, 0
6, 1, 0
6, 22, 0
10, 7, 0
10, 18, 0
10, 13, 0
10, 21, 0
10, 16, 0
10, 6, 0
10, 19, 0
10, 24, 0
10, 11, 0
7, 3, 0
7, 13, 0
7, 4, 0
7, 2, 0
7, 6, 0
7, 19, 0
7, 22, 0
7, 10, 0
12, 20, 0
12, 0, 0
12, 14, 0
12, 23, 0
12, 6, 0
12, 8, 0
12, 25, 0
12, 17, 0
12, 1, 0
25, 0, 0
25, 12, 0
25, 6, 0
25, 8, 0
25, 15, 0
25, 9, 0
2, 7, 0
2, 3, 1
2, 19, 0
2, 22, 0
2, 6, 0
21, 10, 0
21, 4, 0
21, 22, 0
21, 11, 0
21, 24, 0
19, 7, 0
19, 3, 0
19, 13, 0
19, 2, 0
19, 6, 0
19, 10, 0
18, 3, 0
18, 13, 0
18, 4, 0
18, 16, 0
18, 22, 0
18, 10, 0
9, 25, 0
9, 14, 0
9, 15, 0
