13, 16, 0
13, 28, 0
17, 18, 1
17, 20, 0
17, 1, 0
17, 9, 0
17, 24, 0
31, 0, 0
31, 4, 0
31, 5, 0
31, 22, 0
23, 6, 0
23, 19, 0
10, 7, 0
10, 2, 0
10, 11, 0
10, 32, 0
10, 30, 0
2, 20, 0
2, 12, 0
2, 27, 0
2, 29, 0
2, 11, 0
2, 30, 0
2, 7, 0
2, 3, 0
2, 14, 0
2, 32, 0
2, 24, 0
2, 10, 0
5, 0, 0
5, 4, 1
5, 31, 0
11, 3, 0
11, 32, 0
11, 2, 0
11, 29, 0
11, 10, 0
11, 30, 0
1, 20, 0
1, 17, 0
1, 32, 0
1, 24, 0
1, 18, 0
1, 9, 0
20, 12, 0
20, 17, 0
20, 9, 0
20, 26, 0
20, 24, 0
20, 18, 0
20, 2, 0
20, 1, 0
4, 0, 0
4, 27, 0
4, 5, 1
4, 31, 0
14, 27, 0
14, 2, 0
14, 15, 1
14, 3, 0
14, 29, 0
24, 20, 0
24, 17, 0
24, 32, 0
24, 2, 0
24, 18, 0
24, 1, 0
24, 9, 0
28, 16, 0
28, 13, 0
30, 3, 0
30, 29, 1
30, 2, 0
30, 15, 0
30, 11, 0
30, 10, 0
8, 12, 0
8, 26, 0
15, 27, 0
15, 30, 0
15, 14, 1
15, 3, 0
22, 27, 0
22, 31, 0
0, 21, 0
0, 4, 0
0, 5, 0
0, 31, 0
12, 20, 0
12, 8, 0
12, 26, 0
12, 2, 0
16, 25, 0
16, 13, 0
16, 28, 0
6, 21, 0
6, 19, 0
6, 23, 0
27, 3, 0
27, 4, 0
27, 14, 0
27, 29, 0
27, 2, 0
27, 15, 0
27, 22, 0
7, 2, 0
7, 32, 0
7, 10, 0
3, 14, 0
3, 29, 0
3, 27, 0
3, 2, 0
3, 15, 0
3, 11, 0
3, 30, 0
25, 16, 0
25, 19, 0
32, 7, 0
32, 2, 0
32, 29, 0
32, 18, 0
32, 1, 0
32, 24, 0
32, 11, 0
32, 10, 0
29, 3, 0
29, 14, 0
29, 32, 0
29, 2, 0
29, 27, 0
29, 11, 0
29, 30, 1
21, 0, 0
21, 6, 0
26, 20, 0
26, 12, 0
26, 8, 0
19, 6, 0
19, 25, 0
19, 23, 0
18, 20, 0
18, 17, 1
18, 32, 0
18, 24, 0
18, 1, 0
18, 9, 0
9, 18, 0
9, 20, 0
9, 1, 0
9, 17, 0
9, 24, 0
