0, 7, 0
0, 6, 0
0, 8, 0
0, 2, 0
13, 7, 0
13, 14, 0
13, 5, 0
13, 10, 0
3, 12, 0
6, 0, 0
6, 4, 0
8, 7, 0
8, 0, 0
8, 2, 0
8, 1, 0
5, 7, 0
5, 13, 0
5, 14, 0
5, 10, 0
11, 4, 0
11, 9, 0
10, 7, 0
10, 13, 0
10, 14, 0
10, 5, 0
7, 0, 0
7, 13, 0
7, 14, 0
7, 2, 0
7, 10, 0
7, 8, 0
7, 5, 0
7, 1, 0
12, 3, 0
12, 9, 0
4, 6, 0
4, 11, 0
14, 7, 0
14, 10, 0
14, 13, 0
14, 5, 0
14, 1, 0
2, 0, 0
2, 7, 0
2, 8, 0
1, 7, 0
1, 8, 0
1, 14, 0
9, 12, 0
9, 11, 0
