0, 15, 0
0, 2, 0
13, 3, 0
13, 6, 0
13, 1, 0
13, 11, 0
13, 10, 0
13, 7, 0
13, 12, 0
13, 4, 0
13, 14, 1
13, 8, 0
13, 15, 0
13, 9, 0
3, 13, 0
3, 6, 0
3, 11, 0
3, 1, 0
3, 7, 0
3, 12, 0
3, 4, 1
3, 14, 0
3, 8, 0
3, 15, 0
3, 10, 0
3, 9, 0
6, 13, 0
6, 3, 0
6, 8, 0
6, 14, 0
8, 6, 0
8, 13, 0
8, 9, 0
8, 3, 0
5, 4, 1
5, 15, 0
11, 3, 0
11, 13, 0
11, 9, 0
10, 7, 0
10, 3, 0
10, 13, 0
10, 15, 0
10, 4, 0
7, 3, 0
7, 13, 0
7, 10, 0
7, 1, 0
12, 3, 0
12, 13, 0
12, 14, 0
12, 1, 0
4, 3, 1
4, 13, 0
4, 15, 0
4, 5, 1
4, 10, 0
14, 12, 0
14, 13, 1
14, 3, 0
14, 6, 0
2, 0, 0
2, 15, 0
1, 7, 0
1, 12, 0
1, 13, 0
1, 3, 0
15, 0, 0
15, 3, 0
15, 13, 0
15, 4, 0
15, 2, 0
15, 5, 0
15, 10, 0
9, 3, 0
9, 8, 0
9, 13, 0
9, 11, 0
