0, 18, 0
0, 3, 0
0, 11, 0
13, 7, 0
13, 3, 0
13, 9, 0
13, 8, 0
13, 11, 0
13, 1, 0
17, 16, 1
17, 1, 0
3, 0, 0
3, 7, 0
3, 13, 0
3, 14, 0
3, 18, 0
3, 1, 0
3, 8, 0
3, 11, 0
3, 9, 0
16, 17, 1
16, 1, 0
6, 12, 0
6, 4, 0
6, 5, 1
6, 10, 0
8, 7, 1
8, 3, 0
8, 13, 0
8, 18, 0
8, 1, 0
8, 11, 0
8, 9, 0
5, 12, 0
5, 4, 0
5, 10, 0
5, 6, 1
11, 0, 0
11, 3, 0
11, 8, 0
11, 13, 0
11, 7, 0
10, 6, 0
10, 4, 0
10, 5, 0
7, 3, 0
7, 13, 0
7, 9, 0
7, 8, 1
7, 11, 0
7, 1, 0
12, 4, 0
12, 14, 0
12, 2, 0
12, 6, 0
12, 15, 0
12, 5, 0
4, 12, 0
4, 10, 0
4, 5, 0
4, 6, 0
14, 18, 0
14, 3, 0
14, 12, 0
14, 15, 0
14, 2, 0
2, 12, 0
2, 15, 0
2, 14, 0
1, 7, 0
1, 3, 0
1, 13, 0
1, 17, 0
1, 16, 0
1, 8, 0
1, 9, 0
15, 18, 0
15, 12, 0
15, 14, 0
15, 2, 0
18, 0, 0
18, 3, 0
18, 15, 0
18, 8, 0
18, 14, 0
9, 7, 0
9, 3, 0
9, 8, 0
9, 13, 0
9, 1, 0
