0, 7, 0
0, 9, 0
0, 14, 0
0, 10, 0
13, 12, 1
13, 9, 0
13, 3, 0
13, 10, 0
3, 12, 0
3, 13, 0
3, 4, 0
3, 1, 0
3, 9, 0
3, 10, 0
6, 10, 0
6, 8, 0
6, 5, 0
6, 1, 0
8, 6, 0
8, 5, 0
8, 11, 0
8, 1, 0
5, 6, 0
5, 8, 0
5, 1, 0
11, 8, 0
10, 0, 0
10, 3, 0
10, 6, 0
10, 13, 0
10, 9, 0
7, 0, 0
7, 14, 0
7, 2, 0
12, 3, 0
12, 13, 1
12, 9, 0
4, 3, 0
4, 1, 0
14, 0, 0
14, 7, 0
2, 7, 0
1, 6, 0
1, 8, 0
1, 5, 0
1, 4, 0
1, 3, 0
9, 0, 0
9, 12, 0
9, 13, 0
9, 3, 0
9, 10, 0
