0, 7, 0
0, 12, 0
0, 13, 0
0, 4, 0
0, 6, 0
0, 10, 0
13, 0, 0
13, 7, 0
13, 12, 0
13, 3, 0
13, 2, 0
13, 6, 0
13, 8, 0
13, 5, 0
13, 9, 0
3, 7, 0
3, 12, 0
3, 13, 0
3, 5, 0
3, 10, 0
6, 0, 0
6, 13, 0
6, 4, 0
8, 12, 0
8, 13, 0
8, 11, 0
8, 9, 0
5, 12, 0
5, 13, 0
5, 9, 0
5, 10, 0
5, 3, 0
11, 2, 0
11, 12, 0
11, 8, 0
11, 1, 0
10, 0, 0
10, 3, 0
10, 4, 0
10, 5, 0
10, 9, 0
7, 0, 0
7, 12, 0
7, 13, 0
7, 3, 0
12, 7, 0
12, 3, 0
12, 13, 0
12, 2, 0
12, 0, 0
12, 8, 0
12, 5, 0
12, 11, 0
12, 9, 0
4, 0, 0
4, 6, 0
4, 10, 0
2, 12, 0
2, 13, 0
2, 11, 0
2, 1, 0
1, 11, 0
1, 2, 0
9, 12, 0
9, 8, 0
9, 13, 0
9, 5, 0
9, 10, 0
