0, 3, 0
0, 13, 0
0, 9, 0
7, 6, 1
7, 19, 0
7, 4, 0
7, 17, 0
13, 0, 0
13, 3, 0
13, 12, 0
13, 14, 0
13, 9, 0
17, 18, 0
17, 7, 0
17, 4, 0
3, 0, 0
3, 13, 0
3, 9, 0
16, 20, 0
16, 10, 0
16, 1, 0
6, 7, 1
6, 19, 0
6, 4, 0
8, 20, 0
8, 18, 0
5, 20, 0
5, 15, 0
5, 11, 0
5, 2, 0
11, 20, 0
11, 2, 0
11, 5, 0
11, 1, 0
10, 20, 0
10, 12, 0
10, 16, 0
10, 2, 0
10, 1, 0
20, 12, 0
20, 2, 0
20, 16, 0
20, 10, 0
20, 8, 0
20, 15, 0
20, 5, 0
20, 11, 0
20, 1, 0
12, 20, 0
12, 13, 0
12, 2, 0
12, 18, 0
12, 19, 0
12, 10, 0
4, 7, 0
4, 6, 0
4, 19, 0
4, 17, 0
14, 19, 0
14, 13, 0
2, 20, 0
2, 12, 0
2, 1, 0
2, 15, 0
2, 5, 0
2, 11, 0
2, 10, 0
19, 7, 0
19, 12, 0
19, 4, 0
19, 14, 0
19, 6, 0
1, 20, 0
1, 16, 0
1, 2, 0
1, 11, 0
1, 10, 0
15, 20, 0
15, 5, 0
15, 2, 0
18, 12, 0
18, 8, 0
18, 17, 0
9, 0, 0
9, 3, 0
9, 13, 0
