0, 3, 0
0, 2, 0
0, 6, 0
0, 1, 0
0, 8, 0
0, 5, 0
0, 10, 0
0, 9, 0
3, 0, 0
3, 6, 0
3, 10, 0
3, 9, 0
3, 2, 1
4, 7, 0
4, 6, 0
4, 8, 0
4, 5, 1
2, 0, 0
2, 3, 1
2, 9, 0
2, 6, 0
2, 10, 0
2, 1, 1
6, 0, 0
6, 3, 0
6, 4, 0
6, 2, 0
6, 10, 0
6, 8, 0
6, 1, 0
6, 5, 0
6, 7, 0
6, 9, 0
1, 0, 0
1, 6, 0
1, 2, 1
1, 9, 0
1, 10, 0
8, 0, 0
8, 7, 1
8, 4, 0
8, 5, 0
8, 6, 0
5, 7, 0
5, 6, 0
5, 8, 0
5, 4, 1
5, 0, 0
7, 6, 0
7, 8, 1
7, 5, 0
7, 4, 0
10, 0, 0
10, 3, 0
10, 2, 0
10, 6, 0
10, 9, 0
10, 1, 0
9, 0, 0
9, 3, 0
9, 2, 0
9, 6, 0
9, 10, 0
9, 1, 0
