13, 12, 0
13, 35, 0
13, 25, 0
13, 21, 0
13, 37, 0
13, 15, 0
13, 2, 0
13, 39, 0
17, 18, 1
17, 20, 0
17, 25, 0
23, 37, 0
23, 16, 0
23, 32, 0
23, 36, 0
42, 7, 0
42, 37, 0
42, 6, 0
42, 21, 0
42, 16, 0
42, 33, 0
42, 8, 0
42, 5, 0
42, 11, 0
42, 1, 0
5, 7, 0
5, 37, 0
5, 4, 0
5, 9, 0
5, 42, 0
5, 21, 0
5, 6, 0
5, 1, 0
5, 41, 0
5, 11, 0
5, 30, 0
20, 0, 0
20, 17, 0
20, 18, 0
20, 25, 0
20, 19, 0
20, 40, 0
20, 22, 0
20, 10, 0
14, 38, 0
24, 16, 0
24, 34, 0
24, 37, 0
24, 28, 0
24, 27, 0
28, 34, 0
28, 16, 0
28, 4, 0
28, 21, 0
28, 24, 0
28, 37, 0
28, 6, 0
28, 30, 0
28, 1, 0
39, 0, 0
39, 12, 0
39, 13, 0
39, 25, 0
39, 26, 0
39, 2, 0
39, 21, 0
39, 43, 0
39, 15, 0
39, 22, 0
39, 10, 0
41, 4, 0
41, 9, 0
41, 21, 0
41, 6, 0
41, 30, 0
41, 5, 0
41, 1, 0
0, 20, 0
0, 12, 0
0, 43, 0
0, 15, 0
0, 39, 0
0, 19, 0
0, 40, 0
0, 22, 0
8, 7, 0
8, 33, 0
8, 25, 0
8, 21, 0
8, 37, 0
8, 6, 0
8, 35, 0
8, 42, 0
8, 11, 0
12, 0, 0
12, 13, 0
12, 43, 0
12, 2, 0
12, 25, 0
12, 15, 0
12, 39, 0
15, 0, 0
15, 12, 0
15, 13, 0
15, 25, 0
15, 2, 0
15, 21, 0
15, 43, 0
15, 39, 0
10, 20, 0
10, 40, 0
10, 39, 0
10, 22, 0
10, 26, 0
7, 21, 0
7, 37, 0
7, 42, 0
7, 16, 0
7, 6, 0
7, 8, 0
7, 5, 0
7, 11, 0
3, 37, 0
3, 32, 0
3, 21, 0
3, 16, 0
3, 6, 0
3, 30, 0
3, 34, 0
3, 27, 0
32, 3, 0
32, 16, 0
32, 23, 0
32, 21, 0
32, 6, 0
32, 30, 0
32, 36, 0
2, 12, 0
2, 16, 0
2, 13, 0
2, 43, 0
2, 33, 0
2, 37, 0
2, 15, 0
2, 35, 0
2, 39, 0
2, 11, 0
21, 13, 0
21, 28, 0
21, 31, 0
21, 39, 0
21, 15, 0
21, 5, 0
21, 11, 0
21, 1, 0
21, 4, 0
21, 35, 0
21, 42, 0
21, 30, 0
21, 38, 0
21, 41, 0
21, 36, 0
21, 8, 0
21, 34, 0
21, 16, 0
21, 6, 0
21, 7, 0
21, 3, 0
21, 25, 0
21, 32, 0
21, 27, 0
21, 9, 0
33, 35, 0
33, 2, 0
33, 37, 0
33, 42, 0
33, 8, 0
33, 11, 0
19, 20, 0
19, 0, 0
19, 18, 1
18, 20, 0
18, 19, 1
18, 17, 1
31, 21, 0
31, 6, 0
31, 30, 0
31, 38, 0
31, 36, 0
29, 27, 0
29, 34, 0
40, 20, 0
40, 0, 0
40, 26, 0
40, 22, 0
40, 10, 0
11, 21, 0
11, 16, 0
11, 6, 0
11, 5, 0
11, 1, 0
11, 7, 0
11, 33, 0
11, 25, 0
11, 2, 0
11, 37, 0
11, 42, 0
11, 30, 0
11, 8, 0
11, 9, 0
1, 28, 0
1, 16, 0
1, 6, 0
1, 5, 0
1, 11, 0
1, 30, 0
1, 21, 0
1, 4, 0
1, 37, 0
1, 42, 0
1, 41, 0
1, 9, 0
37, 13, 0
37, 28, 0
37, 23, 0
37, 3, 0
37, 16, 0
37, 6, 0
37, 24, 0
37, 5, 0
37, 11, 0
37, 1, 0
37, 7, 0
37, 33, 0
37, 4, 0
37, 2, 0
37, 42, 0
37, 8, 0
4, 37, 0
4, 28, 0
4, 9, 0
4, 21, 0
4, 16, 0
4, 6, 0
4, 30, 0
4, 5, 0
4, 41, 0
4, 1, 0
35, 33, 0
35, 13, 0
35, 25, 0
35, 2, 0
35, 21, 0
35, 8, 0
30, 28, 0
30, 31, 0
30, 3, 0
30, 16, 0
30, 6, 0
30, 5, 0
30, 11, 0
30, 1, 0
30, 34, 0
30, 4, 0
30, 25, 0
30, 32, 0
30, 27, 0
30, 21, 0
30, 36, 0
30, 38, 0
30, 41, 0
30, 9, 0
38, 21, 0
38, 6, 0
38, 14, 0
38, 31, 0
38, 30, 0
22, 20, 0
22, 0, 0
22, 25, 0
22, 26, 0
22, 39, 0
22, 40, 0
22, 10, 0
36, 23, 0
36, 31, 0
36, 21, 0
36, 6, 0
36, 30, 0
36, 32, 0
16, 37, 0
16, 28, 0
16, 23, 0
16, 6, 0
16, 24, 0
16, 11, 0
16, 30, 0
16, 7, 0
16, 3, 0
16, 4, 0
16, 32, 0
16, 2, 0
16, 21, 0
16, 42, 0
16, 1, 0
16, 9, 0
27, 24, 0
27, 3, 0
27, 29, 0
27, 21, 0
27, 6, 0
27, 34, 0
27, 30, 0
34, 3, 0
34, 28, 0
34, 29, 0
34, 21, 0
34, 6, 0
34, 30, 0
34, 24, 0
34, 27, 0
25, 13, 0
25, 17, 0
25, 39, 0
25, 11, 0
25, 30, 0
25, 20, 0
25, 12, 0
25, 26, 0
25, 35, 0
25, 21, 0
25, 8, 0
25, 15, 0
25, 22, 0
26, 25, 0
26, 39, 0
26, 40, 0
26, 22, 0
26, 10, 0
6, 37, 0
6, 28, 0
6, 32, 0
6, 3, 0
6, 16, 0
6, 27, 0
6, 8, 0
6, 5, 0
6, 11, 0
6, 1, 0
6, 7, 0
6, 34, 0
6, 4, 0
6, 31, 0
6, 36, 0
6, 21, 0
6, 42, 0
6, 30, 0
6, 38, 0
6, 41, 0
6, 9, 0
43, 0, 0
43, 12, 0
43, 15, 0
43, 39, 0
43, 2, 0
9, 41, 0
9, 16, 0
9, 4, 0
9, 21, 0
9, 6, 0
9, 30, 0
9, 5, 0
9, 11, 0
9, 1, 0
