0, 6, 0
0, 4, 0
0, 3, 0
3, 0, 0
3, 6, 0
3, 4, 0
4, 0, 0
4, 3, 0
4, 6, 0
4, 1, 0
7, 1, 0
7, 5, 0
7, 2, 0
2, 7, 0
2, 5, 0
2, 1, 0
6, 0, 0
6, 3, 0
6, 4, 0
5, 7, 0
5, 1, 0
5, 2, 0
1, 7, 0
1, 4, 0
1, 5, 0
1, 2, 0
