0, 5, 0
0, 11, 0
8, 7, 0
8, 9, 0
3, 2, 0
3, 4, 1
3, 9, 0
3, 1, 0
6, 7, 0
6, 10, 0
5, 0, 0
5, 11, 0
11, 0, 0
11, 12, 0
11, 5, 0
11, 2, 0
10, 7, 0
10, 6, 0
7, 6, 0
7, 8, 0
7, 9, 0
7, 10, 0
12, 4, 0
12, 9, 0
12, 11, 0
12, 2, 0
4, 2, 0
4, 3, 1
4, 9, 0
4, 12, 0
4, 1, 0
2, 12, 0
2, 4, 0
2, 3, 0
2, 11, 0
2, 1, 0
1, 3, 0
1, 4, 0
1, 9, 0
1, 2, 0
9, 7, 0
9, 3, 0
9, 4, 0
9, 12, 0
9, 8, 0
9, 1, 0
