0, 6, 0
0, 1, 0
3, 7, 0
4, 8, 0
4, 5, 0
2, 7, 0
2, 5, 0
6, 0, 0
6, 1, 0
6, 8, 0
6, 9, 0
1, 0, 0
1, 6, 0
8, 6, 0
8, 4, 0
8, 5, 0
8, 9, 0
5, 7, 0
5, 8, 0
5, 4, 0
5, 2, 0
7, 3, 0
7, 5, 0
7, 2, 0
9, 6, 0
9, 8, 0
