13, 16, 0
13, 4, 0
13, 14, 0
17, 18, 1
17, 3, 0
17, 12, 0
17, 5, 0
17, 2, 0
5, 18, 0
5, 12, 0
5, 17, 0
5, 3, 0
5, 2, 0
11, 0, 0
11, 12, 0
11, 1, 0
1, 0, 1
1, 12, 0
1, 11, 0
20, 2, 0
20, 19, 1
20, 8, 0
20, 10, 0
4, 7, 0
4, 6, 0
4, 8, 0
4, 14, 0
4, 13, 0
14, 16, 0
14, 13, 0
14, 4, 0
8, 20, 0
8, 7, 0
8, 6, 0
8, 4, 0
8, 10, 0
15, 16, 0
15, 21, 0
0, 12, 0
0, 11, 0
0, 1, 1
3, 18, 0
3, 12, 0
3, 17, 0
3, 5, 0
3, 2, 1
16, 21, 0
16, 15, 0
16, 13, 0
16, 14, 0
16, 9, 0
6, 7, 1
6, 8, 0
6, 4, 0
10, 20, 0
10, 19, 0
10, 8, 0
10, 2, 0
7, 6, 1
7, 8, 0
7, 4, 0
12, 0, 0
12, 3, 0
12, 17, 0
12, 2, 0
12, 18, 0
12, 5, 0
12, 11, 0
12, 1, 0
2, 20, 0
2, 3, 1
2, 17, 0
2, 12, 0
2, 18, 0
2, 19, 0
2, 5, 0
2, 10, 0
21, 16, 0
21, 15, 0
21, 9, 0
19, 20, 1
19, 2, 0
19, 10, 0
18, 3, 0
18, 12, 0
18, 17, 1
18, 5, 0
18, 2, 0
9, 16, 0
9, 21, 0
