12, 0, 0
12, 13, 0
12, 17, 0
12, 18, 0
12, 27, 0
12, 2, 0
12, 11, 0
12, 10, 0
12, 26, 0
12, 24, 0
12, 19, 0
12, 1, 0
13, 0, 0
13, 12, 0
13, 18, 0
13, 27, 0
13, 24, 0
13, 5, 0
13, 11, 0
13, 10, 0
13, 33, 0
13, 14, 1
13, 26, 0
13, 2, 0
13, 19, 0
17, 20, 0
17, 12, 0
31, 28, 0
31, 23, 0
31, 30, 0
31, 20, 0
31, 34, 0
31, 9, 0
31, 32, 0
31, 21, 0
31, 8, 0
31, 15, 0
31, 22, 0
31, 36, 0
23, 34, 0
23, 31, 0
23, 21, 0
23, 16, 0
23, 36, 0
23, 15, 0
23, 22, 1
23, 30, 0
24, 0, 0
24, 12, 0
24, 13, 0
24, 2, 0
24, 18, 0
24, 27, 0
24, 5, 0
24, 1, 0
5, 33, 0
5, 13, 0
5, 14, 0
5, 26, 0
5, 24, 0
5, 18, 0
5, 27, 0
5, 19, 0
5, 2, 0
5, 11, 0
5, 10, 0
11, 33, 0
11, 13, 0
11, 12, 0
11, 19, 0
11, 5, 0
11, 10, 1
1, 0, 1
1, 18, 0
1, 12, 0
1, 33, 0
1, 24, 0
20, 8, 0
20, 17, 0
20, 31, 0
20, 32, 0
20, 35, 0
20, 21, 0
20, 28, 0
20, 36, 0
20, 30, 0
20, 22, 0
20, 9, 0
4, 34, 0
4, 6, 0
4, 3, 1
14, 27, 0
14, 13, 1
14, 5, 0
14, 26, 0
14, 33, 0
35, 20, 0
35, 28, 0
35, 21, 0
35, 36, 1
35, 15, 0
35, 30, 0
28, 20, 0
28, 16, 0
28, 8, 0
28, 9, 0
28, 31, 0
28, 32, 0
28, 35, 0
28, 21, 0
28, 30, 0
28, 15, 0
28, 36, 0
30, 20, 0
30, 34, 0
30, 21, 0
30, 28, 0
30, 31, 0
30, 23, 0
30, 35, 0
30, 16, 0
30, 15, 0
30, 22, 0
30, 36, 0
8, 20, 0
8, 34, 0
8, 28, 0
8, 31, 0
8, 32, 0
8, 21, 0
8, 9, 1
15, 34, 0
15, 21, 0
15, 28, 0
15, 31, 0
15, 23, 0
15, 35, 0
15, 16, 1
15, 36, 0
15, 22, 0
15, 30, 0
22, 20, 0
22, 34, 0
22, 23, 1
22, 31, 0
22, 16, 0
22, 36, 0
22, 15, 0
22, 30, 0
36, 20, 0
36, 34, 0
36, 28, 0
36, 23, 0
36, 31, 0
36, 35, 1
36, 21, 0
36, 15, 0
36, 22, 0
36, 30, 0
0, 12, 0
0, 13, 0
0, 26, 0
0, 24, 0
0, 18, 0
0, 33, 0
0, 1, 1
0, 2, 0
0, 27, 0
6, 7, 0
6, 34, 0
6, 4, 0
6, 3, 0
3, 34, 0
3, 4, 1
3, 6, 0
16, 34, 0
16, 28, 0
16, 23, 0
16, 15, 1
16, 22, 0
16, 30, 0
27, 0, 0
27, 33, 0
27, 13, 0
27, 14, 0
27, 26, 1
27, 24, 0
27, 18, 0
27, 2, 0
27, 5, 0
27, 12, 0
10, 33, 0
10, 13, 0
10, 2, 0
10, 19, 0
10, 5, 0
10, 11, 1
10, 12, 0
7, 6, 0
7, 29, 0
34, 31, 0
34, 23, 0
34, 16, 0
34, 6, 0
34, 30, 0
34, 3, 0
34, 4, 0
34, 9, 0
34, 32, 0
34, 21, 0
34, 8, 0
34, 15, 0
34, 22, 0
34, 36, 0
25, 29, 0
33, 0, 0
33, 13, 0
33, 18, 0
33, 27, 0
33, 5, 0
33, 11, 0
33, 1, 0
33, 14, 0
33, 26, 0
33, 2, 0
33, 19, 0
33, 10, 0
32, 20, 0
32, 34, 0
32, 28, 0
32, 31, 0
32, 21, 0
32, 8, 0
32, 9, 0
2, 0, 0
2, 12, 0
2, 13, 0
2, 33, 0
2, 24, 0
2, 18, 0
2, 27, 0
2, 19, 0
2, 5, 0
2, 10, 0
21, 28, 0
21, 31, 0
21, 23, 0
21, 36, 0
21, 30, 0
21, 20, 0
21, 34, 0
21, 32, 0
21, 35, 0
21, 8, 0
21, 15, 0
21, 9, 0
29, 7, 0
29, 25, 0
19, 12, 0
19, 13, 0
19, 2, 0
19, 33, 0
19, 5, 0
19, 11, 0
19, 10, 0
26, 0, 0
26, 33, 0
26, 13, 0
26, 14, 0
26, 12, 0
26, 18, 0
26, 27, 1
26, 5, 0
18, 0, 0
18, 33, 0
18, 13, 0
18, 26, 0
18, 12, 0
18, 27, 0
18, 2, 0
18, 24, 0
18, 5, 0
18, 1, 0
9, 20, 0
9, 34, 0
9, 28, 0
9, 31, 0
9, 32, 0
9, 21, 0
9, 8, 1
