13, 7, 0
13, 2, 0
13, 6, 0
13, 1, 0
13, 9, 0
13, 11, 0
13, 10, 0
17, 2, 0
17, 5, 0
17, 1, 0
5, 18, 0
5, 2, 0
5, 17, 0
5, 1, 0
11, 7, 0
11, 6, 0
11, 2, 0
11, 13, 0
11, 10, 1
1, 18, 0
1, 13, 0
1, 17, 0
1, 5, 0
1, 2, 0
20, 21, 0
20, 12, 0
20, 22, 0
4, 7, 0
4, 3, 0
4, 14, 0
4, 0, 0
14, 0, 0
14, 3, 0
14, 8, 0
14, 4, 0
8, 0, 0
8, 12, 0
8, 14, 0
8, 22, 0
15, 16, 0
15, 21, 0
15, 19, 0
22, 20, 0
22, 12, 0
22, 8, 0
0, 7, 0
0, 12, 0
0, 4, 0
0, 14, 0
0, 3, 0
0, 8, 0
3, 0, 0
3, 7, 0
3, 4, 0
3, 14, 0
16, 21, 0
16, 19, 0
16, 15, 0
6, 7, 0
6, 13, 0
6, 2, 0
6, 9, 0
6, 11, 0
6, 10, 0
10, 7, 0
10, 13, 0
10, 2, 0
10, 6, 0
10, 11, 1
10, 9, 1
7, 0, 0
7, 3, 0
7, 4, 0
7, 13, 0
7, 2, 0
7, 18, 0
7, 6, 0
7, 9, 0
7, 11, 0
7, 10, 0
12, 0, 0
12, 20, 0
12, 8, 0
12, 22, 0
2, 7, 0
2, 13, 0
2, 17, 0
2, 9, 0
2, 18, 0
2, 6, 0
2, 10, 0
2, 5, 0
2, 11, 0
2, 1, 0
21, 20, 0
21, 16, 0
21, 19, 0
21, 15, 0
19, 16, 0
19, 21, 0
19, 15, 0
18, 7, 0
18, 2, 0
18, 5, 0
18, 1, 0
9, 7, 0
9, 6, 0
9, 2, 0
9, 13, 0
9, 10, 1
