13, 20, 0
13, 14, 1
13, 6, 0
13, 38, 0
13, 5, 0
13, 36, 0
17, 7, 0
17, 0, 0
17, 25, 0
17, 26, 0
17, 3, 0
17, 41, 0
23, 45, 0
23, 3, 0
23, 55, 0
23, 40, 0
23, 30, 0
23, 7, 0
23, 12, 0
23, 54, 0
23, 29, 0
23, 42, 0
23, 20, 0
23, 1, 0
46, 37, 0
46, 4, 0
46, 49, 0
46, 50, 0
20, 0, 0
20, 13, 0
20, 23, 0
20, 55, 0
20, 40, 0
20, 44, 0
20, 11, 0
20, 3, 0
20, 52, 0
20, 31, 0
20, 38, 0
20, 36, 0
34, 35, 1
34, 21, 0
34, 39, 0
34, 55, 0
34, 40, 0
34, 22, 0
14, 13, 1
14, 28, 0
14, 9, 0
14, 6, 0
14, 8, 0
14, 38, 0
14, 5, 0
14, 36, 0
24, 53, 0
24, 48, 0
24, 33, 0
24, 18, 0
24, 27, 0
24, 55, 0
24, 54, 0
24, 47, 0
24, 10, 0
24, 12, 0
24, 43, 0
24, 21, 0
24, 52, 0
24, 19, 0
24, 41, 0
28, 0, 0
28, 27, 0
28, 5, 0
28, 9, 0
28, 14, 0
28, 6, 0
28, 21, 0
28, 52, 0
28, 19, 0
28, 8, 0
28, 38, 0
28, 41, 0
28, 22, 0
28, 36, 0
15, 33, 0
15, 21, 0
15, 54, 0
15, 51, 0
15, 35, 0
15, 16, 1
15, 42, 0
15, 55, 0
15, 39, 0
15, 41, 0
15, 22, 0
41, 0, 0
41, 6, 0
41, 17, 0
41, 51, 0
41, 18, 0
41, 27, 0
41, 15, 0
41, 55, 0
41, 40, 0
41, 5, 0
41, 7, 0
41, 33, 0
41, 52, 0
41, 26, 0
41, 24, 0
41, 21, 0
41, 28, 0
41, 19, 0
41, 39, 0
41, 22, 0
0, 7, 0
0, 28, 0
0, 52, 0
0, 18, 0
0, 6, 0
0, 5, 0
0, 20, 0
0, 3, 0
0, 25, 0
0, 26, 0
0, 27, 0
0, 17, 0
0, 19, 0
0, 8, 0
0, 41, 0
8, 0, 0
8, 14, 0
8, 31, 0
8, 28, 0
8, 52, 0
8, 6, 0
8, 36, 0
8, 38, 0
8, 5, 0
8, 11, 0
8, 9, 1
51, 21, 0
51, 15, 0
51, 39, 0
51, 41, 0
51, 22, 0
3, 20, 0
3, 0, 0
3, 7, 0
3, 17, 0
3, 26, 0
3, 23, 0
3, 52, 0
3, 40, 0
3, 25, 0
3, 36, 0
38, 20, 0
38, 13, 0
38, 28, 0
38, 31, 0
38, 6, 0
38, 14, 0
38, 8, 0
38, 5, 0
38, 36, 0
47, 12, 0
47, 49, 0
47, 43, 0
47, 50, 0
47, 24, 0
47, 53, 0
47, 48, 1
47, 10, 0
10, 45, 0
10, 43, 0
10, 32, 0
10, 24, 0
10, 53, 0
10, 48, 0
10, 47, 0
7, 0, 0
7, 3, 0
7, 40, 0
7, 17, 0
7, 23, 0
7, 26, 0
7, 52, 0
7, 39, 0
7, 25, 0
7, 41, 0
33, 35, 0
33, 53, 0
33, 39, 0
33, 16, 0
33, 27, 0
33, 55, 0
33, 48, 0
33, 12, 0
33, 54, 0
33, 22, 0
33, 24, 0
33, 21, 0
33, 42, 0
33, 19, 0
33, 15, 0
33, 41, 0
33, 18, 0
53, 45, 0
53, 33, 0
53, 1, 0
53, 47, 0
53, 30, 0
53, 12, 0
53, 43, 0
53, 32, 0
53, 24, 0
53, 21, 0
53, 54, 0
53, 10, 0
53, 48, 0
53, 22, 0
32, 53, 0
32, 43, 0
32, 48, 0
32, 10, 0
2, 43, 0
2, 50, 0
21, 55, 0
21, 28, 0
21, 51, 0
21, 34, 0
21, 16, 0
21, 27, 0
21, 15, 0
21, 53, 0
21, 54, 0
21, 24, 0
21, 33, 0
21, 52, 0
21, 35, 0
21, 18, 0
21, 42, 0
21, 19, 0
21, 39, 0
21, 41, 0
21, 22, 1
52, 0, 0
52, 7, 0
52, 28, 0
52, 27, 0
52, 36, 0
52, 5, 0
52, 20, 0
52, 3, 0
52, 26, 0
52, 24, 0
52, 21, 0
52, 8, 0
52, 41, 0
52, 22, 0
52, 9, 0
19, 0, 0
19, 55, 0
19, 28, 0
19, 18, 1
19, 27, 0
19, 24, 0
19, 33, 0
19, 54, 0
19, 35, 0
19, 21, 0
19, 39, 0
19, 41, 0
19, 22, 0
49, 4, 0
49, 37, 0
49, 40, 0
49, 46, 0
49, 47, 0
49, 48, 0
48, 33, 0
48, 49, 0
48, 43, 0
48, 50, 0
48, 32, 0
48, 24, 0
48, 53, 0
48, 10, 0
48, 47, 1
48, 12, 0
31, 20, 0
31, 6, 0
31, 8, 0
31, 38, 0
31, 5, 0
31, 11, 0
31, 36, 0
39, 51, 0
39, 33, 0
39, 18, 0
39, 55, 0
39, 40, 0
39, 7, 0
39, 34, 0
39, 35, 0
39, 21, 0
39, 19, 0
39, 15, 0
39, 41, 0
39, 22, 0
29, 45, 0
29, 1, 0
29, 12, 0
29, 23, 0
29, 30, 1
40, 7, 0
40, 49, 0
40, 23, 0
40, 12, 0
40, 55, 0
40, 20, 0
40, 3, 0
40, 4, 0
40, 25, 0
40, 50, 0
40, 42, 0
40, 54, 0
40, 34, 0
40, 39, 0
40, 41, 0
11, 20, 0
11, 31, 0
11, 6, 0
11, 8, 0
11, 44, 0
11, 5, 0
5, 0, 0
5, 13, 0
5, 28, 0
5, 6, 1
5, 36, 0
5, 44, 0
5, 11, 0
5, 14, 0
5, 31, 0
5, 27, 0
5, 52, 0
5, 8, 0
5, 38, 0
5, 41, 0
5, 9, 0
37, 4, 0
37, 49, 0
37, 50, 0
37, 46, 0
4, 37, 0
4, 49, 0
4, 40, 0
4, 46, 0
4, 50, 0
35, 33, 0
35, 16, 0
35, 34, 1
35, 21, 0
35, 39, 0
35, 19, 0
35, 55, 0
35, 15, 0
35, 18, 0
35, 22, 0
30, 12, 0
30, 45, 0
30, 54, 0
30, 23, 0
30, 29, 1
30, 53, 0
30, 1, 0
42, 33, 0
42, 54, 0
42, 23, 0
42, 21, 0
42, 40, 0
42, 55, 0
42, 15, 0
22, 53, 0
22, 28, 0
22, 51, 0
22, 34, 0
22, 16, 0
22, 27, 0
22, 15, 0
22, 55, 0
22, 33, 0
22, 52, 0
22, 35, 0
22, 21, 1
22, 19, 0
22, 39, 0
22, 41, 0
22, 18, 0
36, 13, 0
36, 28, 0
36, 6, 0
36, 5, 0
36, 20, 0
36, 3, 0
36, 14, 0
36, 31, 0
36, 27, 0
36, 52, 0
36, 8, 0
36, 38, 0
25, 7, 0
25, 3, 0
25, 17, 0
25, 26, 1
25, 40, 0
25, 0, 0
45, 12, 0
45, 54, 0
45, 23, 0
45, 29, 0
45, 1, 0
45, 53, 0
45, 10, 0
45, 30, 0
16, 21, 0
16, 33, 0
16, 15, 1
16, 22, 0
16, 35, 0
27, 0, 0
27, 28, 0
27, 18, 0
27, 55, 0
27, 5, 0
27, 33, 0
27, 52, 0
27, 24, 0
27, 21, 0
27, 19, 0
27, 41, 0
27, 22, 0
27, 36, 0
1, 45, 0
1, 12, 0
1, 23, 0
1, 29, 0
1, 53, 0
1, 30, 0
55, 23, 0
55, 34, 0
55, 18, 0
55, 27, 0
55, 24, 0
55, 40, 0
55, 20, 0
55, 33, 0
55, 39, 0
55, 35, 0
55, 21, 0
55, 42, 0
55, 19, 0
55, 15, 0
55, 41, 0
55, 22, 0
44, 20, 0
44, 6, 0
44, 5, 0
44, 11, 0
12, 45, 0
12, 53, 0
12, 23, 0
12, 24, 0
12, 40, 0
12, 47, 0
12, 1, 0
12, 33, 0
12, 54, 0
12, 29, 0
12, 30, 0
12, 48, 0
18, 0, 0
18, 33, 0
18, 55, 0
18, 24, 0
18, 21, 0
18, 27, 0
18, 19, 1
18, 35, 0
18, 39, 0
18, 41, 0
18, 22, 0
54, 45, 0
54, 23, 0
54, 33, 0
54, 53, 0
54, 40, 0
54, 30, 0
54, 12, 0
54, 24, 0
54, 21, 0
54, 42, 0
54, 19, 0
54, 15, 0
50, 4, 0
50, 2, 0
50, 37, 0
50, 40, 0
50, 46, 0
50, 47, 0
50, 48, 0
26, 0, 0
26, 7, 0
26, 17, 0
26, 3, 0
26, 52, 0
26, 25, 1
26, 41, 0
6, 0, 0
6, 13, 0
6, 28, 0
6, 36, 0
6, 5, 1
6, 11, 0
6, 44, 0
6, 14, 0
6, 31, 0
6, 8, 0
6, 38, 0
6, 41, 0
6, 9, 0
43, 24, 0
43, 32, 0
43, 2, 0
43, 53, 0
43, 48, 0
43, 47, 0
43, 10, 0
9, 28, 0
9, 6, 0
9, 14, 0
9, 8, 1
9, 52, 0
9, 5, 0
