0, 8, 0
0, 4, 0
0, 9, 0
3, 7, 0
3, 6, 0
3, 8, 0
3, 2, 0
4, 0, 0
4, 8, 0
2, 7, 0
2, 3, 0
2, 6, 0
2, 8, 0
2, 5, 0
2, 1, 0
6, 7, 0
6, 3, 0
6, 1, 0
6, 2, 0
1, 6, 0
1, 5, 0
1, 2, 0
8, 0, 0
8, 3, 0
8, 4, 0
8, 2, 0
8, 5, 0
8, 9, 1
5, 2, 0
5, 8, 0
5, 9, 0
5, 1, 0
7, 3, 0
7, 2, 0
7, 6, 0
9, 0, 0
9, 8, 1
9, 5, 0
