13, 0, 0
13, 12, 0
13, 14, 0
13, 23, 0
13, 3, 0
13, 18, 0
13, 2, 0
13, 11, 0
13, 1, 0
17, 20, 0
17, 7, 0
17, 5, 0
23, 0, 0
23, 13, 0
23, 14, 0
23, 2, 0
23, 18, 0
23, 19, 0
23, 15, 0
23, 22, 1
5, 20, 0
5, 7, 0
5, 17, 0
11, 0, 0
11, 12, 0
11, 13, 0
11, 14, 0
11, 7, 0
11, 3, 0
11, 21, 0
11, 2, 0
11, 18, 0
11, 1, 0
1, 0, 0
1, 12, 0
1, 13, 0
1, 14, 0
1, 11, 0
1, 21, 0
1, 7, 0
1, 18, 0
20, 7, 0
20, 17, 0
20, 5, 0
4, 0, 0
4, 8, 0
4, 24, 0
4, 6, 0
4, 19, 0
4, 2, 0
4, 15, 0
4, 10, 0
14, 0, 0
14, 12, 0
14, 13, 0
14, 23, 0
14, 3, 0
14, 18, 0
14, 2, 0
14, 11, 0
14, 1, 0
24, 4, 0
24, 9, 0
24, 6, 0
24, 19, 0
24, 8, 0
24, 10, 0
8, 4, 0
8, 2, 0
8, 6, 0
8, 19, 0
8, 24, 0
8, 15, 0
8, 10, 0
15, 0, 0
15, 12, 0
15, 4, 0
15, 23, 0
15, 2, 0
15, 18, 0
15, 19, 0
15, 8, 0
15, 22, 0
22, 0, 0
22, 23, 1
22, 2, 0
22, 18, 0
22, 19, 0
22, 15, 0
0, 13, 0
0, 23, 0
0, 12, 0
0, 18, 0
0, 11, 0
0, 1, 0
0, 3, 0
0, 4, 0
0, 14, 0
0, 2, 0
0, 15, 0
0, 22, 0
3, 0, 0
3, 12, 0
3, 13, 0
3, 14, 0
3, 21, 0
3, 11, 0
16, 7, 0
16, 21, 0
6, 2, 0
6, 8, 0
6, 10, 0
6, 4, 0
6, 24, 0
10, 2, 0
10, 4, 0
10, 24, 0
10, 6, 0
10, 19, 0
10, 8, 0
7, 20, 0
7, 17, 0
7, 16, 0
7, 5, 0
7, 11, 0
7, 1, 0
12, 0, 0
12, 3, 0
12, 13, 0
12, 14, 0
12, 21, 0
12, 19, 0
12, 15, 0
12, 18, 0
12, 11, 0
12, 1, 0
2, 0, 0
2, 13, 0
2, 23, 0
2, 18, 0
2, 6, 0
2, 11, 0
2, 10, 0
2, 4, 0
2, 14, 0
2, 19, 0
2, 8, 0
2, 15, 0
2, 22, 0
21, 16, 0
21, 3, 0
21, 12, 0
21, 11, 0
21, 1, 0
19, 12, 0
19, 4, 0
19, 9, 0
19, 23, 0
19, 24, 0
19, 18, 0
19, 2, 0
19, 8, 0
19, 15, 0
19, 22, 0
19, 10, 0
18, 0, 0
18, 12, 0
18, 13, 0
18, 14, 0
18, 22, 0
18, 23, 0
18, 2, 0
18, 19, 0
18, 15, 0
18, 11, 0
18, 1, 0
9, 19, 0
9, 24, 0
