13, 24, 0
13, 53, 0
13, 26, 0
13, 35, 0
17, 43, 0
17, 22, 0
23, 16, 0
23, 52, 0
46, 32, 0
46, 31, 0
46, 10, 0
20, 0, 0
20, 14, 0
20, 51, 0
20, 56, 0
20, 48, 0
20, 47, 0
34, 7, 0
34, 3, 0
34, 4, 0
34, 40, 0
34, 36, 0
14, 20, 0
14, 56, 0
14, 51, 0
14, 47, 0
14, 48, 0
14, 11, 0
14, 44, 0
24, 13, 0
24, 25, 0
24, 26, 0
24, 53, 0
24, 15, 0
24, 5, 0
28, 6, 0
28, 19, 0
28, 39, 0
28, 43, 0
15, 25, 0
15, 26, 0
15, 24, 0
15, 18, 0
15, 38, 0
15, 5, 0
41, 55, 0
41, 36, 0
0, 20, 0
0, 50, 0
0, 56, 0
0, 48, 0
0, 47, 0
0, 32, 0
8, 43, 0
8, 52, 0
8, 22, 0
51, 20, 0
51, 14, 0
51, 32, 0
51, 56, 0
51, 48, 0
51, 47, 0
3, 7, 0
3, 34, 0
3, 4, 1
3, 40, 0
3, 2, 0
38, 16, 0
38, 25, 0
38, 26, 0
38, 18, 0
38, 15, 0
38, 5, 0
47, 20, 0
47, 0, 0
47, 14, 0
47, 51, 0
47, 56, 0
47, 48, 1
47, 32, 0
10, 54, 0
10, 46, 0
10, 32, 0
10, 31, 0
7, 34, 0
7, 4, 0
7, 3, 0
7, 29, 0
7, 36, 0
7, 2, 0
7, 40, 0
7, 30, 0
33, 12, 0
33, 27, 0
53, 13, 0
53, 25, 0
53, 26, 0
53, 35, 0
53, 18, 0
53, 24, 0
53, 5, 0
53, 1, 0
32, 0, 0
32, 54, 0
32, 50, 0
32, 51, 0
32, 31, 0
32, 46, 0
32, 56, 0
32, 48, 0
32, 47, 0
32, 10, 0
2, 7, 0
2, 3, 0
2, 4, 0
2, 40, 0
2, 30, 0
21, 42, 0
21, 9, 0
52, 8, 0
52, 23, 0
19, 28, 0
19, 43, 0
49, 39, 0
49, 31, 0
48, 20, 0
48, 0, 0
48, 14, 0
48, 50, 0
48, 51, 0
48, 31, 0
48, 56, 0
48, 47, 1
48, 32, 0
31, 54, 0
31, 32, 0
31, 56, 0
31, 46, 0
31, 49, 0
31, 48, 0
31, 10, 0
39, 6, 0
39, 49, 0
39, 28, 0
29, 7, 0
29, 27, 0
40, 7, 0
40, 3, 0
40, 4, 0
40, 34, 0
40, 2, 0
40, 36, 0
11, 14, 0
11, 44, 0
5, 25, 0
5, 26, 0
5, 24, 0
5, 18, 0
5, 15, 0
5, 53, 0
5, 38, 0
5, 1, 0
37, 45, 0
4, 7, 0
4, 3, 1
4, 2, 0
4, 30, 0
4, 34, 0
4, 40, 0
4, 36, 0
35, 13, 0
35, 53, 0
35, 26, 0
30, 7, 0
30, 4, 0
30, 2, 0
42, 21, 0
42, 45, 0
22, 43, 0
22, 8, 0
22, 17, 0
36, 7, 0
36, 34, 0
36, 4, 0
36, 55, 0
36, 40, 0
36, 41, 0
25, 26, 1
25, 24, 0
25, 18, 0
25, 38, 0
25, 53, 0
25, 15, 0
25, 5, 0
25, 1, 0
45, 37, 0
45, 42, 0
56, 20, 0
56, 0, 0
56, 14, 0
56, 32, 0
56, 51, 0
56, 31, 0
56, 48, 0
56, 47, 0
16, 38, 0
16, 23, 0
27, 33, 0
27, 12, 0
27, 29, 0
1, 25, 0
1, 26, 0
1, 18, 0
1, 53, 0
1, 5, 0
1, 9, 0
55, 41, 0
55, 36, 0
44, 12, 0
44, 14, 0
44, 11, 0
12, 33, 0
12, 44, 0
12, 27, 0
18, 25, 0
18, 26, 0
18, 15, 0
18, 53, 0
18, 38, 0
18, 5, 0
18, 1, 0
54, 32, 0
54, 31, 0
54, 10, 0
50, 0, 0
50, 48, 0
50, 32, 0
26, 35, 0
26, 13, 0
26, 25, 1
26, 24, 0
26, 18, 0
26, 38, 0
26, 53, 0
26, 15, 0
26, 5, 0
26, 1, 0
6, 28, 0
6, 39, 0
43, 28, 0
43, 19, 0
43, 8, 0
43, 17, 0
43, 22, 0
9, 21, 0
9, 1, 0
