0, 12, 0
0, 2, 0
0, 11, 0
0, 1, 0
8, 2, 0
8, 10, 0
3, 7, 0
3, 4, 0
3, 6, 0
3, 5, 0
3, 11, 0
3, 9, 0
6, 3, 0
6, 4, 0
6, 5, 0
6, 9, 0
5, 6, 0
5, 4, 0
5, 9, 0
5, 3, 0
11, 7, 0
11, 12, 0
11, 4, 0
11, 3, 0
11, 2, 0
11, 1, 0
11, 10, 0
11, 0, 0
10, 7, 0
10, 2, 0
10, 8, 0
10, 11, 0
10, 1, 0
7, 12, 0
7, 4, 0
7, 3, 0
7, 2, 0
7, 10, 0
7, 11, 0
7, 9, 0
12, 0, 0
12, 7, 0
12, 2, 0
12, 1, 0
12, 11, 0
12, 9, 0
4, 7, 0
4, 3, 0
4, 2, 0
4, 6, 0
4, 5, 0
4, 11, 0
4, 9, 0
2, 0, 0
2, 12, 0
2, 7, 0
2, 4, 0
2, 1, 0
2, 8, 0
2, 11, 0
2, 10, 0
1, 0, 0
1, 12, 0
1, 2, 0
1, 11, 0
1, 10, 0
9, 7, 0
9, 12, 0
9, 4, 0
9, 3, 0
9, 6, 0
9, 5, 0
