0, 10, 0
0, 9, 0
0, 5, 0
0, 1, 0
6, 7, 0
6, 3, 0
6, 4, 0
6, 1, 0
1, 0, 0
1, 7, 0
1, 2, 0
1, 6, 0
1, 11, 0
1, 10, 0
5, 0, 0
5, 11, 0
5, 10, 0
11, 3, 0
11, 2, 0
11, 5, 0
11, 10, 0
11, 1, 0
10, 7, 0
10, 3, 0
10, 4, 0
10, 2, 0
10, 0, 0
10, 5, 0
10, 11, 0
10, 1, 0
7, 3, 0
7, 4, 0
7, 2, 0
7, 6, 0
7, 1, 0
7, 10, 0
3, 7, 0
3, 4, 0
3, 2, 0
3, 6, 0
3, 11, 0
3, 10, 0
4, 7, 0
4, 6, 0
4, 3, 0
4, 10, 0
2, 7, 0
2, 3, 0
2, 10, 0
2, 11, 0
2, 1, 0
8, 9, 0
9, 0, 0
9, 8, 0
