0, 12, 0
0, 4, 0
0, 5, 0
8, 7, 0
8, 6, 0
8, 4, 0
3, 1, 0
3, 5, 0
3, 11, 0
3, 2, 0
6, 7, 1
6, 8, 0
6, 4, 0
5, 0, 0
5, 12, 0
5, 4, 0
5, 3, 0
5, 2, 0
5, 11, 0
5, 1, 0
11, 2, 0
11, 3, 0
11, 9, 0
11, 5, 0
11, 10, 0
10, 11, 0
10, 9, 1
7, 6, 1
7, 8, 0
7, 4, 0
12, 0, 0
12, 4, 0
12, 5, 0
4, 0, 0
4, 12, 0
4, 7, 0
4, 6, 0
4, 8, 0
4, 5, 0
2, 3, 0
2, 5, 0
2, 11, 0
2, 1, 1
1, 3, 0
1, 5, 0
1, 2, 1
9, 11, 0
9, 10, 1
