0, 2, 0
0, 10, 0
0, 9, 0
13, 2, 0
13, 8, 0
13, 9, 0
13, 1, 0
3, 12, 0
3, 4, 0
3, 9, 0
3, 6, 0
3, 8, 0
3, 5, 0
3, 11, 0
3, 10, 0
6, 7, 0
6, 12, 0
6, 4, 0
6, 3, 0
6, 5, 1
6, 11, 0
6, 10, 0
8, 3, 0
8, 13, 0
8, 9, 0
8, 4, 0
8, 1, 0
5, 7, 0
5, 12, 0
5, 4, 0
5, 3, 0
5, 6, 1
5, 2, 0
5, 11, 0
5, 10, 0
11, 7, 0
11, 12, 1
11, 4, 0
11, 3, 0
11, 6, 0
11, 5, 0
11, 10, 0
10, 0, 0
10, 12, 0
10, 4, 0
10, 3, 0
10, 2, 0
10, 6, 0
10, 5, 0
10, 7, 0
10, 11, 0
10, 9, 0
7, 12, 0
7, 4, 0
7, 2, 0
7, 6, 0
7, 5, 0
7, 11, 0
7, 10, 0
12, 7, 0
12, 3, 0
12, 4, 0
12, 6, 0
12, 5, 0
12, 11, 1
12, 10, 0
4, 7, 0
4, 12, 0
4, 3, 0
4, 6, 0
4, 8, 0
4, 5, 0
4, 11, 0
4, 10, 0
2, 0, 0
2, 7, 0
2, 13, 0
2, 10, 0
2, 9, 0
2, 5, 0
2, 1, 0
1, 8, 0
1, 13, 0
1, 2, 0
9, 0, 0
9, 3, 0
9, 13, 0
9, 2, 0
9, 8, 0
9, 10, 0
