13, 20, 0
13, 14, 0
13, 18, 0
13, 10, 0
13, 11, 0
13, 1, 0
17, 7, 0
17, 6, 0
17, 3, 0
5, 16, 0
5, 22, 0
11, 20, 0
11, 18, 0
11, 13, 0
11, 1, 0
1, 20, 0
1, 13, 0
1, 14, 0
1, 11, 0
1, 10, 0
20, 18, 0
20, 13, 0
20, 14, 0
20, 11, 0
20, 1, 0
4, 7, 0
4, 3, 1
14, 20, 0
14, 0, 0
14, 13, 0
14, 1, 0
8, 12, 0
8, 19, 0
15, 19, 0
15, 9, 0
22, 5, 0
22, 10, 0
0, 14, 0
3, 7, 0
3, 4, 1
3, 17, 0
16, 6, 0
16, 5, 0
6, 16, 0
6, 17, 0
10, 18, 0
10, 13, 0
10, 22, 0
10, 1, 0
7, 21, 0
7, 3, 0
7, 4, 0
7, 17, 0
12, 8, 0
12, 2, 0
2, 21, 0
2, 12, 0
21, 7, 0
21, 2, 0
19, 8, 0
19, 15, 0
18, 20, 0
18, 13, 0
18, 11, 0
18, 10, 0
9, 15, 0
