13, 7, 0
13, 3, 0
13, 5, 0
13, 11, 0
13, 2, 0
17, 7, 0
17, 0, 0
17, 14, 0
17, 12, 0
17, 18, 1
17, 19, 0
17, 9, 0
17, 5, 0
17, 1, 0
5, 7, 0
5, 3, 0
5, 13, 0
5, 14, 0
5, 2, 0
5, 18, 0
5, 17, 0
11, 20, 0
11, 3, 0
11, 13, 0
11, 2, 0
11, 16, 0
11, 15, 0
11, 10, 0
1, 0, 1
1, 12, 0
1, 14, 0
1, 17, 0
1, 9, 0
20, 16, 0
20, 21, 1
20, 8, 0
20, 15, 0
20, 11, 0
20, 10, 0
4, 19, 0
14, 7, 0
14, 12, 0
14, 17, 0
14, 18, 0
14, 5, 0
14, 1, 0
8, 20, 0
8, 6, 0
8, 16, 0
15, 20, 0
15, 16, 0
15, 21, 0
15, 11, 0
15, 10, 0
0, 7, 0
0, 12, 0
0, 17, 0
0, 19, 0
0, 1, 1
0, 9, 0
3, 13, 0
3, 5, 0
3, 11, 0
3, 2, 1
16, 20, 0
16, 21, 0
16, 6, 0
16, 8, 0
16, 15, 0
16, 11, 0
16, 10, 0
6, 16, 0
6, 21, 0
6, 8, 0
6, 10, 0
10, 20, 0
10, 21, 0
10, 16, 0
10, 6, 0
10, 15, 0
10, 11, 0
7, 0, 0
7, 12, 0
7, 13, 0
7, 14, 0
7, 2, 0
7, 18, 0
7, 17, 0
7, 19, 0
7, 5, 0
7, 9, 0
12, 0, 0
12, 7, 0
12, 14, 0
12, 17, 0
12, 19, 0
12, 9, 0
12, 1, 0
2, 7, 0
2, 3, 1
2, 13, 0
2, 5, 0
2, 11, 0
21, 20, 1
21, 16, 0
21, 10, 0
21, 15, 0
21, 6, 0
19, 0, 0
19, 7, 0
19, 4, 0
19, 17, 0
19, 12, 0
19, 9, 0
18, 7, 0
18, 14, 0
18, 17, 1
18, 5, 0
9, 0, 0
9, 7, 0
9, 17, 0
9, 12, 0
9, 19, 0
9, 1, 0
