0, 6, 0
0, 8, 0
0, 9, 0
3, 6, 0
3, 8, 0
3, 9, 0
4, 7, 0
4, 2, 0
4, 9, 0
4, 5, 0
4, 1, 0
2, 4, 0
2, 5, 0
2, 1, 0
6, 0, 0
6, 3, 0
6, 8, 0
6, 9, 0
1, 7, 0
1, 4, 0
1, 9, 0
1, 2, 0
8, 0, 0
8, 3, 0
8, 6, 0
8, 9, 0
5, 4, 0
5, 2, 0
7, 1, 0
7, 4, 0
7, 9, 0
9, 0, 0
9, 3, 0
9, 4, 0
9, 6, 0
9, 8, 0
9, 7, 0
9, 1, 0
