0, 8, 0
0, 2, 0
13, 12, 0
13, 4, 0
13, 17, 0
13, 9, 0
13, 1, 0
17, 18, 0
17, 13, 0
17, 15, 0
17, 10, 0
17, 1, 0
3, 14, 0
3, 11, 0
16, 7, 0
16, 11, 0
6, 12, 0
6, 4, 0
6, 14, 0
6, 5, 1
8, 0, 0
8, 19, 0
8, 2, 0
8, 15, 0
8, 10, 0
5, 12, 0
5, 4, 0
5, 14, 0
5, 6, 1
11, 16, 0
11, 3, 0
11, 7, 0
11, 14, 0
10, 18, 0
10, 17, 0
10, 19, 0
10, 8, 0
10, 15, 0
7, 16, 0
7, 4, 0
7, 11, 0
12, 13, 0
12, 14, 0
12, 4, 0
12, 6, 0
12, 5, 0
12, 9, 0
4, 7, 0
4, 12, 0
4, 13, 0
4, 14, 0
4, 6, 0
4, 5, 0
4, 9, 0
14, 12, 0
14, 4, 0
14, 3, 0
14, 6, 0
14, 5, 0
14, 11, 0
2, 0, 0
2, 8, 0
19, 8, 0
19, 15, 0
19, 10, 0
1, 13, 0
1, 17, 0
15, 17, 0
15, 9, 0
15, 18, 0
15, 19, 0
15, 8, 0
15, 10, 0
18, 15, 0
18, 17, 0
18, 10, 0
9, 12, 0
9, 13, 0
9, 15, 0
9, 4, 0
