13, 17, 0
13, 24, 0
17, 0, 0
17, 12, 0
17, 13, 0
17, 24, 0
17, 16, 0
17, 6, 0
23, 7, 0
23, 8, 0
23, 10, 0
5, 20, 0
5, 3, 0
5, 4, 0
5, 2, 0
11, 4, 0
11, 15, 0
1, 21, 0
1, 20, 0
1, 22, 0
1, 12, 0
20, 3, 0
20, 12, 0
20, 2, 0
20, 5, 0
20, 22, 0
20, 1, 0
4, 3, 0
4, 2, 0
4, 15, 0
4, 5, 0
4, 11, 0
4, 12, 0
14, 0, 0
14, 15, 0
24, 18, 0
24, 12, 0
24, 13, 0
24, 17, 0
8, 10, 0
8, 23, 0
8, 9, 0
15, 12, 0
15, 4, 0
15, 14, 0
15, 11, 0
22, 20, 0
22, 1, 0
0, 12, 0
0, 14, 0
0, 17, 0
0, 6, 0
3, 20, 0
3, 4, 0
3, 5, 0
3, 2, 1
16, 6, 0
16, 17, 0
6, 0, 0
6, 16, 0
6, 17, 0
6, 12, 0
10, 7, 0
10, 12, 0
10, 23, 0
10, 19, 0
10, 8, 0
10, 9, 0
7, 23, 0
7, 10, 0
12, 0, 0
12, 20, 0
12, 4, 0
12, 17, 0
12, 24, 0
12, 18, 0
12, 6, 0
12, 1, 0
12, 10, 0
12, 15, 0
12, 9, 0
2, 20, 0
2, 3, 1
2, 4, 0
2, 5, 0
21, 1, 0
19, 18, 0
19, 10, 0
18, 12, 0
18, 19, 0
18, 24, 0
9, 12, 0
9, 8, 0
9, 10, 0
