13, 0, 0
13, 16, 0
17, 3, 0
17, 4, 0
17, 18, 0
17, 6, 0
17, 8, 0
17, 5, 0
17, 22, 0
17, 10, 0
5, 4, 1
5, 17, 0
5, 18, 0
5, 6, 1
5, 8, 0
5, 22, 0
5, 10, 0
11, 14, 0
11, 9, 0
1, 7, 0
1, 19, 0
1, 15, 0
1, 2, 1
20, 3, 0
20, 15, 0
4, 17, 0
4, 18, 0
4, 8, 0
4, 5, 1
4, 22, 0
4, 10, 0
14, 0, 0
14, 11, 0
14, 9, 0
8, 4, 0
8, 17, 0
8, 6, 0
8, 5, 0
8, 22, 0
8, 10, 0
15, 20, 0
15, 7, 0
15, 19, 0
15, 2, 0
15, 1, 0
22, 4, 0
22, 17, 0
22, 18, 0
22, 6, 0
22, 8, 0
22, 5, 0
22, 10, 0
0, 16, 0
0, 13, 0
0, 14, 0
3, 20, 0
3, 17, 0
16, 0, 0
16, 12, 0
16, 13, 0
6, 8, 0
6, 17, 0
6, 5, 1
6, 22, 0
10, 12, 0
10, 4, 0
10, 17, 0
10, 18, 0
10, 8, 0
10, 5, 0
10, 22, 0
7, 21, 0
7, 19, 0
7, 2, 0
7, 15, 0
7, 1, 0
12, 16, 0
12, 10, 0
2, 7, 0
2, 19, 0
2, 15, 0
2, 1, 1
21, 7, 0
19, 7, 0
19, 2, 0
19, 15, 0
19, 1, 0
18, 4, 0
18, 17, 0
18, 5, 0
18, 22, 0
18, 10, 0
9, 14, 0
9, 11, 0
