13, 8, 0
13, 14, 1
13, 9, 0
13, 24, 0
17, 18, 1
17, 16, 0
17, 14, 0
17, 8, 0
17, 15, 0
23, 0, 0
23, 12, 0
23, 25, 0
23, 22, 1
23, 26, 0
23, 5, 0
23, 11, 0
23, 1, 0
5, 0, 0
5, 25, 0
5, 23, 0
5, 26, 0
5, 22, 0
5, 11, 0
11, 0, 0
11, 12, 1
11, 25, 0
11, 26, 0
11, 23, 0
11, 5, 0
11, 22, 0
11, 1, 0
1, 0, 1
1, 12, 0
1, 25, 0
1, 23, 0
1, 26, 0
1, 22, 0
1, 11, 0
20, 21, 0
20, 19, 0
20, 8, 0
20, 4, 0
4, 20, 0
4, 21, 0
4, 8, 0
14, 16, 0
14, 13, 1
14, 17, 0
14, 24, 0
14, 18, 0
14, 8, 0
14, 15, 0
14, 9, 0
24, 13, 0
24, 14, 0
24, 18, 0
24, 8, 0
24, 15, 0
24, 9, 0
8, 7, 0
8, 13, 0
8, 17, 0
8, 16, 0
8, 10, 0
8, 20, 0
8, 18, 0
8, 4, 0
8, 14, 0
8, 24, 0
8, 21, 0
8, 19, 0
8, 15, 0
8, 9, 0
15, 16, 0
15, 14, 0
15, 24, 0
15, 21, 0
15, 17, 0
15, 8, 0
15, 18, 0
15, 10, 0
15, 9, 0
22, 0, 0
22, 12, 0
22, 7, 0
22, 25, 0
22, 26, 0
22, 23, 1
22, 5, 0
22, 11, 0
22, 1, 0
0, 11, 0
0, 12, 0
0, 25, 0
0, 23, 0
0, 26, 0
0, 19, 0
0, 5, 0
0, 22, 0
0, 1, 1
3, 7, 0
3, 12, 0
3, 25, 0
3, 2, 1
3, 21, 0
3, 6, 0
16, 14, 0
16, 18, 0
16, 17, 0
16, 8, 0
16, 15, 0
16, 10, 0
6, 7, 1
6, 3, 0
6, 25, 0
6, 2, 0
6, 21, 0
6, 10, 0
10, 7, 0
10, 21, 0
10, 2, 0
10, 16, 0
10, 6, 0
10, 8, 0
10, 15, 0
10, 18, 0
10, 12, 0
7, 3, 0
7, 25, 0
7, 2, 0
7, 21, 0
7, 6, 1
7, 12, 0
7, 8, 0
7, 22, 0
7, 10, 0
12, 0, 0
12, 3, 0
12, 7, 0
12, 25, 0
12, 23, 0
12, 26, 0
12, 18, 0
12, 11, 1
12, 10, 0
12, 22, 0
12, 1, 0
25, 0, 0
25, 23, 0
25, 12, 0
25, 6, 0
25, 5, 0
25, 11, 0
25, 1, 0
25, 7, 0
25, 3, 0
25, 26, 0
25, 2, 0
25, 21, 0
25, 19, 0
25, 22, 0
26, 0, 0
26, 12, 0
26, 25, 0
26, 22, 0
26, 23, 0
26, 19, 0
26, 5, 0
26, 11, 0
26, 1, 0
2, 7, 0
2, 3, 1
2, 25, 0
2, 21, 0
2, 6, 0
2, 19, 0
2, 10, 0
21, 20, 0
21, 3, 0
21, 7, 0
21, 25, 0
21, 4, 0
21, 2, 0
21, 6, 0
21, 19, 0
21, 8, 0
21, 15, 0
21, 10, 0
19, 20, 0
19, 0, 0
19, 25, 0
19, 26, 0
19, 2, 0
19, 21, 0
19, 8, 0
18, 12, 0
18, 14, 0
18, 24, 0
18, 16, 0
18, 17, 1
18, 8, 0
18, 15, 0
18, 10, 0
9, 15, 0
9, 8, 0
9, 13, 0
9, 14, 0
9, 24, 0
