0, 6, 0
0, 4, 0
0, 1, 1
3, 4, 0
3, 5, 0
3, 2, 0
4, 0, 0
4, 3, 0
4, 6, 0
4, 2, 0
4, 1, 0
7, 5, 0
7, 2, 0
2, 7, 0
2, 3, 0
2, 4, 0
2, 5, 0
6, 0, 0
6, 4, 0
6, 1, 0
5, 7, 0
5, 3, 0
5, 2, 0
1, 0, 1
1, 6, 0
1, 4, 0
