0, 7, 0
0, 3, 0
0, 8, 0
0, 5, 0
13, 12, 0
13, 14, 1
13, 1, 0
3, 0, 0
3, 8, 0
3, 5, 0
6, 12, 0
6, 1, 0
6, 11, 0
6, 2, 0
8, 0, 0
8, 3, 0
8, 10, 0
5, 0, 0
5, 7, 0
5, 3, 0
11, 6, 0
11, 9, 0
10, 8, 0
7, 0, 0
7, 4, 0
7, 5, 0
12, 6, 0
12, 13, 0
12, 14, 0
12, 4, 0
12, 1, 0
4, 7, 0
4, 12, 0
14, 12, 0
14, 13, 1
14, 1, 0
2, 6, 0
2, 1, 1
1, 2, 1
1, 12, 0
1, 13, 0
1, 14, 0
1, 6, 0
9, 11, 0
