58, 34, 0
58, 39, 0
58, 41, 0
58, 17, 0
58, 35, 0
61, 16, 0
61, 42, 0
61, 60, 1
61, 9, 0
13, 27, 0
13, 14, 1
13, 17, 0
17, 58, 0
17, 34, 0
17, 13, 0
17, 14, 0
17, 35, 0
17, 27, 0
17, 39, 0
17, 41, 0
23, 18, 0
23, 3, 0
23, 24, 1
46, 60, 0
46, 19, 0
46, 9, 0
46, 10, 0
20, 24, 0
20, 43, 0
20, 29, 0
34, 58, 0
34, 17, 0
34, 56, 0
34, 27, 0
34, 21, 0
34, 32, 0
34, 35, 1
34, 37, 0
34, 42, 0
34, 8, 0
34, 39, 0
34, 41, 0
34, 9, 0
14, 27, 0
14, 13, 1
14, 17, 0
24, 18, 0
24, 3, 0
24, 20, 0
24, 23, 1
24, 29, 0
28, 59, 0
28, 8, 0
28, 38, 0
28, 44, 0
39, 58, 0
39, 34, 0
39, 17, 0
39, 41, 0
41, 58, 0
41, 34, 0
41, 39, 0
41, 17, 0
41, 35, 0
0, 57, 0
0, 54, 0
0, 32, 0
0, 56, 0
0, 1, 0
38, 45, 0
38, 8, 0
38, 28, 0
38, 44, 0
51, 49, 0
51, 52, 0
33, 12, 0
33, 1, 0
33, 5, 0
33, 31, 0
33, 32, 1
15, 1, 0
15, 56, 0
15, 32, 0
15, 31, 0
15, 30, 0
54, 0, 0
54, 47, 0
47, 21, 0
47, 54, 0
47, 56, 0
10, 60, 0
10, 40, 0
10, 46, 0
10, 9, 1
7, 6, 0
7, 8, 0
7, 50, 0
7, 44, 0
3, 18, 0
3, 29, 0
3, 23, 0
3, 24, 0
53, 37, 0
53, 32, 0
53, 5, 0
53, 22, 0
53, 1, 0
32, 0, 0
32, 12, 0
32, 53, 0
32, 5, 0
32, 11, 0
32, 1, 0
32, 57, 0
32, 34, 0
32, 31, 0
32, 33, 1
32, 30, 0
32, 15, 0
2, 1, 1
2, 56, 0
2, 11, 0
2, 30, 0
21, 34, 0
21, 52, 0
21, 56, 0
21, 47, 0
21, 1, 0
25, 60, 0
25, 6, 0
25, 40, 0
25, 9, 0
19, 16, 0
19, 60, 0
19, 46, 0
19, 9, 0
49, 27, 0
49, 51, 0
48, 55, 0
48, 59, 0
48, 44, 0
31, 33, 0
31, 32, 0
31, 56, 0
31, 12, 0
31, 15, 0
31, 1, 0
45, 38, 0
45, 44, 1
45, 36, 0
60, 16, 0
60, 25, 0
60, 9, 0
60, 61, 1
60, 42, 0
60, 19, 0
60, 8, 0
60, 40, 0
60, 46, 0
60, 10, 0
59, 8, 0
59, 28, 0
59, 48, 0
59, 44, 0
29, 20, 0
29, 18, 0
29, 43, 0
29, 3, 0
29, 24, 0
40, 60, 0
40, 9, 0
40, 25, 0
40, 10, 0
11, 57, 0
11, 1, 0
11, 56, 0
11, 32, 0
11, 2, 0
5, 33, 0
5, 53, 0
5, 32, 0
5, 1, 0
37, 42, 0
37, 53, 0
37, 22, 0
37, 34, 0
4, 55, 0
4, 43, 0
35, 58, 0
35, 34, 1
35, 17, 0
35, 41, 0
30, 1, 0
30, 15, 0
30, 56, 0
30, 32, 0
30, 2, 0
8, 28, 0
8, 60, 0
8, 6, 0
8, 59, 0
8, 44, 0
8, 7, 0
8, 34, 0
8, 50, 0
8, 26, 0
8, 9, 0
8, 38, 0
8, 36, 0
42, 16, 0
42, 61, 0
42, 34, 0
42, 37, 0
42, 60, 0
42, 9, 0
22, 37, 0
22, 53, 0
36, 45, 0
36, 8, 0
36, 44, 0
36, 26, 0
57, 0, 0
57, 32, 0
57, 56, 1
57, 11, 0
57, 1, 0
56, 0, 0
56, 34, 0
56, 47, 0
56, 30, 0
56, 57, 1
56, 12, 0
56, 11, 0
56, 31, 0
56, 2, 0
56, 21, 0
56, 1, 0
56, 15, 0
16, 61, 0
16, 60, 0
16, 19, 0
16, 9, 0
16, 42, 0
27, 14, 0
27, 13, 0
27, 17, 0
27, 49, 0
27, 34, 0
1, 0, 0
1, 31, 0
1, 56, 0
1, 33, 0
1, 53, 0
1, 5, 0
1, 11, 0
1, 30, 0
1, 57, 0
1, 12, 0
1, 32, 0
1, 2, 1
1, 21, 0
1, 15, 0
55, 4, 0
55, 48, 0
44, 7, 0
44, 45, 1
44, 28, 0
44, 50, 0
44, 26, 0
44, 59, 0
44, 8, 0
44, 38, 0
44, 48, 0
44, 36, 0
12, 31, 0
12, 33, 0
12, 56, 0
12, 32, 0
12, 1, 0
18, 3, 0
18, 29, 0
18, 23, 0
18, 24, 0
52, 21, 0
52, 51, 0
50, 7, 0
50, 8, 0
50, 44, 0
50, 26, 0
26, 44, 0
26, 8, 0
26, 50, 0
26, 36, 0
6, 7, 0
6, 8, 0
6, 25, 0
43, 20, 0
43, 4, 0
43, 29, 0
9, 34, 0
9, 16, 0
9, 25, 0
9, 61, 0
9, 42, 0
9, 19, 0
9, 8, 0
9, 40, 0
9, 46, 0
9, 10, 1
9, 60, 0
