12, 33, 0
12, 14, 0
12, 21, 0
12, 25, 0
12, 36, 0
12, 15, 0
12, 18, 0
12, 17, 0
12, 10, 0
13, 0, 0
13, 19, 0
13, 23, 0
17, 21, 0
17, 12, 0
17, 28, 0
17, 36, 0
31, 20, 0
31, 33, 0
31, 14, 0
31, 18, 0
31, 36, 0
23, 0, 0
23, 19, 0
23, 13, 0
24, 7, 0
24, 36, 0
24, 22, 0
24, 1, 0
5, 0, 0
5, 34, 0
5, 4, 0
5, 14, 0
5, 32, 0
5, 29, 0
5, 37, 0
5, 27, 0
5, 18, 0
11, 0, 0
11, 4, 0
11, 25, 0
11, 35, 0
11, 16, 0
11, 6, 0
11, 2, 0
11, 10, 0
1, 7, 0
1, 36, 0
1, 24, 0
20, 18, 0
20, 34, 0
20, 14, 0
20, 31, 0
21, 12, 0
21, 17, 0
21, 36, 0
4, 0, 0
4, 3, 0
4, 32, 0
4, 26, 0
4, 16, 0
4, 5, 0
4, 11, 0
14, 20, 0
14, 34, 0
14, 31, 0
14, 33, 0
14, 37, 0
14, 27, 0
14, 36, 0
14, 5, 0
14, 18, 0
14, 12, 0
35, 6, 0
35, 10, 0
35, 25, 0
35, 11, 0
35, 30, 0
28, 25, 0
28, 10, 0
28, 17, 0
28, 22, 0
28, 36, 0
30, 0, 0
30, 25, 0
30, 9, 0
30, 35, 0
30, 8, 0
30, 10, 0
8, 0, 0
8, 10, 0
8, 9, 1
8, 30, 0
15, 18, 0
15, 12, 0
15, 25, 0
15, 33, 0
22, 7, 0
22, 28, 0
22, 24, 0
22, 25, 0
22, 10, 0
22, 36, 0
36, 7, 0
36, 12, 0
36, 14, 0
36, 31, 0
36, 33, 0
36, 21, 0
36, 28, 0
36, 24, 0
36, 17, 0
36, 22, 0
36, 1, 0
0, 4, 0
0, 13, 0
0, 9, 0
0, 23, 0
0, 25, 0
0, 19, 0
0, 8, 0
0, 30, 0
0, 5, 0
0, 11, 0
0, 10, 0
6, 35, 0
6, 10, 0
6, 25, 0
6, 11, 0
6, 2, 0
3, 16, 0
3, 4, 0
3, 32, 0
3, 26, 0
16, 3, 0
16, 4, 0
16, 25, 0
16, 26, 0
16, 11, 0
16, 10, 0
27, 34, 0
27, 14, 0
27, 29, 0
27, 37, 0
27, 25, 0
27, 5, 0
27, 18, 0
27, 10, 0
10, 0, 0
10, 6, 0
10, 28, 0
10, 26, 0
10, 16, 0
10, 27, 0
10, 11, 0
10, 30, 0
10, 12, 0
10, 25, 0
10, 32, 0
10, 35, 0
10, 8, 0
10, 18, 0
10, 22, 0
7, 24, 0
7, 36, 0
7, 22, 0
7, 1, 0
34, 20, 0
34, 18, 0
34, 14, 0
34, 37, 0
34, 27, 0
34, 5, 0
25, 0, 0
25, 28, 0
25, 26, 0
25, 16, 0
25, 6, 0
25, 35, 0
25, 11, 0
25, 27, 0
25, 12, 0
25, 32, 0
25, 2, 0
25, 30, 0
25, 10, 0
25, 15, 0
25, 18, 0
25, 22, 0
33, 12, 0
33, 14, 0
33, 31, 0
33, 18, 0
33, 15, 0
33, 36, 0
32, 3, 0
32, 4, 0
32, 25, 0
32, 26, 0
32, 29, 0
32, 5, 0
32, 10, 0
2, 6, 0
2, 25, 0
2, 11, 0
37, 34, 0
37, 14, 0
37, 5, 0
37, 27, 0
29, 27, 0
29, 5, 0
29, 32, 0
19, 0, 0
19, 13, 0
19, 23, 0
26, 3, 0
26, 4, 0
26, 25, 0
26, 32, 0
26, 16, 0
26, 10, 0
18, 20, 0
18, 33, 0
18, 25, 0
18, 31, 0
18, 12, 0
18, 14, 0
18, 27, 0
18, 34, 0
18, 15, 0
18, 5, 0
18, 10, 0
9, 0, 0
9, 8, 1
9, 30, 0
