13, 20, 0
13, 12, 1
13, 4, 0
13, 17, 0
13, 16, 0
13, 18, 0
17, 12, 0
17, 13, 0
17, 4, 0
17, 16, 0
17, 5, 0
17, 11, 0
17, 9, 0
5, 16, 0
5, 21, 0
5, 17, 0
11, 20, 0
11, 12, 1
11, 4, 0
11, 17, 0
11, 21, 0
11, 16, 0
11, 18, 0
11, 9, 0
1, 21, 0
20, 12, 0
20, 16, 0
20, 13, 0
20, 4, 0
20, 21, 0
20, 18, 0
20, 11, 0
20, 9, 0
4, 20, 0
4, 12, 0
4, 13, 0
4, 17, 0
4, 16, 0
4, 11, 0
4, 9, 0
14, 0, 0
14, 15, 1
14, 10, 0
8, 7, 1
8, 6, 0
8, 19, 0
8, 22, 0
8, 0, 0
15, 0, 0
15, 14, 1
15, 10, 0
22, 7, 0
22, 0, 0
22, 18, 0
22, 6, 0
22, 19, 0
22, 8, 0
0, 7, 0
0, 14, 0
0, 6, 0
0, 19, 0
0, 8, 0
0, 15, 0
0, 22, 0
0, 10, 0
3, 18, 0
3, 6, 0
3, 2, 1
16, 20, 0
16, 12, 0
16, 13, 0
16, 17, 0
16, 4, 0
16, 21, 0
16, 5, 0
16, 18, 0
16, 11, 0
16, 9, 0
6, 7, 0
6, 3, 0
6, 2, 0
6, 18, 0
6, 19, 0
6, 8, 0
6, 22, 0
6, 0, 0
10, 0, 0
10, 15, 0
10, 14, 0
7, 0, 0
7, 18, 0
7, 6, 0
7, 19, 0
7, 8, 1
7, 22, 0
12, 20, 0
12, 16, 0
12, 4, 0
12, 13, 1
12, 21, 0
12, 17, 0
12, 18, 0
12, 11, 1
2, 18, 0
2, 3, 1
2, 6, 0
21, 20, 0
21, 12, 0
21, 16, 0
21, 5, 0
21, 11, 0
21, 1, 0
19, 0, 0
19, 6, 0
19, 8, 0
19, 7, 0
19, 22, 0
18, 20, 0
18, 3, 0
18, 13, 0
18, 11, 0
18, 12, 0
18, 16, 0
18, 6, 0
18, 2, 0
18, 7, 0
18, 22, 0
18, 9, 0
9, 20, 0
9, 18, 0
9, 4, 0
9, 17, 0
9, 16, 0
9, 11, 0
