0, 12, 0
0, 13, 0
0, 14, 0
0, 1, 0
13, 0, 0
13, 12, 0
13, 1, 0
3, 16, 0
3, 14, 0
3, 15, 0
3, 10, 0
16, 3, 0
16, 14, 0
16, 15, 1
6, 7, 0
6, 4, 0
6, 11, 0
8, 12, 0
8, 4, 0
8, 9, 1
5, 7, 0
5, 12, 0
5, 4, 0
5, 11, 0
11, 6, 0
11, 5, 0
10, 3, 0
10, 15, 0
10, 2, 0
7, 6, 0
7, 4, 0
7, 5, 0
12, 0, 0
12, 13, 0
12, 4, 0
12, 8, 0
12, 5, 0
12, 9, 0
4, 7, 0
4, 12, 0
4, 6, 0
4, 8, 0
4, 5, 0
4, 9, 0
14, 0, 0
14, 16, 0
14, 15, 0
14, 3, 0
14, 1, 0
2, 15, 0
2, 10, 0
1, 0, 0
1, 13, 0
1, 14, 0
15, 16, 1
15, 3, 0
15, 10, 0
15, 14, 0
15, 2, 0
9, 12, 0
9, 8, 1
9, 4, 0
