13, 7, 0
13, 27, 0
13, 34, 0
13, 6, 0
17, 20, 0
17, 34, 0
17, 14, 0
17, 31, 0
17, 33, 0
17, 19, 0
31, 20, 0
31, 34, 0
31, 14, 0
31, 26, 0
31, 33, 0
31, 21, 0
31, 17, 0
31, 19, 0
31, 30, 0
31, 1, 0
23, 0, 0
23, 16, 0
23, 4, 0
23, 22, 0
23, 18, 0
23, 9, 0
23, 11, 0
23, 10, 0
10, 16, 0
10, 4, 0
10, 22, 0
10, 23, 0
10, 9, 1
2, 27, 0
2, 25, 0
5, 12, 0
5, 15, 0
11, 18, 0
11, 0, 0
11, 16, 0
11, 23, 0
1, 31, 0
1, 26, 0
1, 30, 0
20, 21, 0
20, 34, 0
20, 19, 0
20, 17, 0
20, 31, 0
4, 16, 0
4, 9, 0
4, 23, 0
4, 18, 0
4, 8, 0
4, 22, 0
4, 10, 0
14, 3, 0
14, 17, 0
14, 31, 0
14, 33, 0
14, 21, 0
14, 19, 0
14, 34, 0
24, 25, 0
28, 16, 0
28, 30, 0
30, 16, 0
30, 28, 0
30, 26, 0
30, 31, 0
30, 1, 0
8, 4, 0
8, 22, 0
8, 9, 1
15, 5, 0
15, 29, 0
22, 12, 0
22, 4, 0
22, 9, 0
22, 23, 0
22, 8, 0
22, 10, 0
0, 16, 0
0, 11, 0
0, 23, 0
3, 21, 0
3, 33, 0
3, 19, 0
3, 14, 0
3, 34, 0
34, 7, 0
34, 13, 0
34, 17, 0
34, 33, 0
34, 6, 0
34, 20, 0
34, 3, 0
34, 14, 0
34, 31, 0
34, 27, 0
34, 21, 0
34, 25, 0
34, 19, 0
16, 0, 0
16, 4, 0
16, 28, 0
16, 9, 0
16, 23, 0
16, 10, 0
16, 11, 0
16, 30, 0
6, 7, 1
6, 34, 0
6, 13, 0
6, 25, 0
6, 27, 0
27, 2, 0
27, 34, 0
27, 13, 0
27, 25, 0
27, 6, 0
7, 6, 1
7, 13, 0
7, 34, 0
12, 5, 0
12, 22, 0
25, 2, 0
25, 6, 0
25, 34, 0
25, 27, 0
25, 24, 0
32, 29, 0
29, 15, 0
29, 32, 0
21, 20, 0
21, 3, 0
21, 14, 0
21, 31, 0
21, 34, 0
21, 33, 0
21, 19, 0
33, 3, 0
33, 14, 0
33, 31, 0
33, 34, 0
33, 21, 0
33, 17, 0
33, 19, 0
19, 20, 0
19, 34, 0
19, 14, 0
19, 31, 0
19, 3, 0
19, 21, 0
19, 33, 0
19, 17, 0
26, 30, 0
26, 31, 0
26, 1, 0
18, 4, 0
18, 11, 0
18, 23, 0
9, 4, 0
9, 23, 0
9, 16, 0
9, 8, 1
9, 22, 0
9, 10, 1
