0, 13, 0
0, 11, 0
13, 0, 0
13, 12, 0
13, 11, 0
3, 6, 0
3, 9, 0
3, 5, 0
3, 1, 0
6, 3, 0
6, 9, 0
8, 14, 0
8, 5, 0
5, 3, 0
5, 8, 0
5, 14, 0
5, 1, 0
11, 0, 0
11, 13, 0
10, 7, 0
10, 12, 0
10, 9, 0
7, 12, 0
7, 9, 0
7, 10, 0
12, 7, 0
12, 13, 0
12, 10, 0
4, 1, 0
14, 2, 0
14, 8, 0
14, 5, 0
14, 1, 0
2, 14, 0
2, 1, 0
1, 3, 0
1, 4, 0
1, 14, 0
1, 5, 0
1, 2, 0
9, 7, 0
9, 6, 0
9, 3, 0
9, 10, 0
