58, 57, 1
58, 4, 0
58, 70, 0
58, 32, 0
58, 21, 0
58, 54, 0
58, 65, 0
58, 17, 0
58, 22, 0
58, 9, 0
13, 37, 0
13, 12, 1
13, 19, 0
13, 46, 0
17, 58, 0
17, 67, 0
17, 4, 0
17, 35, 0
17, 18, 0
17, 59, 0
17, 5, 0
17, 65, 0
29, 0, 0
29, 43, 0
29, 66, 0
29, 39, 0
29, 40, 0
29, 46, 0
29, 36, 0
23, 62, 0
23, 75, 0
23, 81, 0
23, 73, 0
23, 79, 0
23, 1, 0
23, 20, 0
23, 34, 0
23, 74, 0
23, 52, 0
23, 10, 0
23, 36, 0
63, 3, 0
63, 16, 0
63, 80, 0
63, 21, 0
63, 61, 0
63, 81, 0
63, 71, 0
63, 11, 0
63, 30, 0
79, 53, 0
79, 77, 0
79, 23, 0
79, 76, 0
79, 55, 0
79, 73, 0
79, 20, 0
79, 78, 0
79, 52, 0
79, 50, 0
79, 26, 0
79, 14, 0
24, 72, 0
24, 74, 0
24, 28, 0
24, 81, 0
24, 10, 0
46, 13, 0
46, 2, 0
46, 40, 0
46, 20, 0
46, 43, 0
46, 82, 0
46, 39, 0
46, 41, 0
46, 36, 0
46, 0, 0
46, 38, 0
46, 12, 0
46, 15, 0
46, 55, 0
46, 74, 0
46, 44, 0
46, 10, 0
46, 33, 0
46, 53, 0
46, 31, 0
46, 29, 0
46, 69, 0
46, 19, 0
80, 45, 0
80, 16, 0
80, 21, 0
80, 63, 0
80, 81, 0
80, 1, 0
80, 71, 0
80, 64, 0
80, 11, 0
80, 30, 0
80, 3, 0
80, 82, 0
80, 31, 0
80, 66, 0
80, 61, 0
80, 49, 0
80, 35, 0
80, 48, 0
80, 36, 0
65, 58, 0
65, 67, 0
65, 4, 0
65, 17, 0
65, 35, 0
65, 18, 0
65, 59, 0
20, 53, 0
20, 77, 0
20, 23, 0
20, 76, 0
20, 55, 0
20, 79, 0
20, 46, 0
20, 73, 0
20, 7, 0
20, 78, 0
20, 14, 0
20, 50, 0
20, 26, 0
20, 52, 0
20, 41, 0
20, 62, 0
43, 0, 0
43, 68, 0
43, 62, 0
43, 39, 0
43, 66, 0
43, 40, 0
43, 46, 0
43, 73, 0
43, 33, 0
43, 69, 0
43, 29, 0
43, 21, 0
43, 49, 0
43, 15, 0
43, 36, 0
53, 20, 0
53, 7, 0
53, 76, 0
53, 52, 0
53, 77, 0
53, 78, 0
53, 81, 0
53, 79, 0
53, 74, 0
53, 46, 0
53, 41, 0
66, 31, 0
66, 60, 0
66, 81, 0
66, 5, 0
66, 80, 0
66, 30, 0
66, 4, 0
66, 43, 0
66, 35, 0
66, 64, 0
66, 22, 0
66, 36, 0
66, 0, 0
66, 45, 0
66, 56, 0
66, 51, 0
66, 16, 0
66, 44, 0
66, 32, 0
66, 29, 0
66, 82, 0
66, 49, 0
66, 48, 0
66, 9, 0
42, 21, 0
42, 56, 0
42, 54, 0
42, 22, 0
42, 51, 0
15, 0, 0
15, 33, 0
15, 69, 0
15, 43, 0
15, 16, 0
15, 40, 0
15, 46, 0
15, 36, 0
41, 20, 0
41, 7, 0
41, 8, 0
41, 46, 0
41, 53, 0
0, 69, 0
0, 43, 0
0, 39, 0
0, 29, 0
0, 16, 0
0, 15, 0
0, 66, 0
0, 40, 0
0, 46, 0
0, 36, 0
68, 69, 1
68, 43, 0
68, 62, 0
68, 73, 0
62, 20, 0
62, 68, 0
62, 69, 0
62, 43, 0
62, 23, 0
62, 81, 0
62, 36, 0
62, 74, 0
62, 73, 0
51, 54, 0
51, 56, 0
51, 66, 0
51, 21, 0
51, 42, 0
51, 49, 0
51, 22, 0
12, 38, 0
12, 13, 1
12, 82, 0
12, 31, 0
12, 40, 0
12, 19, 0
12, 39, 0
12, 46, 0
6, 7, 0
6, 8, 0
74, 55, 0
74, 28, 0
74, 26, 0
74, 23, 0
74, 75, 0
74, 40, 0
74, 46, 0
74, 1, 0
74, 72, 0
74, 14, 0
74, 24, 0
74, 70, 0
74, 30, 0
74, 39, 0
74, 77, 0
74, 45, 0
74, 62, 0
74, 78, 0
74, 53, 0
74, 47, 0
74, 73, 0
74, 34, 0
74, 69, 0
74, 52, 0
74, 50, 0
74, 31, 0
74, 37, 0
74, 10, 0
47, 21, 0
47, 37, 0
47, 19, 0
47, 71, 0
47, 74, 0
47, 44, 0
47, 30, 0
10, 28, 0
10, 23, 0
10, 16, 0
10, 81, 0
10, 55, 0
10, 74, 0
10, 46, 0
10, 73, 0
10, 34, 0
10, 69, 0
10, 52, 0
10, 24, 0
10, 72, 0
7, 20, 0
7, 78, 0
7, 8, 0
7, 14, 0
7, 77, 0
7, 26, 0
7, 50, 0
7, 6, 0
7, 53, 0
7, 41, 0
7, 55, 0
3, 63, 0
3, 61, 0
3, 45, 0
3, 21, 0
3, 71, 0
3, 80, 0
3, 30, 0
69, 0, 0
69, 68, 1
69, 38, 0
69, 62, 0
69, 15, 0
69, 40, 0
69, 46, 0
69, 73, 0
69, 33, 0
69, 74, 0
69, 43, 0
69, 31, 0
69, 21, 0
69, 19, 0
69, 10, 0
69, 39, 0
32, 58, 0
32, 57, 0
32, 66, 0
32, 4, 0
32, 70, 0
32, 21, 0
32, 35, 0
32, 37, 0
32, 27, 0
32, 49, 0
2, 33, 0
2, 60, 0
2, 16, 0
2, 39, 0
2, 40, 0
2, 46, 0
2, 36, 0
37, 45, 0
37, 13, 0
37, 70, 0
37, 32, 0
37, 27, 0
37, 71, 0
37, 74, 0
37, 44, 0
37, 11, 0
37, 30, 0
37, 82, 0
37, 47, 0
37, 31, 0
37, 21, 0
37, 19, 0
37, 48, 0
33, 69, 0
33, 43, 0
33, 39, 0
33, 2, 0
33, 16, 0
33, 15, 0
33, 19, 0
33, 40, 0
33, 46, 0
33, 36, 0
19, 45, 0
19, 13, 0
19, 70, 0
19, 33, 0
19, 40, 0
19, 46, 0
19, 47, 0
19, 44, 0
19, 21, 0
19, 12, 0
19, 69, 0
19, 82, 0
19, 31, 0
19, 37, 0
19, 30, 0
19, 39, 0
19, 48, 0
49, 45, 0
49, 71, 0
49, 32, 0
49, 51, 0
49, 27, 0
49, 66, 0
49, 80, 0
49, 43, 0
49, 31, 0
49, 35, 0
49, 64, 0
49, 22, 0
49, 36, 0
60, 38, 0
60, 31, 0
60, 2, 0
60, 16, 0
60, 40, 0
60, 66, 0
60, 39, 0
60, 36, 0
48, 16, 0
48, 82, 0
48, 66, 0
48, 37, 0
48, 81, 0
48, 19, 0
48, 71, 0
48, 44, 0
48, 80, 0
16, 63, 0
16, 60, 0
16, 81, 0
16, 15, 0
16, 71, 0
16, 80, 0
16, 1, 0
16, 66, 0
16, 82, 0
16, 11, 0
16, 35, 0
16, 38, 0
16, 36, 0
16, 0, 0
16, 45, 0
16, 56, 0
16, 64, 0
16, 55, 0
16, 10, 0
16, 33, 0
16, 31, 0
16, 2, 0
16, 72, 0
16, 48, 0
16, 9, 0
70, 58, 0
70, 45, 0
70, 27, 0
70, 74, 0
70, 57, 0
70, 37, 0
70, 4, 0
70, 54, 0
70, 32, 0
70, 21, 0
70, 19, 0
70, 22, 0
31, 39, 0
31, 21, 0
31, 16, 0
31, 74, 0
31, 66, 0
31, 40, 0
31, 46, 0
31, 80, 0
31, 60, 0
31, 12, 0
31, 69, 0
31, 82, 0
31, 81, 0
31, 37, 0
31, 19, 0
31, 49, 0
31, 38, 0
31, 36, 0
28, 34, 0
28, 10, 0
28, 74, 0
28, 24, 0
45, 70, 0
45, 21, 0
45, 16, 0
45, 66, 0
45, 74, 0
45, 80, 0
45, 30, 0
45, 3, 0
45, 35, 0
45, 37, 0
45, 19, 0
45, 49, 0
45, 22, 0
45, 36, 0
75, 34, 0
75, 52, 0
75, 23, 0
75, 81, 0
75, 74, 0
75, 1, 0
40, 0, 0
40, 33, 0
40, 60, 0
40, 15, 0
40, 29, 0
40, 74, 0
40, 46, 0
40, 12, 0
40, 69, 0
40, 43, 0
40, 31, 0
40, 2, 0
40, 19, 0
40, 39, 1
71, 16, 0
71, 61, 0
71, 21, 0
71, 63, 0
71, 81, 0
71, 44, 0
71, 80, 0
71, 30, 0
71, 3, 0
71, 47, 0
71, 37, 0
71, 49, 0
71, 48, 0
59, 67, 0
59, 4, 0
59, 17, 0
59, 35, 0
59, 18, 0
59, 65, 0
52, 55, 0
52, 77, 0
52, 23, 0
52, 75, 0
52, 74, 0
52, 53, 0
52, 79, 0
52, 73, 0
52, 20, 0
52, 78, 0
52, 14, 0
52, 50, 0
52, 26, 0
52, 1, 0
52, 10, 0
11, 63, 0
11, 37, 0
11, 21, 0
11, 16, 0
11, 81, 0
11, 80, 0
11, 30, 0
5, 67, 0
5, 35, 0
5, 9, 0
5, 17, 0
5, 66, 0
61, 3, 0
61, 21, 0
61, 63, 0
61, 71, 0
61, 80, 0
61, 30, 0
78, 7, 0
78, 77, 0
78, 76, 0
78, 53, 0
78, 74, 0
78, 20, 0
78, 25, 0
78, 50, 0
78, 26, 0
78, 81, 0
78, 52, 0
78, 79, 0
4, 58, 0
4, 57, 0
4, 17, 0
4, 32, 0
4, 66, 0
4, 18, 0
4, 70, 0
4, 35, 0
4, 59, 0
4, 67, 0
4, 65, 0
82, 12, 0
82, 16, 0
82, 46, 0
82, 31, 0
82, 21, 0
82, 37, 0
82, 19, 0
82, 66, 0
82, 48, 0
82, 80, 0
82, 44, 0
39, 0, 0
39, 33, 0
39, 60, 0
39, 74, 0
39, 29, 0
39, 40, 1
39, 46, 0
39, 12, 0
39, 69, 0
39, 43, 0
39, 31, 0
39, 2, 0
39, 19, 0
39, 38, 1
39, 36, 0
35, 45, 0
35, 17, 0
35, 16, 0
35, 27, 0
35, 59, 0
35, 5, 0
35, 80, 0
35, 65, 0
35, 67, 0
35, 4, 0
35, 32, 0
35, 66, 0
35, 81, 0
35, 49, 0
35, 64, 0
35, 18, 0
35, 9, 0
81, 35, 0
81, 53, 0
81, 23, 0
81, 75, 0
81, 71, 0
81, 80, 0
81, 1, 0
81, 66, 0
81, 11, 0
81, 24, 0
81, 30, 0
81, 38, 0
81, 36, 0
81, 63, 0
81, 62, 0
81, 16, 0
81, 55, 0
81, 10, 0
81, 78, 0
81, 31, 0
81, 72, 0
81, 48, 0
30, 47, 0
30, 45, 0
30, 61, 0
30, 21, 0
30, 63, 0
30, 81, 0
30, 71, 0
30, 74, 0
30, 80, 0
30, 3, 0
30, 11, 0
30, 66, 0
30, 37, 0
30, 19, 0
8, 7, 0
8, 6, 0
8, 41, 0
38, 12, 0
38, 69, 0
38, 31, 0
38, 16, 0
38, 81, 0
38, 36, 0
38, 39, 1
38, 46, 0
38, 60, 0
22, 58, 0
22, 45, 0
22, 70, 0
22, 51, 0
22, 66, 0
22, 21, 0
22, 42, 0
22, 49, 0
22, 54, 0
22, 27, 0
36, 0, 0
36, 45, 0
36, 49, 0
36, 62, 0
36, 23, 0
36, 16, 0
36, 38, 0
36, 15, 0
36, 55, 0
36, 46, 0
36, 80, 0
36, 1, 0
36, 66, 0
36, 33, 0
36, 43, 0
36, 31, 0
36, 2, 0
36, 81, 0
36, 29, 0
36, 60, 0
36, 39, 0
25, 78, 0
25, 55, 0
25, 14, 0
25, 50, 0
25, 26, 1
57, 58, 1
57, 4, 0
57, 70, 0
57, 32, 0
77, 20, 0
77, 7, 0
77, 79, 0
77, 52, 0
77, 78, 0
77, 76, 1
77, 53, 0
77, 74, 0
64, 66, 0
64, 16, 0
64, 54, 0
64, 56, 0
64, 35, 0
64, 21, 0
64, 27, 0
64, 49, 0
64, 80, 0
18, 67, 0
18, 4, 0
18, 17, 0
18, 35, 0
18, 59, 0
18, 65, 0
27, 21, 0
27, 70, 0
27, 56, 0
27, 32, 0
27, 35, 0
27, 37, 0
27, 54, 0
27, 49, 0
27, 64, 0
27, 22, 0
1, 16, 0
1, 52, 0
1, 23, 0
1, 75, 0
1, 81, 0
1, 74, 0
1, 80, 0
1, 36, 0
55, 7, 0
55, 16, 0
55, 81, 0
55, 74, 0
55, 46, 0
55, 10, 0
55, 20, 0
55, 25, 0
55, 52, 0
55, 14, 0
55, 73, 0
55, 79, 0
55, 36, 0
44, 21, 0
44, 82, 0
44, 66, 0
44, 37, 0
44, 19, 0
44, 71, 0
44, 46, 0
44, 47, 0
44, 48, 0
73, 20, 0
73, 68, 0
73, 69, 0
73, 43, 0
73, 62, 0
73, 23, 0
73, 52, 0
73, 55, 0
73, 74, 0
73, 79, 0
73, 10, 0
34, 75, 0
34, 28, 0
34, 74, 0
34, 23, 0
34, 10, 0
56, 54, 0
56, 51, 0
56, 27, 0
56, 16, 0
56, 42, 0
56, 66, 0
56, 64, 0
21, 58, 0
21, 70, 0
21, 31, 0
21, 63, 0
21, 71, 0
21, 11, 0
21, 30, 0
21, 37, 0
21, 82, 0
21, 80, 0
21, 42, 0
21, 64, 0
21, 22, 0
21, 45, 0
21, 51, 0
21, 27, 0
21, 44, 0
21, 47, 0
21, 3, 0
21, 69, 0
21, 54, 0
21, 32, 0
21, 61, 0
21, 43, 0
21, 19, 0
54, 58, 0
54, 70, 0
54, 56, 0
54, 51, 0
54, 27, 0
54, 21, 0
54, 42, 0
54, 64, 0
54, 22, 0
50, 20, 0
50, 7, 0
50, 14, 0
50, 26, 0
50, 78, 0
50, 52, 0
50, 79, 0
50, 74, 0
50, 25, 0
26, 20, 0
26, 7, 0
26, 25, 1
26, 50, 0
26, 78, 0
26, 79, 0
26, 74, 0
26, 52, 0
76, 20, 0
76, 78, 0
76, 53, 0
76, 79, 0
76, 77, 1
72, 16, 0
72, 81, 0
72, 10, 0
72, 74, 0
72, 24, 0
14, 20, 0
14, 7, 0
14, 52, 0
14, 50, 0
14, 79, 0
14, 55, 0
14, 74, 0
14, 25, 0
67, 4, 0
67, 17, 0
67, 35, 0
67, 18, 0
67, 59, 0
67, 5, 0
67, 65, 0
9, 58, 0
9, 16, 0
9, 35, 0
9, 5, 0
9, 66, 0
