13, 21, 0
13, 12, 0
13, 4, 0
13, 5, 0
13, 9, 0
17, 16, 1
17, 20, 0
17, 2, 0
5, 0, 0
5, 13, 0
5, 3, 0
5, 18, 0
5, 6, 0
5, 11, 0
5, 1, 0
5, 12, 0
5, 4, 0
5, 21, 0
5, 19, 0
5, 8, 0
5, 10, 0
5, 9, 0
11, 7, 0
11, 0, 0
11, 14, 0
11, 3, 0
11, 18, 0
11, 6, 0
11, 8, 0
11, 15, 0
11, 5, 0
11, 10, 0
11, 1, 0
1, 7, 0
1, 0, 0
1, 14, 0
1, 3, 0
1, 18, 0
1, 6, 0
1, 15, 0
1, 5, 0
1, 11, 0
1, 10, 0
20, 16, 0
20, 17, 0
20, 2, 0
4, 21, 0
4, 12, 0
4, 13, 0
4, 5, 0
14, 0, 0
14, 3, 0
14, 18, 0
14, 6, 0
14, 8, 0
14, 10, 0
14, 11, 0
14, 1, 0
8, 0, 0
8, 3, 0
8, 7, 0
8, 14, 0
8, 18, 0
8, 6, 0
8, 19, 0
8, 15, 0
8, 5, 0
8, 11, 0
8, 10, 0
15, 7, 0
15, 0, 0
15, 18, 0
15, 6, 0
15, 8, 0
15, 10, 0
15, 11, 0
15, 1, 0
0, 7, 0
0, 3, 0
0, 14, 0
0, 18, 0
0, 6, 0
0, 8, 0
0, 15, 0
0, 5, 0
0, 11, 0
0, 1, 0
3, 0, 0
3, 7, 0
3, 14, 0
3, 18, 0
3, 6, 0
3, 19, 0
3, 8, 0
3, 5, 0
3, 11, 0
3, 1, 0
16, 20, 0
16, 17, 1
16, 2, 0
6, 0, 0
6, 3, 0
6, 14, 0
6, 18, 0
6, 10, 0
6, 19, 0
6, 8, 0
6, 15, 0
6, 5, 0
6, 11, 0
6, 1, 0
10, 7, 0
10, 14, 0
10, 18, 0
10, 6, 0
10, 19, 0
10, 8, 0
10, 15, 0
10, 5, 0
10, 11, 0
10, 1, 0
7, 0, 0
7, 3, 0
7, 18, 0
7, 19, 0
7, 8, 0
7, 15, 0
7, 10, 0
7, 11, 0
7, 1, 0
12, 13, 0
12, 4, 0
12, 2, 0
12, 21, 0
12, 5, 0
12, 9, 0
2, 20, 0
2, 21, 0
2, 17, 0
2, 12, 0
2, 16, 0
2, 19, 0
2, 9, 0
21, 12, 0
21, 13, 0
21, 4, 0
21, 2, 0
21, 19, 0
21, 5, 0
19, 7, 0
19, 3, 0
19, 2, 0
19, 21, 0
19, 6, 0
19, 8, 0
19, 5, 0
19, 18, 0
19, 10, 0
18, 0, 0
18, 6, 0
18, 1, 0
18, 5, 0
18, 11, 0
18, 10, 0
18, 7, 0
18, 3, 0
18, 14, 0
18, 19, 0
18, 8, 0
18, 15, 0
9, 12, 0
9, 13, 0
9, 5, 0
9, 2, 0
