13, 12, 1
13, 14, 1
13, 31, 0
13, 3, 0
13, 16, 0
13, 17, 0
13, 29, 0
13, 30, 0
17, 12, 0
17, 13, 0
17, 14, 0
17, 31, 0
17, 3, 0
17, 16, 1
17, 29, 0
17, 30, 0
31, 12, 0
31, 13, 0
31, 17, 0
31, 3, 0
31, 29, 0
31, 16, 0
31, 14, 0
31, 24, 0
31, 30, 1
23, 18, 0
23, 19, 0
23, 15, 0
23, 26, 0
10, 0, 0
10, 29, 0
10, 24, 0
10, 32, 0
10, 2, 0
2, 0, 0
2, 7, 0
2, 10, 0
5, 6, 1
5, 15, 0
5, 28, 0
11, 7, 0
11, 20, 0
11, 22, 0
1, 21, 0
1, 27, 0
1, 28, 0
1, 25, 0
1, 3, 0
20, 7, 0
20, 4, 0
20, 11, 0
20, 8, 0
20, 22, 0
20, 9, 0
4, 20, 0
4, 8, 0
4, 9, 0
14, 7, 0
14, 3, 0
14, 13, 1
14, 17, 0
14, 31, 0
14, 29, 0
14, 16, 0
14, 30, 0
24, 7, 0
24, 12, 0
24, 31, 0
24, 32, 0
24, 29, 0
24, 10, 0
24, 30, 0
28, 27, 0
28, 6, 0
28, 15, 0
28, 5, 0
28, 1, 0
30, 3, 0
30, 13, 0
30, 14, 0
30, 31, 1
30, 24, 0
30, 16, 0
30, 17, 0
30, 29, 0
30, 12, 0
8, 20, 0
8, 4, 0
8, 9, 1
15, 28, 0
15, 23, 0
15, 26, 0
15, 6, 0
15, 19, 0
15, 5, 0
22, 20, 0
22, 7, 0
22, 11, 0
0, 7, 0
0, 2, 0
0, 32, 0
0, 10, 0
12, 3, 0
12, 13, 1
12, 17, 0
12, 31, 0
12, 29, 0
12, 16, 0
12, 24, 0
12, 30, 0
16, 12, 0
16, 13, 0
16, 14, 0
16, 31, 0
16, 3, 0
16, 17, 1
16, 29, 0
16, 30, 0
6, 15, 0
6, 28, 0
6, 5, 1
27, 28, 0
27, 1, 0
7, 0, 0
7, 20, 0
7, 14, 0
7, 11, 0
7, 32, 0
7, 29, 0
7, 2, 0
7, 24, 0
7, 22, 0
3, 21, 0
3, 12, 0
3, 13, 0
3, 14, 0
3, 31, 0
3, 29, 0
3, 16, 0
3, 25, 0
3, 30, 0
3, 17, 0
3, 1, 0
25, 21, 0
25, 3, 0
25, 1, 0
32, 0, 0
32, 7, 0
32, 10, 0
32, 24, 0
29, 7, 0
29, 12, 0
29, 13, 0
29, 17, 0
29, 31, 0
29, 3, 0
29, 16, 0
29, 14, 0
29, 24, 0
29, 10, 0
29, 30, 0
21, 3, 0
21, 25, 0
21, 1, 0
26, 19, 0
26, 15, 0
26, 23, 0
19, 15, 0
19, 26, 0
19, 23, 0
18, 23, 0
9, 20, 0
9, 8, 1
9, 4, 0
