0, 3, 0
13, 12, 0
13, 8, 0
13, 11, 0
13, 1, 0
3, 0, 0
3, 9, 0
6, 7, 0
6, 8, 0
6, 10, 0
8, 7, 0
8, 12, 0
8, 13, 0
8, 4, 0
8, 6, 0
8, 10, 0
8, 11, 0
8, 1, 0
5, 7, 0
5, 2, 0
11, 12, 1
11, 8, 0
11, 13, 0
10, 7, 0
10, 6, 0
10, 8, 0
10, 4, 0
7, 6, 0
7, 8, 0
7, 5, 0
7, 4, 0
7, 10, 0
12, 8, 0
12, 13, 0
12, 11, 1
12, 1, 0
4, 7, 0
4, 8, 0
4, 10, 0
2, 5, 0
2, 9, 0
1, 12, 0
1, 8, 0
1, 13, 0
9, 3, 0
9, 2, 0
