0, 6, 0
0, 8, 0
0, 9, 0
0, 11, 0
0, 1, 1
7, 12, 0
7, 14, 0
7, 17, 0
7, 3, 0
13, 19, 0
13, 5, 0
13, 2, 0
17, 7, 0
17, 12, 0
17, 14, 0
17, 15, 0
17, 19, 0
3, 7, 0
3, 10, 0
16, 4, 0
16, 10, 0
6, 0, 0
6, 1, 0
6, 8, 0
6, 11, 0
6, 9, 0
8, 0, 0
8, 4, 0
8, 18, 0
8, 6, 0
8, 9, 0
8, 11, 0
8, 1, 0
5, 19, 0
5, 13, 0
11, 0, 0
11, 6, 0
11, 8, 0
11, 9, 0
11, 1, 0
10, 16, 0
10, 3, 0
20, 9, 0
12, 7, 0
12, 14, 0
12, 19, 0
12, 15, 0
12, 17, 0
4, 16, 0
4, 18, 0
4, 8, 0
14, 7, 0
14, 12, 0
14, 19, 0
14, 15, 1
14, 17, 0
2, 13, 0
19, 12, 0
19, 13, 0
19, 14, 0
19, 17, 0
19, 15, 0
19, 5, 0
1, 0, 1
1, 6, 0
1, 8, 0
1, 11, 0
1, 9, 0
15, 12, 0
15, 19, 0
15, 14, 1
15, 17, 0
18, 8, 0
18, 4, 0
9, 0, 0
9, 20, 0
9, 6, 0
9, 8, 0
9, 11, 0
9, 1, 0
