0, 3, 0
0, 4, 0
0, 2, 0
3, 0, 0
3, 4, 0
3, 2, 1
4, 0, 0
4, 3, 0
4, 7, 0
4, 9, 0
4, 2, 0
4, 8, 0
4, 1, 0
2, 0, 0
2, 3, 1
2, 4, 0
6, 5, 0
6, 9, 0
1, 7, 0
1, 4, 0
1, 9, 0
8, 7, 0
8, 4, 0
8, 9, 0
5, 6, 0
7, 1, 0
7, 8, 0
7, 4, 0
7, 9, 0
9, 7, 0
9, 6, 0
9, 8, 0
9, 4, 0
9, 1, 0
