0, 3, 0
0, 4, 0
0, 6, 0
0, 8, 0
0, 5, 0
0, 1, 0
3, 0, 0
3, 6, 0
3, 2, 0
3, 1, 0
4, 0, 0
4, 8, 0
4, 5, 1
7, 2, 0
2, 7, 0
2, 3, 0
2, 6, 0
2, 1, 0
6, 0, 0
6, 3, 0
6, 1, 0
6, 2, 0
8, 0, 0
8, 4, 0
8, 5, 0
5, 0, 0
5, 8, 0
5, 4, 1
1, 0, 0
1, 3, 0
1, 6, 0
1, 2, 0
