0, 10, 0
0, 5, 0
0, 2, 0
13, 3, 0
13, 8, 0
13, 5, 0
13, 4, 0
13, 9, 0
3, 8, 0
3, 13, 0
3, 5, 0
3, 9, 0
6, 7, 0
6, 12, 0
6, 11, 0
6, 10, 0
8, 3, 0
8, 13, 0
8, 5, 0
8, 9, 1
5, 0, 0
5, 7, 0
5, 13, 0
5, 9, 0
5, 4, 0
5, 3, 0
5, 2, 0
5, 8, 0
5, 10, 0
5, 1, 0
11, 7, 0
11, 12, 1
11, 10, 0
11, 6, 0
10, 0, 0
10, 12, 0
10, 14, 0
10, 2, 0
10, 6, 0
10, 15, 0
10, 5, 0
10, 11, 0
7, 12, 0
7, 1, 0
7, 5, 0
7, 11, 0
7, 6, 0
12, 7, 0
12, 6, 0
12, 10, 0
12, 11, 1
12, 1, 0
4, 13, 0
4, 9, 0
4, 5, 0
4, 1, 0
14, 2, 0
14, 15, 1
14, 10, 0
2, 0, 0
2, 15, 0
2, 14, 0
2, 5, 0
2, 10, 0
1, 7, 0
1, 12, 0
1, 4, 0
1, 5, 0
15, 2, 0
15, 14, 1
15, 10, 0
9, 3, 0
9, 8, 1
9, 13, 0
9, 5, 0
9, 4, 0
