0, 13, 0
0, 14, 0
7, 6, 1
7, 4, 0
7, 17, 0
7, 3, 0
7, 1, 0
13, 0, 0
13, 3, 0
13, 19, 0
13, 8, 0
13, 1, 0
17, 7, 0
17, 18, 0
17, 4, 0
17, 3, 0
17, 16, 1
17, 6, 0
17, 10, 0
3, 13, 0
3, 17, 0
3, 18, 0
3, 6, 0
3, 8, 0
3, 5, 0
3, 11, 0
3, 10, 0
3, 7, 0
3, 12, 0
3, 4, 1
3, 14, 0
3, 2, 0
3, 1, 0
3, 15, 0
16, 18, 0
16, 19, 0
16, 4, 0
16, 17, 1
16, 10, 0
6, 20, 0
6, 17, 0
6, 18, 0
6, 5, 0
6, 11, 0
6, 10, 0
6, 7, 1
6, 3, 0
6, 4, 0
6, 2, 0
6, 1, 0
6, 9, 0
8, 3, 0
8, 19, 0
8, 13, 0
8, 1, 0
5, 3, 0
5, 4, 0
5, 6, 0
5, 19, 0
5, 1, 0
5, 15, 0
5, 9, 0
11, 12, 1
11, 4, 0
11, 14, 0
11, 3, 0
11, 2, 0
11, 6, 0
11, 1, 0
10, 20, 0
10, 12, 0
10, 4, 0
10, 17, 0
10, 3, 0
10, 16, 0
10, 6, 0
10, 19, 0
10, 18, 0
10, 1, 0
20, 12, 0
20, 4, 0
20, 2, 0
20, 6, 0
20, 19, 0
20, 10, 0
20, 1, 0
12, 20, 0
12, 3, 0
12, 4, 0
12, 14, 0
12, 2, 0
12, 1, 0
12, 11, 1
12, 10, 0
4, 20, 0
4, 17, 0
4, 3, 1
4, 16, 0
4, 6, 0
4, 5, 0
4, 11, 0
4, 10, 0
4, 7, 0
4, 12, 0
4, 2, 0
4, 1, 0
4, 15, 0
4, 18, 0
4, 9, 0
14, 0, 0
14, 12, 0
14, 3, 0
14, 2, 0
14, 19, 0
14, 11, 0
14, 1, 0
2, 20, 0
2, 12, 0
2, 4, 0
2, 14, 0
2, 3, 0
2, 6, 0
2, 19, 0
2, 11, 0
2, 1, 0
19, 20, 0
19, 18, 0
19, 13, 0
19, 14, 0
19, 2, 0
19, 16, 0
19, 8, 0
19, 15, 0
19, 5, 0
19, 10, 0
1, 7, 0
1, 13, 0
1, 3, 0
1, 18, 0
1, 6, 0
1, 5, 0
1, 11, 0
1, 10, 0
1, 20, 0
1, 12, 0
1, 4, 0
1, 14, 0
1, 2, 0
1, 8, 0
1, 15, 0
15, 3, 0
15, 19, 0
15, 4, 0
15, 5, 0
15, 1, 0
18, 3, 0
18, 4, 0
18, 17, 0
18, 9, 0
18, 16, 0
18, 6, 0
18, 19, 0
18, 10, 0
18, 1, 0
9, 18, 0
9, 6, 0
9, 4, 0
9, 5, 0
