0, 3, 0
0, 4, 0
0, 5, 0
0, 2, 0
3, 0, 0
3, 7, 0
3, 4, 0
3, 2, 0
3, 6, 0
3, 5, 0
4, 0, 0
4, 3, 0
4, 5, 1
4, 2, 0
2, 0, 0
2, 3, 0
2, 4, 0
2, 5, 0
6, 7, 0
6, 3, 0
6, 8, 0
6, 10, 0
6, 9, 0
1, 8, 0
1, 10, 0
1, 9, 0
8, 6, 0
8, 1, 0
8, 9, 0
8, 10, 0
5, 0, 0
5, 3, 0
5, 4, 1
5, 10, 0
5, 2, 0
7, 3, 0
7, 10, 0
7, 6, 0
10, 7, 0
10, 6, 0
10, 1, 0
10, 8, 0
10, 5, 0
10, 9, 1
9, 6, 0
9, 1, 0
9, 8, 0
9, 10, 1
