0, 3, 0
0, 4, 0
0, 2, 0
0, 6, 0
0, 10, 0
0, 5, 0
0, 1, 0
13, 12, 0
13, 8, 0
13, 5, 0
13, 9, 0
3, 0, 0
3, 4, 1
3, 2, 0
3, 6, 0
3, 1, 0
3, 5, 0
3, 10, 0
6, 0, 0
6, 3, 0
6, 12, 0
6, 2, 0
6, 1, 0
6, 9, 0
6, 5, 0
6, 10, 0
8, 12, 0
8, 13, 0
8, 5, 0
8, 11, 0
8, 9, 0
5, 0, 0
5, 13, 0
5, 3, 0
5, 6, 0
5, 1, 0
5, 11, 0
5, 10, 0
5, 7, 0
5, 12, 0
5, 4, 0
5, 8, 0
5, 9, 0
11, 7, 0
11, 12, 0
11, 2, 0
11, 8, 0
11, 5, 0
11, 9, 0
10, 0, 0
10, 7, 0
10, 4, 0
10, 3, 0
10, 6, 0
10, 2, 0
10, 5, 0
10, 1, 0
7, 12, 0
7, 2, 0
7, 5, 0
7, 11, 0
7, 10, 0
12, 7, 0
12, 13, 0
12, 6, 0
12, 8, 0
12, 5, 0
12, 11, 0
12, 9, 0
4, 0, 0
4, 3, 1
4, 2, 0
4, 1, 0
4, 5, 0
4, 10, 0
2, 0, 0
2, 3, 0
2, 4, 0
2, 6, 0
2, 10, 0
2, 7, 0
2, 11, 0
2, 1, 1
1, 0, 0
1, 3, 0
1, 4, 0
1, 2, 1
1, 6, 0
1, 5, 0
1, 10, 0
9, 12, 0
9, 13, 0
9, 6, 0
9, 8, 0
9, 5, 0
9, 11, 0
