0, 7, 0
0, 18, 0
0, 10, 0
7, 0, 0
7, 18, 0
7, 10, 0
7, 11, 0
7, 1, 0
13, 14, 0
13, 1, 0
13, 17, 0
13, 11, 0
13, 9, 0
17, 13, 0
17, 14, 0
17, 9, 0
3, 20, 0
3, 12, 0
3, 4, 0
3, 2, 0
3, 16, 0
3, 8, 0
3, 5, 0
3, 1, 0
16, 12, 0
16, 4, 0
16, 14, 0
16, 3, 0
16, 5, 0
16, 1, 0
6, 20, 0
6, 19, 0
6, 8, 0
6, 15, 0
8, 20, 0
8, 6, 0
8, 2, 0
8, 3, 0
5, 16, 0
5, 3, 0
5, 4, 0
5, 2, 0
11, 7, 0
11, 13, 0
11, 14, 0
11, 18, 0
11, 1, 0
11, 9, 0
10, 0, 0
10, 7, 0
20, 2, 0
20, 6, 0
20, 8, 0
20, 15, 0
20, 3, 0
12, 3, 0
12, 4, 0
12, 14, 0
12, 2, 0
12, 16, 0
12, 1, 0
4, 12, 0
4, 14, 0
4, 3, 0
4, 2, 0
4, 16, 0
4, 5, 0
4, 1, 0
14, 12, 0
14, 13, 0
14, 17, 0
14, 4, 0
14, 16, 0
14, 11, 0
14, 1, 0
2, 20, 0
2, 12, 0
2, 4, 0
2, 3, 0
2, 8, 0
2, 5, 0
19, 6, 0
19, 15, 0
1, 7, 0
1, 12, 0
1, 4, 0
1, 14, 0
1, 3, 0
1, 16, 0
1, 9, 0
1, 18, 0
1, 11, 0
1, 13, 0
15, 20, 0
15, 6, 0
15, 19, 0
18, 0, 0
18, 7, 0
18, 9, 0
18, 11, 0
18, 1, 0
9, 18, 0
9, 13, 0
9, 17, 0
9, 11, 0
9, 1, 0
