0, 8, 0
0, 10, 0
3, 7, 0
3, 9, 0
3, 5, 0
3, 1, 0
4, 2, 0
4, 5, 0
4, 10, 0
2, 4, 0
2, 5, 0
6, 8, 0
1, 3, 0
1, 5, 0
8, 0, 0
8, 6, 0
8, 10, 0
5, 3, 0
5, 1, 0
5, 10, 0
5, 4, 0
5, 2, 0
7, 3, 0
7, 9, 0
10, 0, 0
10, 8, 0
10, 5, 0
10, 4, 0
9, 7, 0
9, 3, 0
