13, 17, 0
13, 35, 0
13, 18, 0
13, 28, 0
13, 49, 0
13, 22, 0
17, 13, 0
17, 28, 0
17, 35, 0
17, 18, 0
17, 49, 0
17, 22, 0
23, 55, 0
23, 31, 0
23, 51, 0
23, 24, 0
23, 42, 0
23, 19, 0
23, 2, 0
23, 46, 0
23, 56, 0
46, 23, 0
46, 10, 0
20, 45, 0
20, 41, 0
20, 26, 0
20, 24, 0
34, 33, 1
34, 53, 0
34, 28, 0
34, 47, 0
14, 25, 0
14, 31, 0
14, 56, 0
14, 6, 0
14, 55, 0
14, 15, 0
14, 11, 0
14, 30, 0
24, 20, 0
24, 45, 0
24, 54, 0
24, 50, 0
24, 23, 0
24, 12, 0
24, 26, 0
24, 42, 0
24, 41, 0
28, 33, 0
28, 13, 0
28, 17, 0
28, 53, 0
28, 35, 0
28, 34, 0
28, 49, 0
28, 22, 0
28, 18, 0
28, 47, 0
15, 14, 0
15, 56, 0
15, 6, 0
15, 25, 0
15, 55, 0
15, 11, 0
41, 20, 0
41, 12, 0
41, 54, 0
41, 26, 0
41, 24, 0
0, 16, 0
0, 29, 0
0, 37, 0
0, 27, 0
0, 8, 0
0, 39, 0
0, 18, 0
0, 11, 0
8, 0, 0
8, 16, 0
8, 18, 0
51, 42, 0
51, 19, 0
51, 2, 0
51, 23, 0
51, 12, 0
3, 52, 0
3, 36, 0
3, 43, 0
3, 48, 0
3, 1, 0
38, 7, 0
38, 48, 0
38, 11, 0
38, 30, 0
47, 33, 0
47, 53, 0
47, 28, 0
47, 34, 0
10, 46, 0
7, 52, 0
7, 6, 0
7, 36, 0
7, 38, 0
7, 48, 0
7, 11, 0
7, 1, 0
33, 34, 1
33, 53, 0
33, 28, 0
33, 47, 0
53, 33, 0
53, 28, 0
53, 47, 0
53, 34, 0
32, 52, 0
32, 56, 0
32, 31, 0
32, 21, 0
32, 55, 0
32, 44, 0
32, 9, 0
2, 12, 0
2, 23, 0
2, 51, 0
2, 42, 0
2, 19, 0
2, 50, 0
21, 52, 0
21, 32, 0
21, 9, 0
52, 45, 0
52, 32, 0
52, 40, 0
52, 5, 0
52, 11, 0
52, 44, 0
52, 7, 0
52, 3, 0
52, 43, 0
52, 26, 0
52, 21, 0
52, 1, 0
52, 48, 0
52, 9, 0
19, 42, 0
19, 51, 0
19, 23, 0
19, 2, 0
49, 13, 0
49, 17, 0
49, 35, 0
49, 18, 0
49, 28, 0
49, 22, 0
48, 7, 0
48, 3, 0
48, 43, 0
48, 52, 0
48, 36, 0
48, 30, 0
48, 38, 0
48, 1, 0
31, 45, 0
31, 23, 0
31, 56, 0
31, 6, 0
31, 55, 0
31, 44, 0
31, 11, 0
31, 30, 0
31, 12, 0
31, 4, 0
31, 25, 0
31, 32, 0
31, 43, 0
31, 14, 0
31, 9, 0
31, 36, 0
39, 0, 0
39, 16, 0
39, 29, 0
39, 37, 0
39, 18, 0
39, 11, 0
29, 0, 0
29, 37, 0
29, 16, 0
29, 27, 0
29, 39, 0
29, 18, 0
29, 11, 0
40, 45, 0
40, 52, 0
40, 26, 0
40, 9, 0
11, 0, 0
11, 38, 0
11, 56, 0
11, 27, 0
11, 39, 0
11, 55, 0
11, 7, 0
11, 4, 0
11, 14, 0
11, 31, 0
11, 29, 0
11, 52, 0
11, 15, 0
5, 43, 0
5, 52, 0
5, 44, 0
37, 0, 0
37, 16, 0
37, 39, 0
37, 29, 0
4, 6, 0
4, 55, 0
4, 11, 0
4, 31, 0
4, 56, 0
35, 18, 0
35, 28, 0
35, 13, 0
35, 17, 0
35, 49, 0
30, 14, 0
30, 56, 0
30, 31, 0
30, 1, 0
30, 55, 0
30, 38, 0
30, 48, 0
30, 36, 0
42, 12, 0
42, 23, 0
42, 50, 0
42, 51, 0
42, 24, 0
42, 19, 0
42, 2, 0
22, 18, 0
22, 28, 0
22, 13, 0
22, 17, 0
22, 49, 0
36, 7, 0
36, 3, 0
36, 43, 0
36, 56, 0
36, 31, 0
36, 30, 0
36, 55, 0
36, 48, 0
36, 1, 0
25, 14, 0
25, 31, 0
25, 56, 0
25, 6, 0
25, 55, 0
25, 15, 0
45, 20, 0
45, 12, 0
45, 52, 0
45, 26, 0
45, 31, 0
45, 24, 0
45, 55, 0
45, 40, 0
45, 56, 0
56, 45, 0
56, 32, 0
56, 23, 0
56, 6, 0
56, 55, 1
56, 44, 0
56, 11, 0
56, 30, 0
56, 12, 0
56, 4, 0
56, 25, 0
56, 31, 0
56, 43, 0
56, 14, 0
56, 9, 0
56, 15, 0
56, 36, 0
16, 0, 0
16, 37, 0
16, 8, 0
16, 39, 0
16, 29, 0
27, 0, 0
27, 11, 0
27, 29, 0
1, 7, 0
1, 3, 0
1, 52, 0
1, 30, 0
1, 48, 0
1, 36, 0
55, 45, 0
55, 23, 0
55, 56, 1
55, 6, 0
55, 44, 0
55, 11, 0
55, 30, 0
55, 12, 0
55, 4, 0
55, 25, 0
55, 32, 0
55, 31, 0
55, 43, 0
55, 14, 0
55, 9, 0
55, 15, 0
55, 36, 0
44, 52, 0
44, 31, 0
44, 32, 0
44, 55, 0
44, 5, 0
44, 56, 0
12, 45, 0
12, 55, 0
12, 56, 0
12, 51, 0
12, 2, 0
12, 54, 0
12, 50, 0
12, 31, 0
12, 24, 0
12, 26, 0
12, 42, 0
12, 41, 0
18, 0, 0
18, 13, 0
18, 28, 0
18, 49, 0
18, 35, 0
18, 17, 0
18, 8, 0
18, 29, 0
18, 39, 0
18, 22, 0
54, 41, 0
54, 12, 0
54, 50, 0
54, 24, 0
50, 42, 0
50, 12, 0
50, 2, 0
50, 54, 0
50, 24, 0
26, 20, 0
26, 45, 0
26, 52, 0
26, 12, 0
26, 24, 0
26, 40, 0
26, 41, 0
26, 9, 0
6, 7, 0
6, 4, 0
6, 14, 0
6, 56, 0
6, 31, 0
6, 25, 0
6, 55, 0
6, 15, 0
43, 3, 0
43, 52, 0
43, 56, 0
43, 31, 0
43, 36, 0
43, 55, 0
43, 5, 0
43, 48, 0
9, 52, 0
9, 32, 0
9, 26, 0
9, 31, 0
9, 21, 0
9, 55, 0
9, 40, 0
9, 56, 0
