0, 1, 0
0, 5, 0
0, 11, 0
0, 2, 0
6, 7, 1
6, 4, 0
6, 2, 0
6, 8, 0
6, 10, 0
6, 9, 0
1, 0, 0
1, 7, 0
1, 2, 0
1, 5, 0
1, 11, 0
1, 9, 0
5, 0, 0
5, 7, 0
5, 4, 0
5, 2, 0
5, 11, 0
5, 1, 0
11, 0, 0
11, 2, 0
11, 9, 0
11, 5, 0
11, 1, 0
10, 2, 0
10, 6, 0
10, 8, 0
10, 4, 0
10, 3, 0
7, 4, 0
7, 2, 0
7, 6, 1
7, 1, 0
7, 8, 0
7, 5, 0
7, 9, 0
3, 10, 0
4, 7, 0
4, 2, 0
4, 6, 0
4, 8, 0
4, 5, 0
4, 10, 0
4, 9, 0
2, 0, 0
2, 7, 0
2, 4, 0
2, 10, 0
2, 6, 0
2, 8, 0
2, 1, 0
2, 5, 0
2, 11, 0
2, 9, 0
8, 7, 0
8, 4, 0
8, 2, 0
8, 6, 0
8, 9, 0
8, 10, 0
9, 7, 0
9, 4, 0
9, 2, 0
9, 6, 0
9, 8, 0
9, 11, 0
9, 1, 0
