13, 0, 0
13, 7, 0
13, 4, 0
13, 14, 0
13, 11, 0
13, 2, 0
13, 16, 0
13, 6, 0
13, 22, 0
17, 7, 0
17, 22, 0
17, 2, 0
17, 16, 0
17, 6, 0
17, 11, 0
17, 1, 0
5, 18, 0
5, 0, 0
5, 4, 0
5, 9, 0
11, 7, 0
11, 13, 0
11, 17, 0
11, 2, 0
11, 16, 0
11, 22, 0
11, 1, 0
1, 7, 0
1, 12, 0
1, 17, 0
1, 16, 0
1, 19, 0
1, 8, 0
1, 11, 0
20, 21, 1
20, 3, 0
20, 19, 0
20, 15, 0
20, 12, 0
4, 13, 0
4, 14, 0
4, 2, 0
4, 18, 0
4, 6, 0
4, 5, 0
4, 9, 0
14, 0, 0
14, 13, 0
14, 4, 0
14, 2, 0
14, 18, 0
14, 6, 0
14, 9, 0
8, 12, 0
8, 19, 0
8, 1, 0
15, 20, 0
15, 12, 0
15, 3, 0
15, 21, 0
15, 19, 0
15, 10, 0
22, 7, 0
22, 13, 0
22, 17, 0
22, 2, 0
22, 16, 0
22, 11, 0
0, 13, 0
0, 14, 0
0, 2, 0
0, 18, 0
0, 6, 0
0, 5, 0
3, 20, 0
3, 12, 0
3, 21, 0
3, 19, 0
3, 15, 0
3, 10, 0
16, 7, 0
16, 13, 0
16, 17, 0
16, 11, 0
16, 2, 0
16, 22, 0
16, 1, 0
6, 0, 0
6, 13, 0
6, 14, 0
6, 4, 0
6, 2, 0
6, 18, 0
6, 17, 0
10, 3, 0
10, 15, 0
10, 12, 0
7, 13, 0
7, 17, 0
7, 11, 0
7, 16, 0
7, 22, 0
7, 1, 0
12, 20, 0
12, 3, 0
12, 1, 0
12, 21, 0
12, 19, 0
12, 8, 0
12, 15, 0
12, 10, 0
2, 0, 0
2, 16, 0
2, 4, 0
2, 14, 0
2, 22, 0
2, 18, 0
2, 6, 0
2, 17, 0
2, 11, 0
2, 13, 0
21, 20, 1
21, 3, 0
21, 19, 0
21, 15, 0
21, 12, 0
19, 20, 0
19, 3, 0
19, 12, 0
19, 21, 0
19, 8, 0
19, 15, 0
19, 1, 0
18, 0, 0
18, 4, 0
18, 14, 0
18, 2, 0
18, 6, 0
18, 5, 0
18, 9, 0
9, 18, 0
9, 4, 0
9, 14, 0
9, 5, 0
