0, 6, 0
0, 11, 0
0, 1, 1
6, 0, 0
6, 11, 0
6, 1, 0
1, 0, 1
1, 6, 0
1, 11, 0
5, 7, 0
5, 3, 0
5, 4, 0
5, 11, 0
5, 10, 0
11, 0, 0
11, 6, 0
11, 3, 0
11, 5, 0
11, 1, 0
10, 7, 0
10, 8, 0
10, 5, 0
10, 4, 0
10, 2, 0
7, 2, 0
7, 4, 0
7, 5, 0
7, 10, 0
3, 5, 0
3, 11, 0
4, 7, 0
4, 2, 0
4, 5, 0
4, 10, 0
2, 7, 0
2, 8, 0
2, 9, 0
2, 4, 0
2, 10, 0
8, 2, 0
8, 10, 0
8, 9, 0
9, 8, 0
9, 2, 0
