13, 21, 0
13, 14, 0
13, 22, 0
13, 24, 0
17, 33, 0
17, 11, 0
17, 30, 0
31, 7, 0
31, 5, 0
23, 16, 0
23, 20, 0
23, 19, 0
23, 11, 0
10, 27, 0
10, 28, 0
10, 22, 0
10, 3, 0
2, 0, 0
2, 4, 0
2, 14, 0
2, 11, 0
2, 1, 0
5, 7, 0
5, 14, 0
5, 31, 0
5, 16, 0
5, 19, 0
5, 11, 0
11, 0, 0
11, 7, 0
11, 17, 0
11, 26, 0
11, 23, 0
11, 16, 0
11, 5, 0
11, 30, 0
11, 20, 0
11, 12, 0
11, 4, 0
11, 14, 0
11, 32, 0
11, 2, 0
11, 19, 0
11, 15, 0
11, 18, 0
11, 22, 0
1, 0, 0
1, 20, 0
1, 2, 0
20, 4, 0
20, 14, 0
20, 11, 0
20, 23, 0
20, 1, 0
4, 20, 0
4, 11, 0
4, 2, 0
14, 0, 0
14, 13, 0
14, 32, 0
14, 18, 0
14, 6, 0
14, 2, 0
14, 5, 0
14, 11, 0
14, 20, 0
14, 12, 0
14, 25, 0
14, 26, 0
14, 24, 0
14, 21, 0
14, 22, 0
24, 21, 0
24, 13, 0
24, 14, 0
24, 26, 0
28, 27, 1
28, 10, 0
28, 22, 0
28, 3, 0
30, 17, 0
30, 11, 0
8, 25, 0
8, 26, 0
8, 32, 0
15, 12, 0
15, 32, 0
15, 11, 0
15, 29, 0
22, 3, 0
22, 13, 0
22, 28, 0
22, 21, 0
22, 27, 0
22, 14, 0
22, 11, 0
22, 10, 0
0, 14, 0
0, 2, 0
0, 18, 0
0, 9, 0
0, 11, 0
0, 1, 0
12, 15, 0
12, 14, 0
12, 11, 0
12, 32, 0
16, 19, 0
16, 11, 0
16, 23, 0
16, 5, 0
6, 25, 0
6, 14, 0
6, 26, 0
27, 3, 0
27, 28, 1
27, 22, 0
27, 10, 0
7, 29, 0
7, 5, 0
7, 11, 0
7, 31, 0
3, 27, 0
3, 28, 0
3, 22, 0
3, 10, 0
25, 6, 0
25, 8, 0
25, 14, 0
25, 32, 0
32, 12, 0
32, 14, 0
32, 25, 0
32, 8, 0
32, 15, 0
32, 11, 0
29, 7, 0
29, 15, 0
21, 13, 0
21, 14, 0
21, 22, 0
21, 24, 0
33, 17, 0
33, 9, 0
19, 16, 0
19, 11, 0
19, 5, 0
19, 23, 0
26, 6, 0
26, 8, 0
26, 14, 0
26, 11, 0
26, 24, 0
18, 0, 0
18, 14, 0
18, 11, 0
18, 9, 0
9, 18, 0
9, 33, 0
9, 0, 0
