13, 27, 0
13, 17, 0
13, 23, 0
13, 28, 0
13, 30, 0
17, 27, 0
17, 13, 0
17, 28, 0
17, 23, 0
17, 30, 0
31, 20, 0
31, 25, 0
31, 21, 0
31, 19, 0
31, 9, 0
31, 10, 0
23, 27, 0
23, 13, 0
23, 17, 0
23, 28, 0
23, 30, 0
10, 20, 0
10, 31, 0
10, 21, 0
10, 19, 0
10, 5, 0
10, 9, 0
2, 3, 1
2, 6, 0
2, 32, 0
2, 12, 0
2, 33, 0
2, 15, 0
2, 11, 0
2, 1, 1
5, 18, 0
5, 0, 0
5, 10, 0
5, 9, 0
11, 3, 0
11, 33, 0
11, 2, 0
11, 6, 0
11, 30, 0
11, 15, 0
11, 1, 0
1, 12, 0
1, 33, 0
1, 32, 0
1, 2, 1
1, 6, 0
1, 15, 0
1, 11, 0
20, 21, 1
20, 19, 0
20, 25, 0
20, 31, 0
20, 10, 0
4, 7, 0
4, 34, 0
4, 8, 0
4, 33, 0
4, 6, 0
4, 29, 0
4, 22, 0
4, 12, 0
14, 16, 0
14, 25, 0
14, 26, 0
14, 24, 0
24, 16, 0
24, 25, 0
24, 14, 0
28, 27, 1
28, 13, 0
28, 17, 0
28, 23, 0
28, 30, 0
30, 13, 0
30, 28, 0
30, 23, 0
30, 27, 0
30, 17, 0
30, 11, 0
8, 7, 0
8, 34, 0
8, 4, 0
8, 33, 0
15, 12, 0
15, 33, 0
15, 32, 0
15, 2, 0
15, 6, 0
15, 11, 0
15, 1, 0
22, 4, 0
22, 29, 0
0, 18, 0
0, 5, 0
3, 6, 0
3, 12, 0
3, 33, 0
3, 11, 0
3, 2, 1
34, 33, 0
34, 8, 0
34, 4, 0
34, 12, 0
16, 25, 0
16, 24, 0
16, 14, 0
16, 29, 0
6, 3, 0
6, 4, 0
6, 12, 0
6, 32, 0
6, 33, 0
6, 2, 0
6, 15, 0
6, 11, 0
6, 1, 0
27, 17, 0
27, 13, 0
27, 28, 1
27, 23, 0
27, 30, 0
7, 33, 0
7, 8, 0
7, 4, 0
12, 34, 0
12, 4, 0
12, 33, 0
12, 32, 0
12, 3, 0
12, 6, 0
12, 2, 0
12, 15, 0
12, 1, 0
25, 20, 0
25, 14, 0
25, 31, 0
25, 26, 0
25, 24, 0
25, 16, 0
25, 19, 0
32, 12, 0
32, 33, 0
32, 2, 0
32, 6, 0
32, 15, 0
32, 1, 0
29, 16, 0
29, 4, 0
29, 22, 0
21, 20, 1
21, 19, 0
21, 9, 0
21, 31, 0
21, 10, 0
33, 8, 0
33, 12, 0
33, 6, 0
33, 11, 0
33, 1, 0
33, 7, 0
33, 3, 0
33, 4, 0
33, 32, 0
33, 2, 0
33, 34, 0
33, 15, 0
19, 20, 0
19, 25, 0
19, 31, 0
19, 21, 0
19, 9, 0
19, 10, 0
26, 25, 0
26, 14, 0
18, 0, 0
18, 5, 0
18, 9, 0
9, 18, 0
9, 31, 0
9, 21, 0
9, 19, 0
9, 5, 0
9, 10, 0
