0, 7, 0
0, 3, 0
0, 4, 0
0, 15, 0
0, 11, 0
13, 7, 0
13, 19, 0
13, 9, 0
13, 14, 0
13, 1, 0
17, 7, 0
17, 12, 0
17, 14, 0
17, 2, 0
17, 16, 1
17, 8, 0
17, 15, 0
17, 5, 0
17, 11, 0
17, 10, 0
3, 0, 0
3, 4, 1
3, 15, 0
16, 7, 0
16, 12, 0
16, 17, 1
16, 8, 0
16, 15, 0
16, 11, 0
16, 10, 0
6, 1, 0
6, 14, 0
6, 5, 1
6, 2, 0
8, 16, 0
8, 12, 0
8, 17, 0
8, 11, 0
8, 10, 0
5, 7, 0
5, 14, 0
5, 2, 0
5, 18, 0
5, 6, 1
5, 10, 0
5, 17, 0
5, 1, 0
11, 0, 0
11, 12, 1
11, 17, 0
11, 9, 0
11, 16, 0
11, 14, 0
11, 8, 0
11, 15, 0
11, 10, 0
10, 7, 0
10, 12, 0
10, 17, 0
10, 16, 0
10, 8, 0
10, 5, 0
10, 11, 0
10, 9, 0
7, 0, 0
7, 13, 0
7, 14, 0
7, 1, 0
7, 16, 0
7, 17, 0
7, 19, 0
7, 10, 0
7, 15, 0
7, 5, 0
7, 9, 0
12, 17, 0
12, 16, 0
12, 8, 0
12, 15, 0
12, 11, 1
12, 10, 0
4, 0, 0
4, 3, 1
4, 15, 0
14, 7, 0
14, 13, 0
14, 17, 0
14, 2, 0
14, 18, 0
14, 6, 0
14, 19, 0
14, 9, 0
14, 5, 0
14, 11, 0
14, 1, 0
2, 14, 0
2, 18, 0
2, 6, 0
2, 5, 0
2, 17, 0
2, 1, 0
19, 7, 0
19, 13, 0
19, 14, 0
19, 9, 0
1, 7, 0
1, 13, 0
1, 14, 0
1, 2, 0
1, 6, 0
1, 5, 0
1, 9, 0
15, 0, 0
15, 12, 0
15, 7, 0
15, 17, 0
15, 4, 0
15, 3, 0
15, 16, 0
15, 11, 0
18, 14, 0
18, 5, 0
18, 2, 0
9, 7, 0
9, 13, 0
9, 14, 0
9, 19, 0
9, 1, 0
9, 11, 0
9, 10, 0
