0, 2, 0
0, 1, 0
0, 13, 0
0, 9, 0
0, 10, 0
13, 0, 0
13, 3, 0
13, 4, 0
13, 2, 0
13, 6, 0
13, 9, 0
13, 11, 0
13, 10, 0
3, 6, 0
3, 13, 0
3, 4, 1
6, 3, 0
6, 4, 0
6, 13, 0
6, 9, 0
6, 10, 0
8, 7, 1
8, 2, 0
8, 10, 0
8, 5, 0
8, 1, 0
5, 7, 0
5, 12, 0
5, 2, 0
5, 8, 0
5, 11, 0
5, 1, 0
11, 7, 0
11, 12, 1
11, 13, 0
11, 2, 0
11, 5, 0
11, 1, 0
10, 0, 0
10, 13, 0
10, 4, 0
10, 6, 0
10, 1, 0
10, 8, 0
10, 9, 1
7, 2, 0
7, 8, 1
7, 5, 0
7, 11, 0
7, 1, 0
12, 5, 0
12, 11, 1
12, 2, 0
4, 6, 0
4, 13, 0
4, 9, 0
4, 10, 0
4, 3, 1
2, 7, 0
2, 12, 0
2, 13, 0
2, 0, 0
2, 8, 0
2, 5, 0
2, 11, 0
2, 1, 0
1, 0, 0
1, 7, 0
1, 2, 0
1, 8, 0
1, 5, 0
1, 11, 0
1, 10, 0
9, 0, 0
9, 6, 0
9, 13, 0
9, 4, 0
9, 10, 1
