0, 8, 0
0, 1, 0
8, 0, 0
8, 5, 0
8, 9, 0
3, 12, 0
3, 2, 0
3, 10, 0
6, 9, 0
6, 10, 0
6, 11, 0
6, 2, 0
5, 7, 0
5, 8, 0
5, 9, 0
11, 6, 0
11, 9, 0
11, 10, 1
10, 7, 0
10, 3, 0
10, 2, 0
10, 6, 0
10, 11, 1
10, 9, 0
7, 9, 0
7, 5, 0
7, 10, 0
12, 3, 0
12, 4, 0
4, 12, 0
2, 6, 0
2, 3, 0
2, 10, 0
1, 0, 0
9, 7, 0
9, 6, 0
9, 8, 0
9, 5, 0
9, 11, 0
9, 10, 0
