0, 12, 0
0, 4, 0
0, 2, 0
0, 6, 0
0, 10, 0
0, 8, 0
0, 5, 0
0, 11, 0
0, 9, 0
8, 0, 0
8, 12, 0
8, 7, 0
8, 9, 0
8, 4, 0
8, 3, 0
8, 6, 0
8, 2, 0
8, 10, 0
8, 11, 0
8, 1, 0
3, 8, 0
3, 11, 0
3, 9, 0
6, 0, 0
6, 7, 0
6, 4, 0
6, 8, 0
6, 10, 0
6, 1, 0
5, 0, 0
5, 4, 0
11, 0, 0
11, 3, 0
11, 8, 0
11, 9, 0
10, 0, 0
10, 12, 0
10, 7, 0
10, 9, 0
10, 4, 0
10, 2, 0
10, 6, 0
10, 8, 0
10, 1, 0
7, 6, 0
7, 8, 0
7, 10, 0
7, 1, 0
12, 0, 0
12, 9, 0
12, 2, 0
12, 1, 0
12, 8, 0
12, 10, 0
4, 0, 0
4, 6, 0
4, 8, 0
4, 5, 0
4, 10, 0
2, 0, 0
2, 12, 0
2, 9, 0
2, 1, 0
2, 8, 0
2, 10, 0
1, 7, 0
1, 12, 0
1, 2, 0
1, 6, 0
1, 8, 0
1, 10, 0
1, 9, 0
9, 0, 0
9, 12, 0
9, 3, 0
9, 2, 0
9, 1, 0
9, 8, 0
9, 11, 0
9, 10, 0
