58, 57, 1
58, 26, 0
58, 22, 0
58, 56, 1
61, 11, 0
61, 34, 0
61, 43, 0
61, 51, 0
61, 26, 0
61, 12, 0
61, 37, 0
61, 5, 0
61, 22, 0
13, 7, 0
13, 20, 0
13, 53, 0
13, 17, 0
13, 29, 0
13, 25, 0
13, 49, 0
13, 24, 0
13, 41, 0
17, 0, 0
17, 7, 0
17, 13, 0
17, 25, 0
17, 49, 0
17, 53, 0
17, 41, 0
23, 50, 0
23, 62, 0
23, 2, 0
23, 37, 0
23, 38, 0
23, 5, 0
23, 47, 0
23, 1, 0
46, 45, 0
20, 7, 0
20, 13, 0
20, 25, 0
20, 53, 0
20, 24, 0
20, 60, 0
20, 29, 0
20, 49, 0
20, 38, 0
20, 59, 0
34, 37, 0
34, 62, 0
34, 5, 0
34, 11, 0
34, 1, 0
34, 12, 0
34, 43, 0
34, 47, 0
34, 31, 0
34, 29, 0
34, 61, 0
34, 26, 0
34, 10, 0
34, 38, 0
34, 22, 0
34, 9, 0
14, 33, 0
14, 54, 0
14, 26, 0
14, 21, 0
14, 27, 0
14, 19, 0
14, 18, 0
14, 47, 0
14, 36, 0
24, 20, 0
24, 7, 0
24, 13, 0
24, 49, 0
28, 33, 0
28, 54, 0
28, 36, 0
28, 27, 1
28, 19, 0
28, 55, 0
28, 30, 0
15, 3, 0
15, 6, 0
41, 0, 0
41, 7, 0
41, 13, 0
41, 17, 0
41, 49, 0
41, 53, 0
0, 7, 0
0, 53, 0
0, 17, 0
0, 49, 0
0, 8, 0
0, 41, 0
38, 23, 0
38, 29, 0
38, 59, 0
38, 5, 0
38, 11, 0
38, 1, 0
38, 20, 0
38, 8, 0
38, 39, 1
38, 62, 0
38, 12, 0
38, 16, 0
38, 53, 0
38, 47, 0
38, 34, 0
38, 25, 0
38, 50, 0
38, 2, 0
38, 37, 0
38, 52, 0
38, 49, 0
38, 9, 0
62, 34, 0
62, 47, 0
62, 50, 0
62, 23, 0
62, 12, 0
62, 37, 0
62, 10, 0
62, 38, 0
62, 11, 0
62, 9, 0
51, 37, 0
51, 43, 0
51, 47, 0
51, 26, 0
51, 2, 0
51, 61, 0
51, 22, 0
33, 14, 0
33, 28, 0
33, 27, 0
33, 42, 0
33, 19, 0
33, 55, 0
33, 30, 0
33, 44, 0
33, 36, 0
39, 12, 0
39, 52, 0
39, 50, 0
39, 2, 0
39, 16, 0
39, 59, 0
39, 29, 0
39, 38, 1
39, 5, 0
39, 1, 0
54, 18, 0
54, 28, 0
54, 35, 0
54, 21, 0
54, 27, 0
54, 14, 0
54, 36, 0
54, 19, 0
54, 47, 0
54, 30, 0
47, 62, 0
47, 51, 0
47, 21, 0
47, 11, 0
47, 1, 0
47, 34, 0
47, 23, 0
47, 14, 0
47, 50, 0
47, 26, 0
47, 2, 0
47, 37, 0
47, 54, 0
47, 56, 0
47, 38, 0
47, 22, 0
10, 34, 0
10, 2, 0
10, 12, 0
10, 62, 0
10, 9, 1
7, 20, 0
7, 0, 0
7, 13, 0
7, 17, 0
7, 49, 0
7, 24, 0
7, 29, 0
7, 8, 0
7, 53, 0
7, 59, 0
7, 41, 0
3, 40, 0
3, 6, 0
3, 15, 0
3, 30, 0
53, 20, 0
53, 0, 0
53, 38, 0
53, 13, 0
53, 17, 0
53, 25, 0
53, 8, 0
53, 49, 0
53, 59, 0
53, 7, 0
53, 41, 0
32, 21, 0
32, 55, 0
32, 31, 1
32, 36, 0
2, 51, 0
2, 23, 0
2, 16, 0
2, 39, 0
2, 47, 0
2, 10, 0
2, 12, 0
2, 56, 0
2, 50, 0
2, 26, 0
2, 29, 0
2, 37, 0
2, 1, 0
2, 38, 0
2, 22, 0
2, 9, 0
21, 54, 0
21, 32, 0
21, 26, 0
21, 31, 0
21, 14, 0
21, 19, 0
21, 47, 0
21, 36, 0
25, 20, 0
25, 60, 0
25, 13, 0
25, 17, 0
25, 29, 0
25, 16, 0
25, 38, 0
25, 53, 0
25, 59, 0
25, 1, 0
19, 33, 0
19, 28, 0
19, 26, 0
19, 31, 0
19, 21, 0
19, 27, 0
19, 14, 0
19, 55, 0
19, 54, 0
19, 44, 0
19, 36, 0
49, 0, 0
49, 7, 0
49, 13, 0
49, 17, 0
49, 60, 0
49, 29, 0
49, 59, 0
49, 1, 0
49, 20, 0
49, 53, 0
49, 24, 0
49, 8, 0
49, 38, 0
49, 41, 0
48, 45, 0
48, 30, 0
48, 4, 0
48, 6, 0
31, 34, 0
31, 32, 1
31, 26, 0
31, 21, 0
31, 19, 0
31, 55, 0
31, 36, 0
45, 30, 0
45, 46, 0
45, 48, 0
60, 20, 0
60, 49, 0
60, 25, 0
60, 29, 0
60, 8, 0
60, 59, 0
59, 20, 0
59, 7, 0
59, 53, 0
59, 25, 0
59, 29, 0
59, 16, 0
59, 38, 0
59, 1, 0
59, 49, 0
59, 39, 0
59, 60, 0
29, 16, 0
29, 13, 0
29, 60, 0
29, 38, 0
29, 8, 0
29, 59, 0
29, 5, 0
29, 1, 0
29, 7, 0
29, 34, 0
29, 25, 0
29, 2, 0
29, 52, 0
29, 20, 0
29, 49, 0
29, 39, 0
40, 42, 0
40, 6, 0
40, 3, 0
40, 30, 0
11, 34, 0
11, 37, 0
11, 62, 0
11, 12, 0
11, 61, 0
11, 38, 0
11, 5, 0
11, 47, 0
5, 23, 0
5, 34, 0
5, 39, 0
5, 11, 0
5, 1, 0
5, 12, 0
5, 52, 0
5, 50, 0
5, 26, 0
5, 29, 0
5, 61, 0
5, 38, 0
37, 51, 0
37, 62, 0
37, 23, 0
37, 34, 0
37, 11, 0
37, 12, 0
37, 47, 0
37, 2, 0
37, 61, 0
37, 9, 0
37, 38, 0
37, 50, 0
4, 6, 0
4, 55, 0
4, 48, 0
35, 18, 0
35, 54, 0
35, 36, 0
30, 40, 0
30, 33, 0
30, 28, 0
30, 3, 0
30, 27, 0
30, 45, 0
30, 6, 0
30, 42, 0
30, 48, 0
30, 54, 0
30, 36, 0
8, 0, 0
8, 7, 0
8, 53, 0
8, 52, 0
8, 29, 0
8, 60, 0
8, 49, 0
8, 38, 0
8, 1, 0
42, 33, 0
42, 40, 0
42, 44, 0
42, 30, 0
22, 58, 0
22, 57, 0
22, 43, 0
22, 56, 0
22, 51, 0
22, 2, 0
22, 61, 0
22, 26, 0
22, 34, 0
22, 47, 0
36, 28, 0
36, 31, 0
36, 18, 0
36, 27, 0
36, 55, 0
36, 44, 0
36, 30, 0
36, 33, 0
36, 14, 0
36, 32, 0
36, 35, 0
36, 21, 0
36, 54, 0
36, 19, 0
36, 26, 0
57, 58, 1
57, 26, 0
57, 22, 0
57, 56, 1
56, 58, 1
56, 57, 1
56, 47, 0
56, 26, 0
56, 2, 0
56, 22, 0
16, 38, 0
16, 25, 0
16, 9, 0
16, 2, 0
16, 39, 0
16, 29, 0
16, 59, 0
16, 1, 0
27, 33, 0
27, 30, 0
27, 14, 0
27, 28, 1
27, 19, 0
27, 55, 0
27, 54, 0
27, 36, 0
1, 49, 0
1, 23, 0
1, 34, 0
1, 16, 0
1, 39, 0
1, 29, 0
1, 59, 0
1, 5, 0
1, 47, 0
1, 12, 0
1, 25, 0
1, 50, 0
1, 2, 0
1, 52, 0
1, 8, 0
1, 38, 0
1, 9, 0
55, 33, 0
55, 4, 0
55, 28, 0
55, 31, 0
55, 32, 0
55, 6, 0
55, 27, 0
55, 19, 0
55, 26, 0
55, 44, 0
55, 36, 0
44, 42, 0
44, 19, 0
44, 55, 0
44, 36, 0
44, 33, 0
12, 61, 0
12, 62, 0
12, 39, 0
12, 5, 0
12, 11, 0
12, 1, 0
12, 34, 0
12, 52, 0
12, 50, 0
12, 2, 0
12, 37, 0
12, 10, 0
12, 38, 0
12, 9, 0
18, 54, 0
18, 35, 0
18, 14, 0
18, 36, 0
52, 12, 0
52, 29, 0
52, 39, 0
52, 8, 0
52, 38, 0
52, 5, 0
52, 1, 0
50, 12, 0
50, 62, 0
50, 23, 0
50, 2, 0
50, 37, 0
50, 38, 0
50, 39, 0
50, 5, 0
50, 47, 0
50, 1, 0
26, 58, 0
26, 61, 0
26, 56, 0
26, 51, 0
26, 55, 0
26, 5, 0
26, 47, 0
26, 57, 0
26, 34, 0
26, 14, 0
26, 31, 0
26, 2, 0
26, 21, 0
26, 43, 0
26, 19, 0
26, 22, 0
26, 36, 0
6, 3, 0
6, 4, 0
6, 40, 0
6, 55, 0
6, 15, 0
6, 48, 0
6, 30, 0
43, 61, 0
43, 34, 0
43, 26, 0
43, 22, 0
43, 51, 0
9, 12, 0
9, 16, 0
9, 62, 0
9, 2, 0
9, 37, 0
9, 34, 0
9, 38, 0
9, 10, 1
9, 1, 0
