0, 7, 0
0, 3, 0
0, 9, 0
0, 6, 0
0, 8, 0
0, 1, 0
13, 4, 0
13, 14, 0
13, 5, 0
13, 11, 0
13, 10, 0
3, 0, 0
3, 12, 0
3, 7, 0
3, 2, 0
3, 6, 0
3, 9, 0
3, 1, 0
6, 0, 0
6, 7, 1
6, 1, 0
6, 3, 0
6, 9, 0
8, 0, 0
8, 1, 0
8, 9, 1
5, 13, 0
5, 14, 0
5, 4, 1
5, 10, 0
11, 13, 0
11, 2, 0
10, 13, 0
10, 14, 0
10, 5, 0
10, 4, 0
7, 0, 0
7, 6, 1
7, 9, 0
7, 3, 0
7, 1, 0
12, 3, 0
12, 2, 0
4, 13, 0
4, 5, 1
4, 10, 0
14, 13, 0
14, 5, 0
14, 10, 0
2, 12, 0
2, 11, 0
2, 3, 0
1, 0, 0
1, 6, 0
1, 8, 0
1, 7, 0
1, 3, 0
9, 0, 0
9, 6, 0
9, 8, 1
9, 7, 0
9, 3, 0
