13, 7, 0
13, 25, 0
13, 9, 0
13, 23, 0
13, 2, 0
13, 6, 0
13, 14, 0
13, 24, 0
13, 19, 0
13, 27, 0
13, 1, 0
17, 8, 0
17, 5, 0
17, 26, 0
23, 0, 0
23, 13, 0
23, 12, 0
23, 18, 0
23, 27, 0
23, 2, 0
23, 5, 0
23, 11, 0
23, 1, 0
23, 7, 0
23, 3, 0
23, 26, 0
23, 24, 0
23, 21, 0
23, 8, 0
23, 22, 0
23, 9, 0
2, 13, 0
2, 23, 0
2, 24, 0
2, 18, 0
2, 27, 0
2, 8, 0
2, 15, 0
2, 1, 0
5, 3, 0
5, 17, 0
5, 23, 0
5, 26, 0
5, 12, 0
5, 11, 0
11, 0, 0
11, 12, 1
11, 4, 0
11, 23, 0
11, 26, 0
11, 3, 0
11, 5, 0
11, 22, 0
11, 10, 0
1, 13, 0
1, 14, 0
1, 23, 0
1, 2, 0
1, 18, 0
1, 6, 0
1, 19, 0
1, 15, 0
1, 27, 0
20, 0, 0
20, 26, 0
20, 22, 0
4, 0, 0
4, 12, 0
4, 26, 0
4, 11, 0
4, 10, 0
14, 13, 0
14, 25, 0
14, 27, 0
14, 18, 0
14, 6, 0
14, 1, 0
24, 13, 0
24, 26, 0
24, 23, 0
24, 2, 0
24, 18, 0
24, 27, 0
24, 8, 0
24, 22, 0
8, 21, 0
8, 17, 0
8, 23, 0
8, 26, 0
8, 24, 0
8, 18, 0
8, 2, 0
8, 12, 0
15, 18, 0
15, 2, 0
15, 1, 0
22, 20, 0
22, 18, 0
22, 23, 0
22, 26, 0
22, 24, 0
22, 21, 0
22, 0, 0
22, 11, 0
22, 9, 0
0, 20, 0
0, 12, 0
0, 4, 0
0, 23, 0
0, 26, 0
0, 22, 0
0, 11, 0
3, 11, 0
3, 12, 0
3, 26, 0
3, 23, 0
3, 5, 0
16, 7, 0
16, 18, 0
16, 25, 0
6, 18, 0
6, 27, 0
6, 13, 0
6, 14, 0
6, 1, 0
10, 12, 0
10, 4, 0
10, 26, 0
10, 11, 0
7, 16, 0
7, 13, 0
7, 25, 0
7, 23, 0
7, 21, 0
7, 27, 0
7, 19, 0
7, 18, 0
7, 9, 0
12, 0, 0
12, 3, 0
12, 4, 0
12, 23, 0
12, 26, 0
12, 8, 0
12, 5, 0
12, 11, 1
12, 10, 0
25, 7, 0
25, 18, 0
25, 13, 0
25, 14, 0
25, 16, 0
25, 27, 0
25, 19, 0
26, 0, 0
26, 17, 0
26, 23, 0
26, 12, 0
26, 5, 0
26, 11, 0
26, 10, 0
26, 20, 0
26, 3, 0
26, 4, 0
26, 24, 0
26, 21, 0
26, 8, 0
26, 22, 0
27, 13, 0
27, 23, 0
27, 18, 0
27, 6, 0
27, 24, 0
27, 1, 0
27, 7, 0
27, 25, 0
27, 2, 0
27, 14, 0
27, 19, 0
27, 9, 0
21, 7, 0
21, 23, 0
21, 26, 0
21, 18, 0
21, 8, 0
21, 22, 0
21, 9, 0
19, 7, 0
19, 13, 0
19, 25, 0
19, 18, 0
19, 27, 0
19, 9, 0
19, 1, 0
18, 8, 0
18, 23, 0
18, 16, 0
18, 6, 0
18, 2, 0
18, 27, 0
18, 7, 0
18, 14, 0
18, 24, 0
18, 21, 0
18, 25, 0
18, 19, 0
18, 1, 0
18, 15, 0
18, 22, 0
18, 9, 0
9, 7, 0
9, 18, 0
9, 13, 0
9, 23, 0
9, 21, 0
9, 27, 0
9, 19, 0
9, 22, 0
