0, 3, 0
0, 6, 0
0, 4, 0
0, 10, 0
0, 1, 0
13, 17, 0
13, 2, 0
17, 7, 0
17, 13, 0
17, 2, 0
3, 0, 0
3, 12, 0
3, 14, 0
3, 18, 0
3, 6, 0
3, 1, 0
16, 2, 0
16, 15, 1
16, 9, 0
6, 0, 0
6, 12, 0
6, 14, 0
6, 3, 0
6, 18, 0
6, 1, 0
8, 5, 0
8, 11, 0
8, 9, 0
5, 8, 0
11, 8, 0
11, 9, 0
10, 0, 0
10, 4, 0
7, 18, 0
7, 17, 0
12, 18, 0
12, 6, 0
12, 14, 0
12, 3, 0
4, 0, 0
4, 10, 0
14, 18, 0
14, 12, 0
14, 3, 0
14, 6, 0
2, 16, 0
2, 15, 0
2, 13, 0
2, 17, 0
2, 9, 0
1, 0, 0
1, 6, 0
1, 3, 0
15, 16, 1
15, 9, 0
15, 2, 0
18, 7, 0
18, 12, 0
18, 14, 0
18, 3, 0
18, 6, 0
9, 16, 0
9, 8, 0
9, 15, 0
9, 11, 0
9, 2, 0
