0, 4, 0
0, 5, 0
0, 1, 0
3, 2, 0
3, 9, 0
4, 0, 0
4, 6, 0
4, 5, 0
4, 1, 0
2, 7, 0
2, 3, 0
2, 8, 0
2, 9, 0
6, 7, 0
6, 4, 0
6, 5, 0
1, 0, 0
1, 4, 0
1, 5, 0
8, 7, 0
8, 2, 0
5, 0, 0
5, 7, 0
5, 1, 0
5, 4, 0
5, 6, 0
7, 6, 0
7, 8, 0
7, 5, 0
7, 2, 0
9, 3, 0
9, 2, 0
