12, 6, 0
12, 1, 0
12, 13, 1
12, 5, 0
12, 30, 0
13, 12, 1
13, 1, 0
13, 30, 0
17, 7, 0
17, 5, 0
17, 26, 0
26, 7, 0
26, 17, 0
26, 5, 0
26, 9, 0
23, 18, 0
23, 19, 0
23, 4, 0
23, 11, 0
23, 8, 0
2, 3, 0
2, 14, 0
5, 12, 0
5, 17, 0
5, 26, 0
5, 6, 0
11, 0, 0
11, 18, 0
11, 19, 0
11, 4, 0
11, 23, 0
1, 12, 0
1, 30, 0
1, 13, 0
1, 6, 0
20, 0, 0
20, 15, 0
4, 23, 0
4, 18, 0
4, 27, 0
4, 19, 0
4, 8, 0
4, 11, 0
14, 0, 0
14, 3, 0
14, 15, 0
14, 2, 0
24, 3, 0
24, 25, 1
24, 22, 0
24, 9, 0
28, 21, 0
30, 12, 0
30, 1, 0
30, 13, 0
30, 10, 0
30, 29, 0
8, 27, 0
8, 4, 0
8, 23, 0
15, 20, 0
15, 0, 0
15, 14, 0
22, 3, 0
22, 25, 0
22, 24, 0
0, 20, 0
0, 15, 0
0, 14, 0
0, 11, 0
3, 2, 0
3, 14, 0
3, 22, 0
3, 24, 0
16, 27, 0
6, 12, 0
6, 5, 0
6, 1, 0
27, 16, 0
27, 8, 0
27, 4, 0
7, 17, 0
7, 26, 0
7, 31, 0
7, 9, 0
18, 19, 1
18, 4, 0
18, 11, 0
18, 23, 0
25, 22, 0
25, 24, 1
31, 7, 0
31, 9, 0
29, 21, 0
29, 30, 0
29, 10, 0
21, 10, 0
21, 28, 0
21, 29, 0
19, 18, 1
19, 4, 0
19, 11, 0
19, 23, 0
10, 21, 0
10, 30, 0
10, 29, 0
9, 7, 0
9, 26, 0
9, 31, 0
9, 24, 0
