2, 20, 0
2, 12, 0
2, 13, 0
2, 11, 0
2, 4, 0
2, 24, 0
2, 19, 0
2, 22, 0
2, 10, 0
13, 0, 0
13, 20, 0
13, 2, 0
13, 4, 0
13, 24, 0
17, 6, 0
17, 22, 0
23, 7, 0
23, 16, 0
23, 14, 0
23, 24, 0
23, 18, 0
23, 15, 0
29, 24, 0
29, 4, 0
29, 22, 0
29, 1, 0
5, 12, 0
5, 25, 0
5, 3, 0
5, 21, 0
5, 11, 0
5, 9, 0
11, 24, 0
11, 12, 0
11, 25, 0
11, 3, 0
11, 2, 0
11, 19, 0
11, 8, 0
11, 5, 0
11, 22, 0
11, 10, 1
1, 26, 0
1, 24, 0
1, 16, 0
1, 29, 0
1, 15, 0
1, 22, 0
20, 0, 0
20, 2, 0
20, 19, 0
20, 13, 0
20, 24, 0
4, 2, 0
4, 13, 0
4, 24, 0
4, 16, 0
4, 29, 0
4, 15, 0
4, 22, 0
14, 7, 0
14, 15, 1
14, 22, 0
14, 23, 0
24, 0, 0
24, 7, 0
24, 16, 0
24, 13, 0
24, 28, 0
24, 23, 0
24, 18, 0
24, 27, 0
24, 2, 0
24, 11, 0
24, 1, 0
24, 20, 0
24, 12, 0
24, 4, 0
24, 25, 0
24, 26, 0
24, 29, 0
24, 19, 0
24, 8, 0
24, 15, 0
24, 22, 0
28, 7, 0
28, 6, 0
28, 22, 0
28, 24, 0
8, 3, 0
8, 9, 0
8, 25, 0
8, 11, 0
8, 24, 0
15, 7, 0
15, 4, 0
15, 14, 1
15, 23, 0
15, 24, 0
15, 16, 1
15, 22, 0
15, 1, 0
22, 28, 0
22, 18, 0
22, 6, 0
22, 2, 0
22, 17, 0
22, 11, 0
22, 1, 0
22, 7, 0
22, 16, 0
22, 4, 0
22, 14, 0
22, 26, 0
22, 24, 0
22, 29, 0
22, 15, 0
0, 20, 0
0, 13, 0
0, 24, 0
12, 3, 0
12, 25, 0
12, 24, 0
12, 21, 0
12, 19, 0
12, 2, 0
12, 5, 0
12, 11, 0
12, 10, 0
16, 7, 0
16, 4, 0
16, 26, 0
16, 23, 0
16, 24, 0
16, 18, 0
16, 15, 1
16, 22, 0
16, 1, 0
6, 28, 0
6, 17, 0
6, 22, 0
10, 12, 0
10, 19, 0
10, 11, 1
10, 2, 0
7, 28, 0
7, 23, 0
7, 24, 0
7, 16, 0
7, 14, 0
7, 15, 0
7, 22, 0
3, 12, 0
3, 25, 0
3, 8, 0
3, 5, 0
3, 11, 0
3, 9, 0
25, 3, 0
25, 12, 0
25, 24, 0
25, 21, 0
25, 8, 0
25, 5, 0
25, 11, 0
25, 9, 0
26, 18, 0
26, 24, 0
26, 16, 0
26, 27, 1
26, 22, 0
26, 1, 0
27, 18, 0
27, 26, 1
27, 24, 0
21, 12, 0
21, 25, 0
21, 5, 0
19, 20, 0
19, 12, 0
19, 24, 0
19, 2, 0
19, 11, 0
19, 10, 0
18, 26, 0
18, 23, 0
18, 24, 0
18, 16, 0
18, 27, 0
18, 22, 0
9, 3, 0
9, 8, 0
9, 25, 0
9, 5, 0
