0, 8, 0
0, 4, 0
0, 9, 0
3, 6, 0
3, 1, 0
3, 10, 0
3, 5, 0
3, 2, 1
4, 0, 0
4, 7, 0
4, 2, 0
4, 8, 0
4, 10, 0
4, 9, 0
2, 7, 0
2, 3, 1
2, 4, 0
2, 6, 0
2, 10, 0
2, 5, 0
2, 1, 0
6, 3, 0
6, 1, 0
6, 2, 0
1, 3, 0
1, 6, 0
1, 10, 0
1, 5, 0
1, 2, 0
8, 0, 0
8, 4, 0
8, 9, 1
5, 3, 0
5, 1, 0
5, 2, 0
7, 2, 0
7, 4, 0
7, 10, 0
10, 7, 0
10, 3, 0
10, 1, 0
10, 4, 0
10, 2, 0
9, 0, 0
9, 8, 1
9, 4, 0
