0, 16, 0
0, 3, 0
0, 14, 0
0, 17, 0
13, 7, 0
13, 12, 0
13, 9, 0
13, 11, 0
13, 2, 0
17, 0, 0
17, 16, 1
17, 8, 0
17, 14, 0
3, 0, 0
3, 6, 0
16, 0, 0
16, 14, 0
16, 17, 1
16, 8, 0
16, 15, 0
16, 5, 0
16, 10, 0
16, 1, 0
6, 3, 0
8, 16, 0
8, 14, 0
8, 17, 0
8, 1, 0
5, 16, 0
5, 14, 0
5, 15, 0
5, 10, 0
11, 13, 0
11, 10, 0
11, 2, 0
10, 16, 0
10, 14, 0
10, 5, 0
10, 11, 0
7, 12, 0
7, 13, 0
7, 4, 0
7, 9, 0
12, 7, 0
12, 13, 0
12, 4, 0
12, 9, 0
4, 7, 0
4, 12, 0
4, 9, 0
14, 0, 0
14, 17, 0
14, 16, 0
14, 10, 0
14, 8, 0
14, 15, 1
14, 5, 0
14, 1, 0
2, 13, 0
2, 11, 0
1, 16, 0
1, 14, 0
1, 8, 0
1, 15, 0
15, 16, 0
15, 14, 1
15, 5, 0
15, 1, 0
9, 7, 0
9, 12, 0
9, 4, 0
9, 13, 0
