0, 12, 0
0, 4, 0
0, 17, 0
0, 3, 0
0, 8, 0
0, 1, 1
13, 7, 0
13, 6, 0
13, 16, 0
13, 14, 1
13, 5, 0
17, 0, 0
17, 4, 0
17, 1, 0
3, 0, 0
3, 12, 0
3, 4, 0
3, 9, 0
3, 2, 0
3, 16, 0
3, 8, 0
3, 10, 0
3, 11, 0
3, 1, 0
16, 7, 0
16, 3, 0
16, 13, 0
16, 9, 0
16, 6, 0
16, 8, 0
16, 5, 0
16, 11, 0
16, 10, 0
6, 16, 0
6, 7, 1
6, 13, 0
6, 5, 1
6, 11, 0
8, 0, 0
8, 12, 0
8, 3, 0
8, 16, 0
8, 5, 0
8, 11, 0
8, 9, 1
5, 13, 0
5, 14, 0
5, 16, 0
5, 6, 1
5, 8, 0
5, 15, 0
5, 11, 0
11, 3, 0
11, 16, 0
11, 6, 0
11, 8, 0
11, 5, 0
11, 10, 0
11, 9, 0
10, 16, 0
10, 3, 0
10, 11, 0
10, 9, 1
7, 16, 0
7, 6, 1
7, 15, 0
7, 13, 0
7, 14, 0
12, 0, 0
12, 3, 0
12, 4, 0
12, 9, 0
12, 2, 0
12, 8, 0
12, 1, 0
4, 0, 0
4, 12, 0
4, 17, 0
4, 3, 0
4, 2, 0
4, 1, 0
14, 7, 0
14, 13, 1
14, 15, 1
14, 5, 0
2, 12, 0
2, 4, 0
2, 3, 0
2, 1, 1
1, 0, 1
1, 12, 0
1, 4, 0
1, 17, 0
1, 3, 0
1, 2, 1
15, 7, 0
15, 14, 1
15, 5, 0
9, 3, 0
9, 12, 0
9, 16, 0
9, 8, 1
9, 11, 0
9, 10, 1
