0, 2, 0
0, 3, 0
0, 1, 0
0, 8, 0
0, 6, 0
3, 0, 0
3, 6, 0
3, 2, 1
4, 7, 0
4, 5, 1
7, 8, 0
7, 5, 0
7, 4, 0
7, 1, 0
2, 0, 0
2, 3, 1
2, 6, 0
6, 0, 0
6, 3, 0
6, 2, 0
8, 0, 0
8, 7, 0
8, 1, 0
5, 7, 0
5, 4, 1
1, 0, 0
1, 7, 0
1, 8, 0
