12, 21, 0
12, 4, 0
12, 14, 0
12, 23, 0
12, 24, 0
12, 18, 0
12, 6, 0
12, 19, 0
12, 35, 0
12, 15, 0
12, 36, 0
13, 34, 0
13, 2, 0
13, 5, 0
13, 10, 0
17, 0, 0
17, 14, 0
17, 28, 0
17, 29, 0
31, 11, 0
31, 2, 0
31, 5, 0
31, 32, 1
31, 10, 0
23, 12, 0
23, 4, 0
23, 14, 0
23, 18, 0
23, 19, 0
23, 36, 0
23, 15, 0
23, 5, 0
23, 9, 0
24, 37, 0
24, 12, 0
24, 5, 0
24, 35, 0
5, 13, 0
5, 23, 0
5, 33, 0
5, 16, 0
5, 36, 0
5, 24, 0
5, 11, 0
5, 7, 0
5, 3, 0
5, 4, 0
5, 25, 0
5, 31, 0
5, 35, 0
5, 21, 0
5, 19, 0
5, 8, 0
5, 15, 0
5, 18, 0
5, 22, 0
5, 9, 0
11, 14, 0
11, 31, 0
11, 10, 0
11, 15, 0
11, 5, 0
11, 30, 0
1, 21, 0
1, 14, 0
1, 28, 0
20, 0, 0
20, 15, 0
20, 29, 0
20, 14, 0
20, 30, 0
21, 12, 0
21, 14, 0
21, 26, 0
21, 16, 0
21, 15, 0
21, 5, 0
21, 1, 0
4, 12, 0
4, 23, 0
4, 18, 0
4, 19, 0
4, 15, 0
4, 5, 0
4, 36, 0
14, 0, 0
14, 20, 0
14, 17, 0
14, 23, 0
14, 16, 0
14, 6, 0
14, 15, 0
14, 11, 0
14, 1, 0
14, 7, 0
14, 12, 0
14, 25, 0
14, 26, 0
14, 27, 0
14, 21, 0
14, 28, 0
14, 10, 0
14, 38, 0
14, 22, 0
14, 9, 0
35, 12, 0
35, 5, 0
35, 24, 0
28, 0, 0
28, 14, 0
28, 29, 0
28, 17, 0
28, 1, 0
30, 20, 0
30, 11, 0
8, 34, 0
8, 5, 0
15, 0, 0
15, 23, 0
15, 33, 0
15, 16, 0
15, 6, 0
15, 5, 0
15, 11, 0
15, 10, 0
15, 20, 0
15, 12, 0
15, 4, 0
15, 14, 0
15, 27, 0
15, 21, 0
15, 25, 0
15, 38, 0
15, 22, 0
15, 9, 0
19, 12, 0
19, 4, 0
19, 23, 0
19, 18, 1
19, 5, 0
19, 36, 0
22, 3, 0
22, 14, 0
22, 6, 0
22, 38, 0
22, 15, 0
22, 5, 0
36, 12, 0
36, 4, 0
36, 23, 0
36, 37, 0
36, 19, 0
36, 18, 0
36, 5, 0
0, 20, 0
0, 14, 0
0, 29, 0
0, 28, 0
0, 15, 0
0, 17, 0
38, 25, 0
38, 14, 0
38, 15, 0
38, 22, 0
3, 33, 0
3, 5, 0
3, 22, 0
3, 6, 0
16, 14, 0
16, 26, 0
16, 21, 0
16, 27, 0
16, 15, 0
16, 5, 0
6, 7, 0
6, 3, 0
6, 14, 0
6, 33, 0
6, 15, 0
6, 22, 0
6, 12, 0
10, 13, 0
10, 14, 0
10, 31, 0
10, 32, 0
10, 2, 0
10, 15, 0
10, 11, 0
7, 6, 0
7, 14, 0
7, 5, 0
7, 33, 0
7, 27, 0
34, 8, 0
34, 13, 0
25, 14, 0
25, 15, 0
25, 38, 0
25, 5, 0
25, 9, 0
33, 7, 0
33, 3, 0
33, 15, 0
33, 5, 0
33, 6, 0
32, 10, 0
32, 31, 1
32, 2, 0
27, 16, 0
27, 7, 0
27, 15, 0
27, 14, 0
37, 36, 0
37, 24, 0
29, 0, 0
29, 20, 0
29, 28, 0
29, 17, 0
2, 13, 0
2, 31, 0
2, 32, 0
2, 10, 0
26, 16, 0
26, 21, 0
26, 14, 0
18, 12, 0
18, 4, 0
18, 23, 0
18, 19, 1
18, 5, 0
18, 36, 0
9, 25, 0
9, 14, 0
9, 15, 0
9, 5, 0
9, 23, 0
