13, 16, 0
13, 34, 0
13, 6, 0
13, 8, 0
13, 24, 0
17, 0, 0
17, 43, 0
17, 23, 0
17, 42, 0
17, 22, 0
17, 9, 0
23, 17, 0
23, 22, 1
23, 9, 0
42, 0, 0
42, 45, 0
42, 17, 0
42, 32, 0
42, 22, 0
42, 9, 0
46, 7, 0
46, 12, 0
46, 44, 0
20, 21, 1
20, 27, 0
34, 0, 0
34, 6, 0
34, 8, 0
34, 13, 0
34, 24, 0
14, 7, 0
14, 28, 0
14, 30, 0
24, 34, 0
24, 13, 0
24, 26, 0
28, 0, 0
28, 35, 0
28, 44, 0
28, 10, 0
28, 7, 0
28, 12, 0
28, 4, 0
28, 14, 0
28, 2, 0
28, 37, 0
28, 19, 0
28, 49, 0
28, 48, 0
28, 22, 0
39, 27, 0
39, 25, 0
39, 47, 0
39, 1, 0
41, 6, 0
41, 36, 0
0, 45, 0
0, 43, 0
0, 22, 0
0, 34, 0
0, 28, 0
0, 42, 0
0, 8, 0
0, 15, 0
0, 17, 0
0, 36, 0
8, 16, 0
8, 6, 0
8, 13, 0
8, 0, 0
8, 34, 0
33, 29, 0
33, 30, 0
15, 0, 0
15, 36, 0
47, 39, 0
47, 31, 0
10, 37, 0
10, 28, 0
7, 12, 0
7, 14, 0
7, 46, 0
7, 28, 0
3, 19, 0
3, 4, 0
3, 49, 0
3, 2, 0
32, 45, 0
32, 42, 0
2, 3, 0
2, 4, 0
2, 28, 0
2, 19, 0
2, 49, 0
2, 48, 0
21, 20, 1
21, 27, 0
19, 3, 0
19, 28, 0
19, 2, 0
19, 37, 0
19, 49, 0
19, 48, 0
49, 3, 0
49, 19, 0
49, 28, 0
49, 48, 0
49, 2, 0
18, 40, 0
18, 5, 0
31, 11, 0
31, 47, 0
29, 33, 0
29, 45, 0
29, 35, 0
40, 18, 0
40, 5, 0
40, 11, 0
11, 40, 0
11, 31, 0
5, 18, 0
5, 40, 0
5, 26, 0
37, 19, 0
37, 28, 0
37, 10, 0
4, 3, 0
4, 28, 0
4, 44, 0
4, 2, 0
35, 45, 0
35, 38, 0
35, 28, 0
35, 29, 0
30, 33, 0
30, 14, 0
38, 45, 0
38, 35, 0
22, 0, 0
22, 28, 0
22, 23, 1
22, 42, 0
22, 17, 0
22, 9, 0
36, 0, 0
36, 15, 0
36, 41, 0
45, 0, 0
45, 32, 0
45, 29, 0
45, 42, 0
45, 35, 0
45, 38, 0
16, 6, 0
16, 8, 0
16, 13, 0
27, 20, 0
27, 21, 0
27, 39, 0
27, 25, 0
27, 1, 0
1, 25, 0
1, 39, 0
1, 27, 0
44, 4, 0
44, 28, 0
44, 46, 0
48, 19, 0
48, 49, 0
48, 28, 0
48, 2, 0
12, 7, 0
12, 28, 0
12, 46, 0
25, 27, 0
25, 39, 0
25, 1, 0
26, 5, 0
26, 24, 0
6, 16, 0
6, 34, 0
6, 8, 0
6, 13, 0
6, 41, 0
43, 0, 0
43, 17, 0
9, 42, 0
9, 17, 0
9, 22, 0
9, 23, 0
