13, 20, 0
13, 32, 0
13, 16, 0
13, 19, 0
13, 8, 0
13, 11, 0
13, 9, 0
17, 3, 0
17, 4, 0
17, 28, 0
17, 2, 0
17, 18, 1
17, 6, 0
17, 12, 0
31, 23, 0
31, 26, 0
31, 16, 0
31, 19, 0
31, 30, 0
31, 9, 0
23, 9, 0
23, 31, 0
23, 24, 0
23, 16, 0
23, 19, 0
23, 10, 0
23, 30, 0
10, 30, 0
10, 8, 0
10, 9, 0
10, 23, 0
10, 24, 0
2, 17, 0
2, 3, 0
2, 16, 0
2, 6, 0
2, 11, 0
2, 30, 0
2, 20, 0
2, 12, 0
2, 4, 0
2, 32, 0
2, 29, 0
2, 28, 0
2, 18, 0
2, 9, 0
5, 0, 0
5, 12, 0
5, 29, 0
5, 1, 0
11, 20, 0
11, 3, 0
11, 4, 0
11, 13, 0
11, 32, 0
11, 2, 0
11, 16, 0
11, 27, 0
11, 19, 0
11, 18, 0
1, 0, 0
1, 29, 0
1, 21, 0
1, 6, 0
1, 5, 0
1, 22, 0
1, 27, 0
20, 3, 0
20, 13, 0
20, 11, 0
20, 32, 0
20, 2, 0
20, 16, 0
20, 6, 0
20, 19, 0
20, 18, 0
20, 4, 0
4, 16, 0
4, 28, 0
4, 18, 0
4, 6, 0
4, 11, 0
4, 27, 0
4, 20, 0
4, 3, 0
4, 32, 0
4, 2, 0
4, 17, 0
4, 19, 0
4, 22, 0
4, 9, 0
14, 7, 0
14, 25, 0
14, 15, 1
14, 29, 0
24, 8, 0
24, 23, 0
24, 10, 0
28, 12, 0
28, 4, 0
28, 17, 0
28, 32, 0
28, 3, 0
28, 18, 0
28, 6, 0
28, 2, 0
28, 27, 0
30, 23, 0
30, 8, 0
30, 31, 0
30, 26, 0
30, 2, 0
30, 32, 0
30, 29, 0
30, 10, 0
30, 9, 0
8, 13, 0
8, 32, 0
8, 24, 0
8, 16, 0
8, 19, 0
8, 10, 0
8, 30, 0
15, 7, 0
15, 25, 0
15, 14, 1
15, 29, 0
22, 12, 0
22, 4, 0
22, 6, 0
22, 21, 1
22, 27, 0
22, 1, 0
0, 12, 0
0, 1, 0
0, 5, 0
0, 27, 0
0, 29, 0
12, 0, 0
12, 28, 0
12, 18, 0
12, 6, 0
12, 29, 0
12, 5, 0
12, 27, 0
12, 3, 0
12, 32, 0
12, 2, 0
12, 17, 0
12, 22, 0
16, 13, 0
16, 31, 0
16, 23, 0
16, 6, 0
16, 11, 0
16, 20, 0
16, 3, 0
16, 4, 0
16, 32, 0
16, 2, 0
16, 19, 0
16, 8, 0
16, 9, 0
6, 28, 0
6, 12, 0
6, 16, 0
6, 27, 0
6, 29, 0
6, 1, 0
6, 20, 0
6, 3, 0
6, 4, 0
6, 2, 0
6, 21, 0
6, 17, 0
6, 18, 0
6, 22, 0
27, 0, 0
27, 12, 0
27, 4, 0
27, 28, 0
27, 11, 0
27, 3, 0
27, 21, 0
27, 6, 0
27, 29, 0
27, 22, 0
27, 1, 0
7, 25, 0
7, 14, 0
7, 15, 0
7, 29, 0
3, 20, 0
3, 12, 0
3, 17, 0
3, 4, 0
3, 28, 0
3, 2, 0
3, 16, 0
3, 6, 0
3, 18, 0
3, 11, 0
3, 27, 0
25, 7, 0
25, 15, 0
25, 14, 0
25, 29, 0
32, 20, 0
32, 12, 0
32, 13, 0
32, 28, 0
32, 4, 0
32, 2, 0
32, 16, 0
32, 19, 0
32, 8, 0
32, 11, 0
32, 30, 0
29, 0, 0
29, 27, 0
29, 2, 0
29, 5, 0
29, 1, 0
29, 7, 0
29, 12, 0
29, 14, 0
29, 6, 0
29, 21, 0
29, 25, 0
29, 30, 0
29, 15, 0
21, 6, 0
21, 27, 0
21, 29, 0
21, 22, 1
21, 1, 0
26, 9, 0
26, 31, 0
26, 30, 0
19, 20, 0
19, 4, 0
19, 13, 0
19, 23, 0
19, 32, 0
19, 31, 0
19, 16, 0
19, 8, 0
19, 11, 0
19, 9, 0
18, 20, 0
18, 12, 0
18, 4, 0
18, 28, 0
18, 3, 0
18, 6, 0
18, 2, 0
18, 17, 1
18, 11, 0
9, 4, 0
9, 13, 0
9, 31, 0
9, 23, 0
9, 2, 0
9, 16, 0
9, 26, 0
9, 19, 0
9, 10, 0
9, 30, 0
