0, 1, 0
0, 8, 0
0, 10, 0
0, 9, 0
3, 7, 0
3, 6, 0
3, 4, 1
3, 2, 0
4, 7, 0
4, 3, 1
4, 2, 0
4, 6, 0
2, 7, 0
2, 3, 0
2, 4, 0
2, 10, 0
2, 6, 0
6, 7, 0
6, 3, 0
6, 4, 0
6, 5, 0
6, 2, 0
1, 0, 0
1, 8, 0
1, 10, 0
1, 9, 0
8, 0, 0
8, 1, 0
8, 9, 1
8, 10, 0
5, 6, 0
5, 10, 0
7, 3, 0
7, 6, 0
7, 4, 0
7, 2, 0
10, 0, 0
10, 2, 0
10, 1, 0
10, 8, 0
10, 5, 0
10, 9, 0
9, 0, 0
9, 8, 1
9, 10, 0
9, 1, 0
