13, 28, 0
13, 29, 0
13, 6, 0
13, 14, 0
13, 17, 0
13, 30, 0
17, 13, 0
17, 14, 0
17, 1, 0
31, 8, 0
31, 22, 0
31, 11, 0
23, 20, 0
23, 21, 0
23, 15, 0
23, 26, 0
23, 27, 0
10, 12, 0
10, 14, 0
10, 26, 0
10, 18, 0
10, 19, 0
10, 15, 0
10, 9, 0
2, 0, 0
2, 27, 0
2, 25, 0
2, 24, 0
5, 3, 0
5, 4, 1
5, 28, 0
5, 32, 0
5, 29, 0
11, 31, 0
11, 22, 0
1, 14, 0
1, 17, 0
1, 9, 0
20, 21, 0
20, 27, 0
20, 15, 0
20, 23, 0
4, 3, 0
4, 28, 0
4, 32, 0
4, 29, 0
4, 6, 0
4, 5, 1
14, 13, 0
14, 17, 0
14, 9, 0
14, 18, 0
14, 19, 0
14, 10, 0
14, 15, 0
14, 1, 0
24, 27, 0
24, 25, 0
24, 2, 0
28, 3, 0
28, 4, 0
28, 13, 0
28, 32, 0
28, 29, 1
28, 6, 0
28, 5, 0
30, 7, 0
30, 6, 0
30, 13, 0
8, 3, 0
8, 31, 0
8, 6, 0
15, 20, 0
15, 12, 0
15, 14, 0
15, 23, 0
15, 26, 0
15, 16, 0
15, 27, 0
15, 18, 0
15, 10, 0
22, 31, 0
22, 11, 0
0, 21, 0
0, 27, 0
0, 2, 0
12, 16, 0
12, 18, 0
12, 15, 0
12, 10, 0
16, 12, 0
16, 15, 0
16, 26, 0
6, 7, 1
6, 3, 0
6, 4, 0
6, 28, 0
6, 32, 0
6, 13, 0
6, 8, 0
6, 30, 0
27, 20, 0
27, 0, 0
27, 25, 0
27, 23, 0
27, 2, 0
27, 21, 0
27, 24, 0
27, 15, 0
7, 6, 1
7, 32, 0
7, 30, 0
3, 4, 0
3, 28, 0
3, 32, 0
3, 29, 0
3, 6, 0
3, 8, 0
3, 5, 0
25, 27, 0
25, 2, 0
25, 24, 0
32, 7, 0
32, 3, 0
32, 4, 0
32, 28, 0
32, 29, 0
32, 6, 0
32, 5, 0
29, 3, 0
29, 13, 0
29, 28, 1
29, 32, 0
29, 4, 0
29, 5, 0
21, 20, 0
21, 0, 0
21, 23, 0
21, 27, 0
26, 16, 0
26, 15, 0
26, 23, 0
26, 10, 0
19, 18, 1
19, 9, 0
19, 14, 0
19, 10, 0
18, 12, 0
18, 14, 0
18, 19, 1
18, 10, 0
18, 15, 0
18, 9, 0
9, 18, 0
9, 19, 0
9, 10, 0
9, 14, 0
9, 1, 0
