13, 33, 0
13, 4, 0
13, 14, 0
13, 3, 0
13, 21, 0
13, 25, 0
13, 35, 0
13, 9, 0
17, 7, 0
17, 40, 0
17, 18, 0
17, 38, 0
17, 15, 0
17, 39, 0
17, 44, 0
23, 0, 0
23, 27, 0
23, 5, 0
23, 20, 0
23, 12, 0
23, 4, 0
23, 43, 0
23, 24, 0
23, 37, 0
23, 42, 0
23, 19, 0
23, 15, 0
42, 34, 0
42, 21, 0
42, 23, 0
42, 24, 0
42, 37, 0
42, 9, 0
42, 41, 0
42, 5, 0
5, 23, 0
5, 24, 0
5, 21, 0
5, 42, 0
5, 19, 0
5, 9, 0
20, 34, 0
20, 4, 0
20, 23, 0
20, 37, 0
20, 8, 0
20, 41, 0
14, 3, 0
14, 4, 0
14, 13, 0
14, 8, 0
14, 15, 0
14, 41, 0
24, 42, 0
24, 5, 0
24, 23, 0
28, 9, 0
28, 31, 0
28, 26, 0
28, 2, 0
28, 21, 0
28, 27, 0
28, 10, 0
28, 22, 0
28, 11, 0
28, 36, 0
39, 18, 0
39, 40, 1
39, 15, 0
39, 44, 0
39, 17, 0
41, 20, 0
41, 34, 0
41, 4, 0
41, 14, 0
41, 37, 0
41, 42, 0
41, 8, 0
0, 27, 0
0, 43, 0
0, 22, 0
0, 23, 0
8, 20, 0
8, 3, 0
8, 4, 0
8, 14, 0
8, 34, 0
8, 21, 0
8, 41, 0
8, 9, 0
12, 19, 0
12, 43, 0
12, 23, 0
15, 17, 0
15, 23, 0
15, 34, 0
15, 18, 0
15, 40, 0
15, 44, 0
15, 3, 0
15, 4, 0
15, 25, 0
15, 35, 0
15, 21, 0
15, 14, 0
15, 39, 0
15, 9, 0
10, 28, 0
10, 26, 0
10, 31, 0
10, 2, 0
7, 38, 0
7, 1, 0
7, 17, 0
7, 29, 0
3, 33, 0
3, 13, 0
3, 14, 0
3, 35, 0
3, 21, 0
3, 8, 0
3, 15, 0
3, 9, 0
32, 16, 0
32, 45, 0
32, 6, 0
2, 28, 0
2, 31, 0
2, 26, 0
2, 27, 0
2, 10, 0
2, 22, 0
2, 11, 0
2, 30, 0
21, 13, 0
21, 28, 0
21, 34, 0
21, 42, 0
21, 5, 0
21, 3, 0
21, 25, 0
21, 33, 0
21, 35, 0
21, 43, 0
21, 19, 0
21, 8, 0
21, 15, 0
21, 22, 0
21, 9, 0
33, 21, 0
33, 3, 0
33, 13, 0
33, 9, 0
33, 35, 0
19, 21, 0
19, 12, 0
19, 5, 0
19, 23, 0
19, 9, 0
18, 40, 0
18, 15, 0
18, 39, 0
18, 44, 0
18, 17, 0
31, 16, 0
31, 36, 0
31, 10, 0
31, 28, 0
31, 2, 0
29, 7, 0
29, 44, 0
29, 1, 0
40, 18, 0
40, 39, 1
40, 15, 0
40, 44, 0
40, 17, 0
11, 27, 0
11, 30, 0
11, 28, 0
11, 26, 0
11, 2, 0
1, 7, 0
1, 29, 0
37, 20, 0
37, 42, 0
37, 41, 0
37, 23, 0
37, 34, 0
4, 20, 0
4, 34, 0
4, 13, 0
4, 14, 0
4, 23, 0
4, 8, 0
4, 15, 0
4, 41, 0
35, 21, 0
35, 3, 0
35, 13, 0
35, 15, 0
35, 33, 0
30, 27, 0
30, 22, 0
30, 11, 0
30, 2, 0
38, 7, 0
38, 17, 0
22, 0, 0
22, 28, 0
22, 2, 0
22, 21, 0
22, 27, 0
22, 9, 0
22, 30, 0
36, 16, 0
36, 28, 0
36, 31, 0
45, 32, 0
16, 6, 0
16, 32, 0
16, 31, 0
16, 36, 0
27, 0, 0
27, 28, 0
27, 22, 0
27, 23, 0
27, 2, 0
27, 43, 0
27, 11, 0
27, 30, 0
44, 17, 0
44, 29, 0
44, 18, 0
44, 40, 0
44, 15, 0
44, 39, 0
34, 20, 0
34, 21, 0
34, 4, 0
34, 37, 0
34, 42, 0
34, 8, 0
34, 15, 0
34, 41, 0
34, 9, 0
25, 21, 0
25, 13, 0
25, 15, 0
25, 9, 0
26, 2, 0
26, 28, 0
26, 11, 0
26, 10, 0
6, 16, 0
6, 32, 0
43, 0, 0
43, 12, 0
43, 23, 0
43, 21, 0
43, 27, 0
43, 9, 0
9, 13, 0
9, 28, 0
9, 33, 0
9, 8, 0
9, 5, 0
9, 3, 0
9, 43, 0
9, 42, 0
9, 21, 0
9, 25, 0
9, 19, 0
9, 34, 0
9, 15, 0
9, 22, 0
