0, 7, 0
0, 11, 0
0, 10, 0
6, 1, 0
6, 8, 0
6, 9, 0
1, 4, 0
1, 2, 0
1, 6, 0
1, 8, 0
1, 5, 0
1, 9, 0
5, 2, 0
5, 8, 0
5, 4, 0
5, 1, 0
11, 0, 0
11, 10, 0
10, 0, 0
10, 7, 0
10, 11, 0
7, 0, 0
7, 3, 0
7, 10, 0
3, 7, 0
3, 8, 0
3, 4, 0
3, 2, 0
4, 2, 0
4, 3, 0
4, 8, 0
4, 5, 0
4, 1, 0
2, 3, 0
2, 4, 0
2, 5, 0
2, 1, 0
8, 3, 0
8, 4, 0
8, 6, 0
8, 1, 0
8, 5, 0
8, 9, 0
9, 6, 0
9, 8, 0
9, 1, 0
