0, 7, 0
0, 2, 0
3, 4, 0
3, 5, 0
4, 3, 0
4, 8, 0
4, 5, 0
4, 6, 0
7, 0, 0
7, 6, 0
7, 2, 0
7, 8, 0
7, 1, 0
2, 0, 0
2, 7, 0
6, 7, 0
6, 8, 0
6, 5, 0
6, 4, 0
6, 1, 0
8, 7, 0
8, 6, 0
8, 4, 0
8, 5, 0
8, 1, 0
5, 3, 0
5, 8, 0
5, 4, 0
5, 6, 0
1, 7, 0
1, 6, 0
1, 8, 0
