0, 8, 0
13, 7, 0
13, 3, 0
13, 4, 0
13, 5, 0
13, 1, 0
3, 7, 0
3, 13, 0
3, 5, 0
3, 4, 0
3, 2, 0
6, 12, 0
6, 14, 0
8, 0, 0
8, 14, 0
5, 3, 0
5, 13, 0
5, 4, 1
11, 12, 0
11, 14, 0
11, 1, 0
10, 7, 0
10, 9, 0
7, 2, 0
7, 3, 0
7, 13, 0
7, 10, 0
7, 9, 0
12, 6, 0
12, 14, 0
12, 11, 0
4, 3, 0
4, 13, 0
4, 5, 1
14, 12, 0
14, 8, 0
14, 11, 0
14, 6, 0
2, 7, 0
2, 3, 0
2, 9, 0
1, 13, 0
1, 11, 0
9, 7, 0
9, 2, 0
9, 10, 0
