0, 7, 0
0, 3, 0
0, 2, 0
0, 4, 0
0, 1, 1
8, 7, 1
8, 12, 0
8, 11, 0
8, 10, 0
3, 0, 0
3, 4, 0
3, 2, 1
3, 6, 0
3, 11, 0
3, 1, 0
6, 3, 0
6, 1, 0
6, 4, 0
6, 11, 0
6, 2, 0
5, 4, 0
5, 11, 0
5, 9, 0
11, 12, 0
11, 4, 0
11, 9, 0
11, 3, 0
11, 6, 0
11, 8, 0
11, 5, 0
11, 10, 0
10, 7, 0
10, 12, 0
10, 8, 0
10, 11, 0
10, 9, 0
7, 0, 0
7, 12, 0
7, 8, 1
7, 9, 0
7, 10, 0
12, 7, 0
12, 8, 0
12, 11, 0
12, 10, 0
4, 0, 0
4, 3, 0
4, 2, 0
4, 6, 0
4, 9, 0
4, 5, 0
4, 11, 0
4, 1, 0
2, 0, 0
2, 6, 0
2, 4, 0
2, 3, 1
2, 1, 0
1, 0, 1
1, 6, 0
1, 4, 0
1, 3, 0
1, 2, 0
9, 7, 0
9, 4, 0
9, 5, 0
9, 11, 0
9, 10, 0
