13, 20, 0
13, 18, 0
13, 9, 0
17, 0, 0
17, 16, 0
17, 19, 0
17, 2, 0
23, 4, 0
23, 24, 0
23, 21, 0
23, 5, 0
23, 22, 0
23, 1, 0
5, 21, 0
5, 4, 0
5, 22, 0
5, 23, 0
11, 1, 0
1, 21, 0
1, 11, 0
1, 23, 0
20, 18, 0
20, 13, 0
20, 9, 0
4, 21, 0
4, 22, 0
4, 5, 0
4, 23, 0
14, 16, 0
14, 15, 1
14, 24, 0
24, 21, 0
24, 14, 0
24, 23, 0
24, 16, 0
24, 15, 0
24, 22, 0
8, 0, 0
8, 12, 0
8, 10, 0
15, 16, 0
15, 14, 1
15, 22, 0
15, 24, 0
22, 16, 0
22, 4, 0
22, 23, 0
22, 24, 0
22, 21, 0
22, 15, 0
22, 5, 0
0, 12, 0
0, 17, 0
0, 2, 0
0, 19, 0
0, 8, 0
0, 10, 0
3, 18, 0
3, 7, 0
3, 10, 0
3, 12, 0
3, 6, 0
16, 14, 0
16, 2, 0
16, 17, 0
16, 19, 0
16, 24, 0
16, 15, 0
16, 22, 0
6, 7, 1
6, 3, 0
6, 18, 0
6, 12, 0
10, 0, 0
10, 3, 0
10, 8, 0
10, 7, 0
10, 12, 0
7, 18, 0
7, 3, 0
7, 10, 0
7, 12, 0
7, 6, 1
12, 7, 0
12, 3, 0
12, 6, 0
12, 8, 0
12, 0, 0
12, 10, 0
2, 16, 0
2, 0, 0
2, 19, 0
2, 17, 0
21, 4, 0
21, 23, 0
21, 24, 0
21, 5, 0
21, 22, 0
21, 1, 0
19, 0, 0
19, 16, 0
19, 17, 0
19, 2, 0
18, 20, 0
18, 3, 0
18, 13, 0
18, 6, 0
18, 7, 0
18, 9, 0
9, 20, 0
9, 18, 0
9, 13, 0
