0, 16, 0
0, 12, 0
13, 14, 0
13, 2, 0
13, 18, 0
13, 17, 0
13, 8, 0
13, 1, 0
17, 18, 0
17, 13, 0
17, 15, 0
17, 10, 0
17, 9, 0
3, 19, 0
3, 8, 0
3, 5, 0
3, 11, 0
16, 0, 0
16, 12, 0
16, 7, 0
6, 4, 0
6, 9, 0
8, 3, 0
8, 13, 0
8, 14, 0
8, 2, 0
8, 5, 0
8, 11, 0
8, 1, 0
5, 7, 0
5, 3, 0
5, 19, 0
5, 8, 0
5, 11, 0
11, 7, 0
11, 12, 0
11, 3, 0
11, 19, 0
11, 8, 0
11, 5, 0
10, 18, 0
10, 15, 0
10, 14, 0
10, 17, 0
7, 16, 0
7, 12, 0
7, 19, 0
7, 5, 0
7, 11, 0
12, 0, 0
12, 16, 0
12, 7, 0
12, 11, 0
4, 6, 0
4, 15, 0
4, 9, 0
14, 13, 0
14, 2, 0
14, 18, 0
14, 8, 0
14, 15, 0
14, 10, 0
2, 13, 0
2, 8, 0
2, 14, 0
2, 1, 1
19, 7, 0
19, 3, 0
19, 5, 0
19, 11, 0
1, 8, 0
1, 13, 0
1, 2, 1
15, 4, 0
15, 14, 0
15, 18, 0
15, 17, 0
15, 10, 0
15, 9, 0
18, 13, 0
18, 14, 0
18, 17, 0
18, 9, 0
18, 15, 0
18, 10, 0
9, 18, 0
9, 6, 0
9, 4, 0
9, 15, 0
9, 17, 0
