2, 20, 0
2, 7, 0
2, 13, 0
2, 25, 0
2, 4, 0
2, 29, 0
2, 18, 0
13, 7, 0
13, 20, 0
13, 4, 0
13, 2, 0
13, 18, 0
13, 29, 0
13, 11, 0
17, 0, 0
17, 9, 0
17, 5, 0
17, 10, 0
23, 3, 0
23, 14, 0
23, 26, 0
23, 24, 1
23, 18, 0
23, 8, 0
23, 22, 1
23, 12, 0
29, 7, 0
29, 4, 0
29, 13, 0
29, 2, 0
5, 17, 0
5, 9, 0
5, 15, 0
5, 10, 0
11, 18, 0
11, 13, 0
1, 27, 0
1, 28, 0
1, 12, 0
20, 16, 0
20, 7, 0
20, 13, 0
20, 4, 0
20, 2, 0
4, 20, 0
4, 7, 0
4, 2, 0
4, 13, 0
4, 29, 0
14, 25, 0
14, 23, 0
14, 26, 0
14, 24, 0
14, 6, 0
14, 8, 0
14, 22, 0
24, 3, 0
24, 14, 0
24, 23, 1
24, 26, 0
24, 12, 0
24, 6, 0
24, 8, 0
28, 27, 1
28, 12, 0
28, 1, 0
8, 3, 0
8, 14, 0
8, 26, 0
8, 23, 0
8, 24, 0
8, 6, 0
8, 22, 0
15, 5, 0
15, 9, 0
22, 3, 0
22, 14, 0
22, 26, 0
22, 23, 1
22, 12, 0
22, 18, 0
22, 6, 0
22, 8, 0
0, 21, 0
0, 17, 0
12, 3, 0
12, 28, 0
12, 26, 0
12, 23, 0
12, 24, 0
12, 6, 0
12, 27, 0
12, 22, 0
12, 1, 0
16, 20, 0
16, 19, 0
6, 3, 0
6, 14, 0
6, 26, 0
6, 24, 0
6, 8, 0
6, 22, 0
6, 12, 0
10, 17, 0
10, 5, 0
10, 9, 1
7, 20, 0
7, 2, 0
7, 13, 0
7, 4, 0
7, 29, 0
3, 12, 0
3, 26, 0
3, 23, 0
3, 24, 0
3, 18, 0
3, 6, 0
3, 8, 0
3, 22, 0
25, 18, 0
25, 14, 0
25, 26, 0
25, 2, 0
26, 3, 0
26, 6, 0
26, 14, 0
26, 23, 0
26, 24, 0
26, 18, 0
26, 25, 0
26, 8, 0
26, 22, 0
26, 12, 0
27, 12, 0
27, 28, 1
27, 1, 0
21, 0, 0
21, 19, 0
19, 16, 0
19, 21, 0
18, 11, 0
18, 3, 0
18, 13, 0
18, 25, 0
18, 26, 0
18, 23, 0
18, 2, 0
18, 22, 0
9, 15, 0
9, 17, 0
9, 5, 0
9, 10, 1
