0, 6, 0
0, 1, 0
0, 12, 0
0, 5, 0
0, 2, 0
8, 7, 1
8, 12, 0
8, 10, 0
8, 1, 0
3, 4, 1
3, 11, 0
3, 2, 0
6, 0, 0
6, 5, 1
6, 1, 0
5, 0, 0
5, 6, 1
5, 7, 0
5, 12, 0
5, 1, 0
11, 2, 0
11, 3, 0
11, 4, 0
11, 9, 0
10, 7, 0
10, 12, 0
10, 8, 0
10, 1, 0
7, 12, 0
7, 8, 1
7, 5, 0
7, 10, 0
7, 1, 0
12, 0, 0
12, 7, 0
12, 10, 0
12, 8, 0
12, 5, 0
12, 1, 0
4, 3, 1
4, 2, 0
4, 11, 0
4, 1, 0
2, 0, 0
2, 3, 0
2, 4, 0
2, 11, 0
1, 0, 0
1, 12, 0
1, 7, 0
1, 4, 0
1, 6, 0
1, 8, 0
1, 5, 0
1, 10, 0
9, 11, 0
