13, 0, 0
13, 12, 1
13, 17, 0
13, 6, 0
13, 28, 0
13, 9, 0
17, 12, 0
17, 13, 0
17, 14, 0
17, 21, 0
17, 28, 0
17, 15, 0
17, 5, 0
17, 11, 0
17, 9, 0
23, 0, 0
23, 3, 0
23, 2, 0
23, 21, 0
23, 6, 0
23, 22, 1
23, 27, 0
2, 0, 0
2, 3, 1
2, 23, 0
2, 6, 0
2, 21, 0
2, 27, 0
2, 22, 0
5, 4, 0
5, 17, 0
5, 24, 0
5, 18, 0
5, 14, 0
5, 8, 0
5, 15, 0
5, 11, 0
5, 9, 0
11, 17, 0
11, 18, 0
11, 6, 0
11, 5, 0
11, 10, 0
11, 4, 0
11, 14, 0
11, 24, 0
11, 21, 0
11, 19, 0
11, 8, 0
11, 15, 0
11, 9, 0
1, 16, 0
1, 7, 0
1, 27, 0
20, 4, 0
20, 25, 0
20, 26, 0
20, 10, 0
4, 20, 0
4, 26, 0
4, 24, 0
4, 18, 0
4, 10, 0
4, 8, 0
4, 5, 0
4, 11, 0
4, 9, 0
14, 15, 1
14, 17, 0
14, 5, 0
14, 11, 0
14, 9, 0
24, 4, 0
24, 26, 0
24, 18, 0
24, 19, 0
24, 8, 0
24, 5, 0
24, 11, 0
24, 9, 0
28, 6, 0
28, 13, 0
28, 17, 0
28, 12, 0
8, 4, 0
8, 24, 0
8, 18, 0
8, 19, 0
8, 5, 0
8, 11, 0
8, 9, 1
15, 14, 1
15, 17, 0
15, 5, 0
15, 11, 0
15, 9, 0
22, 0, 0
22, 3, 0
22, 23, 1
22, 2, 0
22, 21, 0
22, 6, 0
22, 27, 0
0, 3, 0
0, 13, 0
0, 23, 0
0, 2, 0
0, 21, 0
0, 6, 0
0, 22, 0
0, 27, 0
12, 28, 0
12, 13, 1
12, 17, 0
16, 1, 0
6, 0, 0
6, 13, 0
6, 28, 0
6, 22, 0
6, 23, 0
6, 2, 0
6, 21, 0
6, 27, 0
6, 11, 0
10, 20, 0
10, 4, 0
10, 25, 0
10, 26, 0
10, 11, 0
7, 27, 0
7, 1, 0
3, 0, 0
3, 21, 0
3, 22, 0
3, 23, 0
3, 2, 1
25, 20, 0
25, 26, 1
25, 10, 0
26, 20, 0
26, 4, 0
26, 25, 1
26, 24, 0
26, 10, 0
27, 7, 0
27, 0, 0
27, 23, 0
27, 2, 0
27, 21, 0
27, 6, 0
27, 22, 0
27, 1, 0
21, 0, 0
21, 3, 0
21, 17, 0
21, 11, 0
21, 23, 0
21, 6, 0
21, 27, 0
21, 2, 0
21, 22, 0
19, 18, 1
19, 8, 0
19, 9, 0
19, 11, 0
19, 24, 0
18, 4, 0
18, 24, 0
18, 19, 1
18, 8, 0
18, 5, 0
18, 11, 0
18, 9, 0
9, 4, 0
9, 14, 0
9, 24, 0
9, 18, 0
9, 17, 0
9, 19, 0
9, 8, 1
9, 15, 0
9, 5, 0
9, 11, 0
9, 13, 0
