0, 7, 0
0, 6, 0
0, 8, 0
0, 5, 0
3, 1, 0
3, 9, 0
3, 2, 0
4, 9, 0
4, 10, 0
2, 3, 0
2, 9, 0
6, 7, 0
6, 0, 0
6, 5, 1
1, 3, 0
1, 8, 0
8, 0, 0
8, 1, 0
5, 0, 0
5, 7, 0
5, 6, 1
7, 0, 0
7, 6, 0
7, 5, 0
10, 4, 0
10, 9, 0
9, 2, 0
9, 3, 0
9, 4, 0
9, 10, 0
