0, 3, 0
0, 4, 0
0, 9, 0
0, 15, 0
0, 5, 0
0, 10, 0
13, 7, 0
13, 12, 0
13, 11, 0
3, 0, 0
3, 4, 1
3, 15, 0
3, 10, 0
6, 2, 0
6, 8, 0
6, 15, 0
6, 1, 0
8, 6, 0
8, 15, 0
8, 10, 0
8, 14, 0
8, 1, 0
5, 0, 0
5, 12, 0
5, 7, 0
5, 4, 0
5, 9, 0
5, 15, 0
5, 10, 0
11, 7, 0
11, 12, 1
11, 13, 0
10, 0, 0
10, 3, 0
10, 4, 0
10, 14, 0
10, 8, 0
10, 15, 0
10, 5, 0
7, 12, 0
7, 13, 0
7, 5, 0
7, 11, 0
7, 9, 0
12, 7, 0
12, 13, 0
12, 5, 0
12, 11, 1
4, 0, 0
4, 3, 1
4, 15, 0
4, 5, 0
4, 10, 0
14, 8, 0
14, 15, 1
14, 10, 0
2, 6, 0
2, 1, 0
1, 6, 0
1, 8, 0
1, 2, 0
15, 0, 0
15, 3, 0
15, 4, 0
15, 14, 1
15, 6, 0
15, 8, 0
15, 5, 0
15, 10, 0
9, 0, 0
9, 7, 0
9, 5, 0
