13, 12, 1
13, 4, 0
13, 39, 0
13, 5, 0
17, 20, 0
17, 45, 0
17, 14, 0
17, 50, 0
17, 31, 0
17, 29, 0
17, 49, 0
17, 44, 0
23, 54, 0
23, 55, 0
23, 40, 0
23, 32, 0
46, 16, 0
46, 26, 0
46, 30, 0
20, 45, 0
20, 17, 0
20, 50, 0
20, 31, 0
20, 16, 0
20, 49, 0
20, 44, 0
34, 3, 0
34, 4, 0
34, 54, 0
34, 12, 0
34, 15, 0
34, 40, 0
14, 17, 0
14, 44, 0
14, 31, 0
14, 29, 0
24, 0, 0
24, 8, 0
24, 43, 0
24, 35, 0
28, 11, 0
28, 44, 0
28, 51, 0
28, 29, 1
15, 34, 0
15, 4, 0
15, 39, 0
15, 12, 0
41, 33, 0
41, 53, 0
41, 48, 0
41, 27, 0
0, 24, 0
8, 35, 0
8, 9, 0
8, 43, 0
8, 53, 0
8, 24, 0
51, 27, 0
51, 28, 0
51, 44, 0
51, 11, 0
51, 29, 0
3, 7, 0
3, 34, 0
3, 4, 1
3, 6, 0
3, 5, 0
3, 1, 0
38, 18, 0
38, 25, 0
38, 26, 0
38, 2, 0
38, 37, 0
38, 19, 0
47, 37, 0
47, 2, 0
47, 21, 0
47, 10, 0
47, 22, 0
47, 36, 0
10, 21, 0
10, 37, 0
10, 32, 0
10, 47, 0
10, 36, 0
7, 6, 1
7, 1, 0
7, 4, 0
7, 5, 0
7, 3, 0
33, 27, 0
33, 41, 0
33, 11, 0
53, 41, 0
53, 43, 0
53, 48, 0
53, 42, 0
53, 8, 0
53, 52, 1
53, 9, 0
32, 21, 0
32, 55, 0
32, 23, 0
32, 10, 0
2, 18, 0
2, 25, 0
2, 26, 0
2, 37, 0
2, 19, 0
2, 38, 0
2, 47, 0
21, 47, 0
21, 32, 0
21, 37, 0
21, 19, 0
21, 36, 0
21, 22, 1
21, 10, 0
52, 42, 0
52, 53, 1
52, 43, 0
52, 48, 0
52, 9, 0
19, 37, 0
19, 4, 0
19, 25, 0
19, 26, 0
19, 2, 0
19, 21, 0
19, 38, 0
19, 18, 1
19, 36, 0
49, 20, 0
49, 45, 0
49, 17, 0
49, 50, 1
49, 31, 0
49, 44, 0
49, 11, 0
48, 43, 0
48, 9, 0
48, 42, 0
48, 53, 0
48, 52, 0
48, 41, 0
31, 20, 0
31, 45, 0
31, 17, 0
31, 50, 0
31, 29, 0
31, 14, 0
31, 49, 0
31, 44, 0
31, 11, 0
39, 12, 0
39, 13, 0
39, 15, 0
39, 5, 0
39, 4, 0
29, 17, 0
29, 14, 0
29, 31, 0
29, 51, 0
29, 28, 1
29, 44, 0
29, 11, 0
29, 50, 0
40, 34, 0
40, 55, 0
40, 54, 0
40, 23, 0
11, 33, 0
11, 28, 0
11, 51, 0
11, 31, 0
11, 29, 0
11, 49, 0
11, 44, 0
5, 7, 0
5, 3, 0
5, 13, 0
5, 4, 0
5, 12, 0
5, 6, 0
5, 39, 0
5, 1, 0
37, 21, 0
37, 25, 0
37, 26, 0
37, 2, 0
37, 18, 0
37, 19, 0
37, 10, 0
37, 38, 0
37, 47, 0
37, 36, 0
4, 7, 0
4, 3, 1
4, 13, 0
4, 34, 0
4, 15, 0
4, 6, 0
4, 19, 0
4, 39, 0
4, 5, 0
4, 1, 0
35, 42, 0
35, 8, 0
35, 43, 0
35, 24, 0
30, 16, 0
30, 46, 0
42, 43, 0
42, 35, 0
42, 52, 0
42, 53, 0
42, 48, 0
42, 9, 0
22, 21, 1
22, 47, 0
22, 36, 0
36, 21, 0
36, 47, 0
36, 37, 0
36, 19, 0
36, 22, 0
36, 10, 0
25, 18, 0
25, 26, 0
25, 2, 0
25, 37, 0
25, 19, 0
25, 38, 0
45, 20, 0
45, 49, 0
45, 17, 0
45, 50, 0
45, 31, 0
16, 20, 0
16, 46, 0
16, 50, 0
16, 30, 0
27, 33, 0
27, 41, 0
27, 51, 0
1, 7, 0
1, 3, 0
1, 4, 0
1, 5, 0
1, 6, 0
55, 54, 0
55, 40, 0
55, 32, 0
55, 23, 0
44, 20, 0
44, 14, 0
44, 31, 0
44, 51, 0
44, 29, 0
44, 28, 0
44, 49, 0
44, 17, 0
44, 11, 0
12, 15, 0
12, 13, 1
12, 39, 0
12, 5, 0
12, 34, 0
18, 25, 0
18, 26, 0
18, 2, 0
18, 37, 0
18, 19, 1
18, 38, 0
54, 34, 0
54, 55, 0
54, 40, 0
54, 23, 0
50, 20, 0
50, 45, 0
50, 17, 0
50, 31, 0
50, 29, 0
50, 16, 0
50, 49, 1
26, 18, 0
26, 25, 0
26, 2, 0
26, 37, 0
26, 19, 0
26, 38, 0
26, 46, 0
6, 7, 1
6, 3, 0
6, 4, 0
6, 5, 0
6, 1, 0
43, 35, 0
43, 53, 0
43, 52, 0
43, 24, 0
43, 42, 0
43, 8, 0
43, 48, 0
43, 9, 0
9, 53, 0
9, 43, 0
9, 42, 0
9, 8, 0
9, 52, 0
9, 48, 0
