2, 3, 0
2, 9, 0
2, 14, 0
2, 5, 0
2, 12, 0
13, 20, 0
13, 3, 0
13, 14, 0
13, 35, 0
17, 18, 1
17, 19, 0
17, 31, 0
17, 11, 0
17, 32, 0
31, 0, 0
31, 17, 0
31, 32, 0
31, 18, 0
31, 19, 0
31, 11, 0
23, 6, 0
23, 4, 0
23, 35, 0
24, 6, 0
24, 25, 0
24, 26, 0
5, 3, 0
5, 8, 0
5, 9, 0
5, 2, 0
11, 18, 0
11, 19, 0
11, 17, 0
11, 31, 0
11, 32, 0
1, 21, 0
1, 3, 0
1, 8, 0
1, 10, 0
20, 29, 0
20, 13, 0
20, 14, 0
20, 35, 0
34, 7, 0
34, 33, 0
34, 10, 0
4, 35, 0
4, 23, 0
4, 29, 0
14, 20, 0
14, 12, 0
14, 29, 0
14, 13, 0
14, 2, 0
35, 20, 0
35, 13, 0
35, 23, 0
35, 29, 0
35, 6, 0
35, 4, 0
28, 16, 0
28, 27, 1
28, 0, 0
28, 30, 0
30, 0, 0
30, 25, 0
30, 28, 0
30, 16, 0
30, 27, 0
30, 15, 0
8, 3, 0
8, 21, 0
8, 10, 0
8, 5, 0
8, 22, 0
8, 1, 0
15, 0, 0
15, 25, 0
15, 32, 0
15, 30, 0
22, 3, 0
22, 8, 0
22, 9, 0
0, 28, 0
0, 32, 0
0, 31, 0
0, 16, 0
0, 15, 0
0, 30, 0
3, 13, 0
3, 9, 0
3, 2, 0
3, 21, 0
3, 8, 0
3, 5, 0
3, 22, 0
3, 1, 0
16, 0, 0
16, 25, 0
16, 28, 0
16, 26, 0
16, 27, 0
16, 30, 0
27, 16, 0
27, 25, 0
27, 28, 1
27, 30, 0
10, 21, 0
10, 34, 0
10, 8, 0
10, 33, 0
10, 1, 0
7, 34, 0
12, 14, 0
12, 2, 0
25, 26, 1
25, 24, 0
25, 16, 0
25, 6, 0
25, 27, 0
25, 15, 0
25, 30, 0
33, 34, 0
33, 10, 0
32, 0, 0
32, 17, 0
32, 31, 0
32, 19, 0
32, 15, 0
32, 11, 0
6, 35, 0
6, 25, 0
6, 23, 0
6, 24, 0
21, 3, 0
21, 8, 0
21, 10, 0
21, 1, 0
29, 20, 0
29, 4, 0
29, 14, 0
29, 35, 0
19, 18, 0
19, 17, 0
19, 31, 0
19, 11, 0
19, 32, 0
26, 16, 0
26, 25, 1
26, 24, 0
18, 19, 0
18, 17, 1
18, 31, 0
18, 11, 0
9, 3, 0
9, 5, 0
9, 22, 0
9, 2, 0
