13, 0, 0
13, 43, 0
13, 29, 0
13, 14, 1
13, 40, 0
13, 47, 0
13, 36, 0
17, 28, 0
17, 33, 0
17, 38, 0
17, 25, 0
17, 32, 0
17, 31, 0
17, 16, 0
17, 6, 0
17, 8, 0
17, 39, 0
17, 11, 0
23, 34, 0
23, 26, 0
23, 24, 1
23, 18, 0
23, 42, 0
23, 2, 0
23, 46, 0
23, 41, 0
42, 34, 0
42, 26, 0
42, 23, 0
42, 24, 0
42, 18, 0
42, 2, 0
42, 41, 0
42, 47, 0
42, 46, 0
46, 34, 0
46, 25, 0
46, 23, 0
46, 26, 0
46, 45, 0
46, 42, 0
46, 24, 0
46, 41, 0
46, 22, 0
46, 30, 0
20, 4, 0
20, 35, 0
20, 37, 0
20, 27, 0
20, 1, 0
20, 29, 0
20, 40, 0
20, 47, 0
20, 36, 0
14, 0, 0
14, 45, 0
14, 13, 1
14, 43, 0
14, 29, 0
14, 40, 0
14, 47, 0
14, 36, 0
24, 23, 1
24, 26, 0
24, 2, 0
24, 18, 0
24, 42, 0
24, 46, 0
24, 22, 0
24, 41, 0
28, 33, 0
28, 17, 0
28, 32, 0
28, 31, 0
28, 16, 0
28, 25, 0
28, 8, 0
28, 30, 0
39, 38, 1
39, 17, 0
41, 34, 0
41, 23, 0
41, 26, 0
41, 24, 0
41, 18, 0
41, 42, 0
41, 2, 0
41, 46, 0
0, 45, 0
0, 43, 0
0, 13, 0
0, 25, 0
0, 14, 0
0, 40, 0
0, 22, 0
0, 36, 0
8, 11, 0
8, 33, 0
8, 25, 0
8, 31, 0
8, 32, 0
8, 6, 0
8, 16, 0
8, 28, 0
8, 17, 0
8, 30, 0
34, 45, 0
34, 23, 0
34, 44, 0
34, 11, 0
34, 46, 0
34, 12, 0
34, 25, 0
34, 47, 0
34, 26, 0
34, 2, 0
34, 42, 0
34, 19, 0
34, 41, 0
34, 22, 0
15, 21, 0
15, 3, 0
15, 18, 0
15, 22, 0
15, 47, 0
47, 2, 0
47, 13, 0
47, 34, 0
47, 18, 0
47, 35, 0
47, 40, 0
47, 20, 0
47, 3, 0
47, 14, 0
47, 29, 0
47, 21, 0
47, 42, 0
47, 15, 0
47, 36, 0
10, 4, 0
10, 9, 0
10, 35, 0
10, 37, 0
10, 27, 0
10, 1, 0
10, 30, 0
7, 6, 1
7, 25, 0
7, 32, 0
7, 33, 0
3, 18, 0
3, 15, 0
3, 22, 0
3, 47, 0
32, 7, 0
32, 33, 1
32, 28, 0
32, 31, 0
32, 16, 0
32, 6, 0
32, 8, 0
32, 25, 0
32, 17, 0
32, 30, 0
2, 34, 0
2, 11, 0
2, 23, 0
2, 24, 0
2, 18, 0
2, 42, 0
2, 35, 0
2, 41, 0
2, 47, 0
21, 15, 0
21, 47, 0
21, 36, 0
33, 7, 0
33, 25, 0
33, 28, 0
33, 32, 1
33, 31, 0
33, 16, 0
33, 6, 0
33, 8, 0
33, 17, 0
33, 30, 0
19, 34, 0
19, 44, 0
19, 12, 0
18, 3, 0
18, 22, 0
18, 23, 0
18, 24, 0
18, 42, 0
18, 2, 0
18, 15, 0
18, 41, 0
18, 47, 0
31, 33, 0
31, 25, 0
31, 32, 0
31, 16, 0
31, 28, 0
31, 8, 0
31, 17, 0
31, 30, 0
29, 20, 0
29, 45, 0
29, 13, 0
29, 14, 0
29, 35, 0
29, 27, 0
29, 40, 0
29, 47, 0
29, 36, 0
40, 20, 0
40, 0, 0
40, 13, 0
40, 14, 0
40, 29, 0
40, 43, 0
40, 47, 0
40, 36, 0
11, 34, 0
11, 35, 0
11, 17, 0
11, 2, 0
11, 16, 0
11, 8, 0
11, 30, 0
5, 4, 0
5, 35, 0
5, 37, 0
5, 30, 0
5, 9, 0
5, 1, 0
37, 20, 0
37, 45, 0
37, 4, 0
37, 35, 0
37, 27, 0
37, 30, 0
37, 1, 0
37, 5, 0
37, 10, 0
37, 9, 0
4, 20, 0
4, 9, 0
4, 35, 0
4, 37, 0
4, 27, 0
4, 30, 0
4, 5, 0
4, 10, 0
4, 1, 0
35, 20, 0
35, 4, 0
35, 11, 0
35, 29, 0
35, 37, 0
35, 27, 0
35, 1, 0
35, 2, 0
35, 5, 0
35, 47, 0
35, 10, 0
30, 28, 0
30, 31, 0
30, 6, 0
30, 1, 0
30, 46, 0
30, 11, 0
30, 5, 0
30, 33, 0
30, 4, 0
30, 25, 0
30, 32, 0
30, 27, 0
30, 37, 0
30, 8, 0
30, 10, 0
30, 22, 0
38, 39, 1
38, 17, 0
22, 0, 0
22, 3, 0
22, 45, 0
22, 43, 0
22, 24, 0
22, 18, 0
22, 25, 0
22, 34, 0
22, 15, 0
22, 46, 0
22, 30, 0
36, 20, 0
36, 0, 0
36, 13, 0
36, 14, 0
36, 29, 0
36, 21, 0
36, 43, 0
36, 40, 0
36, 47, 0
45, 0, 0
45, 34, 0
45, 14, 0
45, 29, 0
45, 37, 0
45, 27, 0
45, 46, 0
45, 22, 0
45, 9, 0
16, 33, 0
16, 28, 0
16, 31, 0
16, 32, 0
16, 6, 0
16, 8, 0
16, 17, 0
16, 11, 0
27, 20, 0
27, 45, 0
27, 4, 0
27, 30, 0
27, 35, 0
27, 37, 0
27, 1, 0
27, 29, 0
27, 10, 0
27, 9, 0
1, 20, 0
1, 4, 0
1, 9, 0
1, 35, 0
1, 37, 0
1, 27, 0
1, 10, 0
1, 5, 0
1, 30, 0
44, 12, 0
44, 19, 0
44, 34, 0
12, 34, 0
12, 19, 0
12, 44, 0
25, 0, 0
25, 28, 0
25, 31, 0
25, 34, 0
25, 6, 0
25, 46, 0
25, 30, 0
25, 7, 0
25, 33, 0
25, 32, 0
25, 17, 0
25, 8, 0
25, 22, 0
26, 34, 0
26, 23, 0
26, 24, 0
26, 42, 0
26, 41, 0
26, 46, 0
6, 7, 1
6, 33, 0
6, 17, 0
6, 32, 0
6, 16, 0
6, 25, 0
6, 8, 0
6, 30, 0
43, 0, 0
43, 13, 0
43, 14, 0
43, 40, 0
43, 22, 0
43, 36, 0
9, 45, 0
9, 4, 0
9, 37, 0
9, 27, 0
9, 1, 0
9, 5, 0
9, 10, 0
