0, 3, 0
0, 4, 0
0, 13, 0
0, 5, 0
0, 10, 0
13, 0, 0
13, 12, 0
13, 9, 0
13, 2, 0
13, 8, 0
13, 10, 0
13, 11, 0
13, 1, 0
3, 0, 0
3, 4, 1
3, 5, 0
6, 12, 0
6, 10, 0
6, 11, 0
6, 9, 0
8, 2, 0
8, 13, 0
8, 10, 0
8, 1, 0
5, 0, 0
5, 7, 0
5, 4, 0
5, 10, 0
5, 3, 0
11, 6, 0
11, 13, 0
11, 9, 0
11, 10, 0
11, 2, 0
10, 7, 0
10, 12, 0
10, 13, 0
10, 9, 0
10, 2, 0
10, 6, 0
10, 8, 0
10, 0, 0
10, 5, 0
10, 11, 0
10, 1, 0
7, 12, 0
7, 5, 0
7, 10, 0
12, 7, 0
12, 13, 0
12, 4, 0
12, 6, 0
12, 9, 0
12, 10, 0
4, 0, 0
4, 3, 1
4, 5, 0
4, 12, 0
2, 8, 0
2, 13, 0
2, 10, 0
2, 11, 0
2, 1, 0
1, 2, 0
1, 8, 0
1, 13, 0
1, 10, 0
9, 12, 0
9, 13, 0
9, 10, 0
9, 11, 0
9, 6, 0
