0, 7, 0
0, 4, 0
0, 1, 0
13, 17, 0
13, 18, 0
13, 6, 0
13, 5, 0
13, 10, 0
13, 7, 0
13, 3, 0
13, 4, 0
13, 14, 0
13, 2, 0
13, 19, 0
13, 1, 0
13, 9, 0
17, 7, 0
17, 13, 0
17, 15, 0
17, 9, 0
3, 16, 0
3, 12, 0
3, 13, 0
3, 11, 0
3, 9, 0
16, 3, 0
16, 8, 0
6, 18, 0
6, 19, 0
6, 13, 0
6, 14, 0
8, 16, 0
8, 2, 0
5, 13, 0
5, 10, 0
5, 1, 0
11, 12, 1
11, 9, 0
11, 3, 0
10, 19, 0
10, 13, 0
10, 5, 0
10, 1, 0
7, 0, 0
7, 13, 0
7, 17, 0
7, 4, 0
12, 3, 0
12, 11, 1
12, 9, 0
4, 0, 0
4, 7, 0
4, 13, 0
4, 1, 0
14, 18, 0
14, 6, 0
14, 13, 0
2, 8, 0
2, 13, 0
19, 6, 0
19, 13, 0
19, 10, 0
1, 0, 0
1, 13, 0
1, 5, 0
1, 4, 0
1, 10, 0
15, 17, 0
15, 9, 0
18, 6, 0
18, 13, 0
18, 14, 0
9, 12, 0
9, 13, 0
9, 17, 0
9, 3, 0
9, 15, 0
9, 11, 0
