13, 0, 0
13, 4, 0
13, 1, 0
17, 25, 0
17, 23, 0
23, 7, 0
23, 36, 0
23, 30, 0
23, 17, 0
23, 29, 0
42, 18, 0
42, 26, 0
42, 35, 0
42, 37, 0
42, 19, 0
42, 39, 0
42, 5, 0
42, 36, 0
46, 20, 0
46, 45, 1
46, 14, 0
46, 31, 0
46, 34, 0
46, 22, 0
46, 9, 0
20, 3, 0
20, 14, 0
20, 31, 0
20, 45, 0
20, 46, 0
20, 22, 0
20, 30, 0
14, 20, 0
14, 3, 0
14, 46, 0
14, 22, 0
24, 21, 0
24, 0, 0
24, 1, 0
28, 16, 0
28, 34, 0
39, 18, 0
39, 42, 0
39, 19, 0
39, 44, 0
39, 33, 0
41, 9, 0
41, 2, 0
41, 6, 0
41, 30, 0
41, 8, 0
41, 10, 0
0, 13, 0
0, 25, 0
0, 4, 0
0, 24, 0
0, 21, 0
0, 30, 0
0, 36, 0
0, 1, 1
8, 2, 0
8, 41, 0
8, 9, 1
12, 15, 0
12, 4, 0
12, 43, 0
12, 11, 1
15, 12, 0
15, 4, 0
15, 11, 0
15, 36, 0
10, 6, 0
10, 9, 0
10, 43, 0
10, 41, 0
10, 30, 0
7, 23, 0
7, 29, 0
3, 20, 0
3, 34, 0
3, 14, 0
3, 31, 0
3, 16, 0
3, 22, 0
3, 30, 0
32, 27, 0
32, 35, 0
32, 38, 0
32, 29, 0
2, 16, 0
2, 8, 0
2, 9, 0
2, 41, 0
2, 30, 0
21, 0, 0
21, 25, 0
21, 24, 0
33, 18, 0
33, 19, 0
33, 39, 0
33, 44, 0
19, 33, 0
19, 26, 0
19, 18, 0
19, 42, 0
19, 39, 0
19, 44, 0
18, 33, 0
18, 19, 0
18, 39, 0
18, 26, 0
18, 42, 0
31, 20, 0
31, 3, 0
31, 45, 0
31, 9, 0
31, 40, 0
31, 46, 0
31, 30, 0
29, 7, 0
29, 23, 0
29, 32, 0
29, 35, 0
29, 36, 0
29, 38, 0
29, 30, 0
40, 34, 0
40, 31, 0
11, 12, 1
11, 43, 0
11, 15, 0
5, 37, 0
5, 42, 0
5, 26, 0
5, 36, 0
37, 26, 0
37, 35, 0
37, 42, 0
37, 36, 0
37, 5, 0
37, 27, 0
4, 0, 0
4, 12, 0
4, 13, 0
4, 15, 0
35, 32, 0
35, 42, 0
35, 37, 0
35, 27, 0
35, 30, 0
35, 29, 0
35, 36, 0
30, 0, 0
30, 2, 0
30, 23, 0
30, 34, 0
30, 16, 0
30, 29, 0
30, 10, 0
30, 20, 0
30, 3, 0
30, 43, 0
30, 31, 0
30, 35, 0
30, 25, 0
30, 41, 0
30, 36, 0
38, 32, 0
38, 29, 0
22, 20, 0
22, 3, 0
22, 14, 0
22, 46, 0
36, 0, 0
36, 43, 0
36, 23, 0
36, 35, 0
36, 37, 0
36, 42, 0
36, 29, 0
36, 15, 0
36, 5, 0
36, 30, 0
45, 20, 0
45, 46, 1
45, 31, 0
16, 34, 0
16, 28, 0
16, 3, 0
16, 2, 0
16, 9, 0
16, 30, 0
27, 37, 0
27, 32, 0
27, 35, 0
1, 0, 1
1, 13, 0
1, 24, 0
44, 33, 0
44, 19, 0
44, 39, 0
34, 3, 0
34, 28, 0
34, 16, 0
34, 9, 0
34, 40, 0
34, 46, 0
34, 30, 0
25, 0, 0
25, 21, 0
25, 17, 0
25, 30, 0
26, 37, 0
26, 42, 0
26, 19, 0
26, 18, 0
26, 5, 0
6, 41, 0
6, 10, 0
43, 12, 0
43, 9, 0
43, 30, 0
43, 10, 0
43, 11, 0
43, 36, 0
9, 34, 0
9, 43, 0
9, 31, 0
9, 2, 0
9, 16, 0
9, 10, 0
9, 8, 1
9, 41, 0
9, 46, 0
