0, 7, 0
0, 3, 0
0, 2, 0
0, 10, 0
0, 6, 0
3, 0, 0
3, 7, 0
3, 4, 0
3, 2, 1
3, 6, 0
3, 8, 0
3, 5, 0
3, 10, 0
3, 9, 0
4, 3, 0
4, 9, 0
4, 2, 0
4, 10, 0
4, 8, 0
4, 5, 0
4, 1, 0
2, 0, 0
2, 3, 1
2, 4, 0
2, 6, 0
2, 8, 0
2, 7, 0
2, 10, 0
2, 9, 0
6, 0, 0
6, 3, 0
6, 7, 1
6, 10, 0
6, 2, 0
1, 4, 0
1, 5, 0
8, 2, 0
8, 3, 0
8, 4, 0
8, 9, 1
5, 7, 0
5, 3, 0
5, 1, 0
5, 4, 0
5, 9, 0
7, 0, 0
7, 3, 0
7, 2, 0
7, 6, 1
7, 5, 0
7, 10, 0
10, 0, 0
10, 3, 0
10, 4, 0
10, 2, 0
10, 6, 0
10, 7, 0
9, 3, 0
9, 8, 1
9, 5, 0
9, 4, 0
9, 2, 0
