0, 16, 0
0, 12, 0
0, 11, 0
13, 6, 0
13, 4, 0
13, 5, 0
13, 2, 0
3, 16, 0
3, 7, 0
16, 0, 0
16, 12, 0
16, 7, 0
16, 3, 0
16, 11, 0
16, 10, 0
6, 13, 0
6, 4, 0
6, 2, 0
8, 7, 0
8, 14, 0
8, 2, 0
8, 1, 0
8, 10, 0
8, 9, 0
5, 13, 0
5, 15, 0
5, 4, 0
11, 0, 0
11, 12, 1
11, 16, 0
11, 7, 0
11, 10, 0
10, 7, 0
10, 12, 0
10, 16, 0
10, 8, 0
10, 11, 0
10, 1, 0
7, 3, 0
7, 14, 0
7, 9, 0
7, 16, 0
7, 8, 0
7, 11, 0
7, 10, 0
12, 0, 0
12, 16, 0
12, 11, 1
12, 10, 0
4, 6, 0
4, 13, 0
4, 15, 0
4, 5, 0
4, 2, 0
14, 7, 0
14, 2, 0
14, 8, 0
14, 9, 0
2, 13, 0
2, 14, 0
2, 4, 0
2, 6, 0
2, 8, 0
2, 15, 0
1, 8, 0
1, 10, 0
1, 9, 0
15, 4, 0
15, 9, 0
15, 5, 0
15, 2, 0
9, 7, 0
9, 15, 0
9, 8, 0
9, 14, 0
9, 1, 0
