0, 8, 0
0, 5, 0
0, 9, 0
8, 0, 0
8, 5, 0
8, 11, 0
3, 7, 0
3, 4, 0
3, 2, 1
6, 7, 0
6, 10, 0
6, 9, 0
5, 0, 0
5, 8, 0
5, 11, 0
5, 1, 0
11, 8, 0
11, 5, 0
10, 7, 0
10, 6, 0
10, 9, 0
7, 3, 0
7, 4, 0
7, 2, 0
7, 6, 0
7, 9, 0
7, 10, 0
12, 1, 0
4, 7, 0
4, 3, 0
4, 2, 0
2, 7, 0
2, 3, 1
2, 4, 0
1, 12, 0
1, 5, 0
9, 0, 0
9, 6, 0
9, 7, 0
9, 10, 0
