13, 19, 0
13, 31, 0
13, 23, 0
13, 9, 0
17, 6, 0
17, 32, 0
31, 19, 0
31, 8, 0
31, 13, 0
31, 26, 0
23, 20, 0
23, 7, 0
23, 13, 0
23, 28, 0
23, 9, 0
10, 27, 0
2, 6, 0
2, 4, 0
2, 11, 0
5, 3, 0
5, 14, 0
5, 24, 0
5, 21, 0
5, 25, 0
5, 15, 0
5, 1, 0
11, 20, 0
11, 6, 0
11, 2, 0
11, 29, 0
1, 0, 0
1, 25, 0
1, 14, 0
1, 32, 0
1, 24, 0
1, 16, 0
1, 6, 0
1, 15, 0
1, 5, 0
20, 28, 0
20, 26, 0
20, 23, 0
20, 18, 0
20, 8, 0
20, 11, 0
20, 9, 0
4, 12, 0
4, 6, 0
4, 2, 0
4, 22, 0
4, 29, 0
14, 25, 0
14, 24, 0
14, 15, 1
14, 5, 0
14, 1, 0
24, 25, 1
24, 14, 0
24, 15, 0
24, 5, 0
24, 1, 0
28, 20, 0
28, 7, 0
28, 23, 0
28, 9, 0
30, 21, 0
30, 27, 0
30, 3, 0
8, 20, 0
8, 19, 0
8, 31, 0
8, 26, 0
15, 25, 0
15, 24, 0
15, 14, 1
15, 5, 0
15, 1, 0
22, 7, 0
22, 12, 0
22, 4, 0
22, 29, 0
22, 18, 0
22, 6, 0
0, 16, 0
0, 32, 0
0, 1, 0
12, 18, 0
12, 4, 0
12, 22, 0
12, 29, 0
16, 0, 0
16, 6, 0
16, 32, 0
16, 1, 0
6, 4, 0
6, 17, 0
6, 11, 0
6, 32, 0
6, 2, 0
6, 16, 0
6, 29, 0
6, 22, 0
6, 1, 0
27, 3, 0
27, 10, 0
27, 30, 0
7, 18, 0
7, 28, 0
7, 22, 0
7, 23, 0
3, 21, 0
3, 27, 0
3, 5, 0
3, 30, 0
25, 15, 0
25, 1, 0
25, 14, 0
25, 5, 0
25, 24, 1
32, 16, 0
32, 0, 0
32, 1, 0
32, 17, 0
32, 6, 0
29, 12, 0
29, 4, 0
29, 22, 0
29, 11, 0
29, 6, 0
21, 3, 0
21, 5, 0
21, 30, 0
26, 20, 0
26, 8, 0
26, 31, 0
19, 8, 0
19, 13, 0
19, 31, 0
18, 20, 0
18, 12, 0
18, 7, 0
18, 22, 0
9, 20, 0
9, 13, 0
9, 28, 0
9, 23, 0
