0, 6, 0
0, 9, 0
3, 7, 0
3, 6, 0
3, 4, 0
3, 5, 0
4, 3, 0
4, 6, 0
4, 1, 0
2, 7, 0
2, 6, 0
2, 5, 0
6, 7, 0
6, 3, 0
6, 4, 0
6, 2, 0
6, 5, 0
6, 0, 0
1, 8, 0
1, 4, 0
8, 1, 0
8, 9, 0
5, 7, 0
5, 6, 0
5, 3, 0
5, 2, 0
7, 3, 0
7, 6, 0
7, 5, 0
7, 2, 0
9, 0, 0
9, 8, 0
