0, 6, 0
0, 4, 0
0, 10, 0
3, 8, 0
3, 5, 0
4, 0, 0
4, 10, 0
2, 7, 0
6, 0, 0
6, 5, 0
6, 9, 0
1, 5, 0
1, 9, 0
8, 7, 0
8, 3, 0
8, 5, 0
5, 3, 0
5, 1, 0
5, 8, 0
5, 9, 0
5, 6, 0
7, 8, 0
7, 2, 0
10, 0, 0
10, 4, 0
9, 6, 0
9, 5, 0
9, 1, 0
