0, 7, 0
0, 6, 0
0, 1, 0
3, 8, 0
3, 5, 0
3, 4, 0
4, 3, 0
4, 8, 0
4, 2, 0
7, 0, 0
7, 6, 1
7, 5, 0
7, 1, 0
2, 4, 0
6, 0, 0
6, 7, 1
6, 1, 0
8, 3, 0
8, 4, 0
8, 5, 0
5, 7, 0
5, 3, 0
5, 8, 0
5, 1, 0
1, 0, 0
1, 7, 0
1, 5, 0
1, 6, 0
