0, 13, 0
0, 15, 0
13, 0, 0
13, 7, 0
13, 14, 0
13, 10, 0
17, 12, 0
17, 1, 0
17, 3, 0
17, 11, 0
17, 2, 0
3, 2, 1
3, 17, 0
3, 1, 0
16, 7, 0
16, 6, 0
16, 14, 0
16, 10, 0
6, 16, 0
6, 1, 0
8, 4, 0
8, 15, 0
8, 5, 0
8, 9, 0
5, 8, 0
5, 4, 0
5, 9, 0
11, 12, 0
11, 17, 0
10, 7, 0
10, 16, 0
10, 13, 0
10, 14, 0
7, 16, 0
7, 13, 0
7, 14, 0
7, 10, 0
12, 17, 0
12, 11, 0
4, 8, 0
4, 15, 0
4, 5, 0
4, 9, 0
14, 7, 0
14, 16, 0
14, 13, 0
14, 10, 0
2, 3, 1
2, 17, 0
2, 1, 0
1, 6, 0
1, 2, 0
1, 17, 0
1, 3, 0
15, 0, 0
15, 8, 0
15, 4, 0
15, 9, 0
9, 8, 0
9, 15, 0
9, 5, 0
9, 4, 0
