12, 0, 0
12, 30, 0
12, 13, 0
12, 31, 0
12, 10, 0
13, 0, 0
13, 12, 0
13, 10, 0
13, 9, 0
17, 37, 0
17, 34, 0
17, 7, 0
17, 25, 0
17, 11, 0
31, 7, 0
31, 37, 0
31, 3, 0
31, 23, 0
31, 12, 0
31, 18, 0
31, 24, 0
31, 11, 0
31, 10, 0
31, 20, 0
31, 34, 0
31, 4, 0
31, 14, 0
31, 9, 0
31, 35, 0
31, 2, 0
31, 25, 0
31, 19, 0
31, 8, 0
31, 22, 0
31, 36, 0
23, 7, 0
23, 34, 0
23, 4, 0
23, 25, 0
23, 31, 0
23, 37, 0
23, 14, 0
23, 19, 0
23, 8, 0
23, 11, 0
24, 16, 0
24, 3, 0
24, 31, 0
40, 34, 0
40, 26, 0
40, 32, 0
40, 35, 0
40, 21, 0
40, 11, 0
40, 36, 0
5, 7, 0
5, 34, 0
5, 4, 1
5, 25, 0
5, 26, 0
5, 35, 0
5, 37, 0
5, 19, 0
5, 8, 0
11, 34, 0
11, 4, 0
11, 17, 0
11, 31, 0
11, 23, 0
11, 37, 0
11, 14, 0
11, 40, 0
11, 26, 0
11, 36, 0
1, 3, 0
1, 9, 0
1, 2, 1
20, 7, 0
20, 4, 0
20, 25, 0
20, 31, 0
20, 19, 1
20, 8, 0
21, 25, 0
21, 40, 0
21, 26, 0
21, 32, 0
21, 36, 0
4, 20, 0
4, 7, 0
4, 25, 0
4, 31, 0
4, 23, 0
4, 37, 0
4, 14, 0
4, 19, 0
4, 8, 0
4, 5, 1
4, 11, 0
14, 4, 0
14, 23, 0
14, 26, 0
14, 31, 0
14, 37, 0
14, 11, 0
39, 33, 0
39, 38, 1
35, 7, 0
35, 34, 0
35, 25, 0
35, 26, 0
35, 32, 0
35, 31, 0
35, 40, 0
35, 5, 0
35, 36, 0
28, 27, 0
28, 30, 0
30, 0, 0
30, 12, 0
30, 28, 0
8, 20, 0
8, 34, 0
8, 4, 0
8, 25, 0
8, 31, 0
8, 23, 0
8, 37, 0
8, 19, 0
8, 7, 1
8, 5, 0
15, 27, 0
15, 6, 0
22, 16, 0
22, 18, 0
22, 31, 0
36, 31, 0
36, 26, 0
36, 35, 0
36, 21, 0
36, 40, 0
36, 11, 0
36, 32, 0
0, 12, 0
0, 13, 0
0, 9, 0
0, 10, 0
0, 30, 0
6, 15, 0
6, 29, 0
38, 33, 0
38, 39, 1
3, 1, 0
3, 24, 0
3, 9, 0
3, 31, 0
3, 2, 0
16, 22, 0
16, 24, 0
27, 15, 0
27, 28, 0
10, 0, 0
10, 12, 0
10, 13, 0
10, 31, 0
10, 9, 0
7, 17, 0
7, 26, 0
7, 23, 0
7, 5, 0
7, 20, 0
7, 34, 0
7, 4, 0
7, 25, 0
7, 31, 0
7, 35, 0
7, 37, 0
7, 19, 0
7, 8, 1
34, 7, 0
34, 17, 0
34, 31, 0
34, 23, 0
34, 35, 0
34, 37, 0
34, 25, 0
34, 8, 0
34, 40, 0
34, 5, 0
34, 11, 0
25, 7, 0
25, 17, 0
25, 26, 0
25, 23, 0
25, 21, 0
25, 5, 0
25, 20, 0
25, 34, 0
25, 4, 0
25, 31, 0
25, 35, 0
25, 37, 0
25, 19, 0
25, 8, 0
33, 39, 0
33, 38, 0
33, 29, 0
32, 21, 0
32, 36, 0
32, 40, 0
32, 26, 0
32, 35, 0
2, 3, 0
2, 9, 0
2, 31, 0
2, 1, 1
37, 17, 0
37, 26, 0
37, 23, 0
37, 5, 0
37, 11, 0
37, 7, 0
37, 34, 0
37, 4, 0
37, 25, 0
37, 31, 0
37, 14, 0
37, 19, 0
37, 8, 0
29, 6, 0
29, 33, 0
19, 20, 1
19, 7, 0
19, 4, 0
19, 25, 0
19, 31, 0
19, 23, 0
19, 37, 0
19, 8, 0
19, 5, 0
26, 7, 0
26, 21, 0
26, 14, 0
26, 32, 0
26, 35, 0
26, 37, 0
26, 25, 0
26, 40, 0
26, 5, 0
26, 11, 0
26, 36, 0
18, 31, 0
18, 22, 0
9, 0, 0
9, 3, 0
9, 13, 0
9, 31, 0
9, 2, 0
9, 10, 0
9, 1, 0
