0, 1, 0
0, 8, 0
0, 5, 0
0, 10, 0
8, 0, 0
8, 5, 0
3, 7, 0
3, 12, 0
3, 4, 0
3, 11, 0
3, 6, 0
6, 7, 0
6, 12, 0
6, 4, 0
6, 3, 0
6, 11, 0
6, 9, 0
5, 0, 0
5, 8, 0
11, 7, 0
11, 12, 1
11, 6, 0
11, 3, 0
11, 2, 0
10, 0, 0
10, 9, 0
10, 1, 0
7, 12, 0
7, 4, 0
7, 3, 0
7, 2, 0
7, 6, 0
7, 11, 0
7, 9, 0
12, 7, 0
12, 3, 0
12, 4, 0
12, 2, 0
12, 6, 0
12, 11, 1
4, 7, 0
4, 12, 0
4, 3, 0
4, 2, 0
4, 6, 0
4, 9, 0
2, 7, 0
2, 12, 0
2, 4, 0
2, 11, 0
1, 0, 0
1, 10, 0
1, 9, 0
9, 7, 0
9, 6, 0
9, 4, 0
9, 10, 0
9, 1, 0
