0, 13, 0
0, 9, 0
13, 0, 0
13, 4, 0
13, 9, 0
3, 2, 0
3, 12, 0
3, 1, 0
3, 5, 0
3, 6, 0
6, 7, 1
6, 12, 0
6, 4, 0
6, 3, 0
6, 2, 0
6, 5, 0
6, 11, 0
6, 1, 0
8, 10, 0
5, 2, 0
5, 6, 0
5, 10, 0
5, 3, 0
5, 1, 0
11, 7, 0
11, 6, 0
11, 4, 0
11, 1, 0
10, 8, 0
10, 5, 0
7, 12, 0
7, 1, 0
7, 11, 0
7, 6, 1
12, 7, 0
12, 3, 0
12, 1, 0
12, 6, 0
4, 6, 0
4, 13, 0
4, 9, 0
4, 11, 0
4, 1, 0
2, 6, 0
2, 3, 0
2, 5, 0
2, 1, 1
1, 7, 0
1, 3, 0
1, 4, 0
1, 12, 0
1, 6, 0
1, 2, 1
1, 5, 0
1, 11, 0
9, 0, 0
9, 13, 0
9, 4, 0
