13, 16, 0
13, 31, 0
13, 47, 0
13, 29, 0
17, 12, 0
17, 14, 0
17, 28, 0
17, 36, 0
17, 8, 0
17, 41, 0
17, 48, 0
23, 37, 0
23, 45, 0
23, 11, 0
23, 35, 0
42, 45, 0
42, 21, 0
42, 39, 0
42, 1, 0
42, 40, 0
42, 48, 0
42, 36, 0
46, 31, 0
46, 32, 0
20, 16, 0
20, 31, 0
20, 47, 0
34, 0, 0
34, 12, 0
34, 25, 0
34, 24, 0
34, 6, 0
34, 8, 0
34, 41, 0
14, 17, 0
14, 26, 0
14, 51, 0
14, 36, 0
14, 1, 0
14, 29, 0
14, 40, 0
14, 32, 0
14, 31, 0
14, 2, 0
14, 19, 0
14, 49, 0
14, 39, 0
14, 48, 0
14, 30, 0
24, 34, 0
24, 28, 0
24, 12, 0
24, 6, 0
24, 8, 0
24, 48, 0
28, 12, 0
28, 17, 0
28, 50, 0
28, 26, 0
28, 24, 0
28, 8, 0
28, 48, 0
28, 41, 0
39, 40, 0
39, 42, 0
39, 1, 0
39, 14, 0
39, 36, 0
41, 0, 0
41, 12, 0
41, 7, 0
41, 28, 0
41, 34, 0
41, 38, 0
41, 15, 0
41, 17, 0
0, 7, 0
0, 12, 0
0, 38, 0
0, 43, 0
0, 34, 0
0, 25, 0
0, 15, 0
0, 41, 0
8, 12, 0
8, 6, 0
8, 17, 0
8, 24, 0
8, 28, 0
8, 34, 0
8, 48, 0
51, 27, 0
51, 49, 0
51, 14, 0
51, 1, 0
33, 18, 0
33, 35, 0
15, 0, 0
15, 7, 0
15, 43, 0
15, 38, 0
15, 41, 0
15, 44, 0
47, 20, 0
47, 16, 0
47, 13, 0
47, 31, 0
10, 29, 0
10, 49, 0
10, 9, 1
7, 0, 0
7, 43, 0
7, 38, 0
7, 15, 0
7, 41, 0
7, 44, 0
3, 18, 0
3, 22, 0
3, 2, 0
32, 14, 0
32, 46, 0
32, 31, 0
32, 30, 0
2, 3, 0
2, 4, 0
2, 14, 0
2, 19, 0
2, 5, 0
2, 48, 0
2, 22, 0
2, 36, 0
21, 42, 0
21, 45, 0
19, 4, 0
19, 14, 0
19, 26, 0
19, 2, 0
19, 5, 0
19, 48, 0
19, 36, 0
49, 29, 0
49, 10, 0
49, 14, 0
49, 51, 0
49, 9, 0
18, 3, 0
18, 35, 0
18, 33, 0
18, 48, 0
18, 22, 0
18, 36, 0
31, 20, 0
31, 13, 0
31, 14, 0
31, 32, 0
31, 46, 0
31, 47, 0
29, 13, 0
29, 14, 0
29, 16, 0
29, 49, 0
29, 10, 0
29, 9, 0
40, 42, 0
40, 1, 0
40, 14, 0
40, 39, 0
40, 36, 0
11, 23, 0
11, 35, 0
5, 19, 0
5, 4, 1
5, 2, 0
37, 45, 0
37, 23, 0
4, 19, 0
4, 5, 1
4, 2, 0
35, 33, 0
35, 23, 0
35, 18, 0
35, 48, 0
35, 11, 0
35, 36, 0
30, 14, 0
30, 32, 0
38, 0, 0
38, 7, 0
38, 43, 0
38, 15, 0
38, 41, 0
22, 18, 0
22, 3, 0
22, 2, 0
36, 45, 0
36, 17, 0
36, 18, 0
36, 35, 0
36, 40, 0
36, 1, 0
36, 14, 0
36, 26, 0
36, 2, 0
36, 42, 0
36, 19, 0
36, 39, 0
36, 48, 0
45, 21, 0
45, 23, 0
45, 37, 0
45, 42, 0
45, 48, 0
45, 36, 0
16, 20, 0
16, 13, 0
16, 47, 0
16, 29, 0
27, 51, 0
27, 1, 0
1, 14, 0
1, 51, 0
1, 42, 0
1, 27, 0
1, 39, 0
1, 40, 0
1, 36, 0
44, 7, 0
44, 43, 0
44, 15, 0
48, 45, 0
48, 35, 0
48, 28, 0
48, 18, 0
48, 2, 0
48, 14, 0
48, 26, 0
48, 24, 0
48, 17, 0
48, 19, 0
48, 8, 0
48, 42, 0
48, 36, 0
12, 0, 0
12, 34, 0
12, 6, 0
12, 17, 0
12, 24, 0
12, 28, 0
12, 8, 0
12, 41, 0
25, 0, 0
25, 34, 0
50, 28, 0
50, 26, 0
26, 14, 0
26, 50, 0
26, 28, 0
26, 19, 0
26, 48, 0
26, 36, 0
6, 34, 0
6, 8, 0
6, 12, 0
6, 24, 0
43, 0, 0
43, 7, 0
43, 38, 0
43, 15, 0
43, 44, 0
9, 29, 0
9, 49, 0
9, 10, 1
