0, 7, 0
0, 3, 0
0, 8, 0
0, 13, 0
13, 0, 0
13, 12, 0
13, 7, 0
17, 3, 0
17, 4, 0
17, 2, 0
17, 16, 1
17, 6, 0
17, 10, 0
17, 11, 0
17, 1, 0
3, 0, 0
3, 7, 0
3, 17, 0
3, 16, 0
3, 14, 0
3, 8, 0
3, 10, 0
3, 11, 0
3, 1, 0
16, 3, 0
16, 4, 0
16, 14, 1
16, 2, 0
16, 17, 1
16, 11, 0
16, 1, 0
6, 7, 0
6, 4, 0
6, 17, 0
6, 2, 0
6, 10, 0
6, 11, 0
6, 9, 0
8, 0, 0
8, 7, 0
8, 3, 0
5, 7, 0
5, 12, 0
11, 3, 0
11, 4, 0
11, 17, 0
11, 2, 0
11, 16, 0
11, 6, 0
11, 1, 0
11, 10, 1
10, 3, 0
10, 4, 0
10, 17, 0
10, 2, 0
10, 6, 0
10, 11, 1
10, 9, 1
7, 0, 0
7, 13, 0
7, 3, 0
7, 6, 0
7, 5, 0
7, 1, 0
7, 12, 0
7, 14, 0
7, 2, 0
7, 8, 0
7, 15, 0
7, 9, 0
12, 7, 0
12, 13, 0
12, 5, 0
4, 14, 0
4, 9, 0
4, 16, 0
4, 6, 0
4, 10, 0
4, 17, 0
4, 11, 0
4, 1, 0
14, 7, 0
14, 3, 0
14, 4, 0
14, 16, 1
14, 9, 0
14, 15, 1
14, 1, 0
2, 7, 0
2, 17, 0
2, 16, 0
2, 6, 0
2, 11, 0
2, 10, 0
1, 7, 0
1, 3, 0
1, 4, 0
1, 14, 0
1, 16, 0
1, 17, 0
1, 15, 0
1, 11, 0
15, 7, 0
15, 14, 1
15, 1, 0
9, 7, 0
9, 6, 0
9, 4, 0
9, 14, 0
9, 10, 1
