0, 7, 0
0, 2, 0
0, 1, 1
3, 7, 0
3, 6, 0
3, 8, 0
3, 5, 0
4, 1, 0
4, 2, 0
7, 0, 0
7, 3, 0
7, 2, 0
7, 6, 0
7, 8, 0
7, 5, 0
7, 1, 0
2, 0, 0
2, 7, 0
2, 4, 0
2, 1, 0
6, 7, 0
6, 3, 0
6, 8, 0
6, 5, 1
8, 7, 0
8, 3, 0
8, 5, 0
8, 6, 0
5, 7, 0
5, 6, 1
5, 8, 0
5, 3, 0
1, 0, 1
1, 7, 0
1, 4, 0
1, 2, 0
