0, 5, 0
0, 11, 0
8, 6, 0
8, 1, 0
3, 7, 0
3, 12, 0
3, 4, 1
6, 10, 0
6, 8, 0
6, 9, 0
6, 2, 0
5, 0, 0
5, 11, 0
11, 0, 0
11, 2, 0
11, 5, 0
11, 9, 0
10, 6, 0
10, 2, 0
10, 9, 1
7, 12, 0
7, 4, 0
7, 3, 0
7, 1, 0
12, 7, 0
12, 3, 0
12, 4, 0
4, 7, 0
4, 12, 0
4, 3, 1
2, 6, 0
2, 9, 0
2, 11, 0
2, 10, 0
1, 7, 0
1, 8, 0
9, 6, 0
9, 2, 0
9, 11, 0
9, 10, 1
