0, 13, 0
0, 1, 1
13, 0, 0
13, 3, 0
13, 7, 0
13, 15, 0
13, 5, 0
13, 1, 0
17, 16, 1
17, 5, 0
17, 9, 0
3, 7, 0
3, 12, 0
3, 13, 0
3, 8, 0
3, 15, 0
3, 5, 0
3, 11, 0
3, 1, 0
16, 17, 1
16, 5, 0
16, 9, 0
6, 4, 0
6, 14, 0
8, 7, 1
8, 12, 0
8, 3, 0
8, 15, 0
8, 5, 0
8, 11, 0
5, 7, 0
5, 3, 0
5, 13, 0
5, 17, 0
5, 16, 0
5, 8, 0
5, 15, 0
5, 11, 0
5, 9, 0
11, 7, 0
11, 12, 1
11, 3, 0
11, 8, 0
11, 15, 0
11, 5, 0
10, 14, 0
10, 2, 0
7, 12, 0
7, 13, 0
7, 3, 0
7, 8, 1
7, 15, 0
7, 5, 0
7, 11, 0
12, 7, 0
12, 3, 0
12, 8, 0
12, 15, 0
12, 11, 1
4, 6, 0
4, 9, 0
14, 6, 0
14, 2, 0
14, 15, 0
14, 10, 0
2, 14, 0
2, 10, 0
1, 0, 1
1, 3, 0
1, 13, 0
15, 7, 0
15, 3, 0
15, 13, 0
15, 14, 0
15, 12, 0
15, 8, 0
15, 5, 0
15, 11, 0
9, 16, 0
9, 4, 0
9, 17, 0
9, 5, 0
