2, 7, 0
2, 12, 0
2, 10, 0
2, 25, 0
2, 1, 1
13, 20, 0
13, 33, 0
13, 31, 0
13, 32, 0
13, 34, 0
13, 21, 0
13, 11, 0
17, 18, 1
17, 22, 0
17, 35, 0
31, 34, 0
31, 13, 0
31, 32, 0
31, 24, 0
31, 21, 0
31, 11, 0
23, 25, 0
23, 22, 0
24, 15, 0
24, 31, 0
24, 32, 0
5, 7, 0
5, 4, 0
11, 20, 0
11, 33, 0
11, 13, 0
11, 31, 0
11, 34, 0
11, 21, 0
1, 0, 1
1, 12, 0
1, 7, 0
1, 25, 0
1, 2, 1
20, 34, 0
20, 13, 0
20, 32, 0
20, 33, 0
20, 21, 1
20, 11, 0
34, 20, 0
34, 33, 0
34, 13, 0
34, 31, 0
34, 32, 0
34, 21, 0
34, 11, 0
4, 27, 0
4, 5, 0
4, 29, 0
14, 16, 0
14, 15, 0
14, 28, 0
14, 32, 0
14, 33, 0
35, 18, 0
35, 19, 0
35, 17, 0
35, 22, 0
28, 16, 0
28, 3, 0
28, 14, 0
28, 6, 0
30, 27, 0
30, 29, 0
30, 6, 0
8, 16, 0
8, 3, 0
8, 26, 0
15, 14, 0
15, 32, 0
15, 24, 0
22, 18, 0
22, 19, 0
22, 17, 0
22, 23, 0
22, 35, 0
0, 12, 0
0, 25, 0
0, 1, 1
3, 8, 0
3, 28, 0
3, 26, 0
3, 32, 0
16, 28, 0
16, 6, 0
16, 8, 0
16, 14, 0
16, 26, 0
27, 29, 0
27, 4, 0
27, 30, 0
10, 7, 0
10, 12, 0
10, 9, 1
10, 2, 0
7, 12, 0
7, 2, 0
7, 1, 0
7, 9, 0
7, 5, 0
7, 10, 0
12, 0, 0
12, 7, 0
12, 25, 0
12, 2, 0
12, 1, 0
12, 10, 0
12, 9, 0
25, 0, 0
25, 12, 0
25, 2, 0
25, 23, 0
25, 1, 0
33, 20, 0
33, 34, 0
33, 13, 0
33, 14, 0
33, 32, 1
33, 21, 0
33, 11, 0
32, 20, 0
32, 33, 1
32, 13, 0
32, 14, 0
32, 31, 0
32, 3, 0
32, 21, 0
32, 34, 0
32, 15, 0
32, 24, 0
6, 16, 0
6, 28, 0
6, 30, 0
21, 20, 1
21, 34, 0
21, 13, 0
21, 31, 0
21, 32, 0
21, 33, 0
21, 11, 0
29, 27, 0
29, 4, 0
29, 30, 0
19, 18, 1
19, 22, 0
19, 35, 0
26, 16, 0
26, 3, 0
26, 8, 0
18, 19, 1
18, 17, 1
18, 22, 0
18, 35, 0
9, 7, 0
9, 12, 0
9, 10, 1
