0, 3, 0
0, 14, 0
0, 2, 0
0, 6, 0
0, 5, 0
0, 12, 0
13, 7, 0
13, 11, 0
13, 1, 0
17, 11, 0
17, 9, 0
3, 0, 0
3, 12, 0
3, 2, 1
16, 19, 0
16, 9, 0
6, 0, 0
6, 14, 0
6, 5, 1
8, 18, 0
8, 10, 0
5, 0, 0
5, 6, 1
5, 14, 0
11, 13, 0
11, 17, 0
11, 1, 0
10, 18, 0
10, 8, 0
7, 12, 0
7, 13, 0
7, 1, 0
12, 0, 0
12, 7, 0
12, 3, 0
12, 2, 0
4, 19, 0
4, 15, 0
14, 0, 0
14, 6, 0
14, 5, 0
2, 0, 0
2, 12, 0
2, 3, 1
19, 16, 0
19, 4, 0
19, 9, 0
1, 7, 0
1, 13, 0
1, 11, 0
15, 18, 0
15, 4, 0
18, 8, 0
18, 15, 0
18, 10, 0
9, 16, 0
9, 19, 0
9, 17, 0
