0, 3, 0
0, 14, 0
0, 2, 0
0, 16, 0
0, 17, 0
0, 8, 0
0, 15, 0
0, 1, 0
13, 7, 0
13, 12, 0
13, 10, 0
17, 0, 0
17, 16, 1
17, 8, 0
17, 15, 1
17, 5, 0
17, 1, 0
3, 0, 0
3, 14, 0
3, 2, 1
16, 0, 0
16, 15, 1
16, 8, 0
16, 17, 1
16, 1, 0
6, 12, 0
6, 1, 0
6, 4, 0
6, 5, 0
6, 9, 0
8, 0, 0
8, 14, 0
8, 2, 0
8, 16, 0
8, 17, 0
8, 15, 0
8, 5, 0
8, 1, 0
5, 7, 0
5, 4, 1
5, 14, 0
5, 11, 0
5, 6, 0
5, 1, 0
5, 8, 0
5, 17, 0
5, 9, 0
11, 7, 0
11, 12, 0
11, 5, 0
11, 10, 1
10, 7, 0
10, 12, 0
10, 13, 0
10, 11, 1
7, 12, 0
7, 13, 0
7, 5, 0
7, 11, 0
7, 10, 0
12, 7, 0
12, 13, 0
12, 6, 0
12, 9, 0
12, 11, 0
12, 10, 0
4, 6, 0
4, 9, 0
4, 5, 1
4, 1, 0
14, 0, 0
14, 3, 0
14, 8, 0
14, 5, 0
14, 2, 0
2, 0, 0
2, 3, 1
2, 14, 0
2, 8, 0
2, 15, 0
2, 1, 0
1, 0, 0
1, 4, 0
1, 17, 0
1, 2, 0
1, 16, 0
1, 6, 0
1, 8, 0
1, 15, 0
1, 5, 0
1, 9, 0
15, 0, 0
15, 17, 1
15, 2, 0
15, 16, 1
15, 8, 0
15, 1, 0
9, 6, 0
9, 4, 0
9, 12, 0
9, 5, 0
9, 1, 0
