0, 16, 0
0, 12, 0
0, 7, 0
0, 5, 0
0, 4, 0
13, 3, 0
13, 4, 0
13, 14, 0
13, 9, 0
17, 18, 0
17, 1, 0
3, 13, 0
3, 9, 0
3, 4, 0
3, 10, 0
16, 0, 0
16, 2, 0
16, 8, 0
16, 15, 0
16, 5, 0
16, 10, 0
6, 7, 0
6, 12, 0
6, 19, 0
6, 4, 0
6, 10, 0
8, 16, 0
8, 15, 0
8, 11, 0
8, 2, 0
5, 0, 0
5, 16, 0
5, 15, 0
11, 18, 0
11, 8, 0
10, 7, 0
10, 3, 0
10, 4, 0
10, 16, 0
10, 6, 0
10, 19, 0
10, 9, 0
7, 0, 0
7, 4, 0
7, 6, 0
7, 19, 0
7, 15, 0
7, 10, 0
12, 0, 0
12, 6, 0
4, 7, 0
4, 3, 0
4, 13, 0
4, 14, 0
4, 0, 0
4, 6, 0
4, 19, 0
4, 15, 0
4, 10, 0
14, 13, 0
14, 4, 0
14, 9, 0
2, 16, 0
2, 8, 0
2, 15, 0
19, 7, 0
19, 6, 0
19, 4, 0
19, 10, 0
1, 17, 0
15, 7, 0
15, 4, 0
15, 2, 0
15, 16, 0
15, 8, 0
15, 5, 0
18, 17, 0
18, 11, 0
9, 3, 0
9, 13, 0
9, 14, 0
9, 10, 0
