13, 7, 0
13, 12, 0
13, 14, 0
13, 1, 0
17, 23, 0
17, 12, 0
17, 16, 0
17, 5, 0
17, 1, 0
17, 7, 0
17, 3, 0
17, 25, 0
17, 2, 0
17, 19, 0
17, 8, 0
17, 15, 0
17, 18, 1
23, 21, 0
23, 12, 0
23, 17, 0
23, 24, 1
2, 17, 0
2, 26, 0
2, 16, 0
2, 27, 0
2, 5, 0
2, 1, 1
5, 7, 0
5, 17, 0
5, 26, 0
5, 2, 0
5, 27, 0
5, 1, 0
5, 10, 0
5, 9, 0
11, 0, 0
11, 15, 0
1, 13, 0
1, 17, 0
1, 3, 0
1, 16, 0
1, 27, 0
1, 5, 0
1, 7, 0
1, 12, 0
1, 25, 0
1, 26, 0
1, 2, 1
1, 21, 0
1, 19, 0
1, 8, 0
1, 15, 0
1, 18, 0
20, 16, 0
20, 22, 0
4, 19, 0
4, 15, 0
14, 7, 0
14, 13, 0
24, 21, 0
24, 12, 0
24, 19, 0
24, 23, 1
8, 3, 0
8, 17, 0
8, 16, 0
8, 15, 0
8, 18, 0
8, 1, 0
15, 0, 0
15, 3, 0
15, 4, 0
15, 25, 0
15, 18, 0
15, 17, 0
15, 19, 0
15, 8, 0
15, 11, 0
15, 1, 0
22, 20, 0
22, 6, 0
0, 3, 0
0, 15, 0
0, 11, 0
3, 0, 0
3, 17, 0
3, 16, 0
3, 8, 0
3, 15, 0
3, 1, 0
16, 20, 0
16, 3, 0
16, 17, 0
16, 2, 0
16, 27, 0
16, 8, 0
16, 1, 0
6, 27, 0
6, 22, 0
10, 7, 0
10, 27, 0
10, 5, 0
10, 26, 0
10, 9, 1
7, 13, 0
7, 14, 0
7, 17, 0
7, 1, 0
7, 10, 0
7, 5, 0
7, 9, 0
12, 13, 0
12, 17, 0
12, 23, 0
12, 24, 0
12, 19, 0
12, 1, 0
25, 18, 0
25, 15, 0
25, 17, 0
25, 1, 0
26, 2, 0
26, 27, 0
26, 10, 0
26, 5, 0
26, 1, 0
27, 26, 0
27, 2, 0
27, 16, 0
27, 6, 0
27, 10, 0
27, 5, 0
27, 1, 0
21, 19, 0
21, 24, 0
21, 23, 0
21, 1, 0
19, 12, 0
19, 4, 0
19, 17, 0
19, 24, 0
19, 21, 0
19, 15, 0
19, 1, 0
18, 25, 0
18, 8, 0
18, 15, 0
18, 17, 1
18, 1, 0
9, 7, 0
9, 5, 0
9, 10, 1
