12, 0, 0
12, 15, 0
12, 29, 0
13, 21, 0
13, 26, 0
13, 30, 0
17, 16, 1
17, 27, 0
17, 31, 0
26, 7, 0
26, 13, 0
26, 22, 0
26, 10, 0
23, 3, 0
23, 28, 0
23, 31, 0
23, 24, 1
2, 15, 0
2, 5, 0
5, 8, 0
5, 2, 0
11, 0, 0
11, 29, 0
1, 21, 0
1, 9, 0
20, 7, 0
20, 25, 0
20, 19, 0
20, 14, 0
4, 18, 0
4, 21, 0
4, 9, 0
14, 20, 0
14, 19, 0
14, 25, 0
24, 3, 0
24, 28, 0
24, 23, 1
24, 31, 0
28, 3, 0
28, 19, 0
28, 23, 0
28, 31, 0
28, 24, 0
30, 21, 0
30, 13, 0
30, 22, 0
8, 18, 0
8, 5, 0
15, 12, 0
15, 2, 0
15, 29, 0
22, 6, 0
22, 10, 0
22, 26, 0
22, 30, 0
0, 12, 0
0, 11, 0
0, 29, 0
3, 28, 0
3, 23, 0
3, 31, 0
3, 24, 0
16, 27, 0
16, 17, 1
16, 31, 0
6, 22, 0
6, 10, 0
27, 16, 0
27, 17, 0
27, 31, 0
7, 20, 0
7, 25, 0
7, 26, 0
18, 8, 0
18, 4, 0
25, 20, 0
25, 7, 0
25, 19, 0
25, 14, 0
31, 3, 0
31, 28, 0
31, 23, 0
31, 24, 0
31, 16, 0
31, 17, 0
31, 27, 0
29, 0, 0
29, 12, 0
29, 15, 0
29, 11, 0
21, 30, 0
21, 13, 0
21, 4, 0
21, 1, 0
19, 20, 0
19, 28, 0
19, 14, 0
19, 25, 0
10, 6, 0
10, 26, 0
10, 22, 0
9, 4, 0
9, 1, 0
