12, 7, 0
12, 19, 0
12, 8, 0
12, 22, 0
12, 9, 0
13, 7, 0
13, 3, 0
13, 8, 0
13, 25, 0
13, 31, 0
13, 26, 0
13, 24, 0
13, 2, 0
13, 5, 0
13, 30, 0
17, 0, 0
17, 20, 0
17, 28, 0
17, 29, 0
17, 21, 0
17, 27, 0
17, 5, 0
17, 1, 0
26, 20, 0
26, 13, 0
26, 28, 0
26, 16, 0
26, 1, 0
26, 29, 0
26, 5, 0
26, 11, 0
26, 10, 0
26, 7, 0
26, 3, 0
26, 25, 1
26, 31, 0
26, 24, 0
26, 8, 0
23, 18, 0
23, 6, 0
23, 14, 0
23, 11, 0
2, 3, 1
2, 13, 0
2, 5, 0
2, 31, 0
2, 30, 0
5, 0, 0
5, 7, 0
5, 13, 0
5, 17, 0
5, 26, 0
5, 2, 0
5, 30, 0
5, 20, 0
5, 3, 0
5, 25, 0
5, 31, 0
5, 24, 0
5, 21, 0
5, 28, 0
11, 7, 0
11, 25, 0
11, 14, 0
11, 26, 0
11, 23, 0
11, 24, 0
11, 16, 0
11, 6, 0
11, 8, 0
11, 15, 0
1, 0, 1
1, 20, 0
1, 7, 0
1, 28, 0
1, 26, 0
1, 29, 0
1, 21, 0
1, 27, 0
1, 25, 0
1, 17, 0
20, 0, 0
20, 17, 0
20, 26, 0
20, 29, 0
20, 21, 0
20, 27, 0
20, 5, 0
20, 1, 0
4, 7, 0
4, 18, 0
4, 19, 0
4, 8, 0
4, 22, 0
4, 9, 0
14, 7, 0
14, 25, 0
14, 23, 0
14, 18, 0
14, 6, 0
14, 8, 0
14, 11, 0
14, 10, 0
24, 13, 0
24, 16, 0
24, 5, 0
24, 11, 0
24, 30, 0
24, 7, 0
24, 3, 0
24, 25, 0
24, 26, 0
24, 8, 0
24, 15, 0
24, 10, 0
28, 0, 0
28, 7, 0
28, 17, 0
28, 26, 0
28, 21, 0
28, 27, 1
28, 25, 0
28, 5, 0
28, 1, 0
30, 3, 0
30, 13, 0
30, 31, 1
30, 2, 0
30, 24, 0
30, 5, 0
8, 13, 0
8, 31, 0
8, 12, 0
8, 16, 0
8, 11, 0
8, 10, 0
8, 7, 1
8, 3, 0
8, 4, 0
8, 14, 0
8, 26, 0
8, 24, 0
8, 25, 0
8, 15, 0
8, 18, 0
8, 9, 0
15, 16, 1
15, 8, 0
15, 11, 0
15, 24, 0
22, 12, 0
22, 19, 0
22, 4, 0
22, 9, 0
0, 20, 0
0, 28, 0
0, 29, 0
0, 21, 0
0, 27, 0
0, 5, 0
0, 17, 0
0, 1, 1
3, 7, 0
3, 2, 1
3, 13, 0
3, 25, 0
3, 31, 0
3, 26, 0
3, 24, 0
3, 8, 0
3, 5, 0
3, 30, 0
16, 7, 0
16, 26, 0
16, 24, 0
16, 8, 0
16, 15, 1
16, 11, 0
6, 18, 0
6, 14, 0
6, 11, 0
6, 23, 0
27, 20, 0
27, 0, 0
27, 28, 1
27, 29, 0
27, 17, 0
27, 1, 0
7, 13, 0
7, 28, 0
7, 26, 0
7, 12, 0
7, 16, 0
7, 1, 0
7, 5, 0
7, 11, 0
7, 10, 0
7, 3, 0
7, 4, 0
7, 25, 0
7, 31, 0
7, 24, 0
7, 14, 0
7, 8, 1
7, 18, 0
18, 7, 0
18, 25, 0
18, 4, 0
18, 14, 0
18, 23, 0
18, 6, 0
18, 8, 0
25, 13, 0
25, 28, 0
25, 26, 1
25, 18, 0
25, 1, 0
25, 29, 0
25, 5, 0
25, 11, 0
25, 10, 0
25, 7, 0
25, 3, 0
25, 14, 0
25, 31, 0
25, 24, 0
25, 8, 0
31, 7, 0
31, 3, 0
31, 13, 0
31, 25, 0
31, 26, 0
31, 2, 0
31, 8, 0
31, 5, 0
31, 30, 1
29, 20, 0
29, 0, 0
29, 17, 0
29, 26, 0
29, 21, 0
29, 27, 0
29, 25, 0
29, 1, 0
21, 20, 0
21, 0, 0
21, 17, 0
21, 29, 0
21, 28, 0
21, 5, 0
21, 1, 0
19, 12, 0
19, 4, 0
19, 22, 0
19, 9, 0
10, 7, 0
10, 25, 0
10, 26, 0
10, 24, 0
10, 14, 0
10, 8, 0
9, 12, 0
9, 19, 0
9, 8, 0
9, 4, 0
9, 22, 0
