0, 8, 0
0, 9, 0
0, 1, 1
3, 7, 0
3, 4, 1
3, 9, 0
3, 2, 0
4, 7, 0
4, 3, 1
4, 1, 0
4, 9, 0
4, 2, 0
2, 7, 0
2, 3, 0
2, 4, 0
2, 9, 0
6, 7, 0
6, 5, 1
1, 0, 1
1, 8, 0
1, 4, 0
1, 9, 0
8, 0, 0
8, 1, 0
8, 9, 0
5, 7, 0
5, 6, 1
7, 3, 0
7, 4, 0
7, 2, 0
7, 6, 0
7, 5, 0
7, 9, 0
9, 0, 0
9, 3, 0
9, 4, 0
9, 2, 0
9, 8, 0
9, 7, 0
9, 1, 0
