12, 20, 0
12, 33, 0
12, 13, 0
12, 32, 0
12, 35, 0
12, 21, 0
12, 29, 0
12, 30, 0
12, 8, 0
12, 15, 0
12, 9, 0
13, 0, 0
13, 38, 0
13, 35, 0
13, 1, 0
13, 12, 0
13, 4, 0
13, 31, 0
13, 2, 0
13, 42, 0
13, 8, 0
13, 15, 0
13, 22, 0
13, 36, 0
17, 16, 0
17, 31, 0
17, 37, 0
17, 42, 0
17, 19, 0
17, 18, 0
17, 36, 0
31, 0, 0
31, 13, 0
31, 17, 0
31, 23, 0
31, 16, 0
31, 6, 0
31, 5, 0
31, 18, 0
31, 38, 0
31, 37, 0
31, 42, 0
31, 19, 0
31, 15, 0
31, 36, 0
23, 39, 0
23, 16, 0
23, 6, 0
23, 40, 0
23, 5, 0
23, 11, 0
23, 1, 0
23, 7, 0
23, 33, 0
23, 4, 0
23, 14, 0
23, 31, 0
23, 24, 1
23, 37, 0
23, 19, 0
23, 8, 0
23, 38, 0
23, 22, 0
24, 7, 0
24, 38, 0
24, 14, 0
24, 23, 1
24, 37, 0
24, 6, 0
24, 39, 0
24, 40, 0
24, 5, 0
24, 19, 0
40, 14, 0
40, 23, 0
40, 24, 0
40, 37, 0
40, 6, 0
40, 39, 1
40, 38, 0
40, 5, 0
5, 23, 0
5, 16, 0
5, 6, 1
5, 39, 0
5, 40, 0
5, 7, 0
5, 14, 0
5, 31, 0
5, 24, 0
5, 37, 0
5, 19, 0
5, 38, 0
5, 36, 0
11, 33, 0
11, 37, 0
11, 23, 0
11, 34, 0
11, 16, 0
11, 42, 0
11, 27, 0
11, 36, 0
11, 41, 0
11, 22, 0
11, 10, 1
30, 26, 0
30, 34, 0
30, 27, 0
30, 29, 1
30, 12, 0
30, 33, 0
30, 32, 0
30, 35, 0
30, 37, 0
30, 8, 0
30, 15, 0
30, 9, 0
20, 21, 1
20, 12, 0
20, 15, 0
20, 9, 0
21, 20, 1
21, 12, 0
21, 26, 0
21, 33, 0
21, 37, 0
21, 15, 0
21, 9, 0
4, 34, 0
4, 13, 0
4, 23, 0
4, 33, 0
4, 37, 0
4, 27, 0
4, 36, 0
4, 22, 0
4, 1, 0
14, 0, 0
14, 23, 0
14, 6, 0
14, 40, 0
14, 5, 0
14, 7, 0
14, 34, 0
14, 25, 0
14, 39, 0
14, 24, 0
14, 37, 0
14, 38, 0
35, 13, 0
35, 28, 0
35, 32, 0
35, 12, 0
35, 27, 0
35, 30, 0
35, 34, 0
35, 26, 0
35, 29, 0
35, 33, 0
35, 8, 0
35, 15, 0
35, 9, 0
42, 0, 0
42, 13, 0
42, 17, 0
42, 18, 0
42, 11, 0
42, 10, 0
42, 16, 0
42, 31, 0
42, 19, 0
42, 15, 0
42, 41, 0
42, 22, 0
42, 36, 0
1, 13, 0
1, 28, 0
1, 23, 0
1, 34, 0
1, 27, 0
1, 3, 0
1, 4, 0
1, 26, 0
1, 2, 0
1, 37, 0
1, 33, 0
1, 8, 0
1, 36, 0
15, 13, 0
15, 28, 0
15, 31, 0
15, 27, 0
15, 35, 0
15, 30, 0
15, 20, 0
15, 12, 0
15, 38, 0
15, 32, 0
15, 29, 0
15, 21, 0
15, 26, 0
15, 8, 0
15, 42, 0
15, 22, 0
15, 9, 0
41, 11, 0
41, 34, 0
41, 33, 0
41, 27, 0
41, 42, 0
41, 36, 0
41, 22, 0
41, 10, 0
22, 34, 0
22, 13, 0
22, 11, 0
22, 23, 0
22, 37, 0
22, 42, 0
22, 36, 0
22, 15, 0
22, 41, 0
22, 4, 0
22, 10, 0
36, 0, 0
36, 13, 0
36, 17, 0
36, 18, 0
36, 5, 0
36, 11, 0
36, 1, 0
36, 41, 0
36, 16, 0
36, 4, 0
36, 31, 0
36, 37, 0
36, 42, 0
36, 19, 0
36, 8, 0
36, 38, 0
36, 10, 0
36, 22, 0
0, 7, 0
0, 38, 0
0, 13, 0
0, 14, 0
0, 31, 0
0, 42, 0
0, 8, 0
0, 39, 0
0, 36, 0
7, 0, 0
7, 34, 0
7, 25, 0
7, 23, 0
7, 24, 0
7, 14, 0
7, 5, 0
6, 14, 0
6, 31, 0
6, 23, 0
6, 24, 0
6, 37, 0
6, 19, 0
6, 40, 0
6, 5, 1
8, 0, 0
8, 13, 0
8, 23, 0
8, 12, 0
8, 34, 0
8, 27, 0
8, 2, 0
8, 30, 0
8, 3, 0
8, 26, 0
8, 35, 0
8, 37, 0
8, 33, 0
8, 1, 0
8, 15, 0
8, 36, 0
38, 0, 0
38, 13, 0
38, 23, 0
38, 33, 0
38, 27, 0
38, 15, 0
38, 40, 0
38, 5, 0
38, 34, 0
38, 14, 0
38, 31, 0
38, 24, 0
38, 37, 0
38, 19, 0
38, 39, 0
38, 36, 0
3, 34, 0
3, 8, 0
3, 28, 0
3, 26, 0
3, 33, 0
3, 27, 0
3, 2, 1
3, 1, 0
16, 17, 0
16, 23, 0
16, 33, 0
16, 18, 0
16, 27, 0
16, 5, 0
16, 11, 0
16, 34, 0
16, 31, 0
16, 37, 0
16, 42, 0
16, 19, 0
16, 36, 0
39, 0, 0
39, 14, 0
39, 23, 0
39, 24, 0
39, 37, 0
39, 38, 0
39, 40, 1
39, 5, 0
18, 16, 0
18, 17, 0
18, 31, 0
18, 37, 0
18, 42, 0
18, 19, 1
18, 36, 0
27, 2, 0
27, 28, 1
27, 3, 0
27, 16, 0
27, 38, 0
27, 1, 0
27, 29, 0
27, 11, 0
27, 30, 0
27, 34, 0
27, 4, 0
27, 26, 0
27, 35, 0
27, 37, 0
27, 33, 0
27, 19, 0
27, 8, 0
27, 15, 0
27, 41, 0
28, 34, 0
28, 3, 0
28, 26, 0
28, 35, 0
28, 33, 0
28, 1, 0
28, 29, 0
28, 15, 0
28, 27, 1
34, 28, 0
34, 3, 0
34, 16, 0
34, 27, 0
34, 2, 0
34, 11, 0
34, 1, 0
34, 7, 0
34, 33, 1
34, 4, 0
34, 14, 0
34, 26, 0
34, 35, 0
34, 37, 0
34, 29, 0
34, 19, 0
34, 8, 0
34, 38, 0
34, 41, 0
34, 22, 0
34, 30, 0
25, 7, 0
25, 14, 0
33, 28, 0
33, 23, 0
33, 29, 0
33, 11, 0
33, 1, 0
33, 21, 0
33, 34, 1
33, 4, 0
33, 35, 0
33, 30, 0
33, 38, 0
33, 41, 0
33, 8, 0
33, 3, 0
33, 16, 0
33, 27, 0
33, 12, 0
33, 26, 0
33, 2, 0
33, 37, 0
33, 19, 0
33, 9, 0
32, 12, 0
32, 35, 0
32, 30, 0
32, 29, 0
32, 15, 0
32, 9, 0
2, 34, 0
2, 13, 0
2, 33, 0
2, 3, 1
2, 27, 0
2, 8, 0
2, 1, 0
37, 17, 0
37, 31, 0
37, 23, 0
37, 40, 0
37, 5, 0
37, 11, 0
37, 1, 0
37, 4, 0
37, 14, 0
37, 39, 0
37, 24, 0
37, 30, 0
37, 8, 0
37, 38, 0
37, 22, 0
37, 36, 0
37, 33, 0
37, 16, 0
37, 6, 0
37, 34, 0
37, 26, 0
37, 27, 0
37, 21, 0
37, 19, 0
37, 18, 0
29, 12, 0
29, 28, 0
29, 26, 0
29, 32, 0
29, 35, 0
29, 9, 0
29, 27, 0
29, 33, 0
29, 34, 0
29, 15, 0
29, 30, 1
19, 17, 0
19, 23, 0
19, 33, 0
19, 16, 0
19, 27, 0
19, 24, 0
19, 5, 0
19, 34, 0
19, 31, 0
19, 6, 0
19, 37, 0
19, 42, 0
19, 38, 0
19, 18, 1
19, 36, 0
26, 28, 0
26, 33, 0
26, 34, 0
26, 27, 0
26, 1, 0
26, 29, 0
26, 30, 0
26, 3, 0
26, 21, 0
26, 35, 0
26, 37, 0
26, 8, 0
26, 15, 0
26, 9, 0
10, 42, 0
10, 22, 0
10, 41, 0
10, 11, 1
10, 36, 0
9, 20, 0
9, 12, 0
9, 26, 0
9, 32, 0
9, 35, 0
9, 21, 0
9, 33, 0
9, 29, 0
9, 15, 0
9, 30, 0
