13, 34, 0
13, 4, 0
13, 28, 0
13, 2, 0
13, 15, 0
13, 36, 0
13, 35, 0
13, 40, 0
13, 10, 0
13, 9, 0
17, 0, 0
17, 23, 0
17, 12, 0
17, 16, 1
17, 6, 0
17, 27, 0
17, 40, 0
17, 11, 0
17, 10, 0
17, 20, 0
17, 33, 0
17, 4, 0
17, 22, 0
17, 32, 0
17, 29, 0
17, 37, 0
17, 19, 0
17, 38, 0
17, 41, 0
17, 18, 0
23, 18, 0
23, 27, 0
23, 40, 0
23, 41, 0
23, 17, 0
42, 21, 0
42, 8, 0
42, 43, 1
42, 31, 0
5, 35, 0
5, 31, 0
5, 2, 0
5, 40, 0
5, 1, 0
5, 4, 1
5, 25, 0
5, 26, 0
5, 24, 0
5, 30, 0
5, 39, 0
5, 10, 0
5, 36, 0
20, 33, 0
20, 37, 0
20, 17, 0
20, 32, 0
20, 16, 0
20, 38, 0
20, 15, 0
20, 22, 0
14, 28, 0
14, 31, 0
14, 24, 0
14, 1, 0
14, 39, 0
14, 30, 0
24, 4, 0
24, 14, 0
24, 31, 0
24, 35, 0
24, 30, 0
24, 5, 0
24, 1, 0
28, 13, 0
28, 38, 0
28, 31, 0
28, 39, 0
28, 18, 0
28, 27, 0
28, 1, 0
28, 7, 0
28, 34, 0
28, 25, 0
28, 26, 0
28, 2, 0
28, 37, 0
28, 14, 0
28, 19, 0
28, 30, 0
28, 15, 0
39, 25, 0
39, 4, 0
39, 14, 0
39, 31, 0
39, 26, 0
39, 2, 0
39, 28, 0
39, 35, 0
39, 15, 0
39, 5, 0
39, 30, 0
41, 27, 0
41, 19, 0
41, 40, 0
41, 17, 0
41, 23, 0
0, 7, 0
0, 6, 0
0, 40, 0
0, 17, 0
8, 21, 0
8, 42, 0
8, 43, 0
8, 31, 0
12, 18, 0
12, 27, 0
12, 40, 0
12, 17, 0
15, 7, 0
15, 13, 0
15, 28, 0
15, 31, 0
15, 3, 0
15, 18, 0
15, 27, 0
15, 29, 0
15, 40, 0
15, 10, 0
15, 20, 0
15, 34, 0
15, 38, 0
15, 32, 0
15, 2, 0
15, 37, 0
15, 33, 0
15, 19, 0
15, 39, 0
15, 22, 0
15, 9, 0
10, 34, 0
10, 13, 0
10, 17, 0
10, 31, 0
10, 4, 0
10, 2, 0
10, 40, 0
10, 35, 0
10, 15, 0
10, 5, 0
10, 9, 1
7, 0, 0
7, 40, 0
7, 28, 0
7, 6, 0
7, 19, 0
7, 15, 0
3, 34, 0
3, 15, 0
3, 29, 0
32, 20, 0
32, 33, 1
32, 37, 0
32, 17, 0
32, 16, 0
32, 15, 0
32, 22, 0
2, 13, 0
2, 28, 0
2, 31, 0
2, 15, 0
2, 40, 0
2, 5, 0
2, 10, 0
2, 4, 0
2, 25, 0
2, 26, 0
2, 35, 0
2, 30, 0
2, 39, 0
21, 42, 0
21, 8, 0
21, 43, 0
21, 31, 0
33, 20, 0
33, 16, 0
33, 17, 0
33, 32, 1
33, 29, 0
33, 37, 0
33, 15, 0
33, 22, 0
19, 7, 0
19, 40, 0
19, 28, 0
19, 27, 0
19, 18, 0
19, 17, 0
19, 15, 0
19, 41, 0
18, 40, 0
18, 12, 0
18, 28, 0
18, 23, 0
18, 27, 0
18, 19, 0
18, 15, 0
18, 17, 0
31, 2, 0
31, 28, 0
31, 15, 0
31, 42, 0
31, 35, 0
31, 5, 0
31, 1, 0
31, 37, 0
31, 4, 0
31, 43, 0
31, 26, 0
31, 24, 0
31, 21, 0
31, 25, 0
31, 14, 0
31, 8, 0
31, 39, 0
31, 10, 0
31, 30, 0
29, 3, 0
29, 17, 0
29, 33, 0
29, 37, 0
29, 40, 0
29, 15, 0
29, 22, 0
40, 13, 0
40, 17, 0
40, 23, 0
40, 29, 0
40, 5, 0
40, 30, 0
40, 4, 0
40, 35, 0
40, 15, 0
40, 41, 0
40, 36, 0
40, 0, 0
40, 34, 0
40, 18, 0
40, 27, 0
40, 10, 0
40, 7, 0
40, 12, 0
40, 26, 0
40, 2, 0
40, 19, 0
40, 9, 0
11, 6, 0
11, 38, 0
11, 17, 0
1, 4, 0
1, 28, 0
1, 31, 0
1, 24, 0
1, 14, 0
1, 35, 0
1, 5, 0
1, 30, 0
37, 20, 0
37, 33, 0
37, 17, 0
37, 31, 0
37, 32, 0
37, 29, 0
37, 16, 0
37, 28, 0
37, 15, 0
37, 22, 0
37, 27, 0
4, 35, 0
4, 13, 0
4, 17, 0
4, 31, 0
4, 2, 0
4, 40, 0
4, 5, 1
4, 30, 0
4, 25, 0
4, 26, 0
4, 24, 0
4, 1, 0
4, 39, 0
4, 10, 0
4, 36, 0
35, 13, 0
35, 31, 0
35, 24, 0
35, 40, 0
35, 5, 0
35, 1, 0
35, 4, 0
35, 25, 0
35, 26, 0
35, 2, 0
35, 30, 0
35, 39, 0
35, 10, 0
35, 36, 1
30, 2, 0
30, 28, 0
30, 31, 0
30, 24, 0
30, 40, 0
30, 5, 0
30, 1, 0
30, 4, 0
30, 25, 0
30, 26, 0
30, 35, 0
30, 14, 0
30, 39, 0
30, 36, 0
38, 20, 0
38, 28, 0
38, 6, 0
38, 17, 0
38, 15, 0
38, 11, 0
22, 20, 0
22, 33, 0
22, 16, 0
22, 17, 0
22, 32, 0
22, 29, 0
22, 37, 0
22, 15, 0
36, 13, 0
36, 25, 0
36, 4, 0
36, 35, 1
36, 40, 0
36, 5, 0
36, 30, 0
16, 20, 0
16, 33, 0
16, 17, 1
16, 32, 0
16, 37, 0
16, 27, 0
16, 22, 0
27, 40, 0
27, 12, 0
27, 16, 0
27, 28, 0
27, 23, 0
27, 37, 0
27, 17, 0
27, 19, 0
27, 15, 0
27, 41, 0
27, 18, 0
34, 3, 0
34, 13, 0
34, 28, 0
34, 40, 0
34, 9, 0
34, 15, 0
34, 10, 0
25, 4, 0
25, 28, 0
25, 31, 0
25, 26, 1
25, 2, 0
25, 36, 0
25, 35, 0
25, 39, 0
25, 5, 0
25, 30, 0
26, 4, 0
26, 28, 0
26, 31, 0
26, 2, 0
26, 25, 1
26, 39, 0
26, 35, 0
26, 40, 0
26, 5, 0
26, 30, 0
6, 0, 0
6, 7, 0
6, 38, 0
6, 17, 0
6, 11, 0
43, 21, 0
43, 42, 1
43, 8, 0
43, 31, 0
9, 40, 0
9, 34, 0
9, 13, 0
9, 15, 0
9, 10, 1
