13, 7, 0
13, 12, 0
13, 28, 0
13, 15, 0
13, 11, 0
17, 7, 0
17, 12, 0
17, 4, 0
17, 28, 0
17, 1, 0
23, 27, 0
23, 19, 0
23, 26, 0
2, 18, 0
2, 6, 0
2, 19, 0
2, 9, 0
5, 20, 0
5, 16, 0
5, 27, 0
5, 19, 0
5, 8, 0
5, 10, 0
11, 7, 0
11, 12, 0
11, 13, 0
11, 22, 0
1, 7, 0
1, 3, 0
1, 4, 0
1, 17, 0
1, 24, 0
1, 16, 0
1, 14, 0
1, 15, 0
1, 10, 0
20, 27, 0
20, 5, 0
20, 10, 0
4, 3, 0
4, 17, 0
4, 1, 0
14, 0, 0
14, 3, 0
14, 24, 0
14, 16, 0
14, 10, 0
14, 1, 0
24, 16, 0
24, 3, 0
24, 14, 0
24, 1, 0
28, 7, 0
28, 12, 0
28, 13, 0
28, 17, 0
8, 0, 0
8, 16, 0
8, 19, 0
8, 5, 0
8, 10, 0
15, 7, 0
15, 12, 0
15, 13, 0
15, 25, 0
15, 22, 0
15, 1, 0
22, 7, 0
22, 15, 0
22, 11, 0
0, 16, 0
0, 8, 0
0, 14, 0
0, 10, 0
12, 28, 0
12, 17, 0
12, 13, 0
12, 15, 0
12, 11, 0
16, 0, 0
16, 3, 0
16, 14, 0
16, 24, 0
16, 27, 0
16, 19, 0
16, 8, 0
16, 5, 0
16, 10, 0
16, 1, 0
6, 21, 0
6, 19, 0
6, 2, 0
6, 9, 0
10, 20, 0
10, 0, 0
10, 14, 0
10, 3, 0
10, 16, 0
10, 27, 0
10, 8, 0
10, 5, 0
10, 1, 0
7, 13, 0
7, 28, 0
7, 11, 0
7, 17, 0
7, 15, 0
7, 22, 0
7, 1, 0
3, 4, 0
3, 14, 0
3, 24, 0
3, 16, 0
3, 10, 0
3, 1, 0
25, 15, 0
26, 18, 0
26, 19, 0
26, 23, 0
27, 20, 0
27, 23, 0
27, 16, 0
27, 19, 0
27, 5, 0
27, 10, 0
21, 6, 0
21, 19, 0
21, 9, 0
19, 16, 0
19, 26, 0
19, 23, 0
19, 2, 0
19, 21, 0
19, 6, 0
19, 27, 0
19, 8, 0
19, 5, 0
19, 18, 0
19, 9, 0
18, 19, 0
18, 26, 0
18, 2, 0
9, 21, 0
9, 6, 0
9, 19, 0
9, 2, 0
