12, 10, 0
12, 11, 1
12, 32, 0
12, 30, 0
13, 5, 0
17, 27, 0
17, 15, 0
17, 38, 0
17, 14, 0
17, 28, 0
31, 0, 0
31, 23, 0
31, 18, 0
31, 6, 0
31, 2, 0
31, 40, 0
31, 5, 0
31, 1, 0
31, 7, 0
31, 33, 0
31, 24, 0
31, 21, 0
23, 0, 0
23, 33, 0
23, 31, 0
23, 34, 0
23, 21, 0
23, 40, 0
23, 18, 0
23, 1, 0
24, 32, 0
24, 18, 0
24, 1, 0
24, 7, 0
24, 33, 0
24, 4, 0
24, 9, 0
24, 31, 0
24, 2, 0
24, 21, 0
24, 19, 0
24, 8, 0
24, 36, 0
40, 0, 0
40, 34, 0
40, 31, 0
40, 23, 0
40, 33, 0
40, 5, 0
5, 34, 0
5, 13, 0
5, 40, 0
5, 31, 0
5, 33, 0
11, 12, 1
11, 30, 0
11, 32, 0
11, 10, 0
1, 33, 0
1, 21, 0
1, 31, 0
1, 23, 0
1, 24, 0
1, 37, 0
1, 8, 0
1, 18, 0
1, 36, 0
20, 37, 0
20, 7, 0
20, 4, 0
20, 9, 0
20, 29, 0
21, 33, 0
21, 31, 0
21, 23, 0
21, 24, 0
21, 18, 0
21, 1, 0
4, 20, 0
4, 7, 0
4, 3, 0
4, 37, 0
4, 29, 0
4, 36, 0
4, 8, 0
4, 24, 0
4, 9, 0
14, 7, 0
14, 27, 0
14, 6, 0
14, 17, 0
14, 2, 0
39, 6, 0
39, 35, 0
39, 38, 0
39, 27, 0
39, 2, 0
35, 7, 0
35, 6, 0
35, 25, 0
35, 39, 0
35, 2, 0
35, 28, 0
35, 15, 0
35, 38, 0
28, 25, 0
28, 35, 0
28, 38, 0
28, 2, 0
28, 15, 0
28, 17, 0
30, 3, 0
30, 12, 0
30, 32, 0
30, 29, 0
30, 16, 0
30, 15, 0
30, 11, 0
30, 10, 0
8, 7, 0
8, 4, 0
8, 24, 0
8, 18, 0
8, 19, 0
8, 1, 0
8, 36, 0
15, 28, 0
15, 32, 0
15, 26, 0
15, 35, 0
15, 25, 0
15, 38, 0
15, 17, 0
15, 22, 0
15, 30, 0
22, 25, 0
22, 15, 0
22, 26, 0
22, 32, 0
36, 7, 0
36, 37, 0
36, 4, 0
36, 24, 0
36, 18, 0
36, 19, 0
36, 8, 0
36, 1, 0
0, 34, 0
0, 40, 0
0, 31, 0
0, 23, 0
0, 33, 0
6, 7, 0
6, 14, 0
6, 32, 0
6, 31, 0
6, 35, 0
6, 25, 0
6, 19, 0
6, 2, 0
6, 38, 0
6, 27, 0
6, 39, 0
38, 28, 0
38, 35, 0
38, 6, 0
38, 15, 0
38, 2, 0
38, 39, 0
38, 17, 0
38, 27, 0
3, 4, 0
3, 9, 0
3, 2, 0
3, 16, 0
3, 29, 0
3, 10, 0
3, 30, 0
16, 3, 0
16, 29, 0
16, 10, 0
16, 30, 0
27, 14, 0
27, 39, 0
27, 2, 0
27, 6, 0
27, 38, 0
27, 17, 0
10, 3, 0
10, 32, 0
10, 12, 0
10, 16, 0
10, 11, 0
10, 30, 0
7, 2, 0
7, 35, 0
7, 32, 0
7, 18, 0
7, 6, 0
7, 36, 0
7, 24, 0
7, 20, 0
7, 33, 0
7, 4, 0
7, 14, 0
7, 31, 0
7, 29, 0
7, 25, 0
7, 19, 0
7, 8, 0
7, 9, 0
34, 0, 0
34, 40, 0
34, 5, 0
34, 23, 0
25, 7, 0
25, 28, 0
25, 32, 0
25, 26, 0
25, 35, 0
25, 6, 0
25, 2, 0
25, 15, 0
25, 22, 0
33, 0, 0
33, 7, 0
33, 31, 0
33, 23, 0
33, 24, 0
33, 21, 0
33, 5, 0
33, 40, 0
33, 18, 0
33, 1, 0
32, 6, 0
32, 2, 0
32, 11, 0
32, 30, 0
32, 7, 0
32, 12, 0
32, 25, 0
32, 26, 0
32, 24, 0
32, 10, 0
32, 15, 0
32, 22, 0
2, 28, 0
2, 31, 0
2, 18, 0
2, 6, 0
2, 24, 0
2, 27, 0
2, 7, 0
2, 3, 0
2, 38, 0
2, 25, 0
2, 32, 0
2, 35, 0
2, 14, 0
2, 19, 0
2, 39, 0
2, 9, 0
37, 20, 0
37, 4, 0
37, 29, 0
37, 36, 0
37, 9, 0
37, 1, 0
29, 20, 0
29, 16, 0
29, 4, 0
29, 3, 0
29, 37, 0
29, 30, 0
29, 7, 0
29, 9, 0
19, 7, 0
19, 2, 0
19, 9, 0
19, 24, 0
19, 18, 1
19, 6, 0
19, 8, 0
19, 36, 0
26, 25, 0
26, 15, 0
26, 32, 0
26, 22, 0
18, 7, 0
18, 33, 0
18, 2, 0
18, 31, 0
18, 23, 0
18, 24, 0
18, 21, 0
18, 36, 0
18, 19, 1
18, 8, 0
18, 1, 0
9, 20, 0
9, 3, 0
9, 4, 0
9, 24, 0
9, 37, 0
9, 29, 0
9, 19, 0
9, 2, 0
9, 7, 0
