17, 87, 0
17, 90, 0
17, 46, 0
17, 11, 0
17, 30, 0
17, 83, 0
17, 4, 0
17, 82, 0
17, 24, 0
17, 91, 0
17, 15, 0
17, 62, 0
17, 56, 0
17, 27, 0
17, 55, 0
17, 74, 0
17, 69, 0
17, 26, 0
17, 72, 0
17, 43, 0
17, 49, 0
17, 48, 0
23, 2, 0
23, 70, 0
23, 62, 0
23, 51, 0
23, 33, 0
23, 63, 0
23, 76, 0
23, 53, 0
23, 59, 0
23, 80, 0
23, 1, 0
23, 3, 0
23, 56, 0
23, 52, 0
23, 66, 0
23, 67, 0
23, 84, 0
23, 60, 0
23, 10, 0
23, 9, 0
63, 23, 0
63, 81, 0
63, 89, 0
63, 29, 0
63, 46, 0
63, 80, 0
63, 1, 0
63, 57, 0
63, 86, 0
63, 66, 0
63, 91, 0
63, 84, 0
63, 38, 0
63, 41, 0
63, 45, 0
63, 77, 0
63, 51, 0
63, 3, 0
63, 18, 0
63, 6, 0
63, 79, 0
63, 10, 0
63, 78, 0
63, 4, 0
63, 52, 0
63, 76, 0
63, 9, 0
79, 57, 0
79, 78, 1
79, 4, 0
79, 29, 0
79, 63, 0
79, 76, 0
79, 89, 0
79, 38, 0
89, 45, 0
89, 77, 0
89, 56, 0
89, 63, 0
89, 76, 0
89, 79, 0
89, 4, 0
89, 47, 0
89, 57, 0
89, 78, 0
89, 86, 0
89, 29, 0
89, 91, 0
89, 38, 0
89, 41, 0
89, 62, 0
5, 57, 0
5, 4, 0
5, 90, 0
5, 32, 0
5, 27, 0
5, 91, 0
5, 56, 0
5, 46, 0
5, 30, 0
80, 40, 0
80, 70, 0
80, 23, 0
80, 51, 0
80, 67, 0
80, 63, 0
80, 6, 0
80, 42, 0
80, 71, 0
80, 59, 0
80, 10, 0
80, 7, 0
80, 34, 0
80, 54, 0
80, 66, 0
80, 37, 0
80, 33, 0
80, 84, 0
80, 38, 0
80, 41, 0
57, 26, 0
57, 90, 0
57, 45, 0
57, 75, 0
57, 79, 0
57, 89, 0
57, 59, 0
57, 5, 0
57, 65, 0
57, 20, 0
57, 83, 0
57, 4, 0
57, 43, 0
57, 24, 0
57, 91, 0
57, 30, 0
57, 39, 0
57, 41, 0
57, 22, 0
57, 77, 0
57, 0, 0
57, 68, 0
57, 62, 0
57, 56, 0
57, 27, 0
57, 74, 0
57, 25, 0
57, 47, 0
57, 48, 0
57, 12, 0
57, 69, 0
57, 46, 0
57, 32, 0
57, 29, 0
57, 82, 0
57, 19, 0
57, 15, 0
57, 63, 0
86, 45, 0
86, 70, 0
86, 77, 0
86, 63, 0
86, 76, 0
86, 89, 0
86, 1, 0
86, 83, 0
86, 25, 0
86, 32, 0
86, 81, 0
86, 21, 0
86, 14, 0
86, 84, 0
86, 38, 0
86, 41, 0
86, 9, 0
24, 0, 0
24, 20, 0
24, 17, 0
24, 77, 0
24, 90, 0
24, 74, 0
24, 46, 0
24, 47, 0
24, 30, 0
24, 57, 0
24, 11, 0
24, 21, 0
24, 91, 0
24, 56, 0
24, 65, 0
24, 19, 0
24, 22, 0
24, 50, 0
28, 67, 0
28, 35, 0
28, 8, 0
28, 66, 0
28, 34, 0
28, 84, 0
28, 59, 0
28, 36, 0
39, 57, 0
39, 83, 0
39, 69, 0
39, 43, 0
39, 48, 0
39, 11, 0
39, 0, 0
0, 90, 0
0, 15, 0
0, 46, 0
0, 11, 0
0, 30, 0
0, 20, 0
0, 83, 0
0, 4, 0
0, 82, 0
0, 24, 0
0, 91, 0
0, 39, 0
0, 22, 0
0, 57, 0
0, 62, 0
0, 56, 0
0, 27, 0
0, 74, 0
0, 47, 0
0, 69, 0
0, 26, 0
0, 72, 0
0, 43, 0
0, 19, 0
0, 48, 0
68, 77, 0
68, 56, 0
68, 75, 0
68, 46, 0
68, 11, 0
68, 73, 0
68, 57, 0
68, 82, 0
68, 47, 0
68, 19, 0
68, 30, 0
68, 15, 0
68, 91, 0
68, 62, 0
84, 58, 0
84, 70, 0
84, 23, 0
84, 63, 0
84, 81, 0
84, 2, 0
84, 59, 0
84, 88, 0
84, 80, 0
84, 1, 0
84, 61, 0
84, 86, 0
84, 66, 0
84, 28, 0
84, 45, 0
84, 51, 0
84, 3, 0
84, 18, 0
84, 6, 0
84, 10, 0
84, 7, 0
84, 33, 0
84, 4, 0
84, 29, 0
84, 21, 0
84, 67, 0
84, 60, 0
84, 9, 0
51, 70, 0
51, 23, 0
51, 67, 0
51, 63, 0
51, 6, 0
51, 1, 0
51, 2, 0
51, 59, 0
51, 80, 0
51, 10, 0
51, 33, 0
51, 52, 1
51, 31, 0
51, 66, 0
51, 54, 0
51, 84, 0
51, 60, 0
51, 9, 0
33, 70, 0
33, 51, 0
33, 23, 0
33, 60, 0
33, 6, 0
33, 2, 0
33, 59, 0
33, 80, 0
33, 7, 0
33, 34, 0
33, 14, 0
33, 31, 0
33, 66, 0
33, 84, 0
64, 66, 0
64, 34, 0
64, 35, 0
64, 13, 0
64, 67, 0
64, 8, 0
64, 7, 0
64, 36, 0
3, 9, 0
3, 23, 0
3, 29, 0
3, 63, 0
3, 76, 0
3, 84, 0
3, 59, 0
3, 10, 0
3, 1, 0
69, 0, 0
69, 17, 0
69, 56, 0
69, 90, 0
69, 74, 0
69, 11, 0
69, 30, 0
69, 57, 0
69, 43, 0
69, 21, 0
69, 39, 0
69, 48, 0
2, 70, 0
2, 51, 0
2, 23, 0
2, 34, 0
2, 60, 0
2, 6, 0
2, 59, 0
2, 7, 0
2, 33, 0
2, 66, 0
2, 84, 0
2, 38, 0
21, 45, 0
21, 26, 0
21, 90, 0
21, 12, 0
21, 16, 0
21, 27, 0
21, 83, 0
21, 86, 0
21, 25, 0
21, 32, 0
21, 24, 0
21, 81, 0
21, 69, 0
21, 84, 0
48, 57, 0
48, 83, 0
48, 69, 0
48, 17, 0
48, 56, 0
48, 90, 0
48, 43, 0
48, 30, 0
48, 39, 0
48, 0, 0
70, 6, 0
70, 23, 0
70, 51, 0
70, 34, 0
70, 81, 0
70, 71, 0
70, 40, 0
70, 44, 0
70, 80, 0
70, 7, 0
70, 33, 0
70, 86, 0
70, 14, 0
70, 66, 0
70, 2, 0
70, 37, 0
70, 42, 0
70, 84, 0
70, 38, 0
70, 59, 0
31, 7, 0
31, 33, 0
31, 54, 0
31, 51, 0
31, 66, 0
31, 81, 0
31, 14, 0
31, 34, 0
31, 38, 0
31, 59, 0
75, 57, 0
75, 68, 0
75, 56, 0
75, 19, 0
75, 15, 0
75, 47, 0
75, 73, 0
29, 45, 0
29, 59, 0
29, 77, 0
29, 56, 0
29, 3, 0
29, 63, 0
29, 76, 0
29, 89, 0
29, 79, 0
29, 1, 0
29, 57, 0
29, 67, 0
29, 78, 0
29, 4, 0
29, 10, 0
29, 91, 0
29, 84, 0
29, 41, 0
29, 62, 0
40, 7, 0
40, 34, 0
40, 14, 0
40, 42, 0
40, 37, 0
40, 70, 0
40, 71, 0
40, 44, 0
40, 80, 0
30, 17, 0
30, 26, 0
30, 90, 0
30, 5, 0
30, 11, 0
30, 46, 0
30, 57, 0
30, 83, 0
30, 4, 0
30, 82, 0
30, 24, 0
30, 91, 0
30, 15, 0
30, 22, 0
30, 62, 0
30, 0, 0
30, 68, 0
30, 77, 0
30, 56, 0
30, 27, 0
30, 87, 0
30, 47, 0
30, 73, 0
30, 12, 0
30, 69, 0
30, 32, 0
30, 72, 0
30, 43, 0
30, 19, 0
30, 48, 0
61, 58, 0
61, 67, 0
61, 34, 0
61, 84, 0
61, 59, 0
61, 46, 0
61, 88, 0
82, 57, 0
82, 0, 0
82, 17, 0
82, 85, 0
82, 68, 0
82, 72, 0
82, 87, 0
82, 15, 0
82, 73, 0
82, 11, 0
82, 30, 0
35, 7, 0
35, 67, 0
35, 28, 0
35, 66, 0
35, 34, 0
35, 59, 0
35, 8, 0
35, 64, 0
35, 36, 0
91, 17, 0
91, 90, 0
91, 68, 0
91, 63, 0
91, 89, 0
91, 5, 0
91, 11, 0
91, 1, 0
91, 57, 0
91, 4, 0
91, 24, 0
91, 30, 0
91, 38, 0
91, 41, 0
91, 22, 0
91, 77, 0
91, 0, 0
91, 45, 0
91, 62, 0
91, 56, 0
91, 76, 0
91, 55, 0
91, 74, 0
91, 47, 0
91, 73, 0
91, 12, 0
91, 32, 0
91, 29, 0
91, 72, 0
91, 19, 0
91, 15, 0
91, 9, 0
8, 28, 0
8, 36, 0
8, 64, 0
8, 35, 0
22, 0, 0
22, 20, 0
22, 56, 0
22, 16, 0
22, 47, 0
22, 30, 0
22, 57, 0
22, 50, 0
22, 24, 0
22, 91, 0
22, 65, 0
22, 19, 0
36, 66, 0
36, 34, 0
36, 35, 0
36, 28, 0
36, 67, 0
36, 64, 0
36, 8, 0
36, 59, 0
77, 68, 0
77, 63, 0
77, 89, 0
77, 46, 0
77, 30, 0
77, 57, 0
77, 4, 0
77, 24, 0
77, 91, 0
77, 38, 0
77, 41, 0
77, 45, 0
77, 62, 0
77, 56, 0
77, 76, 0
77, 47, 0
77, 73, 0
77, 78, 1
77, 86, 0
77, 29, 0
77, 72, 0
77, 19, 0
77, 9, 0
16, 20, 0
16, 50, 0
16, 21, 0
16, 19, 0
16, 65, 0
16, 22, 0
16, 73, 0
27, 0, 0
27, 45, 0
27, 17, 0
27, 62, 0
27, 90, 0
27, 55, 0
27, 46, 0
27, 47, 0
27, 5, 0
27, 57, 0
27, 12, 0
27, 4, 0
27, 11, 0
27, 32, 0
27, 21, 0
27, 26, 1
27, 30, 0
27, 56, 0
27, 15, 0
27, 85, 0
27, 73, 0
53, 7, 0
53, 34, 0
53, 52, 1
53, 23, 0
53, 66, 0
53, 59, 0
53, 1, 0
44, 14, 0
44, 42, 0
44, 37, 0
44, 70, 0
44, 71, 0
44, 40, 0
73, 68, 0
73, 55, 0
73, 77, 0
73, 90, 0
73, 16, 0
73, 27, 0
73, 87, 0
73, 46, 0
73, 11, 0
73, 30, 0
73, 75, 0
73, 82, 0
73, 47, 0
73, 72, 1
73, 91, 0
73, 56, 0
73, 15, 0
73, 19, 0
73, 62, 0
12, 57, 0
12, 9, 0
12, 4, 0
12, 25, 0
12, 32, 0
12, 26, 0
12, 21, 0
12, 27, 0
12, 91, 0
12, 56, 0
12, 30, 0
54, 51, 0
54, 18, 0
54, 81, 0
54, 66, 0
54, 59, 0
54, 80, 0
54, 10, 0
54, 7, 0
54, 34, 0
54, 31, 0
54, 6, 0
54, 38, 0
72, 0, 0
72, 55, 0
72, 17, 0
72, 62, 0
72, 87, 0
72, 46, 0
72, 85, 0
72, 73, 1
72, 82, 0
72, 49, 0
72, 91, 0
72, 30, 0
72, 15, 0
72, 77, 0
14, 33, 0
14, 38, 0
14, 86, 0
14, 70, 0
14, 31, 0
14, 42, 0
14, 37, 0
14, 81, 0
14, 40, 0
14, 44, 0
58, 61, 0
58, 34, 0
58, 84, 0
58, 59, 0
58, 46, 0
13, 7, 0
13, 67, 0
13, 66, 0
13, 34, 0
13, 71, 0
13, 64, 0
81, 45, 0
81, 70, 0
81, 63, 0
81, 10, 0
81, 18, 0
81, 86, 0
81, 25, 0
81, 31, 0
81, 21, 0
81, 54, 0
81, 14, 0
81, 84, 0
81, 38, 0
81, 9, 0
66, 13, 0
66, 70, 0
66, 23, 0
66, 63, 0
66, 71, 0
66, 59, 0
66, 80, 0
66, 1, 0
66, 35, 0
66, 28, 0
66, 84, 0
66, 64, 0
66, 36, 0
66, 51, 0
66, 67, 0
66, 18, 0
66, 6, 0
66, 53, 0
66, 7, 0
66, 33, 0
66, 52, 0
66, 31, 0
66, 2, 0
66, 54, 0
66, 60, 0
46, 58, 0
46, 17, 0
46, 26, 0
46, 90, 0
46, 68, 0
46, 63, 0
46, 5, 0
46, 11, 0
46, 30, 0
46, 57, 0
46, 61, 0
46, 4, 0
46, 85, 0
46, 24, 0
46, 73, 0
46, 15, 0
46, 41, 0
46, 77, 0
46, 0, 0
46, 45, 0
46, 62, 0
46, 56, 0
46, 67, 0
46, 27, 0
46, 47, 0
46, 10, 0
46, 78, 0
46, 25, 0
46, 32, 0
46, 72, 0
46, 88, 0
46, 9, 0
85, 87, 0
85, 4, 0
85, 82, 0
85, 62, 0
85, 26, 0
85, 72, 0
85, 27, 0
85, 49, 0
85, 15, 0
85, 46, 0
85, 55, 0
65, 57, 0
65, 20, 0
65, 47, 0
65, 50, 0
65, 24, 0
65, 16, 0
65, 19, 0
65, 22, 0
20, 57, 0
20, 0, 0
20, 47, 0
20, 50, 0
20, 24, 0
20, 16, 0
20, 19, 0
20, 22, 0
20, 11, 0
20, 65, 0
43, 57, 0
43, 0, 0
43, 69, 0
43, 17, 0
43, 56, 0
43, 90, 0
43, 83, 0
43, 39, 0
43, 48, 0
43, 11, 0
43, 30, 0
42, 70, 0
42, 37, 0
42, 14, 0
42, 71, 0
42, 40, 0
42, 44, 0
42, 80, 0
15, 0, 0
15, 68, 0
15, 17, 0
15, 62, 0
15, 90, 0
15, 75, 0
15, 27, 0
15, 87, 0
15, 46, 0
15, 85, 0
15, 73, 0
15, 57, 0
15, 82, 0
15, 11, 0
15, 47, 0
15, 72, 0
15, 91, 0
15, 49, 0
15, 19, 0
15, 30, 0
41, 45, 0
41, 62, 0
41, 56, 0
41, 63, 0
41, 76, 0
41, 89, 0
41, 4, 0
41, 80, 0
41, 46, 0
41, 57, 0
41, 77, 0
41, 86, 0
41, 29, 0
41, 91, 0
41, 38, 0
41, 9, 0
62, 17, 0
62, 23, 0
62, 68, 0
62, 89, 0
62, 46, 0
62, 11, 0
62, 30, 0
62, 57, 0
62, 4, 0
62, 85, 0
62, 91, 0
62, 15, 0
62, 41, 0
62, 0, 0
62, 45, 0
62, 77, 0
62, 56, 0
62, 27, 0
62, 47, 0
62, 73, 0
62, 78, 0
62, 29, 0
62, 72, 0
62, 9, 0
34, 58, 0
34, 13, 0
34, 70, 0
34, 60, 0
34, 59, 0
34, 71, 0
34, 40, 0
34, 80, 0
34, 1, 0
34, 35, 0
34, 28, 0
34, 64, 0
34, 36, 0
34, 67, 0
34, 18, 0
34, 6, 0
34, 53, 0
34, 10, 0
34, 7, 0
34, 33, 0
34, 54, 0
34, 31, 0
34, 2, 0
34, 61, 0
34, 52, 0
34, 88, 0
6, 70, 0
6, 51, 0
6, 33, 0
6, 18, 0
6, 2, 0
6, 59, 0
6, 80, 0
6, 10, 0
6, 7, 0
6, 34, 0
6, 54, 0
6, 66, 0
6, 52, 0
6, 84, 0
6, 60, 0
6, 63, 0
74, 57, 0
74, 0, 0
74, 69, 0
74, 17, 0
74, 56, 0
74, 90, 0
74, 24, 0
74, 91, 0
74, 11, 0
47, 90, 0
47, 75, 0
47, 89, 0
47, 46, 0
47, 11, 0
47, 30, 0
47, 20, 0
47, 4, 0
47, 57, 0
47, 24, 0
47, 91, 0
47, 65, 0
47, 15, 0
47, 22, 0
47, 62, 0
47, 0, 0
47, 68, 0
47, 77, 0
47, 56, 0
47, 27, 0
47, 73, 0
47, 19, 0
10, 51, 0
10, 23, 0
10, 34, 0
10, 63, 0
10, 6, 0
10, 59, 0
10, 46, 0
10, 80, 0
10, 1, 0
10, 7, 0
10, 3, 0
10, 52, 0
10, 29, 0
10, 81, 0
10, 54, 0
10, 84, 0
10, 38, 0
10, 18, 0
10, 9, 1
7, 13, 0
7, 70, 0
7, 60, 0
7, 40, 0
7, 71, 0
7, 59, 0
7, 80, 0
7, 1, 0
7, 66, 0
7, 35, 0
7, 84, 0
7, 64, 0
7, 67, 0
7, 18, 0
7, 6, 0
7, 53, 0
7, 10, 0
7, 34, 0
7, 54, 0
7, 31, 0
7, 2, 0
7, 33, 0
78, 45, 0
78, 62, 0
78, 63, 0
78, 76, 0
78, 89, 0
78, 79, 1
78, 46, 0
78, 4, 0
78, 29, 0
78, 9, 0
78, 38, 0
78, 77, 1
32, 4, 0
32, 56, 0
32, 90, 0
32, 83, 0
32, 27, 0
32, 46, 0
32, 30, 0
32, 57, 0
32, 12, 0
32, 86, 0
32, 25, 0
32, 21, 0
32, 91, 0
32, 5, 0
37, 14, 0
37, 42, 0
37, 70, 0
37, 71, 0
37, 40, 0
37, 44, 0
37, 80, 0
25, 57, 0
25, 12, 0
25, 86, 0
25, 32, 0
25, 26, 1
25, 45, 0
25, 21, 0
25, 81, 0
25, 46, 0
25, 4, 0
25, 9, 0
19, 0, 0
19, 68, 0
19, 77, 0
19, 56, 0
19, 16, 0
19, 47, 0
19, 73, 0
19, 57, 0
19, 75, 0
19, 50, 0
19, 24, 0
19, 20, 0
19, 65, 0
19, 15, 0
19, 91, 0
19, 22, 0
19, 30, 0
49, 55, 0
49, 17, 0
49, 72, 0
49, 87, 0
49, 15, 0
49, 85, 0
88, 67, 0
88, 34, 0
88, 61, 0
88, 84, 0
88, 59, 0
88, 46, 0
90, 17, 0
90, 46, 0
90, 11, 0
90, 30, 0
90, 57, 0
90, 83, 0
90, 4, 0
90, 43, 0
90, 24, 0
90, 91, 0
90, 15, 0
90, 0, 0
90, 56, 0
90, 27, 0
90, 55, 0
90, 74, 0
90, 47, 0
90, 73, 0
90, 69, 0
90, 32, 0
90, 21, 0
90, 5, 0
90, 48, 0
60, 7, 0
60, 34, 0
60, 66, 0
60, 23, 0
60, 51, 0
60, 2, 0
60, 6, 0
60, 84, 0
60, 59, 0
60, 33, 0
59, 58, 0
59, 70, 0
59, 23, 0
59, 60, 0
59, 66, 0
59, 80, 0
59, 57, 0
59, 29, 0
59, 35, 0
59, 28, 0
59, 84, 0
59, 36, 0
59, 51, 0
59, 34, 0
59, 6, 0
59, 53, 0
59, 10, 0
59, 7, 0
59, 3, 0
59, 54, 0
59, 33, 0
59, 31, 0
59, 2, 0
59, 61, 0
59, 52, 0
59, 67, 0
59, 88, 0
71, 7, 0
71, 67, 0
71, 13, 0
71, 70, 0
71, 66, 0
71, 37, 0
71, 42, 0
71, 34, 0
71, 40, 0
71, 44, 0
71, 80, 0
11, 17, 0
11, 90, 0
11, 15, 0
11, 46, 0
11, 30, 0
11, 20, 0
11, 4, 0
11, 43, 0
11, 24, 0
11, 91, 0
11, 39, 0
11, 0, 0
11, 68, 0
11, 62, 0
11, 56, 0
11, 27, 0
11, 74, 0
11, 47, 0
11, 73, 0
11, 69, 0
11, 26, 0
11, 82, 0
55, 49, 0
55, 17, 0
55, 90, 0
55, 72, 0
55, 27, 0
55, 91, 0
55, 87, 0
55, 85, 0
55, 73, 0
4, 17, 0
4, 26, 0
4, 90, 0
4, 63, 0
4, 89, 0
4, 46, 0
4, 11, 0
4, 30, 0
4, 57, 0
4, 85, 0
4, 91, 0
4, 84, 0
4, 41, 0
4, 77, 0
4, 0, 0
4, 45, 0
4, 62, 0
4, 56, 0
4, 12, 0
4, 27, 0
4, 79, 0
4, 47, 0
4, 78, 0
4, 25, 0
4, 32, 0
4, 29, 0
4, 5, 0
4, 9, 0
1, 23, 0
1, 51, 0
1, 34, 0
1, 63, 0
1, 53, 0
1, 10, 0
1, 7, 0
1, 3, 0
1, 86, 0
1, 52, 0
1, 66, 0
1, 29, 0
1, 91, 0
1, 84, 0
1, 38, 0
1, 18, 0
1, 9, 0
38, 45, 0
38, 70, 0
38, 77, 0
38, 63, 0
38, 81, 0
38, 89, 0
38, 2, 0
38, 79, 0
38, 80, 0
38, 1, 0
38, 78, 0
38, 86, 0
38, 54, 0
38, 31, 0
38, 76, 0
38, 14, 0
38, 91, 0
38, 10, 0
38, 41, 0
38, 18, 0
38, 9, 0
45, 62, 0
45, 4, 0
45, 21, 0
45, 63, 0
45, 27, 0
45, 89, 0
45, 46, 0
45, 9, 0
45, 57, 0
45, 78, 0
45, 86, 0
45, 25, 0
45, 26, 0
45, 29, 0
45, 81, 0
45, 91, 0
45, 84, 0
45, 38, 0
45, 41, 0
45, 77, 0
56, 17, 0
56, 26, 0
56, 90, 0
56, 75, 0
56, 89, 0
56, 46, 0
56, 11, 0
56, 30, 0
56, 57, 0
56, 83, 0
56, 23, 0
56, 4, 0
56, 43, 0
56, 24, 0
56, 91, 0
56, 41, 0
56, 22, 0
56, 62, 0
56, 0, 0
56, 68, 0
56, 77, 0
56, 27, 0
56, 74, 0
56, 47, 0
56, 73, 0
56, 12, 0
56, 69, 0
56, 32, 0
56, 29, 0
56, 19, 0
56, 5, 0
56, 48, 0
56, 9, 0
83, 0, 0
83, 17, 0
83, 56, 0
83, 90, 0
83, 30, 0
83, 57, 0
83, 86, 0
83, 43, 0
83, 32, 0
83, 21, 0
83, 39, 0
83, 48, 0
18, 7, 0
18, 34, 0
18, 54, 0
18, 81, 0
18, 66, 0
18, 63, 0
18, 6, 0
18, 1, 0
18, 84, 0
18, 38, 0
18, 10, 0
87, 73, 0
87, 49, 0
87, 82, 0
87, 72, 0
87, 17, 0
87, 55, 0
87, 15, 0
87, 85, 0
87, 30, 0
67, 13, 0
67, 28, 0
67, 51, 0
67, 23, 0
67, 36, 0
67, 71, 0
67, 59, 0
67, 46, 0
67, 80, 0
67, 7, 0
67, 34, 0
67, 66, 0
67, 35, 0
67, 61, 0
67, 29, 0
67, 84, 0
67, 64, 0
67, 88, 0
52, 34, 0
52, 23, 0
52, 51, 1
52, 66, 0
52, 63, 0
52, 6, 0
52, 1, 0
52, 53, 1
52, 59, 0
52, 10, 0
50, 20, 0
50, 24, 0
50, 16, 0
50, 19, 0
50, 22, 0
50, 65, 0
26, 0, 0
26, 45, 0
26, 17, 0
26, 56, 0
26, 27, 1
26, 46, 0
26, 11, 0
26, 30, 0
26, 57, 0
26, 12, 0
26, 4, 0
26, 25, 1
26, 85, 0
26, 21, 0
26, 9, 0
76, 77, 0
76, 23, 0
76, 78, 0
76, 63, 0
76, 89, 0
76, 79, 0
76, 3, 0
76, 86, 0
76, 29, 0
76, 91, 0
76, 38, 0
76, 41, 0
76, 9, 0
9, 23, 0
9, 63, 0
9, 81, 0
9, 46, 0
9, 1, 0
9, 78, 0
9, 86, 0
9, 56, 0
9, 91, 0
9, 84, 0
9, 38, 0
9, 41, 0
9, 62, 0
9, 45, 0
9, 77, 0
9, 51, 0
9, 3, 0
9, 76, 0
9, 10, 1
9, 12, 0
9, 4, 0
9, 25, 0
9, 26, 0
