0, 3, 0
0, 4, 0
3, 0, 0
3, 4, 0
4, 0, 0
4, 3, 0
4, 6, 0
2, 5, 0
2, 9, 0
6, 8, 0
6, 4, 0
1, 7, 0
1, 8, 0
1, 5, 0
1, 9, 0
8, 7, 0
8, 6, 0
8, 1, 0
5, 7, 0
5, 2, 0
5, 9, 0
5, 1, 0
7, 8, 0
7, 5, 0
7, 1, 0
9, 1, 0
9, 5, 0
9, 2, 0
