13, 3, 0
13, 2, 0
13, 12, 0
13, 6, 0
17, 20, 0
17, 4, 0
17, 15, 0
17, 24, 0
23, 0, 0
23, 14, 0
23, 5, 0
23, 22, 0
23, 9, 0
5, 14, 0
5, 23, 0
5, 10, 0
11, 2, 0
11, 22, 0
11, 26, 0
11, 1, 0
1, 26, 0
1, 11, 0
20, 12, 0
20, 17, 0
20, 2, 0
20, 16, 0
20, 19, 0
20, 18, 0
20, 22, 0
4, 15, 0
4, 2, 0
4, 17, 0
4, 22, 0
4, 10, 0
14, 5, 0
14, 23, 0
14, 10, 0
24, 18, 0
24, 15, 0
24, 17, 0
24, 22, 0
8, 7, 0
8, 0, 0
8, 9, 1
15, 4, 0
15, 17, 0
15, 24, 0
15, 18, 0
15, 2, 0
15, 22, 0
22, 23, 0
22, 16, 0
22, 2, 0
22, 11, 0
22, 20, 0
22, 18, 0
22, 4, 0
22, 25, 0
22, 24, 0
22, 21, 0
22, 19, 0
22, 15, 0
0, 7, 0
0, 8, 0
0, 23, 0
0, 9, 0
3, 12, 0
3, 13, 0
3, 26, 0
3, 2, 0
16, 20, 0
16, 21, 0
16, 22, 0
16, 2, 0
6, 12, 0
6, 13, 0
6, 25, 0
6, 2, 0
10, 4, 0
10, 14, 0
10, 5, 0
7, 0, 0
7, 8, 0
7, 9, 0
12, 20, 0
12, 3, 0
12, 13, 0
12, 25, 0
12, 26, 0
12, 2, 0
12, 21, 0
12, 6, 0
25, 21, 0
25, 6, 0
25, 2, 0
25, 22, 0
25, 12, 0
26, 3, 0
26, 2, 0
26, 12, 0
26, 11, 0
26, 1, 0
2, 13, 0
2, 3, 0
2, 16, 0
2, 6, 0
2, 11, 0
2, 20, 0
2, 12, 0
2, 4, 0
2, 25, 0
2, 26, 0
2, 21, 0
2, 15, 0
2, 18, 0
2, 22, 0
21, 16, 0
21, 12, 0
21, 25, 0
21, 22, 0
21, 2, 0
19, 20, 0
19, 18, 1
19, 22, 0
18, 20, 0
18, 2, 0
18, 19, 1
18, 24, 0
18, 15, 0
18, 22, 0
9, 0, 0
9, 7, 0
9, 8, 1
9, 23, 0
