0, 5, 0
0, 9, 0
13, 3, 0
13, 4, 0
13, 2, 0
3, 7, 0
3, 12, 0
3, 13, 0
3, 4, 1
3, 8, 0
3, 10, 0
6, 12, 0
6, 1, 0
8, 7, 0
8, 3, 0
5, 0, 0
5, 9, 0
11, 10, 0
11, 2, 0
10, 12, 0
10, 11, 0
10, 3, 0
7, 3, 0
7, 8, 0
7, 4, 0
12, 6, 0
12, 3, 0
12, 10, 0
4, 7, 0
4, 3, 1
4, 13, 0
2, 13, 0
2, 11, 0
1, 6, 0
1, 9, 0
9, 0, 0
9, 5, 0
9, 1, 0
