0, 6, 0
0, 1, 0
0, 4, 0
0, 2, 0
3, 6, 0
3, 4, 0
3, 5, 0
3, 9, 0
4, 0, 0
4, 3, 0
4, 6, 0
4, 9, 0
2, 0, 0
2, 6, 0
2, 1, 1
6, 0, 0
6, 3, 0
6, 1, 0
6, 4, 0
6, 2, 0
1, 0, 0
1, 6, 0
1, 2, 1
8, 10, 0
5, 7, 0
5, 3, 0
5, 10, 0
5, 9, 0
7, 5, 0
7, 10, 0
10, 7, 0
10, 8, 0
10, 5, 0
10, 9, 0
9, 3, 0
9, 4, 0
9, 5, 0
9, 10, 0
