13, 2, 0
13, 28, 0
13, 29, 0
13, 37, 0
13, 8, 0
13, 30, 0
17, 39, 0
17, 32, 0
17, 11, 0
17, 10, 0
23, 34, 0
23, 4, 0
23, 25, 0
23, 22, 0
23, 2, 0
23, 18, 0
23, 42, 0
23, 5, 0
23, 47, 0
23, 36, 0
42, 3, 0
42, 23, 0
42, 2, 0
42, 18, 0
42, 27, 0
42, 19, 0
42, 36, 0
46, 21, 0
46, 37, 0
46, 8, 0
46, 32, 0
46, 6, 0
20, 28, 0
20, 2, 0
20, 6, 0
20, 19, 0
20, 8, 0
20, 30, 0
34, 4, 0
34, 25, 0
34, 22, 0
34, 23, 0
34, 2, 0
34, 18, 0
34, 38, 0
34, 5, 0
34, 47, 0
14, 45, 0
14, 32, 0
14, 26, 0
14, 37, 0
14, 6, 0
14, 15, 1
14, 41, 0
24, 6, 0
24, 28, 0
24, 48, 0
24, 44, 0
28, 45, 0
28, 13, 0
28, 6, 0
28, 2, 0
28, 24, 0
28, 30, 0
28, 20, 0
28, 12, 0
28, 31, 0
28, 29, 0
28, 21, 0
28, 19, 0
28, 8, 0
28, 48, 0
39, 45, 0
39, 17, 0
39, 11, 0
39, 32, 0
41, 45, 0
41, 37, 0
41, 14, 0
41, 26, 0
41, 16, 0
41, 6, 0
41, 15, 0
41, 44, 0
0, 43, 0
0, 32, 0
0, 35, 0
8, 20, 0
8, 13, 0
8, 28, 0
8, 26, 0
8, 32, 0
8, 37, 0
8, 6, 0
8, 19, 0
8, 30, 0
8, 46, 0
8, 1, 0
33, 3, 0
33, 25, 0
33, 18, 0
33, 27, 0
33, 40, 0
33, 47, 0
15, 45, 0
15, 14, 1
15, 32, 0
15, 26, 0
15, 16, 1
15, 41, 0
47, 23, 0
47, 33, 0
47, 40, 0
47, 9, 0
47, 3, 0
47, 4, 0
47, 25, 0
47, 2, 0
47, 37, 0
47, 34, 0
47, 38, 0
47, 36, 0
10, 6, 0
10, 17, 0
10, 32, 0
10, 11, 0
7, 40, 0
7, 9, 0
3, 33, 0
3, 38, 0
3, 42, 0
3, 18, 0
3, 27, 0
3, 19, 0
3, 40, 0
3, 47, 0
32, 0, 0
32, 45, 0
32, 17, 0
32, 31, 0
32, 16, 0
32, 39, 0
32, 2, 0
32, 44, 0
32, 11, 0
32, 10, 0
32, 21, 0
32, 14, 0
32, 26, 0
32, 35, 0
32, 37, 0
32, 43, 0
32, 46, 0
32, 8, 0
32, 15, 0
32, 48, 0
2, 13, 0
2, 28, 0
2, 26, 0
2, 23, 0
2, 18, 0
2, 6, 0
2, 5, 0
2, 47, 0
2, 30, 0
2, 20, 0
2, 34, 0
2, 4, 0
2, 25, 0
2, 32, 0
2, 29, 0
2, 37, 0
2, 42, 0
2, 19, 0
2, 1, 0
2, 22, 0
2, 36, 0
21, 28, 0
21, 32, 0
21, 37, 0
21, 6, 0
21, 19, 0
21, 46, 0
21, 48, 0
19, 28, 0
19, 18, 0
19, 6, 0
19, 27, 0
19, 20, 0
19, 3, 0
19, 4, 0
19, 2, 0
19, 21, 0
19, 42, 0
19, 8, 0
19, 48, 0
19, 22, 0
18, 23, 0
18, 3, 0
18, 27, 0
18, 40, 0
18, 5, 0
18, 33, 0
18, 4, 0
18, 2, 0
18, 42, 0
18, 19, 0
18, 34, 0
18, 38, 0
18, 22, 0
18, 36, 0
31, 12, 0
31, 6, 0
31, 43, 0
31, 32, 0
31, 35, 0
31, 37, 0
31, 28, 0
31, 11, 0
29, 13, 0
29, 28, 0
29, 2, 0
29, 37, 0
29, 6, 0
29, 30, 0
29, 1, 0
40, 7, 0
40, 3, 0
40, 4, 0
40, 25, 0
40, 33, 0
40, 18, 0
40, 27, 0
40, 47, 0
40, 9, 0
11, 17, 0
11, 31, 0
11, 32, 0
11, 37, 0
11, 6, 0
11, 39, 0
11, 10, 0
5, 34, 0
5, 4, 0
5, 23, 0
5, 2, 0
5, 18, 0
5, 22, 0
37, 45, 0
37, 35, 0
37, 13, 0
37, 31, 0
37, 16, 0
37, 8, 0
37, 29, 0
37, 46, 0
37, 47, 0
37, 44, 0
37, 14, 0
37, 11, 0
37, 32, 0
37, 2, 0
37, 21, 0
37, 26, 0
37, 30, 0
37, 1, 0
37, 41, 0
37, 48, 0
4, 34, 0
4, 47, 0
4, 23, 0
4, 2, 0
4, 18, 0
4, 19, 0
4, 40, 0
4, 5, 0
4, 22, 0
35, 0, 0
35, 37, 0
35, 43, 0
35, 31, 0
35, 32, 0
30, 20, 0
30, 2, 0
30, 13, 0
30, 28, 0
30, 29, 0
30, 37, 0
30, 6, 0
30, 8, 0
30, 1, 0
38, 18, 0
38, 3, 0
38, 27, 0
38, 47, 0
38, 34, 0
22, 34, 0
22, 4, 0
22, 25, 0
22, 23, 0
22, 2, 0
22, 18, 0
22, 19, 0
22, 5, 0
36, 25, 0
36, 23, 0
36, 2, 0
36, 18, 0
36, 42, 0
36, 47, 0
45, 16, 0
45, 28, 0
45, 26, 0
45, 32, 0
45, 37, 0
45, 6, 0
45, 14, 0
45, 15, 0
45, 41, 0
45, 39, 0
16, 45, 0
16, 26, 0
16, 32, 0
16, 37, 0
16, 15, 1
16, 41, 0
27, 40, 0
27, 3, 0
27, 33, 0
27, 18, 0
27, 42, 0
27, 19, 0
27, 38, 0
1, 37, 0
1, 2, 0
1, 30, 0
1, 8, 0
1, 29, 0
44, 26, 0
44, 32, 0
44, 24, 0
44, 37, 0
44, 6, 0
44, 48, 0
44, 41, 0
48, 21, 0
48, 28, 0
48, 26, 0
48, 32, 0
48, 24, 0
48, 37, 0
48, 6, 0
48, 19, 0
48, 44, 0
12, 28, 0
12, 43, 0
12, 31, 0
12, 6, 0
25, 34, 0
25, 22, 0
25, 23, 0
25, 2, 0
25, 33, 0
25, 40, 0
25, 47, 0
25, 36, 0
26, 41, 0
26, 45, 0
26, 16, 0
26, 14, 0
26, 32, 0
26, 2, 0
26, 37, 0
26, 8, 0
26, 15, 0
26, 44, 0
26, 48, 0
6, 45, 0
6, 28, 0
6, 46, 0
6, 41, 0
6, 24, 0
6, 44, 0
6, 11, 0
6, 30, 0
6, 20, 0
6, 12, 0
6, 14, 0
6, 31, 0
6, 29, 0
6, 21, 0
6, 10, 0
6, 2, 0
6, 8, 0
6, 48, 0
6, 19, 0
43, 0, 0
43, 12, 0
43, 32, 0
43, 31, 0
43, 35, 0
9, 7, 0
9, 40, 0
9, 47, 0
