0, 7, 0
0, 2, 0
0, 8, 0
0, 5, 0
0, 9, 0
3, 7, 0
3, 6, 0
3, 5, 0
3, 2, 1
4, 6, 0
4, 1, 0
2, 0, 0
2, 3, 1
2, 8, 0
2, 7, 0
2, 6, 0
6, 7, 0
6, 3, 0
6, 4, 0
6, 2, 0
6, 8, 0
6, 5, 0
6, 1, 0
1, 6, 0
1, 4, 0
1, 5, 0
8, 0, 0
8, 6, 0
8, 2, 0
8, 9, 1
5, 0, 0
5, 7, 0
5, 3, 0
5, 6, 0
5, 1, 0
5, 9, 0
7, 0, 0
7, 3, 0
7, 6, 0
7, 5, 0
7, 2, 0
9, 0, 0
9, 8, 1
9, 5, 0
