13, 7, 0
13, 12, 0
13, 22, 0
13, 32, 0
13, 33, 0
13, 2, 0
13, 38, 0
13, 5, 0
13, 24, 0
13, 36, 0
17, 0, 0
17, 4, 0
17, 31, 0
17, 37, 0
17, 40, 0
17, 11, 0
17, 30, 0
23, 18, 0
23, 37, 0
23, 25, 0
42, 27, 0
42, 9, 0
42, 44, 0
42, 32, 0
42, 1, 0
5, 12, 0
5, 13, 0
5, 28, 0
5, 33, 0
5, 24, 0
5, 36, 0
20, 12, 0
20, 14, 0
20, 28, 0
20, 33, 0
14, 20, 0
14, 33, 0
14, 12, 0
24, 12, 0
24, 13, 0
24, 32, 0
24, 33, 0
24, 38, 0
24, 5, 0
24, 36, 0
28, 20, 0
28, 33, 0
28, 5, 0
28, 12, 0
39, 41, 0
39, 32, 0
39, 10, 0
41, 21, 0
41, 39, 0
41, 32, 0
0, 15, 0
0, 17, 0
0, 31, 0
0, 30, 0
8, 3, 0
8, 32, 0
8, 6, 0
12, 20, 0
12, 33, 0
12, 13, 0
12, 28, 0
12, 24, 0
12, 14, 0
12, 5, 0
12, 36, 0
15, 0, 0
15, 4, 0
15, 40, 0
15, 31, 0
10, 3, 0
10, 39, 0
10, 32, 0
7, 16, 0
7, 19, 0
7, 13, 0
7, 32, 0
3, 8, 0
3, 32, 0
3, 10, 0
32, 13, 0
32, 38, 0
32, 6, 0
32, 24, 0
32, 10, 0
32, 7, 0
32, 3, 0
32, 29, 0
32, 27, 0
32, 2, 0
32, 21, 0
32, 42, 0
32, 8, 0
32, 39, 0
32, 41, 0
32, 22, 0
32, 9, 0
2, 19, 0
2, 13, 0
2, 38, 0
2, 32, 0
21, 41, 0
21, 32, 0
21, 9, 0
33, 20, 0
33, 12, 0
33, 13, 0
33, 28, 0
33, 24, 0
33, 14, 0
33, 5, 0
19, 7, 0
19, 2, 0
18, 37, 0
18, 34, 0
18, 26, 0
18, 23, 0
31, 0, 0
31, 15, 0
31, 40, 0
31, 17, 0
31, 30, 0
29, 34, 0
29, 32, 0
29, 26, 0
29, 37, 0
29, 27, 0
29, 44, 0
29, 1, 0
40, 15, 0
40, 4, 0
40, 17, 0
40, 31, 0
11, 17, 0
11, 30, 0
1, 34, 0
1, 29, 0
1, 42, 0
1, 9, 0
1, 44, 0
1, 27, 0
37, 34, 0
37, 4, 0
37, 25, 0
37, 26, 0
37, 23, 0
37, 29, 0
37, 18, 0
37, 43, 0
37, 35, 0
37, 17, 0
4, 37, 0
4, 15, 0
4, 40, 0
4, 17, 0
4, 35, 0
35, 37, 0
35, 4, 0
35, 43, 0
30, 0, 0
30, 17, 0
30, 31, 0
30, 11, 0
38, 2, 0
38, 13, 0
38, 32, 0
38, 24, 0
22, 16, 0
22, 6, 0
22, 13, 0
22, 32, 0
36, 12, 0
36, 13, 0
36, 5, 0
36, 24, 0
16, 7, 0
16, 22, 0
27, 34, 0
27, 32, 0
27, 29, 0
27, 42, 0
27, 44, 0
27, 1, 0
44, 34, 0
44, 26, 0
44, 29, 0
44, 27, 0
44, 9, 0
44, 42, 0
44, 1, 0
34, 18, 0
34, 26, 0
34, 29, 0
34, 37, 0
34, 27, 0
34, 44, 0
34, 1, 0
25, 37, 0
25, 43, 0
25, 26, 0
25, 23, 0
26, 34, 0
26, 25, 0
26, 29, 0
26, 37, 0
26, 44, 0
26, 18, 0
6, 8, 0
6, 32, 0
6, 22, 0
43, 37, 0
43, 25, 0
43, 35, 0
9, 21, 0
9, 42, 0
9, 44, 0
9, 32, 0
9, 1, 0
