0, 10, 0
3, 7, 0
3, 2, 0
3, 6, 0
3, 1, 0
3, 8, 0
3, 9, 0
4, 5, 0
4, 2, 0
2, 7, 0
2, 3, 0
2, 4, 0
2, 6, 0
2, 5, 0
2, 1, 0
6, 7, 0
6, 3, 0
6, 1, 0
6, 5, 0
6, 2, 0
1, 7, 0
1, 6, 0
1, 3, 0
1, 5, 0
1, 2, 0
8, 3, 0
8, 10, 0
8, 9, 0
5, 6, 0
5, 1, 0
5, 4, 0
5, 2, 0
7, 2, 0
7, 3, 0
7, 1, 0
7, 6, 0
10, 0, 0
10, 8, 0
10, 9, 0
9, 3, 0
9, 8, 0
9, 10, 0
