0, 7, 0
0, 12, 0
0, 9, 0
13, 7, 0
13, 4, 0
13, 2, 0
13, 1, 0
13, 8, 0
13, 11, 0
13, 10, 0
3, 14, 0
3, 5, 0
6, 7, 0
6, 14, 0
8, 7, 0
8, 13, 0
8, 2, 0
8, 1, 0
8, 11, 0
8, 10, 0
5, 3, 0
5, 9, 0
11, 7, 0
11, 8, 0
11, 13, 0
11, 10, 1
11, 1, 0
10, 7, 0
10, 8, 0
10, 13, 0
10, 11, 1
10, 1, 0
7, 0, 0
7, 13, 0
7, 6, 0
7, 1, 0
7, 11, 0
7, 10, 0
7, 12, 0
7, 4, 0
7, 14, 0
7, 2, 0
7, 8, 0
7, 9, 0
12, 0, 0
12, 7, 0
12, 2, 0
4, 7, 0
4, 13, 0
4, 2, 0
14, 7, 0
14, 6, 0
14, 3, 0
2, 7, 0
2, 12, 0
2, 8, 0
2, 13, 0
2, 4, 0
1, 7, 0
1, 8, 0
1, 13, 0
1, 11, 0
1, 10, 0
9, 0, 0
9, 7, 0
9, 5, 0
