0, 6, 0
0, 2, 0
0, 5, 0
0, 3, 0
3, 0, 0
3, 5, 0
3, 2, 0
4, 9, 0
4, 1, 0
2, 0, 0
2, 3, 0
2, 5, 0
2, 6, 0
6, 0, 0
6, 7, 0
6, 2, 0
1, 8, 0
1, 4, 0
1, 9, 0
8, 7, 0
8, 1, 0
5, 0, 0
5, 3, 0
5, 2, 0
7, 6, 0
7, 8, 0
9, 4, 0
9, 1, 0
