0, 13, 0
0, 12, 0
0, 5, 0
0, 11, 0
0, 1, 0
0, 7, 0
0, 3, 0
0, 4, 0
0, 14, 0
0, 2, 0
0, 8, 0
0, 10, 0
0, 9, 0
13, 0, 0
13, 7, 0
13, 4, 0
13, 11, 0
13, 6, 0
3, 0, 0
3, 14, 0
3, 9, 0
3, 6, 0
3, 8, 0
3, 5, 0
3, 10, 0
6, 3, 0
6, 13, 0
6, 14, 0
6, 10, 0
6, 8, 0
6, 5, 1
6, 11, 0
6, 9, 0
8, 0, 0
8, 3, 0
8, 4, 0
8, 14, 0
8, 2, 0
8, 6, 0
8, 5, 0
8, 9, 0
5, 0, 0
5, 3, 0
5, 14, 0
5, 9, 0
5, 6, 1
5, 8, 0
5, 10, 0
11, 7, 0
11, 0, 0
11, 13, 0
11, 2, 0
11, 6, 0
11, 1, 0
10, 0, 0
10, 3, 0
10, 14, 0
10, 6, 0
10, 5, 0
10, 9, 1
7, 0, 0
7, 12, 0
7, 13, 0
7, 2, 0
7, 11, 0
7, 1, 0
12, 0, 0
12, 7, 0
12, 1, 0
12, 2, 0
4, 0, 0
4, 8, 0
4, 14, 0
4, 13, 0
14, 0, 0
14, 3, 0
14, 4, 0
14, 9, 0
14, 6, 0
14, 8, 0
14, 5, 0
14, 10, 0
2, 0, 0
2, 12, 0
2, 7, 0
2, 8, 0
2, 11, 0
2, 1, 0
1, 7, 0
1, 0, 0
1, 12, 0
1, 11, 0
1, 2, 0
9, 0, 0
9, 3, 0
9, 14, 0
9, 6, 0
9, 8, 0
9, 5, 0
9, 10, 1
