0, 2, 0
0, 12, 0
0, 3, 0
0, 5, 0
0, 1, 0
8, 6, 0
8, 4, 0
8, 9, 0
8, 11, 0
8, 10, 0
3, 0, 0
3, 7, 0
3, 5, 0
3, 2, 0
6, 8, 0
6, 10, 0
6, 11, 0
6, 9, 0
5, 0, 0
5, 12, 0
5, 7, 0
5, 3, 0
5, 1, 0
11, 6, 0
11, 8, 0
11, 10, 0
11, 9, 0
10, 7, 0
10, 12, 0
10, 4, 0
10, 6, 0
10, 8, 0
10, 11, 0
10, 1, 0
7, 12, 0
7, 3, 0
7, 10, 0
7, 5, 0
7, 1, 0
12, 0, 0
12, 7, 0
12, 4, 0
12, 10, 0
12, 5, 0
12, 1, 0
4, 12, 0
4, 8, 0
4, 10, 0
4, 1, 0
2, 0, 0
2, 3, 0
1, 0, 0
1, 12, 0
1, 4, 0
1, 5, 0
1, 7, 0
1, 10, 0
9, 6, 0
9, 8, 0
9, 11, 0
