0, 12, 0
0, 8, 0
0, 9, 0
0, 11, 0
0, 2, 0
13, 6, 0
13, 4, 0
13, 14, 0
13, 5, 0
13, 1, 0
3, 16, 0
3, 7, 0
3, 2, 0
3, 8, 0
3, 9, 0
16, 7, 0
16, 3, 0
16, 15, 1
16, 9, 0
6, 13, 0
6, 14, 0
6, 4, 0
6, 1, 0
8, 0, 0
8, 3, 0
8, 9, 0
8, 2, 0
5, 12, 0
5, 13, 0
5, 14, 0
5, 2, 0
5, 1, 0
5, 11, 0
5, 10, 0
11, 0, 0
11, 12, 0
11, 2, 0
11, 1, 0
11, 5, 0
11, 10, 0
10, 5, 0
10, 11, 0
10, 1, 0
7, 16, 0
7, 3, 0
7, 15, 0
12, 0, 0
12, 1, 0
12, 5, 0
12, 11, 0
12, 2, 0
4, 6, 0
4, 13, 0
4, 14, 0
14, 6, 0
14, 13, 0
14, 5, 0
14, 4, 0
14, 1, 0
2, 0, 0
2, 12, 0
2, 9, 0
2, 3, 0
2, 8, 0
2, 5, 0
2, 11, 0
2, 1, 0
1, 12, 0
1, 13, 0
1, 14, 0
1, 2, 0
1, 6, 0
1, 5, 0
1, 11, 0
1, 10, 0
15, 16, 1
15, 7, 0
9, 0, 0
9, 16, 0
9, 2, 0
9, 8, 0
9, 3, 0
