0, 3, 0
0, 2, 0
8, 7, 1
8, 3, 0
8, 9, 0
8, 2, 0
3, 0, 0
3, 7, 0
3, 2, 0
3, 6, 0
3, 8, 0
3, 9, 0
6, 7, 1
6, 3, 0
6, 9, 0
6, 2, 0
5, 2, 0
5, 12, 0
5, 10, 0
5, 11, 0
5, 9, 0
11, 9, 0
11, 5, 0
11, 10, 1
10, 5, 0
10, 11, 1
10, 9, 0
7, 2, 0
7, 6, 1
7, 8, 1
7, 9, 0
7, 3, 0
12, 5, 0
12, 1, 0
4, 1, 0
2, 7, 0
2, 3, 0
2, 6, 0
2, 8, 0
2, 0, 0
2, 5, 0
2, 9, 0
1, 12, 0
1, 4, 0
9, 7, 0
9, 3, 0
9, 2, 0
9, 6, 0
9, 8, 0
9, 5, 0
9, 11, 0
9, 10, 0
