2, 7, 0
2, 4, 0
2, 25, 0
2, 23, 0
2, 24, 0
2, 16, 0
2, 27, 0
2, 19, 0
2, 10, 0
2, 30, 0
13, 14, 0
13, 26, 0
13, 27, 0
13, 6, 0
13, 15, 0
13, 5, 0
13, 30, 0
17, 18, 1
17, 5, 0
17, 1, 0
23, 7, 0
23, 12, 0
23, 25, 0
23, 2, 0
23, 28, 0
23, 19, 0
23, 29, 0
23, 24, 0
23, 10, 0
29, 7, 0
29, 12, 0
29, 28, 0
29, 23, 0
29, 22, 0
29, 10, 0
5, 13, 0
5, 14, 0
5, 26, 0
5, 18, 0
5, 6, 0
5, 8, 0
5, 17, 0
5, 30, 0
11, 15, 0
1, 18, 0
1, 8, 0
1, 17, 0
20, 0, 0
20, 3, 0
20, 9, 0
4, 16, 0
4, 27, 0
4, 30, 0
4, 2, 0
14, 6, 0
14, 13, 0
14, 5, 0
14, 26, 0
24, 7, 0
24, 2, 0
24, 25, 0
24, 23, 0
24, 10, 0
28, 12, 0
28, 22, 0
28, 23, 0
28, 29, 0
30, 0, 0
30, 3, 0
30, 13, 0
30, 21, 0
30, 4, 0
30, 2, 0
30, 16, 0
30, 27, 0
30, 5, 0
30, 18, 0
30, 9, 0
8, 0, 0
8, 18, 0
8, 9, 0
8, 5, 0
8, 1, 0
15, 6, 0
15, 13, 0
15, 11, 0
22, 28, 0
22, 29, 0
0, 20, 0
0, 27, 0
0, 30, 0
0, 8, 0
0, 9, 0
12, 28, 0
12, 23, 0
12, 29, 0
16, 18, 0
16, 27, 0
16, 2, 0
16, 4, 0
16, 30, 0
6, 15, 0
6, 13, 0
6, 14, 0
6, 5, 0
6, 26, 0
10, 7, 0
10, 25, 0
10, 23, 0
10, 2, 0
10, 29, 0
10, 24, 0
7, 24, 0
7, 25, 0
7, 23, 0
7, 2, 0
7, 29, 0
7, 10, 0
3, 20, 0
3, 21, 0
3, 9, 0
3, 30, 0
25, 7, 0
25, 23, 0
25, 2, 0
25, 19, 0
25, 24, 0
25, 10, 0
26, 6, 0
26, 13, 0
26, 14, 0
26, 5, 0
27, 0, 0
27, 13, 0
27, 4, 0
27, 2, 0
27, 16, 0
27, 30, 0
21, 3, 0
21, 30, 0
19, 25, 0
19, 23, 0
19, 2, 0
18, 17, 1
18, 16, 0
18, 1, 0
18, 8, 0
18, 5, 0
18, 30, 0
9, 20, 0
9, 0, 0
9, 30, 0
9, 8, 0
9, 3, 0
