13, 0, 0
13, 12, 0
13, 14, 0
13, 17, 0
17, 0, 0
17, 12, 0
17, 19, 0
17, 13, 0
5, 18, 0
5, 10, 0
11, 7, 0
11, 3, 0
11, 8, 0
11, 4, 0
11, 1, 0
1, 7, 0
1, 16, 0
1, 4, 0
1, 21, 0
1, 8, 0
1, 15, 0
1, 11, 0
1, 9, 0
20, 18, 0
20, 6, 0
20, 9, 0
4, 7, 0
4, 3, 0
4, 12, 0
4, 2, 0
4, 19, 0
4, 9, 0
4, 15, 0
4, 11, 0
4, 1, 0
14, 12, 0
14, 13, 0
8, 16, 0
8, 7, 0
8, 11, 0
8, 1, 0
15, 7, 0
15, 3, 0
15, 2, 0
15, 4, 0
15, 1, 0
0, 12, 0
0, 19, 0
0, 13, 0
0, 17, 0
3, 7, 0
3, 4, 0
3, 15, 0
3, 11, 0
16, 21, 0
16, 7, 0
16, 8, 0
16, 18, 0
16, 1, 0
6, 20, 0
6, 18, 0
6, 9, 0
6, 10, 0
10, 18, 0
10, 6, 0
10, 5, 0
7, 3, 0
7, 4, 0
7, 9, 0
7, 21, 0
7, 16, 0
7, 8, 0
7, 15, 0
7, 11, 0
7, 1, 0
12, 0, 0
12, 14, 0
12, 13, 0
12, 17, 0
12, 4, 0
2, 19, 0
2, 4, 0
2, 15, 0
21, 16, 0
21, 7, 0
21, 9, 0
21, 18, 0
21, 1, 0
19, 0, 0
19, 4, 0
19, 17, 0
19, 2, 0
18, 20, 0
18, 16, 0
18, 21, 0
18, 6, 0
18, 9, 0
18, 5, 0
18, 10, 0
9, 20, 0
9, 7, 0
9, 4, 0
9, 21, 0
9, 6, 0
9, 18, 0
9, 1, 0
