0, 7, 0
0, 8, 0
13, 6, 0
13, 19, 0
13, 15, 0
13, 9, 0
17, 6, 0
17, 14, 0
17, 10, 0
3, 5, 0
3, 1, 0
16, 18, 0
16, 19, 0
6, 13, 0
6, 17, 0
6, 10, 0
6, 9, 0
8, 0, 0
8, 7, 0
5, 3, 0
5, 11, 0
5, 1, 0
11, 4, 0
11, 14, 0
11, 2, 0
11, 1, 0
11, 5, 0
11, 10, 0
10, 14, 0
10, 17, 0
10, 11, 0
10, 6, 0
7, 0, 0
7, 12, 0
7, 8, 0
7, 4, 0
12, 7, 0
12, 1, 0
12, 4, 0
12, 2, 0
4, 7, 0
4, 12, 0
4, 1, 0
4, 11, 0
4, 2, 0
14, 17, 0
14, 11, 0
14, 10, 0
2, 12, 0
2, 4, 0
2, 11, 0
2, 1, 0
19, 16, 0
19, 13, 0
19, 15, 0
19, 9, 0
1, 12, 0
1, 4, 0
1, 3, 0
1, 2, 0
1, 5, 0
1, 11, 0
15, 19, 0
15, 13, 0
15, 9, 0
18, 16, 0
9, 6, 0
9, 19, 0
9, 13, 0
9, 15, 0
