0, 6, 0
0, 13, 0
0, 9, 0
13, 0, 0
13, 4, 0
13, 11, 0
3, 7, 0
3, 12, 0
3, 1, 0
6, 0, 0
6, 8, 0
6, 9, 0
6, 2, 0
8, 6, 0
8, 9, 0
8, 2, 0
5, 12, 0
5, 14, 0
11, 13, 0
11, 4, 0
11, 1, 0
10, 14, 0
7, 3, 0
7, 4, 0
12, 3, 0
12, 5, 0
4, 7, 0
4, 13, 0
4, 11, 0
4, 1, 0
14, 5, 0
14, 10, 0
2, 6, 0
2, 8, 0
2, 9, 0
1, 3, 0
1, 4, 0
1, 11, 0
9, 0, 0
9, 6, 0
9, 8, 0
9, 2, 0
