0, 8, 0
0, 14, 0
0, 11, 0
13, 12, 0
13, 1, 0
13, 9, 0
13, 5, 0
13, 10, 0
3, 12, 0
3, 4, 1
3, 14, 0
6, 8, 0
6, 14, 0
6, 11, 0
8, 0, 0
8, 6, 0
8, 14, 0
8, 11, 0
5, 7, 0
5, 12, 0
5, 13, 0
5, 9, 0
5, 10, 0
5, 1, 0
11, 0, 0
11, 6, 0
11, 8, 0
11, 14, 0
10, 7, 0
10, 2, 0
10, 13, 0
10, 5, 0
10, 1, 0
7, 2, 0
7, 10, 0
7, 5, 0
7, 1, 0
12, 3, 0
12, 13, 0
12, 14, 0
12, 4, 0
12, 5, 0
12, 9, 0
4, 12, 0
4, 14, 0
4, 3, 1
14, 0, 0
14, 12, 0
14, 4, 0
14, 3, 0
14, 6, 0
14, 8, 0
14, 11, 0
2, 7, 0
2, 10, 0
1, 7, 0
1, 13, 0
1, 5, 0
1, 10, 0
9, 12, 0
9, 13, 0
9, 5, 0
