0, 8, 0
0, 4, 0
0, 1, 0
3, 6, 0
3, 2, 0
4, 0, 0
4, 7, 0
4, 8, 0
4, 5, 0
4, 2, 0
7, 4, 0
7, 5, 0
7, 2, 0
2, 7, 0
2, 3, 0
2, 4, 0
2, 6, 0
6, 3, 0
6, 2, 0
8, 0, 0
8, 4, 0
8, 1, 0
5, 7, 0
5, 4, 0
1, 0, 0
1, 8, 0
