0, 8, 0
0, 1, 0
3, 2, 0
3, 8, 0
3, 4, 0
3, 1, 0
4, 7, 0
4, 3, 0
4, 6, 0
4, 5, 0
4, 2, 0
7, 6, 0
7, 4, 0
7, 5, 0
2, 3, 0
2, 4, 0
6, 7, 0
6, 4, 0
6, 5, 0
8, 0, 0
8, 3, 0
8, 1, 0
5, 7, 0
5, 6, 0
5, 4, 0
1, 0, 0
1, 3, 0
1, 8, 0
