13, 12, 0
13, 3, 0
13, 2, 0
13, 18, 0
13, 19, 0
13, 10, 0
13, 1, 0
17, 20, 0
17, 4, 0
17, 22, 0
5, 0, 0
5, 3, 0
5, 12, 0
5, 10, 0
11, 7, 0
11, 6, 0
11, 8, 0
1, 3, 0
1, 13, 0
1, 2, 1
1, 18, 0
1, 19, 0
1, 10, 0
1, 15, 0
1, 12, 0
20, 17, 0
20, 22, 0
4, 16, 0
4, 14, 0
4, 17, 0
4, 22, 0
14, 16, 0
14, 4, 0
14, 9, 0
8, 7, 0
8, 6, 0
8, 11, 0
15, 0, 0
15, 12, 0
15, 21, 0
15, 18, 0
15, 6, 0
15, 1, 0
22, 20, 0
22, 4, 0
22, 17, 0
0, 12, 0
0, 21, 0
0, 19, 0
0, 15, 0
0, 5, 0
0, 10, 0
3, 12, 0
3, 13, 0
3, 2, 0
3, 18, 0
3, 19, 0
3, 10, 0
3, 5, 0
3, 1, 0
16, 4, 0
16, 14, 0
16, 9, 0
6, 21, 0
6, 8, 0
6, 15, 0
6, 11, 0
10, 0, 0
10, 3, 0
10, 13, 0
10, 12, 0
10, 21, 0
10, 19, 0
10, 2, 0
10, 5, 0
10, 18, 0
10, 1, 0
7, 8, 0
7, 11, 0
7, 9, 0
12, 0, 0
12, 3, 0
12, 13, 0
12, 2, 0
12, 18, 0
12, 19, 0
12, 1, 0
12, 15, 0
12, 5, 0
12, 10, 0
2, 3, 0
2, 13, 0
2, 12, 0
2, 18, 0
2, 19, 0
2, 1, 1
2, 10, 0
21, 0, 0
21, 6, 0
21, 19, 0
21, 15, 0
21, 10, 0
19, 0, 0
19, 12, 0
19, 13, 0
19, 3, 0
19, 21, 0
19, 1, 0
19, 2, 0
19, 18, 1
19, 10, 0
18, 12, 0
18, 13, 0
18, 3, 0
18, 2, 0
18, 19, 1
18, 1, 0
18, 15, 0
18, 10, 0
9, 16, 0
9, 7, 0
9, 14, 0
