0, 6, 0
0, 1, 0
0, 8, 0
0, 4, 0
0, 3, 0
3, 0, 0
3, 8, 0
3, 4, 0
4, 0, 0
4, 3, 0
4, 7, 0
4, 6, 0
2, 7, 0
2, 10, 0
2, 5, 0
2, 9, 0
6, 0, 0
6, 7, 0
6, 4, 0
6, 1, 0
1, 0, 0
1, 7, 0
1, 6, 0
8, 0, 0
8, 3, 0
5, 7, 0
5, 2, 0
7, 2, 0
7, 6, 0
7, 4, 0
7, 5, 0
7, 1, 0
10, 2, 0
10, 9, 0
9, 10, 0
9, 2, 0
