58, 67, 0
58, 53, 0
58, 70, 0
58, 31, 0
58, 37, 0
58, 76, 0
58, 75, 0
58, 8, 0
58, 38, 0
58, 48, 0
58, 41, 0
13, 0, 0
13, 17, 0
13, 77, 0
13, 16, 0
13, 2, 0
13, 40, 0
13, 46, 0
13, 69, 0
13, 50, 0
13, 32, 0
13, 66, 0
13, 19, 0
13, 49, 0
13, 39, 0
13, 9, 0
17, 0, 0
17, 13, 0
17, 77, 0
17, 16, 1
17, 64, 0
17, 40, 0
17, 46, 0
17, 80, 0
17, 69, 0
17, 52, 0
17, 50, 0
17, 32, 0
17, 19, 0
17, 49, 0
17, 39, 0
17, 9, 0
29, 21, 0
29, 28, 1
29, 11, 0
29, 26, 0
29, 61, 0
29, 42, 0
29, 1, 0
29, 65, 0
29, 72, 0
29, 22, 0
29, 36, 0
23, 45, 0
23, 69, 0
23, 52, 0
23, 24, 1
23, 79, 0
23, 71, 0
23, 64, 0
23, 46, 0
23, 80, 0
63, 34, 0
63, 4, 0
63, 62, 1
63, 30, 0
63, 55, 0
63, 10, 0
79, 69, 0
79, 52, 0
79, 23, 0
79, 24, 0
79, 40, 0
79, 64, 0
79, 46, 0
79, 80, 1
24, 64, 0
24, 71, 0
24, 79, 0
24, 80, 0
24, 23, 1
46, 45, 1
46, 13, 0
46, 17, 0
46, 23, 0
46, 68, 0
46, 16, 0
46, 79, 0
46, 71, 0
46, 40, 0
46, 80, 0
46, 64, 0
46, 69, 0
46, 52, 0
46, 49, 0
46, 39, 0
80, 45, 0
80, 69, 0
80, 17, 0
80, 23, 0
80, 24, 0
80, 52, 0
80, 79, 1
80, 46, 0
80, 64, 0
65, 61, 0
65, 28, 0
65, 27, 0
65, 29, 0
65, 5, 0
65, 73, 0
65, 78, 0
65, 26, 0
65, 6, 0
65, 21, 0
65, 42, 0
65, 72, 0
65, 22, 0
20, 70, 0
20, 51, 0
20, 33, 0
20, 18, 0
20, 76, 0
20, 53, 0
20, 47, 0
20, 57, 0
20, 12, 0
20, 54, 0
20, 75, 0
20, 37, 0
20, 14, 0
20, 38, 0
20, 41, 0
14, 20, 0
14, 51, 0
14, 56, 0
14, 60, 0
14, 38, 0
14, 53, 0
14, 47, 0
14, 57, 0
14, 12, 0
14, 54, 0
14, 37, 0
14, 15, 0
53, 58, 0
53, 20, 0
53, 56, 0
53, 51, 0
53, 33, 0
53, 60, 0
53, 15, 0
53, 75, 0
53, 47, 0
53, 57, 0
53, 12, 0
53, 14, 0
53, 37, 0
53, 54, 1
53, 67, 0
53, 38, 0
53, 41, 0
66, 0, 0
66, 69, 0
66, 13, 0
66, 77, 0
66, 2, 0
66, 19, 0
66, 11, 0
75, 58, 0
75, 20, 0
75, 70, 0
75, 18, 0
75, 76, 0
75, 53, 0
75, 10, 0
75, 57, 0
75, 67, 0
75, 38, 0
75, 54, 0
75, 31, 0
75, 41, 0
75, 37, 0
75, 8, 0
75, 15, 0
75, 48, 0
42, 78, 0
42, 28, 0
42, 11, 0
42, 26, 0
42, 6, 0
42, 27, 0
42, 29, 0
42, 5, 0
42, 44, 0
42, 22, 0
42, 65, 0
15, 51, 0
15, 56, 0
15, 12, 0
15, 75, 0
15, 53, 0
15, 59, 0
15, 47, 0
15, 33, 0
15, 14, 0
15, 31, 0
15, 54, 0
15, 60, 0
41, 58, 0
41, 70, 0
41, 75, 0
41, 53, 0
41, 47, 0
41, 20, 0
41, 67, 0
41, 54, 0
41, 31, 0
41, 37, 0
41, 8, 0
41, 38, 0
41, 48, 0
0, 68, 0
0, 13, 0
0, 17, 0
0, 77, 0
0, 71, 0
0, 40, 0
0, 11, 0
0, 7, 0
0, 69, 0
0, 32, 0
0, 66, 0
0, 2, 0
0, 19, 0
0, 39, 0
68, 0, 0
68, 45, 0
68, 69, 0
68, 52, 0
68, 32, 0
68, 2, 0
68, 19, 0
68, 71, 0
68, 7, 0
68, 46, 0
62, 63, 1
62, 34, 0
62, 55, 0
62, 10, 0
62, 30, 0
51, 20, 0
51, 12, 0
51, 14, 0
51, 56, 0
51, 31, 0
51, 33, 0
51, 54, 0
51, 53, 0
51, 15, 0
51, 59, 0
51, 47, 0
12, 20, 0
12, 51, 0
12, 60, 0
12, 53, 0
12, 59, 0
12, 47, 0
12, 57, 0
12, 33, 0
12, 14, 0
12, 31, 0
12, 54, 0
12, 15, 0
6, 27, 0
6, 5, 0
6, 11, 0
6, 65, 0
6, 78, 0
6, 44, 0
6, 25, 0
6, 26, 0
6, 35, 0
6, 43, 0
6, 42, 0
6, 22, 0
74, 21, 0
74, 11, 0
74, 35, 0
74, 61, 0
74, 1, 0
74, 22, 0
74, 73, 0
47, 20, 0
47, 70, 0
47, 56, 0
47, 51, 0
47, 33, 0
47, 15, 0
47, 53, 0
47, 57, 0
47, 12, 0
47, 14, 0
47, 31, 0
47, 37, 0
47, 67, 0
47, 38, 0
47, 41, 0
10, 34, 0
10, 4, 0
10, 62, 0
10, 75, 0
10, 63, 0
10, 55, 0
10, 30, 0
7, 0, 0
7, 68, 0
7, 69, 0
7, 52, 0
7, 77, 0
7, 32, 0
7, 19, 0
7, 71, 0
7, 11, 0
3, 34, 0
3, 4, 1
3, 30, 0
69, 13, 0
69, 17, 0
69, 23, 0
69, 45, 0
69, 71, 0
69, 40, 0
69, 46, 0
69, 80, 0
69, 66, 0
69, 64, 0
69, 0, 0
69, 68, 0
69, 16, 0
69, 39, 0
69, 79, 0
69, 7, 0
69, 52, 0
69, 50, 0
69, 32, 0
69, 2, 0
69, 19, 0
69, 9, 0
32, 0, 0
32, 68, 0
32, 13, 0
32, 17, 0
32, 64, 0
32, 71, 0
32, 40, 0
32, 7, 0
32, 69, 0
32, 2, 0
32, 19, 0
32, 39, 0
2, 0, 0
2, 68, 0
2, 13, 0
2, 52, 0
2, 77, 0
2, 32, 0
2, 66, 0
2, 69, 0
2, 19, 0
2, 11, 0
2, 9, 0
37, 58, 0
37, 70, 0
37, 75, 0
37, 53, 0
37, 47, 0
37, 48, 0
37, 20, 0
37, 67, 0
37, 14, 0
37, 38, 1
37, 41, 0
37, 18, 0
33, 20, 0
33, 12, 0
33, 51, 0
33, 31, 0
33, 60, 0
33, 59, 0
33, 53, 0
33, 15, 0
33, 47, 0
33, 56, 0
19, 0, 0
19, 68, 0
19, 13, 0
19, 17, 0
19, 77, 0
19, 16, 0
19, 71, 0
19, 40, 0
19, 11, 0
19, 7, 0
19, 69, 0
19, 52, 0
19, 32, 0
19, 66, 0
19, 2, 0
19, 39, 0
49, 13, 0
49, 17, 0
49, 77, 0
49, 16, 0
49, 64, 0
49, 40, 0
49, 46, 0
49, 11, 0
49, 52, 0
49, 50, 1
49, 39, 0
49, 9, 0
48, 58, 0
48, 37, 0
48, 70, 0
48, 75, 0
48, 18, 0
48, 76, 0
48, 38, 0
48, 41, 0
16, 13, 0
16, 17, 1
16, 77, 0
16, 39, 0
16, 40, 0
16, 46, 0
16, 11, 0
16, 69, 0
16, 52, 0
16, 50, 0
16, 19, 0
16, 49, 0
16, 64, 0
16, 9, 0
70, 58, 0
70, 56, 0
70, 75, 0
70, 47, 0
70, 48, 0
70, 20, 0
70, 67, 0
70, 31, 0
70, 37, 0
70, 8, 0
70, 38, 0
70, 41, 0
31, 58, 0
31, 70, 0
31, 56, 0
31, 51, 0
31, 33, 0
31, 60, 0
31, 59, 0
31, 47, 0
31, 67, 0
31, 12, 0
31, 75, 0
31, 8, 0
31, 15, 0
31, 41, 0
28, 21, 0
28, 26, 0
28, 29, 1
28, 61, 0
28, 42, 0
28, 1, 0
28, 65, 0
28, 72, 0
28, 22, 0
28, 36, 0
45, 68, 0
45, 69, 0
45, 23, 0
45, 64, 0
45, 71, 0
45, 40, 0
45, 46, 1
45, 80, 0
60, 57, 0
60, 12, 0
60, 14, 0
60, 56, 0
60, 31, 0
60, 33, 0
60, 15, 0
60, 53, 0
60, 59, 1
40, 0, 0
40, 45, 0
40, 13, 0
40, 17, 0
40, 77, 0
40, 16, 0
40, 64, 0
40, 71, 0
40, 79, 0
40, 46, 0
40, 11, 0
40, 69, 0
40, 50, 0
40, 32, 0
40, 19, 0
40, 49, 0
40, 39, 1
40, 9, 0
71, 0, 0
71, 68, 0
71, 23, 0
71, 45, 0
71, 40, 0
71, 46, 0
71, 7, 0
71, 69, 0
71, 52, 0
71, 32, 0
71, 24, 0
71, 19, 0
71, 64, 0
59, 57, 0
59, 12, 0
59, 51, 0
59, 31, 0
59, 33, 0
59, 60, 1
59, 56, 0
59, 15, 0
52, 68, 0
52, 17, 0
52, 23, 0
52, 16, 0
52, 71, 0
52, 79, 0
52, 46, 0
52, 80, 0
52, 7, 0
52, 69, 0
52, 2, 0
52, 19, 0
52, 49, 0
52, 64, 0
11, 35, 0
11, 29, 0
11, 40, 0
11, 5, 0
11, 43, 0
11, 66, 0
11, 42, 0
11, 64, 0
11, 22, 0
11, 0, 0
11, 77, 0
11, 16, 0
11, 6, 0
11, 74, 0
11, 44, 0
11, 7, 0
11, 78, 0
11, 25, 0
11, 50, 0
11, 26, 0
11, 2, 0
11, 19, 0
11, 49, 0
11, 9, 0
5, 25, 0
5, 43, 0
5, 11, 0
5, 26, 0
5, 35, 0
5, 6, 0
5, 27, 0
5, 42, 0
5, 22, 0
5, 65, 0
61, 28, 0
61, 56, 0
61, 21, 0
61, 29, 0
61, 74, 0
61, 1, 0
61, 78, 0
61, 26, 0
61, 35, 0
61, 72, 0
61, 73, 0
61, 65, 0
61, 22, 0
61, 36, 0
78, 43, 0
78, 26, 0
78, 6, 0
78, 61, 0
78, 42, 0
78, 44, 0
78, 11, 0
78, 65, 0
4, 63, 0
4, 3, 1
4, 30, 0
4, 10, 0
4, 34, 0
39, 0, 0
39, 13, 0
39, 17, 0
39, 16, 0
39, 40, 1
39, 46, 0
39, 69, 0
39, 50, 0
39, 32, 0
39, 19, 0
39, 49, 0
39, 64, 0
39, 9, 0
35, 25, 0
35, 61, 0
35, 43, 0
35, 11, 0
35, 21, 0
35, 6, 0
35, 1, 0
35, 74, 0
35, 44, 0
35, 22, 0
35, 5, 0
30, 3, 0
30, 4, 0
30, 62, 0
30, 34, 0
30, 63, 0
30, 55, 0
30, 10, 0
8, 58, 0
8, 67, 0
8, 70, 0
8, 31, 0
8, 75, 0
8, 76, 0
8, 41, 0
38, 58, 0
38, 70, 0
38, 56, 0
38, 75, 0
38, 53, 0
38, 47, 0
38, 48, 0
38, 20, 0
38, 67, 0
38, 14, 0
38, 37, 1
38, 41, 0
38, 18, 0
22, 28, 0
22, 6, 0
22, 29, 0
22, 74, 0
22, 5, 0
22, 11, 0
22, 65, 0
22, 61, 0
22, 25, 0
22, 26, 0
22, 35, 0
22, 21, 0
22, 42, 0
22, 1, 0
36, 61, 0
36, 28, 0
36, 29, 0
36, 21, 0
36, 73, 0
36, 72, 0
36, 1, 0
25, 43, 0
25, 22, 0
25, 26, 0
25, 35, 0
25, 6, 0
25, 5, 0
25, 11, 0
25, 44, 0
57, 20, 0
57, 12, 0
57, 14, 0
57, 56, 0
57, 60, 0
57, 54, 0
57, 75, 0
57, 53, 0
57, 59, 0
57, 47, 0
77, 0, 0
77, 13, 0
77, 17, 0
77, 16, 0
77, 2, 0
77, 40, 0
77, 11, 0
77, 7, 0
77, 66, 0
77, 19, 0
77, 49, 0
77, 64, 0
77, 9, 0
64, 45, 0
64, 17, 0
64, 77, 0
64, 23, 0
64, 16, 0
64, 79, 0
64, 71, 0
64, 40, 0
64, 46, 0
64, 80, 0
64, 69, 0
64, 52, 0
64, 11, 0
64, 32, 0
64, 24, 0
64, 49, 0
64, 39, 0
64, 9, 0
18, 20, 0
18, 75, 0
18, 37, 0
18, 76, 0
18, 38, 0
18, 48, 0
27, 26, 1
27, 6, 0
27, 21, 0
27, 42, 0
27, 5, 0
27, 65, 0
1, 73, 0
1, 21, 0
1, 28, 0
1, 26, 0
1, 35, 0
1, 61, 0
1, 29, 0
1, 74, 0
1, 22, 0
1, 36, 0
55, 63, 0
55, 34, 0
55, 30, 0
55, 62, 0
55, 10, 0
44, 78, 0
44, 6, 0
44, 25, 0
44, 26, 0
44, 35, 0
44, 43, 1
44, 42, 0
44, 11, 0
73, 72, 0
73, 61, 0
73, 36, 0
73, 1, 0
73, 74, 0
73, 65, 0
34, 3, 0
34, 4, 0
34, 62, 0
34, 63, 0
34, 55, 0
34, 10, 0
34, 30, 0
56, 70, 0
56, 51, 0
56, 60, 0
56, 38, 0
56, 53, 0
56, 59, 0
56, 47, 0
56, 57, 0
56, 33, 0
56, 14, 0
56, 31, 0
56, 61, 0
56, 15, 0
21, 28, 0
21, 1, 0
21, 26, 0
21, 35, 0
21, 61, 0
21, 27, 0
21, 36, 0
21, 29, 0
21, 74, 0
21, 22, 0
21, 65, 0
54, 57, 0
54, 20, 0
54, 14, 0
54, 51, 0
54, 12, 0
54, 75, 0
54, 53, 1
54, 15, 0
54, 41, 0
50, 13, 0
50, 17, 0
50, 16, 0
50, 39, 0
50, 49, 1
50, 40, 0
50, 69, 0
50, 11, 0
50, 9, 0
26, 28, 0
26, 21, 0
26, 27, 1
26, 29, 0
26, 5, 0
26, 11, 0
26, 44, 0
26, 78, 0
26, 25, 0
26, 6, 0
26, 61, 0
26, 42, 0
26, 1, 0
26, 65, 0
26, 22, 0
76, 58, 0
76, 20, 0
76, 67, 0
76, 75, 0
76, 8, 0
76, 48, 0
76, 18, 0
72, 28, 0
72, 29, 0
72, 61, 0
72, 73, 0
72, 65, 0
72, 36, 0
43, 78, 0
43, 25, 0
43, 35, 0
43, 6, 0
43, 5, 0
43, 11, 0
43, 44, 1
67, 58, 0
67, 75, 0
67, 53, 0
67, 70, 0
67, 31, 0
67, 37, 0
67, 76, 0
67, 8, 0
67, 38, 0
67, 41, 0
67, 47, 0
9, 13, 0
9, 17, 0
9, 77, 0
9, 16, 0
9, 39, 0
9, 40, 0
9, 11, 0
9, 69, 0
9, 50, 0
9, 2, 0
9, 49, 0
9, 64, 0
