0, 6, 0
0, 4, 0
0, 5, 0
0, 1, 0
13, 7, 0
13, 3, 0
13, 8, 0
13, 11, 0
13, 10, 0
3, 7, 0
3, 12, 0
3, 13, 0
3, 14, 0
3, 2, 0
3, 1, 0
3, 8, 0
3, 10, 0
3, 11, 0
3, 9, 0
6, 0, 0
6, 4, 0
6, 5, 0
6, 1, 0
8, 12, 0
8, 13, 0
8, 14, 0
8, 9, 0
8, 3, 0
8, 10, 0
8, 11, 0
8, 1, 0
5, 0, 0
5, 6, 0
5, 4, 1
5, 1, 0
11, 12, 1
11, 13, 0
11, 14, 0
11, 3, 0
11, 2, 0
11, 1, 0
11, 8, 0
11, 10, 1
11, 9, 0
10, 3, 0
10, 13, 0
10, 14, 0
10, 2, 0
10, 1, 0
10, 8, 0
10, 11, 1
10, 9, 0
7, 3, 0
7, 13, 0
7, 2, 0
12, 3, 0
12, 14, 0
12, 2, 0
12, 1, 0
12, 8, 0
12, 11, 1
12, 9, 0
4, 0, 0
4, 6, 0
4, 5, 1
4, 1, 0
14, 12, 0
14, 3, 0
14, 2, 0
14, 1, 0
14, 8, 0
14, 10, 0
14, 11, 0
14, 9, 0
2, 7, 0
2, 12, 0
2, 14, 0
2, 3, 0
2, 9, 0
2, 11, 0
2, 10, 0
1, 0, 0
1, 12, 0
1, 4, 0
1, 14, 0
1, 3, 0
1, 6, 0
1, 8, 0
1, 5, 0
1, 11, 0
1, 10, 0
9, 12, 0
9, 14, 0
9, 3, 0
9, 2, 0
9, 8, 0
9, 11, 0
9, 10, 0
