0, 7, 0
0, 8, 0
0, 5, 0
0, 4, 0
0, 2, 0
3, 6, 0
3, 4, 0
3, 5, 0
4, 0, 0
4, 3, 0
4, 7, 0
4, 2, 0
4, 6, 0
4, 8, 0
4, 5, 0
7, 0, 0
7, 8, 1
7, 4, 0
7, 2, 0
2, 0, 0
2, 7, 0
2, 8, 0
2, 5, 0
2, 4, 0
6, 3, 0
6, 4, 0
6, 5, 0
6, 1, 0
8, 0, 0
8, 7, 1
8, 4, 0
8, 2, 0
5, 0, 0
5, 3, 0
5, 4, 0
5, 2, 0
5, 6, 0
5, 1, 0
1, 6, 0
1, 5, 0
