0, 9, 0
3, 7, 0
4, 6, 0
4, 8, 0
4, 5, 0
4, 1, 0
2, 7, 0
2, 10, 0
2, 1, 0
6, 4, 0
6, 5, 1
6, 1, 0
1, 6, 0
1, 4, 0
1, 5, 0
1, 10, 0
1, 2, 0
8, 4, 0
8, 5, 0
8, 9, 0
5, 6, 1
5, 8, 0
5, 4, 0
5, 1, 0
7, 3, 0
7, 2, 0
7, 10, 0
10, 7, 0
10, 1, 0
10, 2, 0
9, 0, 0
9, 8, 0
