0, 18, 0
0, 12, 0
0, 2, 0
13, 3, 0
13, 14, 0
13, 6, 0
13, 19, 0
13, 11, 0
13, 9, 0
17, 16, 0
17, 12, 0
17, 15, 0
17, 10, 0
3, 6, 0
3, 13, 0
3, 10, 0
3, 1, 0
16, 17, 0
16, 10, 0
6, 3, 0
6, 19, 0
6, 13, 0
8, 14, 0
8, 5, 0
8, 11, 0
8, 9, 1
5, 8, 0
5, 14, 0
5, 11, 0
5, 9, 0
11, 13, 0
11, 14, 0
11, 19, 0
11, 8, 0
11, 5, 0
11, 9, 0
10, 16, 0
10, 12, 0
10, 17, 0
10, 3, 0
10, 1, 0
7, 18, 0
7, 4, 0
12, 0, 0
12, 15, 0
12, 10, 0
12, 17, 0
12, 2, 0
4, 7, 0
4, 18, 0
14, 8, 0
14, 13, 0
14, 5, 0
14, 11, 0
14, 9, 0
2, 0, 0
2, 12, 0
2, 15, 0
2, 18, 0
19, 6, 0
19, 13, 0
19, 11, 0
1, 3, 0
1, 10, 0
15, 12, 0
15, 17, 0
15, 2, 0
18, 0, 0
18, 7, 0
18, 4, 0
18, 2, 0
9, 14, 0
9, 8, 1
9, 13, 0
9, 5, 0
9, 11, 0
