0, 7, 0
0, 6, 0
0, 5, 0
0, 1, 0
3, 6, 0
3, 8, 0
3, 2, 1
4, 8, 0
7, 0, 0
7, 6, 0
7, 5, 0
2, 3, 1
2, 8, 0
2, 6, 0
6, 7, 0
6, 3, 0
6, 2, 0
6, 8, 0
6, 5, 0
6, 0, 0
8, 3, 0
8, 6, 0
8, 4, 0
8, 2, 0
5, 7, 0
5, 6, 0
5, 0, 0
1, 0, 0
