13, 20, 0
13, 12, 0
13, 4, 0
13, 17, 0
13, 23, 0
13, 18, 0
13, 5, 0
17, 20, 0
17, 6, 0
17, 13, 0
17, 23, 0
23, 20, 0
23, 12, 0
23, 13, 0
23, 17, 0
23, 11, 0
23, 3, 0
23, 6, 0
23, 2, 0
23, 7, 0
23, 22, 0
5, 18, 0
5, 12, 0
5, 13, 0
5, 4, 1
11, 7, 0
11, 22, 0
11, 23, 0
11, 2, 0
1, 21, 0
1, 0, 0
1, 15, 0
1, 3, 0
20, 7, 0
20, 13, 0
20, 17, 0
20, 23, 0
4, 18, 0
4, 13, 0
4, 5, 1
14, 16, 0
14, 9, 0
24, 16, 0
24, 12, 0
24, 18, 0
24, 3, 0
8, 7, 0
8, 2, 0
15, 9, 0
15, 1, 0
22, 7, 0
22, 6, 0
22, 11, 0
22, 23, 0
0, 21, 0
0, 3, 0
0, 19, 0
0, 1, 0
0, 10, 0
3, 0, 0
3, 12, 0
3, 23, 0
3, 24, 0
3, 21, 0
3, 19, 0
3, 1, 0
3, 10, 0
16, 14, 0
16, 24, 0
6, 7, 0
6, 17, 0
6, 22, 0
6, 23, 0
10, 0, 0
10, 3, 0
10, 19, 0
7, 20, 0
7, 11, 0
7, 23, 0
7, 2, 0
7, 6, 0
7, 8, 0
7, 22, 0
12, 3, 0
12, 13, 0
12, 23, 0
12, 24, 0
12, 18, 0
12, 5, 0
2, 7, 0
2, 8, 0
2, 11, 0
2, 23, 0
21, 0, 0
21, 3, 0
21, 19, 0
21, 1, 0
19, 0, 0
19, 3, 0
19, 21, 0
19, 10, 0
18, 12, 0
18, 4, 0
18, 13, 0
18, 5, 0
18, 24, 0
9, 15, 0
9, 14, 0
