2, 20, 0
2, 3, 1
2, 15, 0
2, 11, 0
2, 9, 0
13, 35, 0
13, 10, 0
13, 14, 0
13, 30, 0
17, 0, 0
17, 33, 0
17, 28, 0
17, 24, 0
17, 16, 1
17, 27, 0
17, 9, 0
31, 4, 0
31, 14, 0
31, 32, 1
31, 35, 0
31, 22, 0
31, 10, 0
23, 21, 0
23, 12, 0
23, 25, 0
23, 26, 0
23, 24, 0
24, 20, 0
24, 12, 0
24, 16, 0
24, 25, 0
24, 26, 0
24, 23, 0
24, 29, 0
24, 21, 0
24, 33, 0
24, 8, 0
24, 17, 0
5, 7, 1
5, 20, 0
5, 4, 0
5, 34, 0
5, 6, 1
5, 29, 0
11, 20, 0
11, 3, 0
11, 2, 0
11, 19, 0
11, 8, 0
11, 15, 0
11, 9, 0
1, 0, 1
1, 27, 0
1, 25, 0
1, 26, 0
1, 33, 0
20, 2, 0
20, 18, 0
20, 6, 0
20, 24, 0
20, 5, 0
20, 11, 0
20, 7, 0
20, 34, 0
20, 4, 0
20, 29, 0
20, 19, 0
20, 8, 0
34, 20, 0
34, 7, 0
34, 4, 0
34, 29, 0
34, 18, 0
34, 6, 0
34, 19, 0
34, 5, 0
4, 7, 0
4, 31, 0
4, 6, 0
4, 35, 0
4, 5, 0
4, 10, 0
4, 20, 0
4, 34, 0
4, 14, 0
4, 32, 0
4, 29, 0
4, 19, 0
14, 4, 0
14, 13, 0
14, 32, 0
14, 31, 0
14, 35, 0
14, 6, 0
14, 19, 0
35, 4, 0
35, 14, 0
35, 31, 0
35, 13, 0
35, 30, 0
35, 10, 0
28, 33, 0
28, 17, 0
28, 3, 0
28, 16, 0
28, 27, 0
28, 9, 0
30, 13, 0
30, 35, 0
8, 20, 0
8, 24, 0
8, 11, 0
8, 9, 0
15, 3, 0
15, 9, 0
15, 11, 0
15, 2, 0
22, 31, 0
22, 10, 0
0, 33, 0
0, 17, 0
0, 16, 0
0, 27, 0
0, 9, 0
0, 1, 1
3, 15, 0
3, 2, 1
3, 28, 0
3, 11, 0
3, 9, 0
16, 0, 0
16, 33, 0
16, 28, 0
16, 27, 0
16, 17, 1
16, 24, 0
16, 9, 0
27, 0, 0
27, 33, 0
27, 28, 0
27, 26, 0
27, 16, 0
27, 17, 0
27, 9, 0
27, 1, 0
10, 4, 0
10, 13, 0
10, 31, 0
10, 22, 0
10, 35, 0
7, 20, 0
7, 34, 0
7, 4, 0
7, 29, 0
7, 18, 0
7, 19, 0
7, 5, 1
12, 25, 0
12, 26, 0
12, 23, 0
12, 24, 0
25, 12, 0
25, 23, 0
25, 26, 1
25, 24, 0
25, 21, 0
25, 33, 0
25, 1, 0
33, 0, 0
33, 21, 0
33, 25, 0
33, 9, 0
33, 26, 0
33, 24, 0
33, 16, 0
33, 27, 0
33, 28, 0
33, 17, 0
33, 1, 0
32, 6, 0
32, 19, 0
32, 4, 0
32, 14, 0
32, 31, 1
6, 20, 0
6, 34, 0
6, 4, 0
6, 14, 0
6, 32, 0
6, 29, 0
6, 5, 1
21, 33, 0
21, 25, 0
21, 26, 0
21, 23, 0
21, 24, 0
29, 7, 0
29, 34, 0
29, 4, 0
29, 24, 0
29, 6, 0
29, 19, 0
29, 5, 0
29, 20, 0
19, 20, 0
19, 7, 0
19, 4, 0
19, 14, 0
19, 32, 0
19, 34, 0
19, 18, 1
19, 29, 0
19, 11, 0
26, 12, 0
26, 25, 1
26, 23, 0
26, 24, 0
26, 21, 0
26, 33, 0
26, 27, 0
26, 1, 0
18, 20, 0
18, 34, 0
18, 19, 1
18, 7, 0
9, 0, 0
9, 3, 0
9, 28, 0
9, 33, 0
9, 16, 0
9, 17, 0
9, 2, 0
9, 8, 0
9, 15, 0
9, 11, 0
9, 27, 0
