0, 7, 0
0, 4, 0
0, 5, 0
0, 1, 0
3, 8, 0
3, 9, 0
3, 2, 0
4, 0, 0
4, 6, 0
4, 1, 0
2, 3, 0
2, 8, 0
2, 9, 0
6, 1, 0
6, 4, 0
6, 9, 0
1, 0, 0
1, 6, 0
1, 4, 0
1, 9, 0
8, 3, 0
8, 2, 0
8, 9, 0
5, 0, 0
5, 7, 0
7, 0, 0
7, 5, 0
9, 3, 0
9, 8, 0
9, 1, 0
9, 6, 0
9, 2, 0
