13, 7, 0
13, 12, 0
13, 4, 0
13, 17, 0
17, 0, 0
17, 7, 0
17, 13, 0
17, 3, 0
17, 16, 0
17, 6, 0
17, 1, 0
17, 5, 0
17, 11, 0
17, 10, 0
17, 20, 0
17, 12, 0
17, 4, 0
17, 14, 0
17, 2, 0
17, 21, 0
17, 19, 0
17, 8, 0
17, 15, 0
17, 18, 0
17, 9, 0
5, 18, 0
5, 8, 0
5, 17, 0
5, 11, 0
5, 9, 0
11, 19, 0
11, 8, 0
11, 17, 0
11, 5, 0
11, 9, 0
1, 16, 0
1, 21, 0
1, 17, 0
20, 15, 0
20, 17, 0
20, 10, 0
4, 7, 0
4, 12, 0
4, 13, 0
4, 17, 0
14, 3, 0
14, 17, 0
14, 10, 0
8, 12, 0
8, 17, 0
8, 16, 0
8, 19, 0
8, 5, 0
8, 11, 0
8, 9, 1
15, 20, 0
15, 17, 0
0, 9, 0
0, 17, 0
0, 2, 0
3, 14, 0
3, 17, 0
3, 10, 0
16, 19, 0
16, 8, 0
16, 17, 0
16, 1, 0
6, 18, 0
6, 17, 0
6, 2, 0
10, 20, 0
10, 3, 0
10, 14, 0
10, 17, 0
7, 21, 0
7, 12, 0
7, 4, 0
7, 17, 0
7, 13, 0
12, 7, 0
12, 4, 0
12, 17, 0
12, 21, 0
12, 8, 0
12, 13, 0
2, 0, 0
2, 6, 0
2, 17, 0
21, 7, 0
21, 12, 0
21, 17, 0
21, 1, 0
19, 16, 0
19, 8, 0
19, 17, 0
19, 11, 0
18, 6, 0
18, 17, 0
18, 5, 0
18, 9, 0
9, 0, 0
9, 17, 0
9, 18, 0
9, 8, 1
9, 5, 0
9, 11, 0
