13, 0, 0
13, 7, 0
13, 28, 0
13, 31, 0
13, 20, 0
13, 8, 0
13, 5, 0
13, 22, 0
17, 0, 0
17, 12, 0
17, 32, 0
17, 24, 0
31, 0, 0
31, 19, 0
31, 13, 0
31, 28, 0
23, 0, 0
23, 27, 0
23, 4, 0
23, 29, 0
10, 0, 0
10, 18, 0
10, 14, 0
10, 21, 0
2, 20, 0
2, 15, 0
2, 5, 0
2, 9, 0
5, 20, 0
5, 2, 0
5, 13, 0
5, 25, 0
5, 9, 0
11, 0, 0
11, 3, 0
11, 7, 0
11, 26, 0
11, 29, 0
11, 8, 0
11, 1, 0
1, 0, 0
1, 3, 0
1, 26, 0
1, 11, 0
1, 29, 0
20, 3, 0
20, 13, 0
20, 25, 0
20, 2, 0
20, 16, 0
20, 15, 0
20, 5, 0
20, 9, 0
4, 0, 0
4, 27, 0
4, 23, 0
14, 21, 0
14, 0, 0
14, 10, 0
14, 18, 0
14, 30, 0
24, 0, 0
24, 12, 0
24, 17, 0
24, 32, 0
24, 19, 0
24, 8, 0
24, 22, 0
28, 0, 0
28, 13, 0
28, 31, 0
30, 0, 0
30, 6, 0
30, 14, 0
30, 21, 0
8, 7, 1
8, 0, 0
8, 13, 0
8, 12, 0
8, 32, 0
8, 26, 0
8, 3, 0
8, 19, 0
8, 24, 0
8, 22, 0
8, 11, 0
15, 20, 0
15, 3, 0
15, 2, 0
15, 25, 0
15, 9, 0
22, 0, 0
22, 13, 0
22, 32, 0
22, 3, 0
22, 16, 0
22, 27, 0
22, 24, 0
22, 7, 0
22, 12, 0
22, 26, 0
22, 29, 0
22, 8, 0
0, 13, 0
0, 17, 0
0, 32, 0
0, 23, 0
0, 29, 0
0, 11, 0
0, 30, 0
0, 4, 0
0, 14, 0
0, 24, 0
0, 28, 0
0, 8, 0
0, 22, 0
0, 12, 0
0, 18, 0
0, 27, 0
0, 1, 0
0, 10, 0
0, 7, 0
0, 3, 0
0, 31, 0
0, 6, 0
0, 21, 0
0, 26, 0
0, 19, 0
12, 0, 0
12, 17, 0
12, 32, 0
12, 24, 0
12, 8, 0
12, 22, 0
16, 20, 0
16, 3, 0
16, 22, 0
6, 0, 0
6, 27, 0
6, 30, 0
27, 0, 0
27, 7, 0
27, 4, 0
27, 23, 0
27, 6, 0
27, 22, 0
7, 0, 0
7, 3, 0
7, 13, 0
7, 11, 0
7, 26, 0
7, 29, 0
7, 27, 0
7, 8, 1
7, 22, 0
3, 0, 0
3, 7, 0
3, 22, 0
3, 26, 0
3, 29, 0
3, 16, 0
3, 20, 0
3, 8, 0
3, 15, 0
3, 11, 0
3, 1, 0
25, 20, 0
25, 15, 0
25, 5, 0
25, 9, 0
32, 0, 0
32, 12, 0
32, 17, 0
32, 24, 0
32, 8, 0
32, 22, 0
29, 0, 0
29, 3, 0
29, 7, 0
29, 26, 0
29, 23, 0
29, 22, 0
29, 11, 0
29, 1, 0
21, 18, 0
21, 0, 0
21, 10, 0
21, 14, 0
21, 30, 0
26, 0, 0
26, 7, 0
26, 3, 0
26, 29, 0
26, 8, 0
26, 22, 0
26, 11, 0
26, 1, 0
19, 0, 0
19, 8, 0
19, 31, 0
19, 24, 0
18, 21, 0
18, 0, 0
18, 14, 0
18, 10, 0
9, 20, 0
9, 25, 0
9, 15, 0
9, 5, 0
9, 2, 0
