0, 5, 0
3, 7, 0
3, 6, 0
3, 4, 0
3, 5, 0
3, 2, 1
4, 3, 0
4, 6, 0
4, 2, 0
4, 1, 0
7, 3, 0
7, 5, 0
7, 6, 0
2, 3, 1
2, 6, 0
2, 4, 0
2, 5, 0
2, 1, 1
6, 7, 0
6, 3, 0
6, 1, 0
6, 4, 0
6, 2, 0
5, 0, 0
5, 3, 0
5, 1, 0
5, 7, 0
5, 2, 0
1, 6, 0
1, 4, 0
1, 5, 0
1, 2, 1
