0, 7, 0
0, 1, 0
6, 3, 0
6, 8, 0
6, 4, 0
6, 10, 0
1, 0, 0
1, 7, 0
1, 5, 0
1, 11, 0
5, 2, 0
5, 4, 0
5, 9, 0
5, 11, 0
5, 1, 0
11, 7, 0
11, 5, 0
11, 1, 0
10, 6, 0
10, 8, 0
7, 0, 0
7, 11, 0
7, 1, 0
3, 6, 0
3, 8, 0
3, 4, 0
4, 3, 0
4, 2, 0
4, 6, 0
4, 8, 0
4, 5, 0
4, 9, 0
2, 4, 0
2, 5, 0
2, 9, 0
8, 6, 0
8, 4, 0
8, 3, 0
8, 10, 0
9, 4, 0
9, 5, 0
9, 2, 0
