0, 9, 0
0, 2, 0
3, 7, 0
3, 8, 0
3, 4, 1
4, 7, 0
4, 3, 1
4, 8, 0
4, 5, 1
2, 0, 0
2, 6, 0
6, 10, 0
6, 2, 0
1, 7, 0
1, 5, 0
1, 9, 0
8, 7, 0
8, 3, 0
8, 4, 0
8, 5, 0
5, 7, 0
5, 8, 0
5, 4, 1
5, 1, 0
7, 3, 0
7, 8, 0
7, 5, 0
7, 4, 0
7, 1, 0
10, 6, 0
9, 0, 0
9, 1, 0
