12, 7, 0
12, 6, 0
12, 14, 0
12, 30, 0
13, 21, 0
13, 27, 0
13, 24, 0
13, 33, 0
13, 0, 0
17, 37, 0
17, 38, 0
17, 30, 0
31, 27, 0
31, 40, 0
31, 32, 0
31, 24, 0
23, 28, 0
23, 26, 0
23, 27, 0
23, 16, 0
23, 14, 0
23, 5, 0
24, 33, 0
24, 13, 0
24, 14, 0
24, 26, 0
24, 31, 0
24, 21, 0
24, 27, 0
24, 40, 0
24, 9, 0
40, 27, 0
40, 9, 0
40, 31, 0
40, 24, 0
5, 27, 0
5, 26, 0
5, 23, 0
5, 32, 0
11, 38, 0
11, 39, 0
11, 41, 0
11, 1, 0
30, 37, 0
30, 12, 0
30, 38, 0
30, 39, 0
30, 17, 0
20, 18, 0
20, 19, 0
20, 4, 0
20, 25, 0
20, 35, 0
21, 27, 0
21, 13, 0
21, 9, 0
21, 24, 0
4, 20, 0
4, 33, 0
4, 19, 0
4, 8, 0
4, 27, 0
14, 12, 0
14, 28, 0
14, 23, 0
14, 33, 0
14, 6, 0
14, 27, 0
14, 7, 0
14, 34, 0
14, 26, 0
14, 24, 0
14, 37, 0
14, 39, 0
35, 20, 0
35, 18, 0
35, 19, 0
35, 25, 0
42, 34, 0
42, 27, 0
42, 36, 0
1, 41, 0
1, 11, 0
1, 29, 0
15, 27, 0
15, 8, 0
15, 36, 0
41, 11, 0
41, 1, 0
22, 18, 0
22, 19, 0
36, 34, 0
36, 42, 0
36, 8, 0
36, 15, 0
36, 27, 0
0, 27, 0
0, 13, 0
0, 10, 0
7, 6, 1
7, 14, 0
7, 12, 0
6, 7, 1
6, 12, 0
6, 14, 0
8, 33, 0
8, 4, 0
8, 25, 0
8, 27, 0
8, 15, 0
8, 36, 0
38, 37, 0
38, 39, 0
38, 17, 0
38, 11, 0
38, 30, 0
3, 2, 0
16, 27, 0
16, 28, 0
16, 26, 0
16, 23, 0
39, 37, 0
39, 14, 0
39, 38, 0
39, 11, 0
39, 30, 0
18, 20, 0
18, 19, 0
18, 25, 0
18, 22, 0
18, 35, 0
27, 13, 0
27, 28, 0
27, 31, 0
27, 23, 0
27, 40, 0
27, 5, 0
27, 4, 0
27, 14, 0
27, 24, 0
27, 42, 0
27, 8, 0
27, 15, 0
27, 36, 0
27, 0, 0
27, 34, 0
27, 16, 0
27, 10, 0
27, 33, 0
27, 32, 0
27, 21, 0
27, 26, 0
27, 19, 0
27, 9, 0
28, 16, 0
28, 27, 0
28, 14, 0
28, 26, 0
28, 23, 0
34, 27, 0
34, 36, 0
34, 14, 0
34, 42, 0
25, 18, 0
25, 20, 0
25, 8, 0
25, 35, 0
33, 4, 0
33, 13, 0
33, 26, 0
33, 24, 0
33, 14, 0
33, 19, 0
33, 8, 0
33, 10, 0
33, 27, 0
32, 27, 0
32, 5, 0
32, 31, 0
2, 3, 0
2, 29, 0
37, 39, 0
37, 38, 0
37, 14, 0
37, 17, 0
37, 30, 0
29, 1, 0
29, 2, 0
19, 20, 0
19, 33, 0
19, 4, 0
19, 35, 0
19, 18, 0
19, 27, 0
19, 22, 0
19, 10, 0
26, 33, 0
26, 14, 0
26, 23, 0
26, 24, 0
26, 16, 0
26, 28, 0
26, 5, 0
26, 27, 0
10, 0, 0
10, 27, 0
10, 19, 0
10, 33, 0
9, 21, 0
9, 27, 0
9, 40, 0
9, 24, 0
