0, 7, 0
0, 12, 0
0, 4, 0
0, 14, 0
0, 9, 0
0, 6, 0
0, 8, 0
0, 10, 0
0, 11, 0
0, 1, 0
13, 3, 0
13, 5, 0
13, 2, 0
3, 12, 0
3, 13, 0
3, 5, 0
3, 2, 0
6, 0, 0
6, 12, 0
6, 7, 1
6, 1, 0
6, 8, 1
6, 10, 0
8, 0, 0
8, 12, 0
8, 1, 0
8, 10, 0
8, 6, 1
5, 3, 0
5, 13, 0
5, 12, 0
5, 2, 0
11, 0, 0
11, 4, 0
11, 14, 0
10, 0, 0
10, 12, 0
10, 4, 0
10, 6, 0
10, 8, 0
10, 7, 0
10, 1, 0
7, 0, 0
7, 12, 0
7, 1, 0
7, 10, 0
7, 6, 1
12, 0, 0
12, 3, 0
12, 7, 0
12, 9, 0
12, 2, 0
12, 6, 0
12, 8, 0
12, 5, 0
12, 10, 0
12, 1, 0
4, 0, 0
4, 9, 0
4, 14, 0
4, 11, 0
4, 10, 0
14, 0, 0
14, 4, 0
14, 11, 0
14, 9, 0
2, 3, 0
2, 13, 0
2, 5, 0
2, 12, 0
1, 0, 0
1, 12, 0
1, 7, 0
1, 6, 0
1, 8, 0
1, 10, 0
9, 0, 0
9, 12, 0
9, 4, 0
9, 14, 0
