0, 6, 0
0, 1, 0
0, 8, 0
0, 11, 0
0, 2, 0
6, 0, 0
6, 7, 0
6, 2, 0
6, 8, 0
6, 10, 0
6, 11, 0
6, 1, 0
1, 0, 0
1, 6, 0
1, 8, 0
1, 2, 1
5, 7, 0
5, 3, 1
5, 4, 1
5, 11, 0
5, 9, 0
11, 0, 0
11, 6, 0
11, 7, 0
11, 5, 0
11, 10, 1
10, 7, 0
10, 6, 0
10, 11, 1
7, 6, 0
7, 9, 0
7, 5, 0
7, 11, 0
7, 10, 0
3, 4, 1
3, 5, 1
3, 9, 0
4, 3, 1
4, 5, 1
4, 9, 0
2, 0, 0
2, 6, 0
2, 8, 0
2, 1, 1
8, 0, 0
8, 6, 0
8, 2, 0
8, 1, 0
9, 7, 0
9, 3, 0
9, 4, 0
9, 5, 0
