0, 6, 0
0, 5, 0
0, 9, 0
3, 7, 0
3, 8, 0
3, 10, 0
3, 1, 0
4, 8, 0
4, 1, 0
2, 7, 0
2, 5, 0
6, 0, 0
6, 1, 0
6, 5, 0
6, 9, 0
1, 7, 0
1, 3, 0
1, 4, 0
1, 6, 0
1, 8, 0
1, 5, 0
1, 10, 0
8, 3, 0
8, 4, 0
8, 1, 0
5, 0, 0
5, 6, 0
5, 1, 0
5, 9, 0
5, 2, 0
7, 3, 0
7, 1, 0
7, 10, 0
7, 2, 0
10, 7, 0
10, 3, 0
10, 1, 0
9, 0, 0
9, 6, 0
9, 5, 0
