0, 7, 0
0, 4, 0
0, 14, 0
0, 6, 0
0, 8, 0
0, 15, 0
0, 5, 0
0, 11, 0
0, 9, 0
7, 0, 0
7, 14, 0
7, 6, 1
7, 8, 0
7, 11, 0
7, 1, 0
13, 3, 0
13, 14, 0
13, 2, 0
13, 18, 0
13, 17, 0
13, 19, 0
13, 15, 0
13, 5, 0
17, 3, 0
17, 13, 0
17, 14, 0
17, 2, 0
17, 18, 0
17, 19, 0
17, 15, 0
17, 5, 0
3, 13, 0
3, 17, 0
3, 2, 1
3, 18, 0
3, 19, 0
3, 5, 0
16, 20, 0
16, 4, 0
16, 14, 0
16, 9, 0
16, 5, 0
16, 10, 0
6, 0, 0
6, 7, 1
6, 14, 0
6, 12, 0
6, 8, 0
6, 15, 0
6, 5, 0
6, 1, 0
8, 0, 0
8, 6, 0
8, 7, 0
8, 11, 0
5, 0, 0
5, 13, 0
5, 17, 0
5, 16, 0
5, 6, 0
5, 10, 0
5, 3, 0
5, 14, 0
5, 2, 0
5, 19, 0
5, 15, 0
5, 18, 0
5, 9, 0
11, 0, 0
11, 7, 0
11, 4, 0
11, 12, 0
11, 8, 0
11, 1, 0
10, 20, 0
10, 4, 0
10, 14, 0
10, 16, 0
10, 5, 0
10, 9, 1
20, 4, 0
20, 14, 0
20, 16, 0
20, 10, 0
20, 15, 0
20, 9, 0
12, 6, 0
12, 15, 0
12, 14, 0
12, 11, 0
12, 1, 0
4, 0, 0
4, 20, 0
4, 14, 0
4, 16, 0
4, 9, 0
4, 15, 0
4, 11, 0
4, 10, 0
14, 0, 0
14, 7, 0
14, 13, 0
14, 17, 0
14, 16, 0
14, 6, 0
14, 5, 0
14, 10, 0
14, 20, 0
14, 12, 0
14, 4, 0
14, 19, 0
14, 1, 0
14, 15, 1
14, 18, 0
14, 9, 0
2, 3, 1
2, 13, 0
2, 17, 0
2, 18, 0
2, 19, 0
2, 5, 0
19, 3, 0
19, 13, 0
19, 14, 0
19, 2, 0
19, 18, 1
19, 17, 0
19, 15, 0
19, 5, 0
1, 7, 0
1, 12, 0
1, 14, 0
1, 11, 0
1, 6, 0
15, 0, 0
15, 13, 0
15, 17, 0
15, 18, 0
15, 6, 0
15, 5, 0
15, 20, 0
15, 12, 0
15, 4, 0
15, 14, 1
15, 19, 0
15, 9, 0
18, 3, 0
18, 13, 0
18, 14, 0
18, 2, 0
18, 17, 0
18, 19, 1
18, 15, 0
18, 5, 0
9, 20, 0
9, 0, 0
9, 4, 0
9, 14, 0
9, 16, 0
9, 15, 0
9, 5, 0
9, 10, 1
