0, 7, 0
0, 5, 0
0, 11, 0
6, 3, 0
6, 8, 0
6, 4, 0
1, 7, 0
1, 2, 0
1, 5, 0
1, 9, 0
5, 7, 0
5, 0, 0
5, 9, 0
5, 11, 0
5, 1, 0
11, 0, 0
11, 5, 0
10, 8, 0
10, 2, 0
7, 0, 0
7, 2, 0
7, 9, 0
7, 5, 0
7, 1, 0
3, 6, 0
3, 8, 0
3, 4, 1
4, 6, 0
4, 8, 0
4, 3, 1
2, 7, 0
2, 10, 0
2, 8, 0
2, 9, 0
2, 1, 0
8, 2, 0
8, 6, 0
8, 4, 0
8, 10, 0
8, 3, 0
9, 7, 0
9, 2, 0
9, 5, 0
9, 1, 0
