0, 7, 0
0, 2, 0
0, 1, 1
3, 5, 0
3, 10, 0
4, 8, 0
2, 0, 0
2, 7, 0
2, 6, 0
2, 9, 0
2, 10, 0
2, 1, 0
6, 2, 0
6, 9, 0
6, 10, 0
1, 0, 1
1, 7, 0
1, 2, 0
8, 4, 0
8, 5, 0
5, 3, 0
5, 8, 0
5, 10, 0
7, 0, 0
7, 2, 0
7, 1, 0
10, 3, 0
10, 6, 0
10, 9, 0
10, 5, 0
10, 2, 0
9, 6, 0
9, 10, 0
9, 2, 0
