0, 7, 0
0, 5, 0
0, 1, 0
3, 7, 0
3, 2, 0
4, 8, 0
4, 5, 0
7, 0, 0
7, 3, 0
7, 2, 0
7, 6, 0
7, 5, 0
7, 1, 0
2, 7, 0
2, 3, 0
2, 6, 0
6, 7, 0
6, 1, 0
6, 2, 0
8, 4, 0
8, 5, 0
5, 0, 0
5, 7, 0
5, 8, 0
5, 4, 0
1, 0, 0
1, 7, 0
1, 6, 0
