0, 7, 0
0, 4, 0
0, 2, 0
0, 6, 0
0, 5, 0
0, 1, 0
6, 0, 0
6, 8, 0
6, 4, 0
6, 1, 0
1, 0, 0
1, 6, 0
1, 8, 0
1, 4, 0
5, 0, 0
5, 7, 0
5, 2, 0
11, 7, 0
11, 3, 0
11, 10, 0
11, 9, 0
10, 7, 0
10, 3, 0
10, 11, 0
10, 9, 1
7, 0, 0
7, 3, 0
7, 2, 0
7, 9, 0
7, 5, 0
7, 11, 0
7, 10, 0
3, 7, 0
3, 9, 0
3, 11, 0
3, 10, 0
4, 0, 0
4, 6, 0
4, 1, 0
2, 0, 0
2, 7, 0
2, 5, 0
8, 6, 0
8, 1, 0
9, 7, 0
9, 3, 0
9, 11, 0
9, 10, 1
