13, 8, 0
13, 17, 0
17, 13, 0
17, 8, 0
17, 14, 0
17, 4, 0
5, 0, 0
5, 9, 0
11, 7, 0
11, 18, 0
11, 15, 0
11, 22, 0
11, 10, 1
1, 0, 0
1, 16, 0
1, 22, 0
1, 9, 0
20, 3, 0
20, 4, 0
20, 2, 0
20, 21, 0
20, 6, 0
20, 19, 0
4, 20, 0
4, 14, 0
4, 8, 0
4, 17, 0
14, 8, 0
14, 17, 0
14, 4, 0
8, 14, 0
8, 13, 0
8, 17, 0
8, 4, 0
15, 7, 0
15, 18, 0
15, 22, 0
15, 11, 0
15, 10, 0
22, 0, 0
22, 7, 0
22, 16, 0
22, 10, 0
22, 15, 0
22, 18, 0
22, 11, 0
22, 1, 0
0, 16, 0
0, 9, 0
0, 5, 0
0, 22, 0
0, 1, 0
3, 20, 0
3, 2, 1
3, 21, 0
3, 6, 0
3, 19, 0
3, 9, 0
16, 0, 0
16, 22, 0
16, 1, 0
6, 20, 0
6, 3, 0
6, 12, 0
6, 21, 0
6, 19, 0
6, 2, 0
6, 9, 0
10, 7, 0
10, 18, 0
10, 15, 0
10, 22, 0
10, 11, 1
7, 18, 0
7, 15, 0
7, 22, 0
7, 11, 0
7, 10, 0
12, 6, 0
12, 19, 0
12, 9, 0
2, 20, 0
2, 3, 1
2, 21, 0
2, 6, 0
2, 19, 0
2, 9, 0
21, 20, 0
21, 3, 0
21, 19, 0
21, 2, 0
21, 6, 0
19, 20, 0
19, 3, 0
19, 2, 0
19, 21, 0
19, 6, 0
19, 9, 0
19, 12, 0
18, 7, 0
18, 15, 0
18, 22, 0
18, 11, 0
18, 10, 0
9, 0, 0
9, 3, 0
9, 12, 0
9, 6, 0
9, 19, 0
9, 2, 0
9, 5, 0
9, 1, 0
