0, 4, 0
0, 1, 0
13, 6, 0
13, 10, 0
3, 6, 0
3, 8, 0
6, 3, 0
6, 8, 0
6, 13, 0
8, 3, 0
8, 6, 0
8, 1, 0
5, 7, 0
5, 12, 0
5, 4, 0
5, 11, 0
11, 7, 0
11, 12, 0
11, 5, 0
11, 9, 0
10, 13, 0
7, 12, 0
7, 4, 0
7, 5, 0
7, 11, 0
12, 7, 0
12, 4, 0
12, 5, 0
12, 11, 0
4, 0, 0
4, 12, 0
4, 7, 0
4, 5, 0
2, 9, 0
1, 0, 0
1, 8, 0
9, 11, 0
9, 2, 0
