0, 6, 0
0, 8, 0
0, 2, 0
3, 4, 0
3, 9, 0
3, 5, 0
3, 1, 0
4, 3, 0
4, 5, 1
2, 0, 0
2, 6, 0
2, 8, 0
6, 0, 0
6, 2, 0
6, 8, 0
6, 9, 0
1, 3, 0
1, 9, 0
8, 0, 0
8, 6, 0
8, 10, 0
8, 2, 0
5, 3, 0
5, 4, 1
7, 10, 0
10, 7, 0
10, 8, 0
9, 6, 0
9, 3, 0
9, 1, 0
