0, 7, 0
0, 3, 0
13, 12, 0
13, 4, 0
13, 17, 0
13, 9, 0
17, 12, 0
17, 13, 0
3, 0, 0
3, 6, 0
3, 2, 0
3, 1, 0
16, 2, 0
16, 6, 0
16, 1, 0
16, 8, 0
16, 5, 0
16, 9, 0
6, 3, 0
6, 9, 0
6, 2, 0
6, 16, 0
6, 8, 0
6, 5, 0
6, 1, 0
8, 16, 0
8, 6, 0
8, 9, 1
8, 1, 0
5, 16, 0
5, 6, 0
5, 9, 0
5, 11, 0
5, 2, 0
11, 14, 0
11, 2, 0
11, 15, 0
11, 5, 0
11, 10, 1
10, 14, 0
10, 15, 0
10, 11, 1
10, 2, 0
7, 0, 0
7, 4, 0
12, 13, 0
12, 17, 0
4, 7, 0
4, 13, 0
4, 9, 0
14, 2, 0
14, 15, 1
14, 11, 0
14, 10, 0
2, 3, 0
2, 14, 0
2, 16, 0
2, 6, 0
2, 10, 0
2, 5, 0
2, 11, 0
2, 1, 0
1, 3, 0
1, 2, 0
1, 16, 0
1, 6, 0
1, 8, 0
1, 9, 0
15, 14, 1
15, 11, 0
15, 10, 0
9, 4, 0
9, 13, 0
9, 16, 0
9, 6, 0
9, 8, 1
9, 5, 0
9, 1, 0
