0, 13, 0
0, 14, 0
0, 18, 0
0, 8, 0
0, 15, 0
0, 5, 0
0, 1, 0
7, 20, 0
7, 2, 0
7, 4, 0
7, 9, 0
13, 0, 0
13, 14, 0
13, 6, 0
13, 19, 0
13, 8, 0
13, 15, 0
13, 17, 0
17, 16, 0
17, 8, 0
17, 15, 0
17, 11, 0
17, 13, 0
3, 10, 0
3, 1, 0
16, 12, 0
16, 15, 0
16, 17, 0
6, 13, 0
6, 19, 0
6, 8, 0
6, 15, 0
6, 11, 0
6, 1, 0
8, 0, 0
8, 13, 0
8, 14, 0
8, 11, 0
8, 6, 0
8, 19, 0
8, 15, 0
8, 17, 0
5, 18, 0
5, 0, 0
5, 10, 0
5, 1, 0
11, 6, 0
11, 8, 0
11, 15, 0
11, 17, 0
10, 3, 0
10, 5, 0
10, 1, 0
20, 7, 0
20, 2, 0
12, 16, 0
12, 4, 0
12, 15, 0
4, 7, 0
4, 12, 0
4, 2, 0
4, 9, 0
14, 0, 0
14, 19, 0
14, 13, 0
14, 8, 0
14, 1, 0
2, 20, 0
2, 7, 0
2, 4, 0
2, 9, 0
19, 13, 0
19, 6, 0
19, 8, 0
19, 14, 0
19, 1, 0
1, 0, 0
1, 3, 0
1, 14, 0
1, 18, 0
1, 6, 0
1, 19, 0
1, 5, 0
1, 10, 0
15, 0, 0
15, 12, 0
15, 13, 0
15, 17, 0
15, 16, 0
15, 6, 0
15, 8, 0
15, 11, 0
18, 0, 0
18, 5, 0
18, 1, 0
9, 7, 0
9, 4, 0
9, 2, 0
