0, 18, 0
0, 1, 0
0, 15, 0
0, 2, 0
13, 14, 1
13, 5, 0
13, 11, 0
17, 15, 0
17, 1, 0
3, 16, 0
3, 19, 0
3, 4, 1
3, 5, 0
3, 9, 0
16, 12, 0
16, 3, 0
16, 19, 0
16, 10, 0
16, 5, 0
16, 9, 0
6, 7, 1
6, 18, 0
6, 11, 0
8, 7, 1
8, 18, 0
8, 11, 0
5, 3, 0
5, 13, 0
5, 14, 0
5, 4, 0
5, 16, 0
5, 19, 0
5, 11, 0
11, 7, 0
11, 13, 0
11, 14, 0
11, 18, 0
11, 6, 0
11, 8, 0
11, 5, 0
10, 16, 0
10, 12, 0
10, 19, 0
10, 9, 1
7, 18, 0
7, 6, 1
7, 8, 1
7, 11, 0
12, 16, 0
12, 19, 0
12, 9, 0
12, 10, 0
4, 3, 1
4, 19, 0
4, 5, 0
14, 19, 0
14, 13, 1
14, 5, 0
14, 11, 0
2, 0, 0
2, 15, 0
2, 1, 1
19, 12, 0
19, 4, 0
19, 14, 0
19, 3, 0
19, 16, 0
19, 9, 0
19, 5, 0
19, 10, 0
1, 0, 0
1, 17, 0
1, 15, 0
1, 2, 1
15, 0, 0
15, 2, 0
15, 17, 0
15, 1, 0
18, 0, 0
18, 6, 0
18, 8, 0
18, 7, 0
18, 11, 0
9, 16, 0
9, 12, 0
9, 19, 0
9, 3, 0
9, 10, 1
