0, 10, 0
13, 7, 0
13, 12, 0
13, 4, 0
13, 15, 0
17, 18, 0
17, 9, 0
3, 6, 0
3, 15, 0
3, 5, 0
16, 7, 0
16, 4, 0
16, 11, 0
6, 3, 0
6, 15, 0
6, 5, 1
8, 9, 0
8, 14, 0
8, 11, 0
8, 1, 0
5, 6, 1
5, 15, 0
5, 3, 0
11, 7, 0
11, 4, 0
11, 14, 0
11, 2, 0
11, 16, 0
11, 8, 0
11, 1, 0
10, 0, 0
10, 18, 0
7, 16, 0
7, 4, 0
7, 13, 0
7, 11, 0
12, 13, 0
12, 15, 0
4, 16, 0
4, 7, 0
4, 13, 0
4, 11, 0
14, 2, 0
14, 8, 0
14, 9, 0
14, 11, 0
14, 1, 0
2, 14, 0
2, 11, 0
2, 1, 1
1, 8, 0
1, 14, 0
1, 11, 0
1, 2, 1
15, 12, 0
15, 3, 0
15, 13, 0
15, 5, 0
15, 6, 0
18, 9, 0
18, 17, 0
18, 10, 0
9, 18, 0
9, 14, 0
9, 8, 0
9, 17, 0
