0, 7, 0
0, 12, 0
0, 4, 0
0, 2, 0
0, 6, 0
0, 10, 0
0, 8, 0
0, 5, 0
0, 11, 0
0, 1, 0
8, 0, 0
8, 12, 0
8, 4, 0
8, 10, 0
8, 1, 0
3, 9, 0
3, 5, 0
3, 2, 1
6, 0, 0
6, 7, 1
6, 2, 0
6, 5, 0
6, 11, 0
6, 10, 0
5, 0, 0
5, 3, 0
5, 7, 0
5, 2, 0
5, 6, 0
5, 10, 0
5, 9, 0
11, 0, 0
11, 7, 0
11, 4, 0
11, 2, 0
11, 6, 0
11, 9, 0
11, 10, 0
10, 0, 0
10, 7, 0
10, 4, 0
10, 2, 0
10, 6, 0
10, 8, 0
10, 5, 0
10, 11, 0
10, 1, 0
7, 0, 0
7, 2, 0
7, 6, 1
7, 5, 0
7, 11, 0
7, 10, 0
12, 0, 0
12, 8, 0
12, 4, 0
12, 1, 0
4, 0, 0
4, 12, 0
4, 1, 0
4, 8, 0
4, 11, 0
4, 10, 0
2, 0, 0
2, 7, 0
2, 3, 1
2, 6, 0
2, 9, 0
2, 5, 0
2, 11, 0
2, 10, 0
1, 0, 0
1, 12, 0
1, 8, 0
1, 4, 0
1, 10, 0
9, 3, 0
9, 5, 0
9, 11, 0
9, 2, 0
