0, 7, 0
0, 3, 0
0, 4, 0
0, 2, 0
0, 5, 0
0, 1, 0
3, 0, 0
3, 7, 0
3, 4, 1
3, 5, 0
3, 1, 0
4, 0, 0
4, 3, 1
4, 7, 0
4, 5, 0
4, 1, 0
7, 0, 0
7, 3, 0
7, 4, 0
7, 8, 0
7, 5, 0
7, 1, 0
2, 0, 0
2, 6, 0
2, 8, 0
2, 5, 0
2, 1, 0
6, 1, 0
6, 8, 0
6, 5, 0
6, 2, 0
8, 7, 0
8, 6, 0
8, 1, 0
8, 5, 0
8, 2, 0
5, 0, 0
5, 3, 0
5, 4, 0
5, 2, 0
5, 6, 0
5, 8, 0
5, 7, 0
5, 1, 0
1, 0, 0
1, 3, 0
1, 4, 0
1, 2, 0
1, 6, 0
1, 8, 0
1, 7, 0
1, 5, 0
