13, 20, 0
13, 12, 0
13, 15, 0
13, 11, 0
17, 12, 0
17, 22, 0
5, 0, 0
5, 2, 0
11, 18, 0
11, 20, 0
11, 13, 0
11, 3, 0
1, 7, 0
1, 4, 0
1, 14, 0
1, 6, 0
1, 8, 0
1, 10, 0
20, 13, 0
20, 11, 0
4, 10, 0
4, 1, 0
14, 21, 0
14, 7, 0
14, 6, 0
14, 8, 0
14, 1, 0
8, 7, 1
8, 14, 0
8, 1, 0
15, 12, 0
15, 13, 0
22, 12, 0
22, 17, 0
0, 2, 0
0, 9, 0
0, 5, 0
0, 10, 0
3, 18, 0
3, 19, 0
3, 11, 0
16, 21, 0
16, 19, 0
6, 7, 1
6, 10, 0
6, 14, 0
6, 1, 0
10, 0, 0
10, 4, 0
10, 2, 0
10, 6, 0
10, 9, 0
10, 1, 0
7, 6, 1
7, 8, 1
7, 14, 0
7, 1, 0
12, 15, 0
12, 13, 0
12, 17, 0
12, 22, 0
2, 0, 0
2, 10, 0
2, 5, 0
2, 9, 0
21, 16, 0
21, 19, 0
21, 14, 0
19, 16, 0
19, 3, 0
19, 21, 0
18, 3, 0
18, 11, 0
9, 0, 0
9, 10, 0
9, 2, 0
