13, 0, 0
13, 12, 0
13, 9, 0
13, 8, 0
13, 15, 0
13, 10, 0
17, 8, 0
17, 4, 0
17, 1, 0
5, 16, 0
5, 19, 0
11, 20, 0
11, 21, 0
11, 16, 0
1, 14, 0
1, 4, 0
1, 17, 0
20, 16, 0
20, 21, 0
20, 3, 0
20, 11, 0
20, 10, 0
4, 8, 0
4, 17, 0
4, 1, 0
14, 1, 0
8, 0, 0
8, 12, 0
8, 13, 0
8, 17, 0
8, 4, 0
8, 9, 0
8, 15, 0
8, 10, 0
15, 0, 0
15, 7, 0
15, 16, 0
15, 13, 0
15, 12, 0
15, 21, 0
15, 8, 0
15, 9, 0
22, 18, 0
22, 6, 0
22, 2, 0
0, 7, 0
0, 12, 0
0, 13, 0
0, 3, 0
0, 8, 0
0, 15, 0
0, 10, 0
0, 9, 0
3, 7, 0
3, 0, 0
3, 20, 0
3, 12, 0
3, 10, 0
16, 20, 0
16, 12, 0
16, 21, 0
16, 15, 0
16, 5, 0
16, 11, 0
6, 18, 0
6, 19, 0
6, 22, 0
6, 2, 0
10, 20, 0
10, 0, 0
10, 13, 0
10, 9, 0
10, 3, 0
10, 8, 0
10, 7, 0
10, 12, 0
7, 0, 0
7, 3, 0
7, 12, 0
7, 21, 0
7, 15, 0
7, 10, 0
12, 0, 0
12, 3, 0
12, 13, 0
12, 21, 0
12, 16, 0
12, 8, 0
12, 15, 0
12, 7, 0
12, 10, 0
2, 18, 0
2, 6, 0
2, 19, 0
2, 22, 0
21, 20, 0
21, 7, 0
21, 12, 0
21, 16, 0
21, 15, 0
21, 11, 0
19, 18, 0
19, 6, 0
19, 5, 0
19, 2, 0
18, 6, 0
18, 19, 0
18, 22, 0
18, 2, 0
9, 0, 0
9, 8, 0
9, 15, 0
9, 10, 0
9, 13, 0
