0, 8, 0
0, 15, 0
0, 5, 0
13, 18, 0
13, 5, 0
13, 11, 0
13, 1, 0
17, 16, 1
17, 19, 0
17, 14, 0
17, 11, 0
3, 19, 0
3, 4, 0
3, 14, 0
3, 2, 1
16, 14, 0
16, 17, 1
16, 11, 0
6, 7, 0
8, 0, 0
8, 15, 0
8, 5, 0
5, 0, 0
5, 1, 0
5, 8, 0
5, 15, 0
5, 13, 0
11, 13, 0
11, 17, 0
11, 4, 0
11, 2, 0
11, 16, 0
11, 14, 0
11, 1, 0
11, 10, 0
11, 9, 0
10, 18, 0
10, 9, 0
10, 11, 0
10, 1, 0
7, 12, 0
7, 6, 0
12, 7, 0
12, 15, 0
4, 3, 0
4, 19, 0
4, 11, 0
4, 2, 0
14, 3, 0
14, 17, 0
14, 2, 0
14, 16, 0
14, 19, 0
14, 11, 0
2, 3, 1
2, 19, 0
2, 4, 0
2, 14, 0
2, 11, 0
19, 3, 0
19, 4, 0
19, 14, 0
19, 17, 0
19, 2, 0
1, 13, 0
1, 18, 0
1, 9, 0
1, 5, 0
1, 11, 0
1, 10, 0
15, 0, 0
15, 12, 0
15, 8, 0
15, 5, 0
18, 13, 0
18, 10, 0
18, 1, 0
9, 10, 0
9, 11, 0
9, 1, 0
