13, 21, 0
13, 12, 0
13, 19, 0
13, 31, 0
13, 34, 0
17, 16, 1
17, 29, 0
17, 40, 0
17, 5, 0
17, 47, 0
17, 41, 0
17, 3, 0
17, 4, 0
17, 14, 0
17, 50, 0
17, 26, 0
17, 35, 0
17, 42, 0
17, 36, 0
17, 15, 0
17, 48, 0
17, 22, 0
17, 9, 0
23, 20, 0
23, 4, 0
23, 5, 0
23, 24, 1
42, 17, 0
42, 34, 0
42, 16, 0
42, 24, 0
42, 40, 0
42, 5, 0
42, 20, 0
42, 3, 0
42, 4, 0
42, 14, 0
42, 50, 0
42, 26, 0
42, 35, 0
42, 29, 0
42, 9, 0
42, 15, 0
42, 41, 0
42, 36, 0
46, 20, 0
46, 3, 0
46, 4, 0
46, 50, 0
46, 31, 0
46, 35, 0
46, 21, 0
46, 34, 0
46, 5, 0
46, 18, 0
46, 41, 0
20, 4, 0
20, 23, 0
20, 24, 0
20, 42, 0
20, 5, 0
20, 46, 0
34, 13, 0
34, 51, 0
34, 16, 0
34, 35, 1
34, 46, 0
34, 3, 0
34, 14, 0
34, 50, 0
34, 29, 0
34, 21, 0
34, 42, 0
34, 15, 0
14, 17, 0
14, 34, 0
14, 29, 0
14, 47, 0
14, 9, 0
14, 3, 0
14, 35, 0
14, 21, 0
14, 42, 0
14, 8, 0
14, 15, 0
14, 48, 0
14, 22, 0
14, 36, 0
24, 20, 0
24, 42, 0
24, 4, 0
24, 5, 0
24, 23, 1
28, 27, 0
39, 21, 0
39, 12, 0
39, 38, 1
39, 11, 0
39, 10, 0
41, 17, 0
41, 29, 0
41, 16, 0
41, 42, 0
41, 9, 0
41, 40, 0
41, 46, 0
41, 5, 0
0, 33, 0
0, 25, 0
0, 30, 0
8, 3, 0
8, 14, 0
8, 22, 0
8, 51, 0
8, 21, 0
8, 6, 0
8, 38, 0
8, 48, 0
8, 11, 0
8, 10, 0
51, 45, 0
51, 8, 0
51, 31, 0
51, 34, 0
51, 6, 0
51, 44, 0
51, 1, 0
51, 33, 0
51, 25, 0
51, 32, 0
51, 2, 0
51, 37, 0
51, 49, 0
51, 48, 0
33, 0, 0
33, 45, 0
33, 25, 0
33, 44, 0
33, 51, 0
15, 9, 0
15, 3, 0
15, 29, 0
15, 14, 0
15, 50, 0
15, 34, 0
15, 16, 0
15, 17, 0
15, 35, 0
15, 42, 0
15, 36, 0
47, 3, 0
47, 22, 0
47, 14, 0
47, 48, 1
47, 17, 0
10, 12, 0
10, 21, 0
10, 39, 0
10, 8, 0
10, 38, 0
10, 11, 1
7, 6, 0
7, 43, 0
7, 31, 0
7, 2, 0
3, 17, 0
3, 16, 0
3, 29, 0
3, 46, 0
3, 47, 0
3, 48, 0
3, 34, 0
3, 50, 0
3, 14, 0
3, 11, 0
3, 31, 0
3, 35, 0
3, 21, 0
3, 42, 0
3, 8, 0
3, 15, 0
3, 18, 0
3, 22, 0
3, 36, 0
32, 37, 0
32, 51, 0
32, 31, 0
32, 2, 0
2, 7, 0
2, 32, 0
2, 51, 0
2, 31, 0
2, 37, 0
2, 6, 0
21, 13, 0
21, 3, 0
21, 34, 0
21, 39, 0
21, 46, 0
21, 11, 0
21, 10, 0
21, 12, 0
21, 14, 0
21, 9, 0
21, 31, 0
21, 35, 0
21, 8, 0
21, 38, 0
21, 36, 0
19, 6, 0
19, 13, 0
19, 43, 0
19, 31, 0
49, 37, 0
49, 48, 0
49, 51, 0
49, 1, 0
18, 3, 0
18, 46, 0
18, 31, 0
31, 13, 0
31, 51, 0
31, 3, 0
31, 18, 0
31, 46, 0
31, 7, 0
31, 12, 0
31, 43, 0
31, 32, 0
31, 2, 0
31, 21, 0
31, 19, 0
31, 38, 0
29, 17, 0
29, 34, 0
29, 16, 0
29, 5, 0
29, 41, 0
29, 3, 0
29, 4, 0
29, 14, 0
29, 35, 0
29, 42, 0
29, 36, 0
29, 15, 0
29, 48, 0
29, 9, 0
40, 17, 0
40, 26, 0
40, 16, 0
40, 42, 0
40, 41, 0
40, 9, 0
11, 12, 0
11, 3, 0
11, 21, 0
11, 38, 0
11, 8, 0
11, 39, 0
11, 10, 1
5, 20, 0
5, 4, 0
5, 17, 0
5, 23, 0
5, 24, 0
5, 16, 0
5, 42, 0
5, 29, 0
5, 46, 0
5, 41, 0
37, 2, 0
37, 49, 0
37, 51, 0
37, 32, 0
37, 1, 0
4, 17, 0
4, 23, 0
4, 16, 0
4, 29, 0
4, 46, 0
4, 5, 0
4, 20, 0
4, 50, 0
4, 24, 0
4, 42, 0
4, 9, 0
4, 36, 0
35, 17, 0
35, 34, 1
35, 16, 0
35, 46, 0
35, 3, 0
35, 14, 0
35, 50, 0
35, 29, 0
35, 21, 0
35, 42, 0
35, 36, 1
35, 15, 0
35, 9, 0
30, 0, 0
30, 27, 0
30, 25, 0
38, 12, 0
38, 31, 0
38, 21, 0
38, 8, 0
38, 39, 1
38, 11, 0
38, 10, 0
22, 3, 0
22, 14, 0
22, 17, 0
22, 8, 0
22, 48, 0
22, 47, 0
36, 17, 0
36, 16, 0
36, 35, 1
36, 3, 0
36, 4, 0
36, 14, 0
36, 50, 0
36, 29, 0
36, 21, 0
36, 42, 0
36, 15, 0
36, 9, 0
45, 33, 0
45, 44, 1
45, 51, 0
16, 17, 1
16, 3, 0
16, 35, 0
16, 40, 0
16, 5, 0
16, 34, 0
16, 4, 0
16, 50, 0
16, 26, 0
16, 29, 0
16, 42, 0
16, 36, 0
16, 15, 0
16, 41, 0
16, 9, 0
27, 25, 0
27, 28, 0
27, 30, 0
1, 37, 0
1, 49, 0
1, 51, 0
44, 33, 0
44, 51, 0
44, 45, 1
48, 3, 0
48, 49, 0
48, 14, 0
48, 22, 0
48, 51, 0
48, 29, 0
48, 6, 0
48, 8, 0
48, 17, 0
48, 47, 1
12, 13, 0
12, 31, 0
12, 21, 0
12, 39, 0
12, 38, 0
12, 11, 0
12, 10, 0
25, 0, 0
25, 27, 0
25, 33, 0
25, 51, 0
25, 30, 0
50, 17, 0
50, 34, 0
50, 16, 0
50, 46, 0
50, 3, 0
50, 4, 0
50, 26, 0
50, 35, 0
50, 42, 0
50, 36, 0
50, 15, 0
50, 9, 0
26, 17, 0
26, 50, 0
26, 16, 0
26, 42, 0
26, 40, 0
26, 9, 0
6, 7, 0
6, 43, 0
6, 51, 0
6, 2, 0
6, 19, 0
6, 8, 0
6, 48, 0
43, 7, 0
43, 6, 0
43, 19, 0
43, 31, 0
9, 17, 0
9, 16, 0
9, 29, 0
9, 40, 0
9, 4, 0
9, 14, 0
9, 50, 0
9, 26, 0
9, 35, 0
9, 21, 0
9, 42, 0
9, 15, 0
9, 41, 0
9, 36, 0
