0, 7, 0
0, 3, 0
0, 4, 0
0, 2, 0
0, 16, 0
0, 15, 0
13, 12, 1
13, 4, 0
13, 14, 0
13, 9, 0
13, 6, 0
13, 10, 0
13, 5, 0
13, 1, 0
17, 7, 0
17, 15, 0
17, 11, 0
3, 0, 0
3, 7, 0
3, 2, 0
3, 16, 0
3, 15, 0
3, 11, 0
3, 10, 0
16, 0, 0
16, 7, 0
16, 4, 0
16, 3, 0
16, 1, 0
16, 15, 0
16, 10, 0
6, 12, 0
6, 13, 0
6, 14, 0
6, 10, 0
6, 8, 0
6, 5, 0
6, 1, 0
8, 6, 0
8, 5, 0
8, 1, 0
5, 12, 0
5, 13, 0
5, 9, 0
5, 4, 0
5, 2, 0
5, 6, 0
5, 8, 0
5, 10, 0
5, 1, 0
11, 15, 0
11, 17, 0
11, 3, 0
10, 7, 0
10, 12, 0
10, 13, 0
10, 4, 0
10, 3, 0
10, 16, 0
10, 6, 0
10, 9, 0
10, 15, 0
10, 5, 0
10, 1, 0
7, 0, 0
7, 3, 0
7, 17, 0
7, 16, 0
7, 1, 0
7, 15, 0
7, 10, 0
12, 13, 1
12, 14, 0
12, 9, 0
12, 4, 0
12, 6, 0
12, 10, 0
12, 5, 0
12, 1, 0
4, 0, 0
4, 12, 0
4, 13, 0
4, 16, 0
4, 5, 0
4, 10, 0
14, 12, 0
14, 1, 0
14, 13, 0
14, 9, 0
14, 6, 0
2, 0, 0
2, 3, 0
2, 15, 0
2, 5, 0
1, 7, 0
1, 12, 0
1, 13, 0
1, 14, 0
1, 16, 0
1, 6, 0
1, 8, 0
1, 5, 0
1, 10, 0
1, 9, 0
15, 7, 0
15, 3, 0
15, 17, 0
15, 2, 0
15, 16, 0
15, 10, 0
15, 11, 0
15, 0, 0
9, 12, 0
9, 13, 0
9, 14, 0
9, 1, 0
9, 5, 0
9, 10, 0
