13, 8, 0
13, 23, 0
13, 6, 0
13, 27, 0
13, 7, 0
13, 12, 0
13, 4, 0
13, 14, 0
13, 26, 0
13, 24, 0
13, 21, 0
13, 25, 0
13, 1, 0
17, 4, 0
17, 25, 0
17, 23, 0
17, 27, 0
17, 22, 0
17, 9, 0
23, 13, 0
23, 17, 0
23, 16, 0
23, 27, 0
23, 10, 0
23, 7, 0
23, 18, 0
23, 4, 0
23, 25, 0
23, 24, 0
23, 21, 0
23, 8, 0
23, 15, 0
23, 22, 0
23, 9, 0
2, 16, 0
2, 18, 0
2, 8, 0
2, 15, 0
2, 10, 0
5, 20, 0
5, 3, 0
5, 19, 0
5, 1, 0
5, 15, 0
5, 11, 0
5, 0, 0
11, 7, 0
11, 3, 0
11, 18, 0
11, 6, 0
11, 15, 0
11, 5, 0
11, 10, 0
1, 7, 0
1, 3, 0
1, 13, 0
1, 14, 0
1, 26, 0
1, 24, 0
1, 6, 0
1, 8, 0
1, 5, 0
20, 0, 0
20, 3, 0
20, 19, 1
20, 15, 0
20, 5, 0
4, 25, 0
4, 13, 0
4, 17, 0
4, 23, 0
4, 21, 0
4, 27, 0
4, 8, 0
4, 22, 0
4, 9, 0
14, 7, 0
14, 12, 0
14, 13, 0
14, 26, 0
14, 3, 0
14, 21, 0
14, 6, 0
14, 1, 0
14, 8, 0
14, 24, 0
14, 27, 0
24, 7, 0
24, 12, 0
24, 13, 0
24, 14, 0
24, 26, 0
24, 23, 0
24, 27, 0
24, 6, 0
24, 8, 0
24, 25, 0
24, 1, 0
8, 13, 0
8, 23, 0
8, 16, 0
8, 6, 0
8, 2, 0
8, 27, 0
8, 7, 0
8, 18, 0
8, 4, 0
8, 14, 0
8, 24, 0
8, 21, 0
8, 1, 0
8, 10, 0
8, 22, 0
15, 20, 0
15, 3, 0
15, 11, 0
15, 23, 0
15, 2, 0
15, 16, 0
15, 19, 0
15, 10, 0
15, 5, 0
15, 18, 0
15, 0, 0
22, 25, 0
22, 4, 0
22, 17, 0
22, 23, 0
22, 21, 0
22, 27, 0
22, 8, 0
22, 9, 0
0, 20, 0
0, 3, 0
0, 19, 0
0, 15, 0
0, 5, 0
0, 10, 0
3, 20, 0
3, 0, 0
3, 14, 0
3, 6, 0
3, 19, 0
3, 15, 0
3, 5, 0
3, 11, 0
3, 1, 0
16, 7, 0
16, 23, 0
16, 2, 0
16, 8, 0
16, 15, 0
16, 10, 0
6, 13, 0
6, 12, 0
6, 18, 0
6, 27, 0
6, 11, 0
6, 1, 0
6, 7, 0
6, 3, 0
6, 14, 0
6, 24, 0
6, 21, 0
6, 8, 0
10, 7, 0
10, 16, 0
10, 23, 0
10, 2, 0
10, 21, 0
10, 8, 0
10, 15, 0
10, 18, 0
10, 11, 0
10, 0, 0
7, 13, 0
7, 23, 0
7, 16, 0
7, 6, 0
7, 8, 0
7, 11, 0
7, 27, 0
7, 12, 0
7, 14, 0
7, 24, 0
7, 21, 0
7, 1, 0
7, 10, 0
7, 18, 0
12, 7, 0
12, 25, 0
12, 13, 0
12, 14, 0
12, 26, 0
12, 24, 0
12, 6, 0
12, 27, 0
25, 12, 0
25, 13, 0
25, 17, 0
25, 26, 0
25, 23, 0
25, 24, 0
25, 27, 0
25, 4, 0
25, 22, 0
25, 9, 0
26, 12, 0
26, 13, 0
26, 25, 0
26, 27, 0
26, 24, 0
26, 14, 0
26, 1, 0
27, 13, 0
27, 17, 0
27, 23, 0
27, 18, 0
27, 6, 0
27, 7, 0
27, 12, 0
27, 4, 0
27, 25, 0
27, 26, 0
27, 24, 0
27, 21, 0
27, 14, 0
27, 8, 0
27, 22, 0
27, 9, 0
21, 7, 0
21, 4, 0
21, 13, 0
21, 23, 0
21, 6, 0
21, 18, 0
21, 27, 0
21, 14, 0
21, 8, 0
21, 22, 0
21, 10, 0
19, 20, 1
19, 0, 0
19, 15, 0
19, 5, 0
19, 3, 0
18, 7, 0
18, 23, 0
18, 2, 0
18, 21, 0
18, 6, 0
18, 27, 0
18, 8, 0
18, 15, 0
18, 11, 0
18, 10, 0
9, 4, 0
9, 25, 0
9, 22, 0
9, 23, 0
9, 27, 0
9, 17, 0
