0, 4, 0
0, 14, 0
13, 10, 0
3, 15, 0
3, 1, 0
6, 15, 0
6, 9, 0
8, 7, 0
8, 5, 0
8, 10, 0
5, 7, 0
5, 8, 0
5, 1, 0
11, 12, 1
11, 4, 0
11, 9, 0
10, 8, 0
10, 13, 0
7, 8, 0
7, 5, 0
7, 1, 0
12, 4, 0
12, 11, 1
12, 9, 0
4, 0, 0
4, 12, 0
4, 11, 0
4, 9, 0
14, 0, 0
14, 2, 0
2, 14, 0
1, 7, 0
1, 3, 0
1, 5, 0
15, 6, 0
15, 9, 0
15, 3, 0
9, 12, 0
9, 4, 0
9, 15, 0
9, 11, 0
9, 6, 0
