13, 37, 0
13, 50, 0
13, 32, 0
13, 16, 0
13, 22, 0
13, 36, 0
17, 20, 0
17, 3, 0
17, 39, 0
23, 0, 0
23, 37, 0
23, 28, 0
23, 9, 0
42, 16, 0
42, 34, 0
42, 44, 0
42, 50, 0
42, 48, 0
46, 45, 0
46, 35, 0
46, 43, 0
46, 31, 0
46, 2, 0
46, 18, 0
46, 24, 0
20, 33, 0
20, 17, 0
20, 39, 0
20, 3, 0
34, 16, 0
34, 50, 0
34, 37, 0
34, 42, 0
34, 44, 0
34, 48, 0
14, 27, 0
14, 49, 0
14, 31, 0
24, 45, 0
24, 43, 0
24, 31, 0
24, 2, 0
24, 18, 0
24, 35, 0
24, 46, 0
28, 0, 0
28, 37, 0
28, 26, 0
28, 23, 0
28, 9, 0
39, 20, 0
39, 3, 0
39, 17, 0
41, 3, 0
41, 49, 0
41, 5, 0
41, 31, 0
41, 35, 0
0, 28, 0
0, 23, 0
0, 9, 0
8, 51, 0
8, 29, 0
8, 21, 0
8, 38, 0
8, 10, 0
8, 15, 0
8, 11, 0
8, 30, 0
51, 29, 0
51, 21, 0
51, 8, 0
51, 15, 0
51, 11, 0
51, 30, 0
33, 20, 0
33, 29, 0
33, 21, 0
33, 38, 0
33, 15, 0
33, 10, 0
15, 33, 0
15, 51, 0
15, 29, 0
15, 21, 0
15, 8, 0
15, 38, 0
15, 10, 0
15, 11, 0
15, 30, 0
47, 16, 0
47, 19, 0
47, 4, 0
47, 43, 0
10, 33, 0
10, 29, 0
10, 21, 0
10, 38, 0
10, 8, 0
10, 15, 0
7, 6, 1
7, 11, 0
3, 20, 0
3, 12, 0
3, 40, 0
3, 17, 0
3, 31, 0
3, 27, 0
3, 36, 0
3, 49, 0
3, 39, 0
3, 41, 0
3, 1, 0
32, 16, 0
32, 13, 0
32, 31, 0
32, 2, 0
32, 18, 0
32, 22, 0
32, 36, 0
2, 45, 0
2, 31, 0
2, 32, 0
2, 24, 0
2, 18, 0
2, 46, 0
2, 36, 0
21, 33, 0
21, 51, 0
21, 29, 0
21, 15, 0
21, 8, 0
21, 38, 0
21, 10, 0
21, 30, 0
19, 37, 0
19, 16, 0
19, 43, 0
19, 47, 0
49, 3, 0
49, 14, 0
49, 41, 0
49, 31, 0
49, 27, 0
18, 35, 0
18, 43, 0
18, 31, 0
18, 32, 0
18, 2, 0
18, 1, 0
18, 5, 0
18, 24, 0
18, 40, 0
18, 46, 0
18, 36, 0
31, 45, 0
31, 3, 0
31, 18, 0
31, 27, 0
31, 35, 0
31, 40, 0
31, 46, 0
31, 1, 0
31, 24, 0
31, 12, 0
31, 4, 0
31, 14, 0
31, 32, 0
31, 2, 0
31, 43, 0
31, 49, 0
31, 5, 0
31, 41, 0
31, 36, 0
29, 33, 0
29, 51, 0
29, 21, 0
29, 8, 0
29, 15, 0
29, 10, 0
29, 11, 0
29, 30, 0
40, 3, 0
40, 4, 0
40, 43, 0
40, 31, 0
40, 16, 0
40, 1, 0
40, 18, 0
40, 36, 0
11, 7, 0
11, 51, 0
11, 29, 0
11, 6, 0
11, 8, 0
11, 15, 0
11, 30, 0
5, 18, 0
5, 36, 0
5, 41, 0
5, 31, 0
5, 35, 0
37, 13, 0
37, 28, 0
37, 23, 0
37, 16, 0
37, 44, 0
37, 34, 0
37, 43, 0
37, 50, 0
37, 19, 0
37, 9, 0
37, 48, 0
37, 36, 0
4, 43, 0
4, 31, 0
4, 16, 0
4, 1, 0
4, 40, 0
4, 47, 0
4, 36, 0
35, 45, 0
35, 31, 0
35, 24, 0
35, 18, 0
35, 36, 0
35, 5, 0
35, 41, 0
35, 46, 0
30, 51, 0
30, 29, 0
30, 21, 0
30, 38, 0
30, 8, 0
30, 15, 0
30, 11, 0
38, 33, 0
38, 21, 0
38, 30, 0
38, 8, 0
38, 15, 0
38, 10, 0
22, 16, 0
22, 13, 0
22, 32, 0
22, 36, 0
36, 13, 0
36, 32, 0
36, 16, 0
36, 35, 0
36, 40, 0
36, 5, 0
36, 1, 0
36, 3, 0
36, 4, 0
36, 43, 0
36, 50, 0
36, 31, 0
36, 2, 0
36, 37, 0
36, 48, 0
36, 18, 0
36, 22, 0
45, 35, 0
45, 2, 0
45, 46, 0
45, 31, 0
45, 24, 0
16, 13, 0
16, 40, 0
16, 44, 0
16, 47, 0
16, 34, 0
16, 4, 0
16, 43, 0
16, 50, 0
16, 32, 0
16, 37, 0
16, 42, 0
16, 19, 0
16, 48, 0
16, 22, 0
16, 36, 0
27, 12, 0
27, 49, 0
27, 14, 0
27, 31, 0
27, 3, 0
1, 3, 0
1, 4, 0
1, 43, 0
1, 31, 0
1, 18, 0
1, 40, 0
1, 36, 0
44, 34, 0
44, 16, 0
44, 50, 0
44, 37, 0
44, 42, 0
44, 48, 0
48, 34, 0
48, 16, 0
48, 37, 0
48, 42, 0
48, 44, 0
48, 36, 0
12, 27, 0
12, 31, 0
12, 3, 0
25, 26, 0
50, 34, 0
50, 16, 0
50, 13, 0
50, 37, 0
50, 42, 0
50, 44, 0
50, 36, 0
26, 25, 0
26, 28, 0
6, 7, 1
6, 11, 0
43, 18, 0
43, 40, 0
43, 46, 0
43, 47, 0
43, 1, 0
43, 16, 0
43, 4, 0
43, 31, 0
43, 24, 0
43, 37, 0
43, 19, 0
43, 36, 0
9, 37, 0
9, 0, 0
9, 28, 0
9, 23, 0
