0, 18, 0
0, 8, 0
0, 17, 0
0, 4, 0
0, 9, 0
13, 3, 0
13, 5, 0
17, 0, 0
17, 7, 0
17, 2, 0
17, 8, 0
17, 9, 0
3, 2, 0
3, 13, 0
3, 5, 0
3, 1, 0
16, 14, 0
16, 10, 0
6, 14, 0
6, 5, 0
8, 0, 0
8, 17, 0
8, 9, 1
5, 6, 0
5, 13, 0
5, 14, 0
5, 3, 0
11, 10, 0
10, 16, 0
10, 14, 0
10, 11, 0
7, 12, 0
7, 17, 0
7, 2, 0
12, 7, 0
12, 2, 0
4, 0, 0
4, 18, 0
14, 16, 0
14, 6, 0
14, 5, 0
14, 10, 0
2, 7, 0
2, 12, 0
2, 17, 0
2, 3, 0
2, 1, 0
1, 3, 0
1, 2, 0
15, 18, 0
18, 0, 0
18, 4, 0
18, 15, 0
9, 0, 0
9, 8, 1
9, 17, 0
