13, 7, 0
13, 6, 0
13, 14, 1
13, 5, 0
13, 17, 0
17, 7, 0
17, 13, 0
17, 14, 0
17, 6, 0
17, 5, 0
17, 22, 0
17, 9, 0
23, 0, 0
23, 3, 0
23, 20, 0
23, 8, 0
23, 1, 0
5, 7, 0
5, 6, 1
5, 13, 0
5, 14, 0
5, 17, 0
11, 18, 0
11, 8, 0
11, 22, 0
1, 20, 0
1, 3, 0
1, 19, 0
1, 23, 0
1, 6, 0
20, 0, 0
20, 3, 0
20, 19, 0
20, 23, 0
20, 1, 0
4, 16, 0
4, 12, 0
4, 15, 0
4, 10, 0
14, 7, 0
14, 6, 0
14, 13, 1
14, 17, 0
14, 5, 0
8, 0, 0
8, 22, 0
8, 23, 0
8, 19, 0
8, 11, 0
8, 9, 0
15, 7, 0
15, 12, 0
15, 4, 0
15, 16, 0
15, 22, 0
15, 10, 0
22, 21, 0
22, 8, 0
22, 17, 0
22, 12, 0
22, 16, 0
22, 2, 0
22, 15, 0
22, 11, 0
22, 9, 0
0, 20, 0
0, 18, 0
0, 8, 0
0, 23, 0
0, 3, 0
3, 20, 0
3, 0, 0
3, 23, 0
3, 1, 0
16, 4, 0
16, 15, 0
16, 22, 0
16, 2, 0
6, 7, 0
6, 13, 0
6, 17, 0
6, 14, 0
6, 19, 0
6, 5, 1
6, 1, 0
10, 7, 0
10, 12, 0
10, 4, 0
10, 15, 0
7, 12, 0
7, 13, 0
7, 14, 0
7, 6, 0
7, 17, 0
7, 15, 0
7, 5, 0
7, 10, 0
12, 7, 0
12, 4, 0
12, 15, 0
12, 22, 0
12, 10, 0
2, 16, 0
2, 21, 0
2, 22, 0
21, 22, 0
21, 2, 0
19, 20, 0
19, 6, 0
19, 8, 0
19, 9, 0
19, 1, 0
18, 0, 0
18, 11, 0
9, 19, 0
9, 8, 0
9, 17, 0
9, 22, 0
