0, 10, 0
0, 11, 0
0, 9, 0
13, 12, 1
13, 4, 0
13, 5, 0
13, 1, 0
3, 7, 0
3, 14, 0
6, 14, 0
6, 2, 0
8, 5, 0
8, 10, 0
5, 12, 0
5, 13, 0
5, 4, 0
5, 8, 0
5, 10, 0
5, 1, 0
11, 0, 0
11, 10, 0
10, 0, 0
10, 8, 0
10, 5, 0
10, 11, 0
7, 3, 0
12, 13, 1
12, 5, 0
12, 4, 0
4, 12, 0
4, 13, 0
4, 5, 0
4, 1, 0
14, 6, 0
14, 2, 0
14, 3, 0
2, 6, 0
2, 14, 0
2, 9, 0
1, 13, 0
1, 5, 0
1, 4, 0
9, 0, 0
9, 2, 0
