0, 7, 0
0, 3, 0
0, 4, 0
0, 9, 0
0, 2, 0
0, 6, 0
0, 10, 0
0, 5, 0
0, 1, 0
6, 0, 0
6, 3, 0
6, 4, 0
6, 2, 0
6, 8, 0
6, 11, 0
6, 1, 0
1, 0, 0
1, 6, 0
1, 11, 0
1, 2, 0
5, 0, 0
5, 3, 0
5, 9, 0
5, 2, 0
11, 7, 0
11, 9, 0
11, 2, 0
11, 6, 0
11, 8, 0
11, 10, 0
11, 1, 0
10, 0, 0
10, 3, 0
10, 8, 0
10, 7, 0
10, 11, 0
7, 0, 0
7, 3, 0
7, 4, 0
7, 8, 0
7, 11, 0
7, 10, 0
3, 0, 0
3, 7, 0
3, 4, 0
3, 2, 0
3, 6, 0
3, 9, 0
3, 5, 0
3, 10, 0
4, 0, 0
4, 6, 0
4, 8, 0
4, 7, 0
4, 3, 0
2, 0, 0
2, 3, 0
2, 6, 0
2, 9, 0
2, 5, 0
2, 11, 0
2, 1, 0
8, 7, 0
8, 6, 0
8, 4, 0
8, 11, 0
8, 10, 0
9, 0, 0
9, 3, 0
9, 5, 0
9, 11, 0
9, 2, 0
