0, 3, 0
0, 5, 0
3, 0, 0
3, 7, 0
3, 6, 0
3, 8, 0
3, 5, 0
3, 1, 0
4, 10, 0
4, 2, 0
2, 4, 0
2, 9, 0
6, 7, 1
6, 3, 0
6, 1, 0
1, 7, 0
1, 3, 0
1, 8, 0
1, 10, 0
1, 6, 0
8, 7, 1
8, 3, 0
8, 1, 0
5, 0, 0
5, 3, 0
7, 3, 0
7, 1, 0
7, 8, 1
7, 6, 1
10, 4, 0
10, 1, 0
9, 2, 0
