0, 13, 0
0, 12, 0
0, 6, 0
0, 5, 0
0, 11, 0
0, 1, 0
0, 7, 0
0, 3, 0
0, 4, 0
0, 2, 0
0, 10, 0
0, 9, 0
13, 0, 0
13, 3, 0
13, 4, 0
13, 8, 0
13, 5, 0
13, 11, 0
3, 0, 0
3, 13, 0
3, 4, 0
3, 2, 0
3, 6, 0
3, 8, 0
3, 5, 0
3, 11, 0
3, 1, 0
6, 0, 0
6, 3, 0
6, 9, 0
6, 1, 0
6, 8, 0
6, 5, 0
6, 10, 0
8, 7, 0
8, 6, 0
8, 13, 0
8, 11, 0
8, 3, 0
5, 0, 0
5, 3, 0
5, 13, 0
5, 9, 0
5, 4, 1
5, 12, 0
5, 6, 0
5, 10, 0
5, 7, 0
5, 11, 0
5, 1, 0
11, 0, 0
11, 12, 0
11, 13, 0
11, 3, 0
11, 8, 0
11, 5, 0
10, 0, 0
10, 2, 0
10, 6, 0
10, 1, 0
10, 5, 0
10, 9, 1
7, 0, 0
7, 12, 0
7, 8, 0
7, 5, 0
7, 9, 0
12, 0, 0
12, 7, 0
12, 5, 0
12, 11, 0
12, 9, 0
4, 0, 0
4, 3, 0
4, 13, 0
4, 5, 1
2, 0, 0
2, 3, 0
2, 9, 0
2, 10, 0
2, 1, 1
1, 0, 0
1, 3, 0
1, 2, 1
1, 6, 0
1, 10, 0
1, 5, 0
1, 9, 0
9, 0, 0
9, 12, 0
9, 7, 0
9, 2, 0
9, 6, 0
9, 1, 0
9, 5, 0
9, 10, 1
