0, 8, 0
0, 2, 0
13, 12, 0
13, 3, 0
3, 7, 0
3, 12, 0
3, 13, 0
3, 4, 1
3, 6, 0
3, 8, 0
3, 1, 0
6, 3, 0
6, 10, 0
6, 1, 0
8, 0, 0
8, 3, 0
8, 1, 0
5, 9, 0
5, 11, 0
5, 2, 0
11, 5, 0
11, 9, 0
10, 7, 0
10, 6, 0
7, 3, 0
7, 4, 0
7, 10, 0
12, 3, 0
12, 13, 0
12, 4, 0
4, 7, 0
4, 12, 0
4, 3, 1
2, 0, 0
2, 5, 0
1, 6, 0
1, 8, 0
1, 3, 0
9, 5, 0
9, 11, 0
