13, 16, 0
13, 2, 0
17, 7, 0
17, 18, 0
17, 9, 0
5, 6, 0
5, 8, 0
11, 21, 0
11, 12, 0
11, 19, 0
11, 14, 0
11, 10, 1
1, 16, 0
1, 18, 0
1, 9, 0
20, 3, 0
4, 0, 0
4, 3, 0
4, 15, 0
14, 12, 0
14, 2, 0
14, 21, 0
14, 19, 0
14, 8, 0
14, 11, 0
14, 10, 0
8, 12, 0
8, 14, 0
8, 5, 0
8, 6, 0
15, 3, 0
15, 4, 0
0, 6, 0
0, 4, 0
3, 20, 0
3, 4, 0
3, 15, 0
16, 2, 0
16, 13, 0
16, 1, 0
6, 0, 0
6, 8, 0
6, 5, 0
10, 21, 0
10, 19, 0
10, 14, 0
10, 11, 1
7, 18, 0
7, 17, 0
12, 8, 0
12, 14, 0
12, 11, 0
2, 16, 0
2, 19, 0
2, 13, 0
2, 14, 0
21, 19, 0
21, 14, 0
21, 11, 0
21, 10, 0
19, 21, 0
19, 2, 0
19, 14, 0
19, 11, 0
19, 10, 0
18, 7, 0
18, 9, 0
18, 17, 0
18, 1, 0
9, 18, 0
9, 17, 0
9, 1, 0
