0, 12, 0
0, 5, 0
0, 10, 0
13, 12, 0
13, 9, 0
13, 6, 0
13, 8, 0
13, 5, 0
13, 10, 0
3, 2, 0
3, 4, 1
3, 11, 0
3, 1, 0
6, 12, 0
6, 13, 0
6, 5, 0
6, 10, 0
8, 13, 0
8, 9, 1
8, 5, 0
8, 2, 0
5, 0, 0
5, 12, 0
5, 13, 0
5, 9, 0
5, 4, 0
5, 2, 0
5, 6, 0
5, 8, 0
5, 10, 0
5, 11, 0
5, 1, 0
11, 7, 0
11, 3, 0
11, 4, 0
11, 5, 0
11, 1, 0
10, 0, 0
10, 12, 0
10, 13, 0
10, 6, 0
10, 5, 0
10, 9, 1
7, 11, 0
12, 0, 0
12, 6, 0
12, 13, 0
12, 5, 0
12, 10, 0
4, 3, 1
4, 5, 0
4, 11, 0
4, 1, 0
2, 3, 0
2, 8, 0
2, 9, 0
2, 5, 0
2, 1, 0
1, 3, 0
1, 4, 0
1, 5, 0
1, 11, 0
1, 2, 0
9, 2, 0
9, 8, 1
9, 13, 0
9, 5, 0
9, 10, 1
