2, 6, 0
2, 14, 0
2, 22, 0
2, 32, 0
2, 10, 0
13, 21, 0
13, 12, 0
13, 19, 0
13, 17, 0
13, 26, 0
17, 12, 0
17, 13, 0
17, 31, 0
17, 4, 0
17, 18, 0
17, 19, 0
31, 18, 0
31, 12, 0
31, 4, 0
31, 17, 0
23, 7, 0
23, 9, 0
23, 11, 0
23, 29, 0
23, 6, 0
23, 24, 0
23, 22, 0
23, 30, 0
24, 3, 0
24, 22, 0
24, 23, 0
5, 4, 0
5, 25, 0
11, 0, 0
11, 20, 0
11, 8, 0
11, 23, 0
11, 16, 0
11, 27, 0
11, 35, 0
11, 30, 0
11, 7, 0
11, 34, 0
11, 32, 0
11, 29, 0
11, 1, 0
11, 18, 0
11, 9, 0
1, 20, 0
1, 28, 0
1, 26, 0
1, 29, 0
1, 21, 0
1, 8, 0
1, 11, 0
20, 0, 0
20, 7, 0
20, 28, 0
20, 29, 0
20, 16, 0
20, 27, 0
20, 30, 0
20, 35, 0
20, 11, 0
20, 1, 0
34, 18, 0
34, 16, 0
34, 11, 0
34, 27, 0
4, 12, 0
4, 25, 0
4, 26, 0
4, 31, 0
4, 17, 0
4, 5, 0
14, 32, 0
14, 2, 0
14, 6, 0
14, 15, 0
14, 22, 0
14, 10, 0
35, 16, 0
35, 6, 0
35, 11, 0
35, 30, 0
35, 20, 0
35, 33, 0
35, 32, 0
35, 29, 0
35, 15, 0
35, 18, 0
35, 22, 0
35, 9, 0
28, 20, 0
28, 0, 0
28, 26, 0
28, 21, 0
28, 27, 0
28, 19, 0
28, 1, 0
30, 20, 0
30, 7, 0
30, 32, 0
30, 23, 0
30, 35, 0
30, 16, 0
30, 29, 1
30, 22, 0
30, 18, 0
30, 11, 0
30, 9, 0
8, 7, 0
8, 11, 0
8, 1, 0
15, 33, 0
15, 14, 0
15, 32, 0
15, 35, 0
15, 18, 0
15, 6, 0
15, 29, 0
15, 22, 0
22, 23, 0
22, 33, 0
22, 16, 0
22, 6, 0
22, 2, 0
22, 10, 0
22, 24, 0
22, 3, 0
22, 14, 0
22, 32, 0
22, 35, 0
22, 29, 0
22, 30, 0
22, 15, 0
22, 18, 0
22, 9, 0
0, 20, 0
0, 21, 0
0, 28, 0
0, 18, 0
0, 27, 0
0, 19, 0
0, 11, 0
3, 6, 0
3, 29, 0
3, 10, 0
3, 22, 0
3, 24, 0
16, 20, 0
16, 34, 0
16, 22, 0
16, 32, 0
16, 35, 0
16, 18, 0
16, 6, 0
16, 27, 0
16, 29, 0
16, 11, 0
16, 30, 0
27, 20, 0
27, 16, 0
27, 28, 0
27, 34, 0
27, 18, 0
27, 29, 0
27, 11, 0
27, 0, 0
10, 3, 0
10, 2, 0
10, 14, 0
10, 22, 0
10, 6, 0
7, 20, 0
7, 9, 0
7, 23, 0
7, 29, 0
7, 8, 0
7, 11, 0
7, 30, 0
12, 13, 0
12, 17, 0
12, 31, 0
12, 26, 0
12, 21, 0
12, 4, 0
12, 19, 0
25, 4, 0
25, 5, 0
25, 26, 0
33, 15, 0
33, 22, 0
33, 32, 0
33, 35, 0
32, 33, 0
32, 14, 0
32, 11, 0
32, 35, 0
32, 16, 0
32, 6, 0
32, 2, 0
32, 15, 0
32, 18, 0
32, 22, 0
32, 30, 0
6, 3, 0
6, 14, 0
6, 23, 0
6, 32, 0
6, 35, 0
6, 16, 0
6, 29, 0
6, 2, 0
6, 15, 0
6, 22, 0
6, 10, 0
21, 0, 0
21, 12, 0
21, 13, 0
21, 28, 0
21, 26, 0
21, 19, 0
21, 1, 0
29, 7, 0
29, 23, 0
29, 16, 0
29, 6, 0
29, 11, 0
29, 27, 0
29, 20, 0
29, 3, 0
29, 35, 0
29, 30, 1
29, 1, 0
29, 15, 0
29, 18, 0
29, 22, 0
29, 9, 0
19, 0, 0
19, 12, 0
19, 13, 0
19, 28, 0
19, 21, 0
19, 17, 0
19, 18, 0
26, 12, 0
26, 13, 0
26, 28, 0
26, 4, 0
26, 21, 0
26, 25, 0
26, 1, 0
18, 0, 0
18, 17, 0
18, 31, 0
18, 16, 0
18, 27, 0
18, 35, 0
18, 11, 0
18, 30, 0
18, 34, 0
18, 32, 0
18, 29, 0
18, 19, 0
18, 15, 0
18, 22, 0
9, 7, 0
9, 11, 0
9, 23, 0
9, 35, 0
9, 29, 0
9, 22, 0
9, 30, 0
