13, 7, 0
13, 2, 0
13, 4, 0
13, 29, 0
13, 6, 0
13, 8, 0
17, 16, 0
17, 28, 0
17, 2, 0
17, 18, 0
17, 27, 0
17, 8, 0
31, 34, 0
31, 28, 0
31, 32, 0
31, 33, 0
31, 27, 0
31, 2, 0
31, 11, 0
31, 1, 0
23, 0, 0
23, 3, 0
23, 7, 0
23, 29, 0
23, 8, 0
23, 24, 1
23, 5, 0
23, 22, 0
10, 20, 0
10, 12, 0
10, 4, 0
10, 14, 0
10, 21, 0
10, 9, 1
2, 13, 0
2, 17, 0
2, 32, 0
2, 5, 0
2, 11, 0
2, 30, 0
2, 4, 0
2, 28, 0
2, 8, 0
2, 15, 0
2, 22, 0
2, 3, 0
2, 18, 0
2, 27, 0
2, 1, 0
2, 7, 0
2, 34, 0
2, 31, 0
2, 21, 0
2, 33, 0
2, 19, 0
2, 26, 0
5, 7, 0
5, 3, 0
5, 8, 0
5, 25, 0
5, 23, 0
5, 2, 0
5, 19, 0
5, 29, 0
5, 24, 0
5, 0, 0
11, 7, 0
11, 28, 0
11, 31, 0
11, 2, 0
11, 19, 0
11, 1, 0
1, 33, 0
1, 28, 0
1, 32, 0
1, 31, 0
1, 34, 0
1, 27, 0
1, 2, 0
1, 11, 0
20, 12, 0
20, 4, 0
20, 14, 0
20, 10, 0
20, 9, 0
4, 0, 0
4, 7, 0
4, 13, 0
4, 6, 0
4, 2, 0
4, 10, 0
4, 20, 0
4, 12, 0
4, 14, 0
4, 24, 0
4, 21, 0
4, 25, 0
4, 8, 0
4, 9, 0
14, 20, 0
14, 12, 0
14, 4, 0
14, 9, 0
14, 21, 0
14, 8, 0
14, 10, 0
24, 0, 0
24, 3, 0
24, 4, 0
24, 25, 1
24, 23, 1
24, 29, 0
24, 8, 0
24, 5, 0
28, 0, 0
28, 17, 0
28, 31, 0
28, 34, 0
28, 16, 0
28, 27, 0
28, 11, 0
28, 1, 0
28, 33, 0
28, 32, 0
28, 2, 0
28, 30, 0
28, 18, 0
30, 0, 0
30, 3, 0
30, 7, 0
30, 28, 0
30, 26, 0
30, 2, 0
30, 16, 0
30, 8, 0
30, 22, 0
8, 0, 0
8, 13, 0
8, 17, 0
8, 23, 0
8, 16, 0
8, 2, 0
8, 5, 0
8, 30, 0
8, 7, 0
8, 3, 0
8, 4, 0
8, 14, 0
8, 26, 0
8, 24, 0
8, 21, 0
8, 29, 0
8, 18, 0
8, 22, 0
15, 7, 0
15, 18, 0
15, 22, 0
15, 2, 0
22, 7, 0
22, 3, 0
22, 23, 0
22, 26, 0
22, 2, 0
22, 16, 0
22, 8, 0
22, 15, 0
22, 18, 0
22, 30, 0
0, 28, 0
0, 23, 0
0, 16, 0
0, 6, 0
0, 29, 0
0, 5, 0
0, 30, 0
0, 7, 0
0, 3, 0
0, 4, 0
0, 25, 0
0, 24, 0
0, 8, 0
3, 0, 0
3, 7, 0
3, 25, 0
3, 23, 0
3, 2, 0
3, 19, 0
3, 8, 0
3, 24, 0
3, 5, 0
3, 22, 0
3, 30, 0
34, 33, 1
34, 28, 0
34, 31, 0
34, 32, 1
34, 2, 0
34, 27, 0
34, 1, 0
16, 0, 0
16, 7, 0
16, 28, 0
16, 18, 0
16, 17, 0
16, 8, 0
16, 22, 0
16, 30, 0
6, 0, 0
6, 13, 0
6, 25, 0
6, 4, 0
6, 29, 0
27, 34, 0
27, 28, 0
27, 31, 0
27, 32, 0
27, 2, 0
27, 33, 0
27, 17, 0
27, 1, 0
7, 0, 0
7, 13, 0
7, 23, 0
7, 16, 0
7, 29, 0
7, 5, 0
7, 11, 0
7, 30, 0
7, 3, 0
7, 4, 0
7, 2, 0
7, 21, 0
7, 19, 0
7, 8, 0
7, 15, 0
7, 18, 0
7, 22, 0
12, 20, 0
12, 4, 0
12, 14, 0
12, 9, 0
12, 10, 0
25, 0, 0
25, 3, 0
25, 4, 0
25, 29, 0
25, 6, 0
25, 24, 1
25, 5, 0
32, 34, 1
32, 28, 0
32, 31, 0
32, 2, 0
32, 27, 0
32, 1, 0
29, 0, 0
29, 7, 0
29, 13, 0
29, 25, 0
29, 23, 0
29, 24, 0
29, 6, 0
29, 8, 0
29, 5, 0
21, 7, 0
21, 4, 0
21, 14, 0
21, 9, 0
21, 26, 0
21, 2, 0
21, 19, 0
21, 8, 0
21, 10, 0
33, 34, 1
33, 28, 0
33, 31, 0
33, 2, 0
33, 27, 0
33, 1, 0
19, 7, 0
19, 3, 0
19, 2, 0
19, 21, 0
19, 5, 0
19, 11, 0
26, 18, 0
26, 2, 0
26, 21, 0
26, 8, 0
26, 22, 0
26, 30, 0
18, 7, 0
18, 28, 0
18, 26, 0
18, 2, 0
18, 16, 0
18, 17, 0
18, 8, 0
18, 15, 0
18, 22, 0
9, 20, 0
9, 12, 0
9, 4, 0
9, 14, 0
9, 21, 0
9, 10, 1
