0, 7, 0
0, 3, 0
0, 13, 0
0, 5, 0
0, 9, 0
13, 7, 0
13, 0, 0
13, 4, 0
13, 5, 0
13, 11, 0
13, 10, 0
3, 0, 0
3, 9, 0
6, 8, 0
6, 1, 0
8, 7, 0
8, 6, 0
8, 14, 0
8, 1, 0
5, 0, 0
5, 7, 0
5, 13, 0
5, 11, 0
5, 10, 0
11, 7, 0
11, 13, 0
11, 5, 0
11, 10, 0
10, 13, 0
10, 5, 0
10, 11, 0
7, 0, 0
7, 13, 0
7, 14, 0
7, 8, 0
7, 5, 0
7, 11, 0
12, 4, 0
12, 2, 0
4, 2, 0
4, 12, 0
4, 13, 0
4, 1, 0
14, 7, 0
14, 8, 0
2, 12, 0
2, 4, 0
2, 1, 0
1, 6, 0
1, 8, 0
1, 4, 0
1, 2, 0
9, 0, 0
9, 3, 0
