0, 7, 0
0, 3, 0
0, 5, 0
0, 2, 0
3, 0, 0
3, 7, 0
3, 4, 0
3, 1, 0
4, 3, 0
4, 1, 0
2, 0, 0
2, 7, 0
2, 5, 0
6, 8, 0
6, 5, 0
6, 9, 0
1, 3, 0
1, 4, 0
1, 10, 0
8, 6, 0
8, 5, 0
8, 9, 1
5, 0, 0
5, 7, 0
5, 2, 0
5, 6, 0
5, 8, 0
5, 9, 0
7, 0, 0
7, 3, 0
7, 5, 0
7, 2, 0
10, 1, 0
9, 6, 0
9, 8, 1
9, 5, 0
