0, 3, 0
0, 9, 0
0, 2, 0
0, 6, 0
0, 8, 0
0, 5, 0
0, 1, 0
3, 0, 0
3, 4, 0
3, 9, 0
3, 2, 0
3, 8, 0
3, 1, 0
4, 7, 0
4, 3, 0
2, 0, 0
2, 3, 0
2, 9, 0
2, 6, 0
2, 8, 0
2, 1, 1
6, 0, 0
6, 5, 1
6, 2, 0
1, 0, 0
1, 3, 0
1, 2, 1
1, 8, 0
1, 9, 0
8, 0, 0
8, 3, 0
8, 1, 0
8, 9, 1
8, 2, 0
5, 0, 0
5, 6, 1
7, 4, 0
9, 0, 0
9, 3, 0
9, 2, 0
9, 8, 1
9, 1, 0
