0, 3, 0
0, 8, 0
0, 4, 0
0, 1, 0
3, 0, 0
3, 8, 0
3, 4, 1
3, 1, 0
4, 0, 0
4, 3, 1
4, 8, 0
4, 1, 0
2, 8, 0
6, 7, 1
6, 5, 0
1, 0, 0
1, 3, 0
1, 4, 0
1, 10, 0
1, 8, 0
1, 5, 0
1, 7, 0
1, 9, 0
8, 0, 0
8, 3, 0
8, 1, 0
8, 4, 0
8, 2, 0
5, 7, 0
5, 6, 0
5, 1, 0
5, 9, 0
5, 10, 0
7, 6, 1
7, 10, 0
7, 5, 0
7, 1, 0
10, 7, 0
10, 1, 0
10, 5, 0
10, 9, 1
9, 1, 0
9, 5, 0
9, 10, 1
