0, 7, 0
0, 2, 0
0, 1, 1
3, 7, 0
3, 1, 0
3, 2, 0
4, 6, 0
4, 5, 0
7, 0, 0
7, 3, 0
7, 2, 0
7, 1, 0
2, 0, 0
2, 7, 0
2, 3, 0
2, 5, 0
2, 1, 0
6, 4, 0
6, 5, 0
5, 6, 0
5, 4, 0
5, 2, 0
1, 0, 1
1, 7, 0
1, 3, 0
1, 2, 0
