0, 6, 0
0, 1, 0
0, 10, 0
6, 0, 0
6, 1, 0
6, 11, 0
6, 9, 0
1, 0, 0
1, 6, 0
1, 9, 0
5, 7, 0
5, 3, 0
5, 8, 0
5, 11, 0
11, 7, 0
11, 3, 0
11, 4, 0
11, 2, 0
11, 6, 0
11, 5, 0
11, 9, 0
10, 0, 0
10, 8, 0
7, 11, 0
7, 8, 0
7, 5, 0
7, 4, 0
7, 2, 0
3, 4, 0
3, 5, 0
3, 11, 0
4, 7, 0
4, 3, 0
4, 11, 0
4, 2, 0
2, 7, 0
2, 4, 0
2, 11, 0
8, 7, 0
8, 5, 0
8, 10, 0
9, 6, 0
9, 11, 0
9, 1, 0
