0, 6, 0
0, 2, 0
3, 7, 0
3, 6, 0
3, 5, 0
3, 1, 0
4, 8, 0
4, 2, 0
7, 3, 0
7, 2, 0
7, 6, 0
7, 8, 0
7, 5, 0
7, 1, 0
2, 0, 0
2, 7, 0
2, 4, 0
2, 6, 0
6, 7, 0
6, 3, 0
6, 2, 0
6, 0, 0
6, 8, 0
6, 1, 0
8, 7, 0
8, 6, 0
8, 4, 0
8, 5, 0
5, 7, 0
5, 3, 0
5, 8, 0
1, 7, 0
1, 3, 0
1, 6, 0
