0, 6, 0
0, 1, 0
0, 2, 0
3, 7, 0
3, 6, 0
3, 8, 0
3, 5, 0
3, 4, 0
4, 3, 0
4, 8, 0
4, 6, 0
7, 3, 0
7, 5, 0
2, 0, 0
2, 6, 0
2, 1, 1
6, 0, 0
6, 3, 0
6, 4, 0
6, 2, 0
6, 8, 0
6, 1, 0
8, 3, 0
8, 4, 0
8, 5, 0
8, 6, 0
5, 7, 0
5, 3, 0
5, 8, 0
1, 0, 0
1, 6, 0
1, 2, 1
