13, 37, 0
13, 12, 1
13, 11, 0
17, 40, 0
17, 3, 0
17, 4, 0
17, 32, 0
17, 16, 1
17, 42, 0
17, 39, 0
17, 5, 0
17, 41, 0
23, 18, 0
23, 10, 0
42, 3, 0
42, 4, 0
42, 17, 0
42, 5, 0
42, 47, 0
42, 9, 0
46, 0, 0
46, 20, 0
46, 19, 0
46, 35, 0
46, 29, 0
20, 0, 0
20, 19, 1
20, 35, 0
20, 46, 0
20, 29, 0
14, 6, 0
14, 5, 0
14, 47, 0
24, 37, 0
24, 34, 0
24, 44, 0
28, 7, 0
28, 45, 0
28, 26, 0
28, 8, 0
28, 38, 0
28, 11, 0
39, 3, 0
39, 17, 0
39, 32, 0
39, 16, 0
39, 27, 0
39, 40, 1
41, 16, 0
41, 40, 1
41, 17, 0
41, 32, 0
41, 27, 0
0, 20, 0
0, 19, 0
0, 35, 0
0, 46, 0
0, 29, 0
8, 7, 1
8, 45, 0
8, 28, 0
8, 38, 0
8, 11, 0
34, 37, 0
34, 2, 0
34, 44, 0
34, 24, 0
15, 21, 0
15, 36, 0
15, 22, 0
15, 10, 0
47, 14, 0
47, 6, 0
47, 42, 0
47, 30, 0
47, 9, 0
47, 5, 0
47, 36, 0
10, 21, 0
10, 25, 0
10, 23, 0
10, 18, 0
10, 15, 0
10, 22, 0
10, 36, 0
7, 38, 0
7, 8, 1
7, 28, 0
7, 45, 0
3, 4, 1
3, 17, 0
3, 27, 0
3, 16, 0
3, 42, 0
3, 39, 0
32, 40, 0
32, 39, 0
32, 41, 0
32, 17, 0
32, 27, 0
2, 34, 0
2, 35, 0
2, 44, 0
2, 29, 0
21, 10, 0
21, 15, 0
21, 22, 1
21, 36, 0
33, 18, 0
33, 45, 0
33, 25, 0
33, 31, 0
33, 1, 0
19, 20, 1
19, 0, 0
19, 46, 0
19, 29, 0
18, 33, 0
18, 25, 0
18, 23, 0
18, 10, 0
31, 33, 0
31, 45, 0
31, 1, 0
29, 20, 0
29, 0, 0
29, 35, 0
29, 19, 0
29, 2, 0
29, 46, 0
40, 17, 0
40, 32, 0
40, 16, 0
40, 27, 0
40, 39, 1
40, 41, 1
11, 12, 0
11, 13, 0
11, 43, 0
11, 26, 0
11, 37, 0
11, 28, 0
11, 8, 0
5, 4, 1
5, 17, 0
5, 22, 0
5, 36, 0
5, 6, 0
5, 42, 0
5, 14, 0
5, 30, 0
5, 47, 0
5, 9, 0
37, 34, 0
37, 13, 0
37, 24, 0
37, 44, 0
37, 11, 0
37, 12, 0
4, 3, 1
4, 17, 0
4, 5, 1
4, 22, 0
4, 42, 0
35, 20, 0
35, 0, 0
35, 2, 0
35, 46, 0
35, 29, 0
30, 5, 0
30, 47, 0
30, 9, 0
38, 7, 0
38, 45, 0
38, 8, 0
38, 28, 0
22, 4, 0
22, 21, 1
22, 10, 0
22, 15, 0
22, 5, 0
22, 36, 0
36, 47, 0
36, 21, 0
36, 6, 0
36, 15, 0
36, 5, 0
36, 22, 0
36, 10, 0
45, 7, 0
45, 33, 0
45, 28, 0
45, 31, 0
45, 8, 0
45, 38, 0
45, 1, 0
16, 3, 0
16, 17, 1
16, 27, 0
16, 39, 0
16, 40, 0
16, 41, 0
27, 3, 0
27, 32, 0
27, 16, 0
27, 39, 0
27, 40, 0
27, 41, 0
1, 33, 0
1, 31, 0
1, 45, 0
44, 37, 0
44, 34, 0
44, 2, 0
44, 24, 0
12, 37, 0
12, 13, 1
12, 11, 0
25, 18, 0
25, 33, 0
25, 10, 0
26, 43, 0
26, 28, 0
26, 11, 0
6, 14, 0
6, 5, 0
6, 47, 0
6, 36, 0
43, 26, 0
43, 11, 0
9, 42, 0
9, 5, 0
9, 47, 0
9, 30, 0
