0, 7, 0
0, 3, 0
0, 2, 0
0, 6, 0
0, 1, 0
0, 8, 0
0, 11, 0
0, 9, 0
6, 0, 0
6, 3, 0
6, 2, 0
6, 1, 0
6, 9, 0
6, 5, 0
6, 11, 0
6, 10, 0
1, 0, 0
1, 3, 0
1, 4, 0
1, 2, 0
1, 6, 0
1, 5, 0
1, 9, 0
5, 3, 0
5, 4, 1
5, 2, 0
5, 6, 0
5, 1, 0
5, 10, 0
11, 0, 0
11, 3, 0
11, 7, 0
11, 2, 0
11, 6, 0
11, 10, 0
10, 6, 0
10, 4, 0
10, 5, 0
10, 11, 0
10, 3, 0
7, 0, 0
7, 8, 1
7, 11, 0
3, 0, 0
3, 2, 1
3, 6, 0
3, 1, 0
3, 9, 0
3, 5, 0
3, 11, 0
3, 10, 0
4, 10, 0
4, 5, 1
4, 1, 0
2, 0, 0
2, 3, 1
2, 6, 0
2, 5, 0
2, 11, 0
2, 1, 0
8, 0, 0
8, 7, 1
8, 9, 0
9, 0, 0
9, 6, 0
9, 8, 0
9, 3, 0
9, 1, 0
