0, 16, 0
0, 6, 0
0, 9, 0
0, 5, 0
0, 1, 0
7, 13, 0
7, 3, 0
7, 8, 1
7, 14, 0
13, 12, 0
13, 16, 0
13, 6, 0
13, 11, 0
13, 1, 0
13, 7, 0
13, 3, 0
13, 4, 0
13, 14, 0
13, 2, 0
13, 19, 0
13, 8, 0
13, 15, 0
13, 10, 0
13, 9, 0
17, 16, 0
17, 4, 0
17, 14, 0
17, 5, 0
17, 1, 0
3, 20, 0
3, 12, 0
3, 13, 0
3, 14, 0
3, 2, 0
3, 8, 0
3, 15, 0
3, 7, 0
16, 0, 0
16, 13, 0
16, 17, 0
16, 18, 0
16, 6, 0
16, 5, 0
16, 11, 0
16, 1, 0
16, 4, 0
16, 14, 0
16, 2, 0
16, 19, 0
16, 10, 0
16, 15, 0
16, 9, 0
6, 0, 0
6, 13, 0
6, 1, 0
6, 16, 0
6, 19, 0
6, 9, 0
6, 5, 0
6, 10, 0
8, 7, 1
8, 3, 0
8, 13, 0
8, 14, 0
5, 0, 0
5, 16, 0
5, 1, 0
5, 17, 0
5, 6, 0
11, 18, 0
11, 13, 0
11, 16, 0
11, 19, 0
11, 10, 0
11, 15, 0
11, 9, 0
10, 18, 0
10, 13, 0
10, 14, 0
10, 4, 0
10, 2, 0
10, 16, 0
10, 6, 0
10, 19, 0
10, 1, 0
10, 11, 0
10, 9, 1
20, 3, 0
20, 15, 0
20, 2, 0
20, 14, 0
20, 12, 0
12, 20, 0
12, 3, 0
12, 13, 0
12, 14, 0
12, 2, 0
4, 13, 0
4, 17, 0
4, 16, 0
4, 14, 0
4, 1, 0
4, 10, 0
14, 7, 0
14, 12, 0
14, 13, 0
14, 17, 0
14, 4, 0
14, 3, 0
14, 16, 0
14, 20, 0
14, 2, 0
14, 8, 0
14, 10, 0
2, 20, 0
2, 12, 0
2, 13, 0
2, 14, 0
2, 3, 0
2, 16, 0
2, 10, 0
19, 18, 0
19, 13, 0
19, 16, 0
19, 6, 0
19, 9, 0
19, 11, 0
19, 10, 0
1, 0, 0
1, 13, 0
1, 17, 0
1, 4, 0
1, 16, 0
1, 6, 0
1, 9, 0
1, 5, 0
1, 10, 0
15, 20, 0
15, 18, 0
15, 13, 0
15, 3, 0
15, 16, 0
15, 11, 0
18, 16, 0
18, 19, 0
18, 9, 0
18, 15, 0
18, 11, 0
18, 10, 0
9, 0, 0
9, 18, 0
9, 13, 0
9, 16, 0
9, 6, 0
9, 19, 0
9, 10, 1
9, 11, 0
9, 1, 0
