2, 16, 0
2, 15, 0
2, 28, 0
2, 26, 0
13, 25, 0
13, 12, 0
13, 14, 1
13, 5, 0
13, 10, 0
17, 0, 0
17, 33, 0
17, 25, 0
17, 23, 0
17, 32, 0
17, 35, 0
17, 8, 0
17, 11, 0
31, 19, 0
31, 5, 0
23, 33, 0
23, 17, 0
23, 32, 0
23, 35, 0
23, 8, 0
23, 11, 0
24, 18, 0
24, 20, 0
5, 12, 0
5, 13, 0
5, 31, 0
5, 19, 0
5, 11, 0
5, 10, 0
11, 17, 0
11, 23, 0
11, 16, 0
11, 35, 0
11, 5, 0
11, 30, 0
11, 25, 0
11, 32, 0
11, 29, 0
11, 19, 0
11, 8, 0
11, 10, 0
11, 9, 0
1, 16, 0
1, 6, 0
20, 18, 0
20, 27, 0
20, 29, 0
20, 24, 0
20, 34, 0
34, 20, 0
34, 27, 0
34, 29, 0
4, 7, 0
4, 6, 0
14, 12, 0
14, 13, 1
14, 25, 0
14, 10, 0
35, 33, 0
35, 17, 0
35, 32, 0
35, 23, 0
35, 8, 0
35, 11, 0
35, 9, 0
28, 16, 0
28, 2, 0
30, 7, 0
30, 3, 0
30, 11, 0
30, 21, 0
30, 18, 0
30, 22, 0
8, 33, 0
8, 17, 0
8, 23, 0
8, 35, 0
8, 11, 0
8, 9, 0
15, 26, 0
15, 2, 0
22, 18, 0
22, 21, 1
22, 3, 0
22, 30, 0
0, 25, 0
0, 17, 0
3, 7, 0
3, 21, 0
3, 18, 0
3, 27, 0
3, 22, 0
3, 30, 0
16, 2, 0
16, 28, 0
16, 11, 0
16, 1, 0
27, 20, 0
27, 3, 0
27, 29, 0
27, 34, 0
10, 12, 0
10, 13, 0
10, 25, 0
10, 14, 0
10, 5, 0
10, 11, 0
7, 3, 0
7, 6, 0
7, 4, 0
7, 30, 0
12, 13, 0
12, 25, 0
12, 32, 0
12, 14, 0
12, 5, 0
12, 10, 0
25, 0, 0
25, 12, 0
25, 13, 0
25, 14, 0
25, 17, 0
25, 11, 0
25, 10, 0
33, 17, 0
33, 32, 0
33, 23, 0
33, 35, 0
33, 8, 0
33, 9, 0
32, 33, 0
32, 17, 0
32, 23, 0
32, 35, 0
32, 9, 0
32, 11, 0
32, 12, 0
6, 7, 0
6, 4, 0
6, 1, 0
21, 18, 0
21, 3, 0
21, 22, 1
21, 30, 0
29, 20, 0
29, 27, 0
29, 19, 0
29, 11, 0
29, 34, 0
19, 29, 0
19, 5, 0
19, 11, 0
19, 31, 0
26, 15, 0
26, 2, 0
18, 20, 0
18, 3, 0
18, 24, 0
18, 21, 0
18, 22, 0
18, 30, 0
9, 33, 0
9, 8, 0
9, 11, 0
9, 32, 0
9, 35, 0
