13, 8, 0
13, 1, 0
17, 16, 1
17, 7, 0
17, 15, 0
17, 6, 0
23, 16, 0
23, 6, 0
23, 25, 0
23, 2, 0
5, 3, 0
5, 4, 1
5, 11, 0
11, 20, 0
11, 3, 0
11, 4, 0
11, 5, 0
11, 21, 0
1, 12, 0
1, 8, 0
1, 13, 0
20, 0, 0
20, 25, 0
20, 22, 0
20, 11, 0
20, 10, 0
4, 3, 0
4, 5, 1
4, 11, 0
14, 21, 0
14, 3, 0
14, 19, 0
24, 21, 0
24, 19, 0
24, 26, 0
24, 9, 0
8, 12, 0
8, 13, 0
8, 15, 0
8, 1, 0
15, 7, 0
15, 12, 0
15, 17, 0
15, 16, 0
15, 6, 0
15, 8, 0
22, 20, 0
22, 0, 0
22, 25, 0
22, 10, 0
0, 20, 0
0, 22, 0
0, 10, 0
3, 19, 0
3, 4, 0
3, 14, 0
3, 5, 0
3, 11, 0
16, 7, 0
16, 15, 0
16, 17, 1
16, 23, 0
16, 6, 0
6, 7, 1
6, 17, 0
6, 23, 0
6, 2, 0
6, 16, 0
6, 25, 0
6, 15, 0
10, 20, 0
10, 0, 0
10, 22, 0
7, 16, 0
7, 6, 1
7, 15, 0
7, 17, 0
7, 2, 0
12, 8, 0
12, 15, 0
12, 1, 0
25, 20, 0
25, 6, 0
25, 22, 0
25, 23, 0
26, 18, 0
26, 24, 0
26, 9, 0
2, 7, 0
2, 6, 0
2, 23, 0
21, 19, 0
21, 14, 0
21, 11, 0
21, 24, 0
19, 21, 0
19, 3, 0
19, 14, 0
19, 24, 0
18, 26, 0
9, 26, 0
9, 24, 0
