0, 6, 0
0, 11, 0
0, 9, 0
13, 12, 0
17, 16, 0
17, 15, 0
17, 11, 0
3, 10, 0
3, 1, 0
16, 14, 0
16, 15, 0
16, 17, 0
16, 11, 0
6, 0, 0
6, 9, 0
8, 2, 0
8, 10, 0
5, 7, 0
5, 4, 1
5, 2, 0
11, 0, 0
11, 16, 0
11, 15, 0
11, 17, 0
10, 3, 0
10, 8, 0
10, 2, 0
7, 4, 0
7, 5, 0
7, 2, 0
12, 13, 0
12, 9, 0
4, 7, 0
4, 5, 1
4, 2, 0
14, 16, 0
14, 1, 0
2, 7, 0
2, 8, 0
2, 5, 0
2, 4, 0
2, 10, 0
1, 3, 0
1, 14, 0
15, 16, 0
15, 17, 0
15, 11, 0
9, 0, 0
9, 12, 0
9, 6, 0
