0, 7, 0
0, 3, 0
0, 9, 0
0, 10, 0
0, 1, 1
6, 1, 0
6, 8, 0
6, 11, 0
6, 9, 0
1, 0, 1
1, 7, 0
1, 6, 0
1, 10, 0
1, 11, 0
1, 9, 0
5, 3, 0
5, 4, 1
5, 11, 0
5, 2, 0
11, 7, 0
11, 3, 0
11, 4, 0
11, 9, 0
11, 2, 0
11, 6, 0
11, 10, 0
11, 5, 0
11, 1, 0
10, 0, 0
10, 3, 0
10, 9, 0
10, 11, 0
10, 1, 0
7, 0, 0
7, 8, 0
7, 9, 0
7, 11, 0
7, 1, 0
3, 0, 0
3, 4, 0
3, 5, 0
3, 11, 0
3, 10, 0
4, 3, 0
4, 5, 1
4, 11, 0
4, 2, 0
2, 4, 0
2, 5, 0
2, 11, 0
8, 7, 0
8, 6, 0
8, 9, 1
9, 7, 0
9, 0, 0
9, 6, 0
9, 8, 1
9, 10, 0
9, 11, 0
9, 1, 0
