0, 3, 0
0, 4, 0
0, 1, 1
6, 5, 0
6, 11, 0
6, 10, 0
1, 0, 1
1, 3, 0
1, 4, 0
5, 7, 0
5, 6, 0
5, 2, 0
5, 8, 0
5, 10, 0
11, 7, 0
11, 6, 0
11, 10, 0
11, 3, 0
11, 9, 0
10, 7, 0
10, 6, 0
10, 5, 0
10, 11, 0
7, 2, 0
7, 5, 0
7, 11, 0
7, 10, 0
3, 0, 0
3, 4, 0
3, 9, 0
3, 11, 0
3, 1, 0
4, 0, 0
4, 3, 0
4, 1, 0
2, 7, 0
2, 8, 0
2, 5, 0
8, 5, 0
8, 2, 0
9, 3, 0
9, 11, 0
