13, 3, 0
13, 8, 0
13, 17, 0
17, 3, 0
17, 13, 0
17, 25, 0
17, 2, 0
17, 18, 0
17, 19, 0
17, 8, 0
17, 9, 0
23, 0, 0
23, 3, 0
23, 7, 0
23, 24, 0
23, 21, 0
5, 12, 0
5, 4, 0
5, 14, 0
11, 12, 0
11, 19, 0
11, 8, 0
11, 25, 0
1, 16, 0
1, 15, 0
20, 3, 0
20, 25, 0
20, 24, 0
20, 16, 0
20, 6, 0
20, 19, 0
4, 12, 0
4, 14, 0
4, 5, 0
14, 12, 0
14, 4, 0
14, 5, 0
24, 20, 0
24, 7, 0
24, 25, 0
24, 23, 0
24, 3, 0
24, 6, 0
24, 19, 0
8, 12, 0
8, 13, 0
8, 25, 0
8, 3, 0
8, 17, 0
8, 19, 0
8, 11, 0
15, 16, 0
15, 10, 0
15, 26, 0
15, 1, 0
22, 26, 0
0, 21, 0
0, 3, 0
0, 7, 0
0, 23, 0
3, 0, 0
3, 20, 0
3, 13, 0
3, 17, 0
3, 23, 0
3, 16, 0
3, 6, 0
3, 7, 0
3, 12, 0
3, 24, 0
3, 21, 0
3, 8, 0
3, 9, 0
16, 20, 0
16, 3, 0
16, 25, 0
16, 19, 0
16, 15, 0
16, 1, 0
6, 20, 0
6, 3, 0
6, 24, 0
10, 15, 0
10, 26, 0
7, 0, 0
7, 3, 0
7, 25, 0
7, 23, 0
7, 24, 0
7, 21, 0
7, 19, 0
12, 3, 0
12, 4, 0
12, 14, 0
12, 25, 0
12, 19, 0
12, 8, 0
12, 5, 0
12, 11, 0
25, 7, 0
25, 12, 0
25, 16, 0
25, 17, 0
25, 24, 0
25, 21, 0
25, 20, 0
25, 8, 0
25, 19, 0
25, 11, 0
26, 15, 0
26, 22, 0
26, 10, 0
2, 18, 0
2, 17, 0
2, 9, 0
21, 0, 0
21, 3, 0
21, 7, 0
21, 25, 0
21, 23, 0
21, 18, 0
21, 19, 0
21, 9, 0
19, 16, 0
19, 17, 0
19, 18, 0
19, 11, 0
19, 7, 0
19, 12, 0
19, 25, 0
19, 24, 0
19, 21, 0
19, 20, 0
19, 8, 0
19, 9, 0
18, 21, 0
18, 19, 0
18, 9, 0
18, 17, 0
18, 2, 0
9, 3, 0
9, 17, 0
9, 2, 0
9, 21, 0
9, 19, 0
9, 18, 0
