58, 13, 0
58, 38, 0
58, 46, 0
58, 4, 0
58, 30, 0
13, 58, 0
13, 12, 0
13, 4, 0
13, 24, 0
13, 38, 0
13, 46, 0
17, 45, 0
17, 16, 1
17, 42, 0
17, 19, 0
17, 55, 0
17, 40, 0
17, 44, 0
17, 41, 0
23, 0, 0
23, 33, 0
23, 4, 0
23, 52, 0
23, 66, 0
23, 60, 0
23, 53, 0
23, 15, 0
23, 30, 0
63, 43, 0
63, 42, 0
63, 19, 0
63, 40, 0
63, 48, 0
63, 11, 0
24, 12, 0
24, 13, 0
24, 46, 0
24, 26, 0
5, 57, 0
5, 18, 0
5, 14, 0
5, 22, 0
5, 56, 0
5, 61, 0
5, 6, 1
5, 11, 0
65, 14, 0
65, 11, 0
65, 22, 0
65, 32, 0
20, 30, 0
20, 26, 0
20, 1, 0
34, 33, 0
34, 4, 0
34, 54, 0
34, 51, 0
34, 35, 0
34, 60, 0
34, 53, 0
34, 15, 0
34, 36, 0
14, 57, 0
14, 61, 0
14, 11, 0
14, 32, 0
14, 56, 0
14, 21, 0
14, 6, 0
14, 65, 0
14, 18, 0
14, 22, 0
14, 5, 0
66, 0, 0
66, 53, 0
66, 15, 0
66, 23, 0
42, 45, 0
42, 28, 0
42, 62, 0
42, 16, 0
42, 55, 0
42, 40, 0
42, 44, 0
42, 11, 0
42, 41, 0
42, 63, 0
42, 43, 0
42, 37, 0
42, 17, 0
42, 19, 0
42, 8, 0
42, 48, 0
42, 9, 0
15, 60, 0
15, 34, 0
15, 53, 0
15, 23, 0
15, 66, 0
41, 45, 0
41, 17, 0
41, 42, 0
41, 16, 0
41, 28, 0
41, 19, 0
41, 55, 0
41, 40, 1
41, 44, 0
41, 9, 0
0, 25, 0
0, 23, 0
0, 66, 0
0, 52, 0
0, 53, 0
0, 30, 0
8, 28, 0
8, 62, 0
8, 29, 0
8, 37, 0
8, 42, 0
8, 55, 0
8, 48, 0
8, 11, 0
8, 9, 1
62, 43, 0
62, 55, 0
62, 28, 0
62, 29, 0
62, 42, 0
62, 8, 0
62, 48, 0
62, 11, 0
62, 9, 0
51, 34, 0
51, 54, 0
33, 34, 0
33, 23, 0
33, 35, 0
33, 60, 0
33, 36, 0
33, 53, 0
33, 30, 0
6, 57, 0
6, 14, 0
6, 56, 0
6, 18, 0
6, 64, 0
6, 5, 1
6, 11, 0
64, 18, 0
64, 6, 0
64, 11, 0
47, 32, 0
47, 27, 0
47, 59, 0
47, 10, 0
47, 7, 0
47, 3, 0
47, 4, 0
47, 50, 0
47, 31, 0
47, 2, 0
47, 49, 0
47, 39, 0
10, 7, 0
10, 3, 0
10, 50, 0
10, 31, 0
10, 2, 0
10, 27, 0
10, 49, 0
10, 39, 0
10, 47, 0
10, 32, 0
7, 3, 0
7, 50, 0
7, 32, 0
7, 2, 0
7, 27, 0
7, 39, 0
7, 49, 0
7, 59, 0
7, 47, 0
7, 10, 0
3, 7, 0
3, 50, 0
3, 32, 0
3, 2, 1
3, 27, 0
3, 49, 0
3, 39, 0
3, 47, 0
3, 10, 0
53, 0, 0
53, 33, 0
53, 25, 0
53, 23, 0
53, 66, 0
53, 60, 0
53, 52, 0
53, 34, 0
53, 15, 0
53, 30, 0
32, 61, 0
32, 47, 0
32, 65, 0
32, 7, 0
32, 3, 0
32, 14, 0
32, 50, 0
32, 31, 0
32, 21, 0
32, 49, 0
32, 10, 0
32, 22, 0
29, 9, 0
29, 8, 0
29, 28, 1
29, 62, 0
29, 48, 0
37, 42, 0
37, 8, 0
37, 55, 0
37, 9, 0
52, 0, 0
52, 25, 0
52, 23, 0
52, 30, 0
52, 53, 0
52, 1, 0
19, 16, 0
19, 43, 0
19, 63, 0
19, 42, 0
19, 40, 0
19, 41, 0
19, 17, 0
19, 44, 0
49, 7, 0
49, 3, 0
49, 50, 1
49, 32, 0
49, 2, 0
49, 27, 0
49, 59, 0
49, 47, 0
49, 10, 0
48, 16, 0
48, 55, 0
48, 28, 0
48, 62, 0
48, 29, 0
48, 63, 0
48, 43, 0
48, 8, 0
48, 42, 0
48, 11, 0
48, 9, 0
31, 32, 0
31, 47, 0
31, 10, 0
28, 43, 0
28, 62, 0
28, 29, 1
28, 42, 0
28, 8, 0
28, 48, 0
28, 41, 0
28, 11, 0
28, 9, 0
45, 17, 0
45, 16, 0
45, 42, 0
45, 55, 0
45, 41, 0
45, 44, 1
60, 33, 0
60, 35, 0
60, 23, 0
60, 34, 0
60, 53, 0
60, 15, 0
59, 7, 0
59, 4, 0
59, 49, 0
59, 47, 0
2, 7, 0
2, 3, 1
2, 50, 0
2, 27, 0
2, 49, 0
2, 39, 0
2, 47, 0
2, 10, 0
40, 16, 0
40, 43, 0
40, 17, 0
40, 9, 0
40, 63, 0
40, 42, 0
40, 19, 0
40, 55, 0
40, 44, 0
40, 41, 1
11, 61, 0
11, 28, 0
11, 62, 0
11, 63, 0
11, 6, 0
11, 55, 0
11, 5, 0
11, 65, 0
11, 57, 0
11, 16, 0
11, 43, 0
11, 9, 0
11, 21, 0
11, 42, 0
11, 14, 0
11, 8, 0
11, 64, 0
11, 18, 0
11, 22, 0
11, 48, 0
46, 58, 0
46, 12, 0
46, 13, 0
46, 26, 0
46, 24, 0
46, 4, 0
46, 30, 0
21, 57, 0
21, 18, 0
21, 14, 0
21, 32, 0
21, 56, 0
21, 61, 0
21, 11, 0
61, 57, 0
61, 21, 0
61, 14, 0
61, 32, 0
61, 56, 0
61, 18, 0
61, 5, 0
61, 11, 0
39, 7, 0
39, 3, 0
39, 2, 0
39, 27, 0
39, 47, 0
39, 10, 0
35, 60, 0
35, 33, 0
35, 34, 0
35, 54, 0
35, 36, 0
30, 0, 0
30, 20, 0
30, 58, 0
30, 4, 0
30, 52, 0
30, 23, 0
30, 33, 0
30, 25, 0
30, 53, 0
30, 46, 0
30, 1, 0
38, 58, 0
38, 13, 0
38, 4, 0
22, 57, 0
22, 14, 0
22, 56, 0
22, 32, 0
22, 18, 0
22, 5, 0
22, 11, 0
22, 65, 0
36, 33, 0
36, 34, 0
36, 35, 0
25, 0, 0
25, 53, 0
25, 52, 0
25, 30, 0
57, 61, 0
57, 14, 0
57, 22, 0
57, 56, 1
57, 21, 0
57, 6, 0
57, 18, 0
57, 11, 0
57, 5, 0
56, 57, 1
56, 21, 0
56, 14, 0
56, 61, 0
56, 6, 0
56, 18, 0
56, 22, 0
56, 5, 0
16, 41, 0
16, 45, 0
16, 17, 1
16, 42, 0
16, 19, 0
16, 55, 0
16, 40, 0
16, 44, 0
16, 11, 0
16, 48, 0
27, 7, 0
27, 3, 0
27, 2, 0
27, 49, 0
27, 39, 0
27, 47, 0
27, 10, 0
1, 20, 0
1, 52, 0
1, 30, 0
55, 45, 0
55, 17, 0
55, 62, 0
55, 16, 0
55, 40, 0
55, 44, 0
55, 11, 0
55, 48, 0
55, 37, 0
55, 42, 0
55, 8, 0
55, 41, 0
55, 9, 0
44, 45, 1
44, 17, 0
44, 16, 0
44, 42, 0
44, 19, 0
44, 55, 0
44, 40, 0
44, 41, 0
12, 13, 0
12, 46, 0
12, 24, 0
18, 57, 0
18, 21, 0
18, 14, 0
18, 22, 0
18, 56, 0
18, 61, 0
18, 6, 0
18, 64, 0
18, 5, 0
18, 11, 0
4, 58, 0
4, 34, 0
4, 13, 0
4, 23, 0
4, 59, 0
4, 38, 0
4, 46, 0
4, 47, 0
4, 30, 0
54, 34, 0
54, 51, 0
54, 35, 0
50, 7, 0
50, 3, 0
50, 32, 0
50, 2, 0
50, 49, 1
50, 47, 0
50, 10, 0
26, 20, 0
26, 46, 0
26, 24, 0
43, 28, 0
43, 62, 0
43, 63, 0
43, 42, 0
43, 19, 0
43, 40, 0
43, 48, 0
43, 11, 0
9, 8, 1
9, 28, 0
9, 62, 0
9, 29, 0
9, 37, 0
9, 42, 0
9, 55, 0
9, 40, 0
9, 41, 0
9, 11, 0
9, 48, 0
