0, 16, 0
0, 12, 0
0, 8, 0
0, 17, 0
0, 2, 0
13, 15, 0
13, 4, 0
13, 14, 0
13, 1, 0
17, 7, 0
17, 12, 0
17, 3, 0
17, 2, 0
17, 6, 0
17, 8, 0
17, 0, 0
17, 9, 0
3, 7, 0
3, 12, 0
3, 17, 0
3, 5, 0
3, 6, 0
16, 0, 0
16, 8, 0
16, 2, 0
6, 12, 0
6, 4, 0
6, 17, 0
6, 3, 0
6, 5, 0
6, 11, 0
6, 10, 0
8, 0, 0
8, 12, 0
8, 17, 0
8, 2, 0
8, 16, 0
8, 9, 0
5, 6, 0
5, 11, 0
5, 3, 0
11, 6, 0
11, 4, 0
11, 5, 0
11, 10, 0
10, 12, 0
10, 4, 0
10, 11, 0
10, 6, 0
7, 3, 0
7, 17, 0
7, 9, 0
12, 0, 0
12, 3, 0
12, 4, 0
12, 17, 0
12, 2, 0
12, 6, 0
12, 8, 0
12, 10, 0
12, 9, 0
4, 12, 0
4, 13, 0
4, 14, 0
4, 6, 0
4, 15, 0
4, 11, 0
4, 10, 0
14, 13, 0
14, 15, 1
14, 4, 0
14, 1, 0
2, 0, 0
2, 12, 0
2, 17, 0
2, 16, 0
2, 8, 0
2, 9, 0
1, 14, 0
1, 13, 0
1, 15, 0
15, 13, 0
15, 14, 1
15, 4, 0
15, 1, 0
9, 7, 0
9, 12, 0
9, 8, 0
9, 17, 0
9, 2, 0
