0, 8, 0
0, 9, 0
0, 2, 0
6, 7, 0
1, 3, 0
1, 4, 0
1, 11, 0
1, 10, 0
5, 8, 0
5, 4, 0
11, 3, 0
11, 10, 1
11, 1, 0
10, 3, 0
10, 11, 1
10, 1, 0
7, 6, 0
7, 3, 0
3, 7, 0
3, 10, 0
3, 11, 0
3, 1, 0
4, 5, 0
4, 1, 0
2, 0, 0
2, 9, 0
8, 0, 0
8, 5, 0
9, 0, 0
9, 2, 0
