13, 12, 0
13, 1, 0
13, 8, 0
13, 14, 1
13, 24, 0
17, 18, 1
17, 7, 0
17, 27, 0
17, 22, 0
17, 9, 0
31, 18, 0
31, 30, 1
31, 4, 0
31, 23, 0
31, 29, 0
23, 4, 0
23, 31, 0
23, 29, 0
23, 18, 0
23, 9, 0
23, 30, 0
10, 25, 0
10, 15, 0
10, 5, 0
10, 11, 0
2, 3, 1
2, 19, 0
2, 28, 0
2, 32, 0
2, 26, 0
5, 25, 0
5, 28, 0
5, 32, 0
5, 16, 0
5, 6, 1
5, 15, 0
5, 11, 0
5, 10, 0
11, 16, 0
11, 25, 0
11, 15, 0
11, 5, 0
11, 10, 0
1, 12, 0
1, 8, 0
1, 13, 0
1, 24, 0
20, 21, 1
20, 24, 0
4, 0, 0
4, 25, 0
4, 31, 0
4, 23, 0
4, 29, 0
14, 8, 0
14, 13, 1
14, 24, 0
24, 20, 0
24, 12, 0
24, 13, 0
24, 14, 0
24, 21, 0
24, 8, 0
24, 1, 0
28, 3, 0
28, 32, 0
28, 26, 0
28, 2, 0
28, 6, 0
28, 19, 0
28, 5, 0
28, 12, 0
30, 31, 1
30, 23, 0
30, 29, 0
8, 24, 0
8, 12, 0
8, 13, 0
8, 14, 0
8, 1, 0
15, 16, 1
15, 25, 0
15, 5, 0
15, 11, 0
15, 10, 0
22, 7, 0
22, 18, 0
22, 17, 0
22, 27, 0
22, 9, 0
0, 4, 0
0, 25, 0
12, 3, 0
12, 13, 0
12, 28, 0
12, 24, 0
12, 6, 0
12, 8, 0
12, 1, 0
16, 25, 0
16, 26, 0
16, 32, 0
16, 19, 0
16, 15, 1
16, 5, 0
16, 11, 0
6, 12, 0
6, 28, 0
6, 5, 1
6, 32, 0
27, 7, 0
27, 18, 0
27, 17, 0
27, 22, 0
27, 9, 0
7, 18, 0
7, 27, 0
7, 17, 0
7, 22, 0
7, 9, 0
3, 12, 0
3, 28, 0
3, 26, 0
3, 2, 1
25, 0, 0
25, 4, 0
25, 16, 0
25, 15, 0
25, 5, 0
25, 11, 0
25, 10, 0
32, 28, 0
32, 2, 0
32, 16, 0
32, 6, 0
32, 19, 0
32, 5, 0
29, 4, 0
29, 31, 0
29, 23, 0
29, 30, 0
21, 20, 1
21, 24, 0
26, 16, 0
26, 3, 0
26, 19, 0
26, 28, 0
26, 2, 0
19, 16, 0
19, 28, 0
19, 26, 0
19, 32, 0
19, 2, 0
18, 7, 0
18, 17, 1
18, 31, 0
18, 23, 0
18, 27, 0
18, 22, 0
18, 9, 0
9, 7, 0
9, 17, 0
9, 23, 0
9, 18, 0
9, 27, 0
9, 22, 0
