0, 7, 0
0, 3, 0
0, 2, 0
0, 9, 0
0, 10, 0
3, 0, 0
3, 7, 0
3, 2, 1
4, 7, 0
4, 6, 0
4, 8, 0
4, 5, 0
2, 0, 0
2, 3, 1
2, 7, 0
6, 7, 0
6, 8, 0
6, 5, 1
6, 4, 0
1, 8, 0
8, 6, 0
8, 4, 0
8, 1, 0
5, 7, 0
5, 6, 1
5, 4, 0
7, 0, 0
7, 3, 0
7, 4, 0
7, 2, 0
7, 6, 0
7, 5, 0
7, 10, 0
10, 0, 0
10, 7, 0
10, 9, 1
9, 0, 0
9, 10, 1
