0, 7, 0
0, 8, 0
0, 9, 0
3, 8, 0
3, 5, 0
4, 7, 0
4, 9, 0
4, 2, 0
4, 1, 0
4, 8, 0
4, 10, 0
2, 6, 0
2, 4, 0
2, 10, 0
2, 1, 1
6, 1, 0
6, 10, 0
6, 2, 0
1, 6, 0
1, 4, 0
1, 10, 0
1, 2, 1
8, 0, 0
8, 3, 0
8, 7, 0
8, 4, 0
8, 5, 0
8, 9, 0
5, 3, 0
5, 8, 0
7, 0, 0
7, 8, 0
7, 4, 0
7, 9, 0
10, 6, 0
10, 1, 0
10, 4, 0
10, 2, 0
9, 0, 0
9, 7, 0
9, 8, 0
9, 4, 0
