13, 7, 0
13, 21, 0
13, 43, 0
13, 22, 0
13, 36, 0
17, 42, 0
17, 4, 0
17, 44, 0
23, 34, 0
23, 1, 0
42, 45, 0
42, 4, 0
42, 28, 0
42, 27, 0
42, 17, 0
42, 44, 0
46, 9, 0
46, 1, 0
20, 0, 0
20, 34, 0
20, 25, 0
20, 26, 0
34, 20, 0
34, 0, 0
34, 25, 0
34, 26, 0
34, 23, 0
34, 1, 0
14, 3, 0
14, 43, 0
14, 22, 0
24, 38, 0
24, 41, 0
28, 45, 0
28, 4, 0
28, 31, 0
28, 42, 0
28, 16, 0
28, 27, 1
28, 44, 0
39, 12, 0
39, 11, 0
39, 18, 0
39, 6, 0
39, 47, 0
39, 10, 0
41, 38, 0
41, 24, 0
0, 20, 0
0, 34, 0
0, 25, 0
0, 26, 0
8, 18, 0
8, 40, 0
8, 48, 0
33, 5, 0
33, 35, 0
15, 31, 0
15, 9, 0
47, 6, 0
47, 29, 0
47, 39, 0
47, 30, 0
10, 18, 0
10, 39, 0
10, 11, 1
7, 21, 0
7, 6, 0
7, 13, 0
7, 36, 0
3, 43, 0
3, 14, 0
3, 22, 0
32, 16, 0
32, 38, 0
2, 37, 0
2, 48, 0
21, 7, 0
21, 13, 0
21, 22, 0
21, 36, 0
19, 16, 0
19, 45, 0
49, 37, 0
49, 5, 0
18, 12, 0
18, 39, 0
18, 8, 0
18, 40, 0
18, 48, 0
18, 11, 0
18, 10, 0
31, 45, 0
31, 4, 0
31, 28, 0
31, 27, 0
31, 15, 0
31, 44, 0
29, 6, 0
29, 47, 0
29, 30, 1
40, 18, 0
40, 8, 0
40, 48, 0
11, 18, 0
11, 12, 1
11, 39, 0
11, 10, 1
5, 33, 0
5, 49, 0
37, 49, 0
37, 2, 0
4, 45, 0
4, 28, 0
4, 31, 0
4, 42, 0
4, 17, 0
4, 44, 0
4, 27, 0
35, 33, 0
35, 25, 0
30, 47, 0
30, 29, 1
38, 41, 0
38, 32, 0
38, 24, 0
22, 3, 0
22, 13, 0
22, 43, 0
22, 21, 0
22, 14, 0
22, 36, 0
36, 21, 0
36, 7, 0
36, 13, 0
36, 22, 0
45, 4, 0
45, 28, 0
45, 31, 0
45, 27, 0
45, 16, 0
45, 42, 0
45, 19, 0
45, 44, 0
16, 45, 0
16, 19, 0
16, 28, 0
16, 32, 0
27, 45, 0
27, 4, 0
27, 28, 1
27, 31, 0
27, 42, 0
27, 44, 0
1, 34, 0
1, 26, 0
1, 46, 0
1, 23, 0
44, 45, 0
44, 4, 0
44, 28, 0
44, 31, 0
44, 27, 0
44, 42, 0
44, 17, 0
48, 18, 0
48, 8, 0
48, 40, 0
48, 2, 0
12, 18, 0
12, 39, 0
12, 11, 1
25, 20, 0
25, 0, 0
25, 34, 0
25, 26, 1
25, 35, 0
26, 20, 0
26, 0, 0
26, 1, 0
26, 25, 1
26, 34, 0
6, 7, 0
6, 39, 0
6, 47, 0
6, 29, 0
43, 3, 0
43, 13, 0
43, 14, 0
43, 22, 0
9, 15, 0
9, 46, 0
