13, 12, 1
13, 6, 0
13, 8, 0
13, 5, 0
13, 9, 0
17, 18, 1
17, 14, 0
17, 22, 0
23, 21, 0
23, 7, 0
23, 11, 0
23, 3, 0
5, 20, 0
5, 12, 0
5, 13, 0
5, 9, 0
5, 24, 0
5, 2, 0
5, 6, 0
5, 19, 0
5, 8, 0
5, 10, 0
11, 7, 0
11, 3, 0
11, 23, 0
11, 18, 0
11, 22, 0
11, 10, 0
1, 6, 0
1, 4, 0
20, 6, 0
20, 8, 0
20, 12, 0
20, 5, 0
20, 10, 0
4, 6, 0
4, 9, 0
4, 1, 0
14, 16, 0
14, 17, 0
14, 2, 0
14, 18, 0
14, 25, 0
14, 12, 0
14, 22, 0
14, 10, 0
24, 12, 0
24, 19, 0
24, 15, 0
24, 5, 0
24, 10, 0
8, 20, 0
8, 12, 0
8, 13, 0
8, 6, 0
8, 5, 0
8, 9, 0
15, 19, 0
15, 10, 0
15, 24, 0
22, 18, 0
22, 14, 0
22, 17, 0
22, 11, 0
0, 12, 0
0, 25, 0
0, 2, 0
0, 16, 0
0, 19, 0
0, 10, 0
3, 7, 0
3, 21, 0
3, 11, 0
3, 23, 0
16, 0, 0
16, 14, 0
16, 25, 0
16, 2, 0
6, 20, 0
6, 12, 0
6, 13, 0
6, 9, 0
6, 4, 0
6, 8, 0
6, 5, 0
6, 10, 0
6, 1, 0
10, 0, 0
10, 6, 0
10, 2, 0
10, 5, 0
10, 11, 0
10, 20, 0
10, 12, 0
10, 14, 0
10, 24, 0
10, 21, 0
10, 25, 0
10, 19, 0
10, 15, 0
7, 21, 0
7, 3, 0
7, 11, 0
7, 23, 0
12, 0, 0
12, 13, 1
12, 6, 0
12, 2, 0
12, 5, 0
12, 10, 0
12, 20, 0
12, 25, 0
12, 24, 0
12, 14, 0
12, 19, 0
12, 8, 0
12, 9, 0
25, 0, 0
25, 12, 0
25, 14, 0
25, 2, 0
25, 16, 0
25, 10, 0
2, 0, 0
2, 12, 0
2, 14, 0
2, 16, 0
2, 25, 0
2, 19, 0
2, 5, 0
2, 10, 0
21, 7, 0
21, 3, 0
21, 23, 0
21, 10, 0
19, 0, 0
19, 12, 0
19, 2, 0
19, 24, 0
19, 15, 0
19, 5, 0
19, 10, 0
18, 14, 0
18, 17, 1
18, 11, 0
18, 22, 0
9, 12, 0
9, 13, 0
9, 4, 0
9, 6, 0
9, 8, 0
9, 5, 0
