0, 3, 0
0, 6, 0
0, 8, 0
0, 5, 0
0, 1, 1
3, 0, 0
3, 6, 0
3, 8, 0
3, 5, 0
3, 1, 0
4, 7, 0
4, 6, 0
4, 9, 0
2, 7, 0
6, 0, 0
6, 3, 0
6, 4, 0
6, 9, 0
6, 8, 0
6, 5, 0
6, 1, 0
1, 0, 1
1, 3, 0
1, 5, 0
1, 6, 0
8, 0, 0
8, 3, 0
8, 5, 0
8, 6, 0
5, 0, 0
5, 3, 0
5, 1, 0
5, 8, 0
5, 6, 0
7, 4, 0
7, 2, 0
9, 6, 0
9, 4, 0
