0, 3, 0
0, 1, 0
0, 4, 0
0, 2, 0
3, 0, 0
3, 7, 0
3, 8, 0
3, 2, 0
3, 1, 0
3, 9, 0
3, 5, 0
3, 10, 0
4, 0, 0
4, 2, 0
2, 0, 0
2, 3, 0
2, 4, 0
6, 7, 0
6, 5, 0
1, 0, 0
1, 3, 0
1, 7, 0
1, 10, 0
1, 8, 0
1, 5, 0
1, 9, 0
8, 7, 0
8, 3, 0
8, 1, 0
8, 5, 0
8, 9, 1
5, 7, 0
5, 3, 0
5, 6, 0
5, 1, 0
5, 8, 0
5, 10, 0
5, 9, 0
7, 3, 0
7, 6, 0
7, 1, 0
7, 8, 0
7, 5, 0
7, 10, 0
7, 9, 0
10, 7, 0
10, 3, 0
10, 1, 0
10, 5, 0
10, 9, 1
9, 7, 0
9, 3, 0
9, 10, 1
9, 8, 1
9, 5, 0
9, 1, 0
