0, 8, 0
0, 13, 0
13, 0, 0
13, 8, 0
3, 12, 0
3, 4, 0
6, 8, 0
6, 1, 0
8, 0, 0
8, 6, 0
8, 13, 0
5, 7, 0
5, 9, 0
11, 12, 0
11, 10, 1
11, 1, 0
10, 12, 0
10, 11, 1
10, 1, 0
7, 4, 0
7, 5, 0
12, 3, 0
12, 1, 0
12, 11, 0
12, 10, 0
4, 7, 0
4, 3, 0
2, 9, 0
1, 12, 0
1, 10, 0
1, 11, 0
1, 6, 0
9, 5, 0
9, 2, 0
