0, 12, 0
0, 6, 0
0, 10, 0
0, 11, 0
0, 1, 0
13, 7, 0
13, 6, 0
13, 8, 0
13, 10, 0
3, 4, 0
3, 14, 0
3, 2, 0
3, 5, 0
3, 11, 0
3, 9, 0
6, 0, 0
6, 12, 0
6, 13, 0
6, 1, 0
6, 8, 0
6, 7, 0
6, 11, 0
6, 10, 0
8, 7, 0
8, 6, 0
8, 13, 0
5, 3, 0
5, 4, 1
5, 14, 0
5, 2, 0
5, 11, 0
5, 9, 0
11, 0, 0
11, 12, 0
11, 14, 0
11, 9, 0
11, 3, 0
11, 6, 0
11, 2, 0
11, 5, 0
11, 10, 0
10, 0, 0
10, 12, 0
10, 7, 0
10, 13, 0
10, 6, 0
10, 11, 0
10, 1, 0
7, 6, 0
7, 8, 0
7, 13, 0
7, 10, 0
12, 0, 0
12, 6, 0
12, 10, 0
12, 11, 0
12, 1, 0
4, 3, 0
4, 9, 0
4, 14, 0
4, 5, 1
4, 2, 0
14, 3, 0
14, 4, 0
14, 2, 0
14, 5, 0
14, 11, 0
14, 9, 0
2, 3, 0
2, 4, 0
2, 14, 0
2, 5, 0
2, 11, 0
2, 9, 0
1, 0, 0
1, 12, 0
1, 10, 0
1, 6, 0
9, 3, 0
9, 4, 0
9, 14, 0
9, 2, 0
9, 5, 0
9, 11, 0
