13, 14, 0
13, 15, 0
13, 9, 0
17, 12, 0
17, 4, 0
17, 2, 0
17, 21, 0
17, 6, 0
17, 8, 0
17, 10, 0
5, 0, 0
5, 11, 0
5, 1, 0
11, 20, 0
11, 0, 0
11, 19, 0
11, 5, 0
11, 1, 0
1, 0, 0
1, 12, 0
1, 19, 0
1, 8, 0
1, 5, 0
1, 11, 0
1, 10, 0
20, 0, 0
20, 18, 0
20, 19, 0
20, 11, 0
4, 6, 0
4, 8, 0
4, 17, 0
4, 10, 0
14, 16, 0
14, 13, 0
14, 15, 0
14, 9, 0
8, 7, 0
8, 3, 0
8, 4, 0
8, 17, 0
8, 12, 0
8, 6, 0
8, 1, 0
8, 10, 0
15, 16, 0
15, 13, 0
15, 14, 0
15, 9, 0
0, 20, 0
0, 2, 0
0, 18, 0
0, 19, 0
0, 10, 0
0, 5, 0
0, 11, 0
0, 1, 0
3, 7, 0
3, 6, 0
3, 8, 0
16, 15, 0
16, 14, 0
6, 3, 0
6, 4, 0
6, 17, 0
6, 12, 0
6, 8, 0
6, 10, 0
10, 0, 0
10, 12, 0
10, 4, 0
10, 17, 0
10, 2, 0
10, 21, 0
10, 6, 0
10, 19, 0
10, 8, 0
10, 1, 0
7, 3, 0
7, 8, 0
7, 9, 0
12, 17, 0
12, 1, 0
12, 2, 0
12, 21, 0
12, 6, 0
12, 19, 0
12, 8, 0
12, 10, 0
2, 0, 0
2, 12, 0
2, 17, 0
2, 21, 0
2, 19, 0
2, 10, 0
21, 12, 0
21, 2, 0
21, 17, 0
21, 10, 0
19, 0, 0
19, 12, 0
19, 2, 0
19, 20, 0
19, 1, 0
19, 11, 0
19, 10, 0
18, 20, 0
18, 0, 0
9, 7, 0
9, 15, 0
9, 13, 0
9, 14, 0
