0, 2, 0
0, 4, 0
0, 9, 0
0, 5, 0
0, 1, 0
3, 6, 0
3, 5, 0
3, 2, 0
4, 0, 0
4, 9, 0
2, 0, 0
2, 3, 0
2, 5, 0
2, 1, 1
6, 7, 0
6, 3, 0
1, 0, 0
1, 5, 0
1, 2, 1
8, 9, 0
5, 0, 0
5, 3, 0
5, 1, 0
5, 7, 0
5, 2, 0
7, 6, 0
7, 5, 0
9, 0, 0
9, 8, 0
9, 4, 0
