13, 30, 0
13, 36, 0
17, 45, 0
17, 3, 0
17, 31, 0
17, 12, 0
17, 6, 0
17, 2, 0
17, 11, 0
17, 10, 0
23, 2, 0
23, 45, 0
23, 55, 0
23, 31, 0
23, 3, 0
46, 53, 0
46, 3, 0
46, 4, 0
46, 50, 0
46, 45, 0
46, 37, 0
46, 6, 0
46, 2, 0
46, 42, 0
46, 47, 1
46, 1, 0
20, 30, 0
20, 9, 0
20, 15, 0
20, 41, 0
20, 2, 0
34, 33, 1
34, 49, 0
34, 27, 0
34, 35, 1
14, 0, 0
14, 45, 0
14, 25, 0
14, 32, 0
14, 42, 0
14, 37, 0
14, 27, 0
14, 53, 0
14, 44, 0
14, 1, 0
24, 43, 0
24, 28, 0
24, 54, 0
28, 52, 0
28, 49, 0
28, 40, 0
28, 51, 0
28, 24, 0
15, 20, 0
15, 2, 0
15, 41, 0
15, 9, 0
41, 20, 0
41, 9, 0
41, 29, 0
41, 18, 0
41, 19, 0
41, 2, 0
41, 15, 0
41, 5, 0
41, 22, 0
41, 30, 0
0, 42, 0
0, 14, 0
0, 32, 0
0, 27, 0
8, 7, 0
8, 38, 0
8, 40, 0
8, 43, 0
51, 40, 0
51, 49, 0
51, 28, 0
51, 52, 0
3, 45, 0
3, 53, 0
3, 17, 0
3, 32, 0
3, 23, 0
3, 55, 0
3, 46, 0
3, 47, 0
3, 1, 0
3, 4, 1
3, 50, 0
3, 31, 0
3, 35, 0
3, 2, 0
3, 10, 0
3, 48, 0
38, 43, 0
38, 8, 0
38, 40, 0
47, 3, 0
47, 4, 0
47, 50, 0
47, 37, 0
47, 55, 0
47, 46, 1
47, 48, 1
47, 1, 0
10, 45, 0
10, 17, 0
10, 3, 0
10, 31, 0
10, 2, 0
10, 11, 1
7, 40, 0
7, 16, 0
7, 43, 0
7, 26, 0
7, 21, 0
7, 6, 0
7, 39, 0
7, 8, 0
7, 54, 0
7, 44, 0
33, 34, 1
33, 49, 0
53, 3, 0
53, 4, 0
53, 14, 0
53, 50, 0
53, 32, 0
53, 35, 0
53, 37, 0
53, 27, 0
53, 55, 0
53, 46, 0
53, 1, 0
32, 0, 0
32, 3, 0
32, 14, 0
32, 45, 0
32, 37, 0
32, 27, 0
32, 2, 0
32, 53, 0
2, 17, 0
2, 32, 0
2, 23, 0
2, 5, 0
2, 11, 0
2, 46, 0
2, 20, 0
2, 35, 0
2, 30, 0
2, 15, 0
2, 41, 0
2, 22, 0
2, 45, 0
2, 3, 0
2, 18, 0
2, 6, 0
2, 10, 0
2, 12, 0
2, 31, 0
2, 29, 0
2, 19, 0
2, 9, 0
21, 7, 0
21, 54, 0
21, 26, 0
21, 16, 0
21, 39, 0
21, 44, 0
52, 28, 0
52, 51, 0
52, 27, 0
52, 6, 0
52, 49, 0
52, 40, 0
19, 2, 0
19, 18, 0
19, 29, 0
19, 5, 0
19, 41, 0
19, 22, 0
19, 30, 0
49, 33, 0
49, 28, 0
49, 51, 0
49, 35, 0
49, 52, 0
49, 34, 0
49, 40, 0
49, 27, 0
48, 3, 0
48, 4, 0
48, 50, 0
48, 37, 0
48, 55, 0
48, 47, 1
48, 1, 0
31, 3, 0
31, 45, 0
31, 17, 0
31, 23, 0
31, 2, 0
31, 6, 0
31, 10, 0
31, 11, 0
31, 12, 0
39, 7, 0
39, 21, 0
39, 54, 0
39, 26, 0
39, 16, 0
39, 6, 0
39, 44, 0
29, 2, 0
29, 18, 0
29, 19, 0
29, 41, 0
29, 22, 0
29, 5, 0
40, 7, 0
40, 43, 0
40, 8, 0
40, 52, 0
40, 51, 0
40, 35, 0
40, 28, 0
40, 6, 0
40, 49, 0
40, 38, 0
40, 27, 0
11, 12, 1
11, 45, 0
11, 17, 0
11, 31, 0
11, 2, 0
11, 10, 1
5, 2, 0
5, 18, 0
5, 19, 0
5, 29, 0
5, 41, 0
5, 22, 0
37, 55, 0
37, 26, 0
37, 6, 0
37, 53, 0
37, 46, 0
37, 47, 0
37, 1, 0
37, 25, 0
37, 50, 0
37, 32, 0
37, 27, 0
37, 42, 0
37, 14, 0
37, 48, 0
4, 3, 1
4, 53, 0
4, 50, 0
4, 46, 0
4, 55, 0
4, 48, 0
4, 47, 0
4, 1, 0
35, 34, 1
35, 53, 0
35, 3, 0
35, 27, 0
35, 2, 0
35, 6, 0
35, 49, 0
35, 40, 0
35, 45, 0
35, 1, 0
30, 20, 0
30, 13, 0
30, 2, 0
30, 18, 0
30, 19, 0
30, 36, 0
30, 41, 0
30, 22, 0
30, 9, 0
42, 0, 0
42, 25, 0
42, 14, 0
42, 37, 0
42, 27, 0
42, 46, 0
42, 1, 0
22, 30, 0
22, 2, 0
22, 18, 0
22, 19, 0
22, 29, 0
22, 41, 0
22, 5, 0
36, 13, 0
36, 30, 0
25, 14, 0
25, 26, 0
25, 27, 0
25, 37, 0
25, 42, 0
25, 1, 0
45, 2, 0
45, 35, 0
45, 17, 0
45, 32, 0
45, 23, 0
45, 12, 0
45, 27, 0
45, 55, 0
45, 46, 0
45, 11, 0
45, 10, 0
45, 3, 0
45, 14, 0
45, 50, 0
45, 31, 0
45, 6, 0
45, 1, 0
16, 7, 0
16, 54, 0
16, 26, 0
16, 27, 0
16, 21, 0
16, 6, 0
16, 39, 0
16, 44, 0
27, 0, 0
27, 45, 0
27, 26, 0
27, 16, 0
27, 6, 0
27, 53, 0
27, 40, 0
27, 44, 0
27, 25, 0
27, 34, 0
27, 52, 0
27, 32, 0
27, 35, 0
27, 37, 0
27, 54, 0
27, 14, 0
27, 49, 0
27, 42, 0
1, 45, 0
1, 6, 0
1, 53, 0
1, 46, 0
1, 47, 0
1, 44, 0
1, 3, 0
1, 4, 0
1, 25, 0
1, 50, 0
1, 35, 0
1, 37, 0
1, 14, 0
1, 42, 0
1, 48, 0
55, 3, 0
55, 4, 0
55, 50, 0
55, 23, 0
55, 45, 0
55, 37, 0
55, 6, 0
55, 53, 0
55, 48, 0
55, 47, 0
44, 7, 0
44, 21, 0
44, 54, 0
44, 26, 0
44, 6, 0
44, 16, 0
44, 27, 0
44, 14, 0
44, 39, 0
44, 1, 0
12, 45, 0
12, 17, 0
12, 11, 1
12, 31, 0
12, 2, 0
18, 9, 0
18, 29, 0
18, 19, 0
18, 2, 0
18, 5, 0
18, 41, 0
18, 22, 0
18, 30, 0
54, 7, 0
54, 16, 0
54, 43, 0
54, 24, 0
54, 21, 0
54, 27, 0
54, 39, 0
54, 44, 0
50, 3, 0
50, 55, 0
50, 4, 0
50, 45, 0
50, 37, 0
50, 6, 0
50, 1, 0
50, 53, 0
50, 46, 0
50, 47, 0
50, 48, 0
26, 7, 0
26, 37, 0
26, 16, 0
26, 25, 0
26, 6, 0
26, 21, 0
26, 27, 0
26, 39, 0
26, 44, 0
6, 45, 0
6, 17, 0
6, 31, 0
6, 16, 0
6, 27, 0
6, 55, 0
6, 40, 0
6, 46, 0
6, 1, 0
6, 7, 0
6, 44, 0
6, 52, 0
6, 50, 0
6, 26, 0
6, 35, 0
6, 37, 0
6, 43, 0
6, 2, 0
6, 39, 0
43, 7, 0
43, 40, 0
43, 54, 0
43, 24, 0
43, 6, 0
43, 8, 0
43, 38, 0
9, 20, 0
9, 2, 0
9, 18, 0
9, 15, 0
9, 41, 0
9, 30, 0
