0, 13, 0
0, 11, 0
0, 10, 0
13, 0, 0
13, 10, 0
3, 7, 0
3, 9, 0
3, 2, 0
3, 6, 0
3, 8, 0
3, 1, 0
6, 2, 0
6, 3, 0
6, 8, 0
6, 9, 0
8, 6, 0
8, 9, 1
8, 3, 0
8, 2, 0
5, 11, 0
5, 2, 0
11, 0, 0
11, 5, 0
10, 0, 0
10, 13, 0
7, 3, 0
7, 1, 0
12, 4, 0
4, 12, 0
4, 1, 0
2, 6, 0
2, 3, 0
2, 8, 0
2, 5, 0
2, 9, 0
1, 7, 0
1, 3, 0
1, 4, 0
9, 6, 0
9, 8, 1
9, 3, 0
9, 2, 0
