0, 15, 0
0, 5, 0
7, 18, 0
7, 12, 0
7, 19, 0
7, 9, 0
7, 3, 0
13, 3, 0
13, 11, 0
13, 9, 0
17, 20, 0
17, 9, 0
17, 5, 0
17, 10, 0
3, 7, 0
3, 13, 0
3, 9, 0
16, 8, 0
16, 2, 0
6, 9, 0
6, 15, 0
6, 1, 0
8, 16, 0
8, 14, 0
8, 11, 0
8, 2, 0
5, 0, 0
5, 15, 0
5, 17, 0
5, 9, 0
11, 13, 0
11, 8, 0
11, 14, 0
11, 9, 0
10, 20, 0
10, 17, 0
10, 9, 0
20, 9, 0
20, 17, 0
20, 10, 0
12, 7, 0
12, 4, 0
12, 18, 0
12, 19, 0
12, 9, 0
12, 1, 0
4, 12, 0
4, 1, 0
14, 8, 0
14, 11, 0
2, 16, 0
2, 8, 0
19, 7, 0
19, 12, 0
19, 18, 1
1, 12, 0
1, 4, 0
1, 15, 0
1, 9, 0
1, 6, 0
15, 0, 0
15, 6, 0
15, 9, 0
15, 5, 0
15, 1, 0
18, 7, 0
18, 12, 0
18, 19, 1
9, 7, 0
9, 13, 0
9, 17, 0
9, 3, 0
9, 6, 0
9, 5, 0
9, 11, 0
9, 1, 0
9, 20, 0
9, 12, 0
9, 10, 0
9, 15, 0
