0, 2, 0
0, 8, 0
0, 9, 0
13, 12, 1
13, 5, 0
13, 9, 0
3, 6, 0
3, 1, 0
6, 7, 0
6, 3, 0
6, 10, 0
6, 1, 0
8, 0, 0
8, 4, 0
8, 11, 0
8, 2, 0
5, 12, 0
5, 13, 0
5, 9, 0
11, 7, 0
11, 8, 0
11, 4, 0
11, 10, 0
10, 7, 0
10, 6, 0
10, 11, 0
7, 6, 0
7, 11, 0
7, 10, 0
12, 13, 1
12, 5, 0
12, 9, 0
4, 8, 0
4, 9, 0
4, 11, 0
4, 2, 0
2, 0, 0
2, 8, 0
2, 4, 0
2, 9, 0
1, 6, 0
1, 3, 0
9, 0, 0
9, 12, 0
9, 13, 0
9, 4, 0
9, 2, 0
9, 5, 0
