0, 7, 0
0, 3, 0
0, 4, 0
0, 2, 0
0, 6, 0
0, 8, 0
8, 0, 0
8, 7, 1
8, 4, 0
8, 3, 0
3, 7, 0
3, 0, 0
3, 8, 0
3, 4, 0
3, 10, 0
6, 0, 0
6, 2, 0
5, 7, 0
5, 12, 0
5, 4, 1
5, 11, 0
11, 7, 0
11, 4, 0
11, 5, 0
11, 1, 0
10, 7, 0
10, 3, 0
10, 4, 0
10, 9, 0
7, 0, 0
7, 3, 0
7, 4, 0
7, 1, 0
7, 12, 0
7, 8, 1
7, 10, 0
7, 5, 0
7, 11, 0
7, 9, 0
12, 7, 0
12, 4, 0
12, 5, 0
12, 9, 0
4, 7, 0
4, 12, 0
4, 8, 0
4, 3, 0
4, 10, 0
4, 1, 0
4, 9, 0
4, 5, 1
4, 11, 0
4, 0, 0
2, 0, 0
2, 6, 0
1, 7, 0
1, 4, 0
1, 11, 0
9, 7, 0
9, 12, 0
9, 4, 0
9, 10, 0
