0, 3, 0
0, 8, 0
0, 5, 0
0, 1, 0
3, 0, 0
3, 7, 0
3, 1, 0
3, 8, 0
3, 2, 0
4, 7, 0
4, 6, 0
4, 2, 0
7, 3, 0
7, 8, 0
7, 4, 0
7, 2, 0
2, 7, 0
2, 3, 0
2, 8, 0
2, 4, 0
2, 6, 0
6, 8, 0
6, 4, 0
6, 2, 0
8, 0, 0
8, 3, 0
8, 7, 0
8, 2, 0
8, 6, 0
8, 5, 0
8, 1, 0
5, 0, 0
5, 8, 0
5, 1, 0
1, 0, 0
1, 3, 0
1, 8, 0
1, 5, 0
