0, 11, 0
0, 10, 0
13, 12, 0
13, 6, 0
3, 7, 0
3, 14, 0
6, 12, 0
6, 13, 0
6, 5, 0
8, 2, 0
8, 12, 0
8, 10, 0
8, 1, 0
5, 6, 0
5, 9, 0
11, 0, 0
11, 4, 0
11, 10, 0
10, 0, 0
10, 2, 0
10, 8, 0
10, 11, 0
10, 1, 0
7, 3, 0
7, 14, 0
12, 6, 0
12, 8, 0
12, 13, 0
12, 1, 0
4, 11, 0
14, 7, 0
14, 3, 0
14, 9, 0
2, 8, 0
2, 10, 0
2, 1, 1
1, 12, 0
1, 8, 0
1, 10, 0
1, 2, 1
9, 14, 0
9, 5, 0
