0, 7, 0
0, 12, 0
0, 4, 0
0, 2, 0
0, 5, 0
0, 9, 0
13, 7, 0
13, 8, 0
3, 7, 0
3, 12, 0
3, 8, 0
3, 5, 0
3, 4, 0
6, 12, 0
6, 1, 0
6, 11, 0
6, 10, 0
8, 7, 0
8, 12, 0
8, 13, 0
8, 3, 0
5, 0, 0
5, 3, 0
5, 4, 0
11, 6, 0
11, 10, 1
11, 1, 0
10, 6, 0
10, 11, 1
10, 1, 0
7, 0, 0
7, 12, 0
7, 13, 0
7, 4, 0
7, 3, 0
7, 8, 0
12, 0, 0
12, 3, 0
12, 4, 0
12, 9, 0
12, 2, 0
12, 6, 0
12, 8, 0
12, 7, 0
12, 1, 0
4, 0, 0
4, 12, 0
4, 7, 0
4, 3, 0
4, 5, 0
4, 9, 0
2, 0, 0
2, 12, 0
2, 1, 0
1, 2, 0
1, 12, 0
1, 10, 0
1, 11, 0
1, 6, 0
9, 0, 0
9, 12, 0
9, 4, 0
