0, 7, 0
0, 3, 0
0, 8, 0
0, 5, 0
0, 1, 1
3, 0, 0
3, 6, 0
3, 7, 0
3, 4, 0
3, 1, 0
4, 7, 0
4, 3, 0
4, 2, 0
4, 6, 0
4, 1, 0
4, 10, 0
4, 5, 0
4, 9, 0
2, 7, 0
2, 4, 0
2, 10, 0
6, 7, 0
6, 3, 0
6, 4, 0
1, 0, 1
1, 3, 0
1, 8, 0
1, 5, 0
1, 4, 0
8, 0, 0
8, 5, 0
8, 1, 0
5, 0, 0
5, 8, 0
5, 4, 0
5, 1, 0
7, 0, 0
7, 3, 0
7, 2, 0
7, 4, 0
7, 6, 0
10, 2, 0
10, 4, 0
10, 9, 0
9, 4, 0
9, 10, 0
