0, 1, 0
0, 4, 0
0, 5, 0
0, 2, 0
13, 12, 0
13, 6, 0
3, 9, 0
3, 4, 0
3, 15, 0
3, 5, 0
3, 1, 0
16, 12, 0
16, 15, 0
16, 10, 0
6, 12, 0
6, 13, 0
6, 14, 0
6, 11, 0
8, 7, 0
5, 0, 0
5, 3, 0
5, 4, 0
5, 1, 0
11, 7, 0
11, 6, 0
11, 14, 0
10, 16, 0
10, 12, 0
10, 15, 0
7, 8, 0
7, 14, 0
7, 11, 0
12, 16, 0
12, 6, 0
12, 13, 0
12, 10, 0
4, 0, 0
4, 3, 0
4, 5, 0
4, 1, 0
14, 7, 0
14, 6, 0
14, 11, 0
2, 0, 0
1, 0, 0
1, 3, 0
1, 4, 0
1, 5, 0
15, 16, 0
15, 3, 0
15, 9, 0
15, 10, 0
9, 3, 0
9, 15, 0
