0, 10, 0
0, 5, 0
0, 11, 0
0, 1, 1
13, 7, 0
13, 12, 1
13, 4, 0
13, 2, 0
13, 6, 0
13, 15, 0
13, 5, 0
3, 16, 0
3, 6, 0
3, 7, 0
3, 15, 0
3, 4, 0
16, 7, 0
16, 3, 0
16, 4, 0
16, 2, 0
16, 6, 0
16, 15, 0
6, 7, 1
6, 3, 0
6, 16, 0
6, 4, 0
6, 13, 0
8, 14, 0
8, 11, 0
8, 9, 0
5, 0, 0
5, 12, 0
5, 13, 0
5, 4, 0
5, 2, 0
5, 10, 0
5, 15, 0
5, 11, 0
5, 1, 0
11, 0, 0
11, 14, 0
11, 9, 0
11, 8, 0
11, 5, 0
11, 10, 0
11, 1, 0
10, 0, 0
10, 5, 0
10, 11, 0
10, 1, 0
7, 16, 0
7, 6, 1
7, 13, 0
7, 4, 0
7, 3, 0
12, 13, 1
12, 15, 0
12, 5, 0
12, 4, 0
12, 2, 0
4, 7, 0
4, 12, 0
4, 13, 0
4, 3, 0
4, 16, 0
4, 6, 0
4, 2, 0
4, 15, 0
4, 5, 0
14, 8, 0
14, 11, 0
14, 9, 0
2, 12, 0
2, 13, 0
2, 4, 0
2, 16, 0
2, 15, 0
2, 5, 0
1, 0, 1
1, 5, 0
1, 11, 0
1, 10, 0
15, 12, 0
15, 13, 0
15, 4, 0
15, 3, 0
15, 16, 0
15, 2, 0
15, 5, 0
9, 8, 0
9, 14, 0
9, 11, 0
