0, 1, 0
0, 4, 0
0, 11, 0
0, 10, 0
6, 8, 0
6, 9, 0
1, 0, 0
1, 8, 0
1, 9, 0
1, 4, 0
1, 10, 0
5, 3, 0
5, 11, 0
5, 10, 0
11, 0, 0
11, 5, 0
11, 10, 1
10, 0, 0
10, 3, 0
10, 7, 0
10, 2, 0
10, 8, 0
10, 5, 0
10, 11, 1
10, 1, 0
7, 3, 0
7, 2, 0
7, 10, 0
3, 7, 0
3, 5, 0
3, 10, 0
4, 0, 0
4, 1, 0
2, 7, 0
2, 10, 0
8, 6, 0
8, 9, 0
8, 10, 0
8, 1, 0
9, 6, 0
9, 8, 0
9, 1, 0
