0, 12, 0
0, 1, 0
0, 10, 0
8, 7, 1
8, 6, 0
8, 3, 0
8, 11, 0
8, 9, 0
3, 12, 0
3, 4, 0
3, 6, 0
3, 8, 0
3, 5, 0
3, 1, 0
6, 3, 0
6, 4, 0
6, 2, 0
6, 1, 0
6, 8, 0
6, 5, 0
6, 9, 0
5, 6, 0
5, 4, 1
5, 3, 0
11, 7, 0
11, 2, 0
11, 8, 0
11, 9, 0
11, 1, 0
10, 0, 0
7, 8, 1
7, 11, 0
7, 9, 0
12, 0, 0
12, 3, 0
4, 6, 0
4, 5, 1
4, 3, 0
2, 6, 0
2, 9, 0
2, 11, 0
2, 1, 1
1, 0, 0
1, 3, 0
1, 2, 1
1, 6, 0
1, 11, 0
1, 9, 0
9, 7, 0
9, 2, 0
9, 6, 0
9, 8, 0
9, 11, 0
9, 1, 0
