0, 3, 0
0, 4, 0
0, 2, 0
0, 6, 0
0, 8, 0
0, 5, 0
0, 10, 0
0, 1, 0
3, 0, 0
3, 6, 0
3, 4, 0
3, 5, 0
3, 2, 1
4, 0, 0
4, 3, 0
4, 7, 0
4, 9, 0
4, 2, 0
4, 6, 0
4, 8, 0
4, 5, 0
4, 10, 0
4, 1, 0
2, 0, 0
2, 3, 1
2, 4, 0
2, 6, 0
2, 5, 0
2, 1, 1
6, 0, 0
6, 3, 0
6, 4, 0
6, 2, 0
6, 5, 0
6, 1, 0
1, 0, 0
1, 6, 0
1, 4, 0
1, 5, 0
1, 2, 1
8, 0, 0
8, 7, 1
8, 4, 0
8, 10, 0
8, 9, 0
5, 0, 0
5, 3, 0
5, 4, 0
5, 2, 0
5, 6, 0
5, 1, 0
7, 8, 1
7, 10, 0
7, 4, 0
7, 9, 0
10, 7, 0
10, 0, 0
10, 8, 0
10, 4, 0
10, 9, 1
9, 7, 0
9, 8, 0
9, 4, 0
9, 10, 1
