0, 8, 0
0, 15, 0
0, 10, 0
13, 7, 0
13, 5, 0
17, 16, 1
17, 5, 0
17, 11, 0
3, 7, 0
3, 4, 0
3, 2, 1
16, 17, 1
16, 5, 0
16, 11, 0
6, 15, 0
6, 11, 0
8, 0, 0
8, 9, 0
5, 16, 0
5, 7, 0
5, 13, 0
5, 17, 0
5, 11, 0
11, 16, 0
11, 6, 0
11, 17, 0
11, 5, 0
10, 0, 0
10, 15, 0
7, 3, 0
7, 13, 0
7, 5, 0
7, 4, 0
7, 2, 0
12, 9, 0
12, 14, 0
12, 1, 0
4, 7, 0
4, 3, 0
4, 2, 0
14, 12, 0
2, 7, 0
2, 3, 1
2, 4, 0
1, 12, 0
1, 9, 0
15, 0, 0
15, 6, 0
15, 10, 0
9, 12, 0
9, 8, 0
9, 1, 0
