0, 6, 0
0, 10, 0
3, 7, 0
3, 9, 0
3, 1, 0
4, 6, 0
4, 10, 0
2, 8, 0
6, 0, 0
6, 4, 0
6, 10, 0
6, 9, 0
1, 3, 0
1, 9, 0
8, 5, 0
8, 2, 0
5, 7, 0
5, 8, 0
7, 3, 0
7, 5, 0
10, 0, 0
10, 6, 0
10, 4, 0
10, 9, 0
9, 3, 0
9, 1, 0
9, 10, 0
9, 6, 0
