0, 2, 0
0, 1, 0
3, 10, 0
3, 9, 0
3, 5, 0
3, 2, 0
4, 7, 0
4, 6, 0
4, 8, 0
4, 5, 0
2, 0, 0
2, 3, 0
2, 1, 0
2, 9, 0
2, 10, 0
6, 7, 1
6, 8, 0
6, 5, 0
6, 4, 0
1, 0, 0
1, 9, 0
1, 10, 0
1, 2, 0
8, 7, 0
8, 6, 0
8, 4, 0
5, 7, 0
5, 3, 0
5, 6, 0
5, 4, 0
5, 9, 0
7, 6, 1
7, 8, 0
7, 5, 0
7, 4, 0
10, 3, 0
10, 1, 0
10, 9, 0
10, 2, 0
9, 3, 0
9, 1, 0
9, 10, 0
9, 5, 0
9, 2, 0
