13, 20, 0
13, 0, 0
13, 43, 0
13, 23, 0
13, 33, 0
13, 21, 0
13, 25, 0
13, 18, 0
17, 6, 0
17, 34, 0
17, 5, 0
17, 35, 0
23, 13, 0
23, 40, 0
23, 30, 0
23, 20, 0
23, 37, 0
23, 4, 0
23, 14, 0
23, 42, 0
23, 8, 0
23, 36, 0
23, 0, 0
23, 3, 0
23, 18, 0
23, 47, 0
23, 10, 0
23, 7, 0
23, 12, 0
23, 26, 0
23, 21, 0
23, 33, 0
23, 49, 0
23, 9, 0
46, 34, 0
46, 16, 0
46, 27, 0
46, 48, 0
46, 22, 0
46, 9, 0
20, 0, 0
20, 13, 0
20, 23, 0
20, 3, 0
20, 18, 0
20, 8, 0
20, 40, 0
20, 11, 0
20, 33, 0
20, 43, 0
20, 4, 0
20, 25, 0
20, 47, 0
20, 21, 0
20, 52, 0
20, 49, 0
34, 17, 0
34, 2, 0
34, 16, 0
34, 27, 0
34, 35, 0
34, 46, 0
34, 22, 0
14, 0, 0
14, 12, 0
14, 26, 0
14, 23, 0
14, 3, 0
14, 37, 0
14, 42, 0
14, 49, 0
14, 40, 0
14, 9, 0
24, 21, 0
24, 33, 0
24, 25, 0
24, 11, 0
28, 45, 0
28, 52, 0
28, 50, 0
28, 51, 0
28, 29, 0
28, 15, 0
28, 47, 0
15, 21, 0
15, 25, 0
15, 50, 0
15, 51, 0
15, 29, 0
15, 18, 0
15, 28, 0
15, 52, 0
15, 11, 0
41, 7, 0
41, 3, 0
41, 8, 0
41, 36, 0
41, 18, 0
41, 40, 0
41, 19, 0
41, 30, 0
41, 39, 0
41, 10, 0
41, 1, 0
0, 13, 0
0, 23, 0
0, 3, 0
0, 18, 0
0, 8, 0
0, 21, 0
0, 40, 0
0, 47, 0
0, 20, 0
0, 12, 0
0, 4, 0
0, 14, 0
0, 37, 0
0, 49, 0
8, 0, 0
8, 7, 0
8, 48, 0
8, 23, 0
8, 18, 0
8, 1, 0
8, 20, 0
8, 3, 0
8, 4, 0
8, 26, 0
8, 2, 0
8, 37, 0
8, 42, 0
8, 19, 0
8, 10, 0
8, 41, 0
8, 36, 0
51, 45, 0
51, 28, 0
51, 50, 1
51, 29, 0
51, 21, 0
51, 52, 1
51, 15, 0
51, 47, 0
3, 0, 0
3, 48, 0
3, 23, 0
3, 40, 0
3, 30, 0
3, 20, 0
3, 12, 0
3, 14, 0
3, 26, 0
3, 42, 0
3, 8, 0
3, 39, 0
3, 41, 0
3, 9, 0
38, 16, 0
38, 27, 0
38, 36, 0
38, 32, 0
38, 2, 0
47, 0, 0
47, 45, 0
47, 28, 0
47, 51, 0
47, 23, 0
47, 25, 0
47, 20, 0
47, 43, 0
47, 31, 0
47, 21, 0
47, 52, 0
47, 49, 0
10, 8, 0
10, 23, 0
10, 18, 0
10, 27, 0
10, 41, 0
10, 30, 0
10, 7, 0
10, 26, 0
10, 2, 0
10, 37, 0
10, 19, 0
10, 1, 0
10, 48, 0
10, 36, 0
7, 48, 0
7, 23, 0
7, 18, 0
7, 1, 0
7, 26, 0
7, 2, 0
7, 37, 0
7, 10, 0
7, 19, 0
7, 8, 0
7, 39, 0
7, 41, 0
7, 36, 0
33, 20, 0
33, 18, 0
33, 13, 0
33, 43, 0
33, 23, 0
33, 24, 0
33, 21, 0
33, 25, 0
33, 11, 0
32, 27, 0
32, 38, 0
32, 2, 0
2, 7, 0
2, 34, 0
2, 32, 0
2, 36, 0
2, 16, 0
2, 27, 0
2, 19, 0
2, 8, 0
2, 38, 0
2, 48, 0
2, 10, 0
21, 0, 0
21, 45, 0
21, 13, 0
21, 23, 0
21, 51, 0
21, 29, 0
21, 25, 0
21, 11, 0
21, 20, 0
21, 33, 0
21, 43, 0
21, 47, 0
21, 24, 0
21, 52, 0
21, 15, 0
25, 20, 0
25, 33, 0
25, 13, 0
25, 52, 0
25, 47, 0
25, 24, 0
25, 21, 0
25, 29, 0
25, 15, 0
25, 11, 0
19, 7, 0
19, 26, 0
19, 2, 0
19, 18, 0
19, 36, 0
19, 30, 0
19, 8, 0
19, 39, 0
19, 41, 0
19, 10, 0
49, 20, 0
49, 0, 0
49, 14, 0
49, 23, 0
49, 40, 0
49, 47, 0
48, 16, 0
48, 27, 0
48, 1, 0
48, 40, 0
48, 46, 0
48, 30, 0
48, 7, 0
48, 3, 0
48, 36, 0
48, 2, 0
48, 8, 0
48, 10, 0
48, 18, 0
48, 9, 0
31, 18, 0
31, 45, 0
31, 44, 0
31, 47, 0
39, 7, 0
39, 3, 0
39, 26, 0
39, 19, 0
39, 41, 0
39, 30, 0
29, 25, 0
29, 50, 0
29, 51, 0
29, 21, 0
29, 28, 0
29, 15, 0
29, 52, 0
29, 11, 0
40, 0, 0
40, 48, 0
40, 23, 0
40, 30, 0
40, 20, 0
40, 3, 0
40, 4, 0
40, 14, 0
40, 26, 0
40, 37, 0
40, 49, 0
40, 41, 0
40, 9, 0
11, 20, 0
11, 33, 0
11, 25, 0
11, 29, 0
11, 21, 0
11, 24, 0
11, 15, 0
11, 18, 0
5, 6, 1
5, 17, 0
37, 0, 0
37, 23, 0
37, 18, 0
37, 40, 0
37, 10, 0
37, 7, 0
37, 4, 0
37, 14, 0
37, 26, 0
37, 42, 0
37, 8, 0
37, 36, 0
4, 20, 0
4, 0, 0
4, 26, 0
4, 23, 0
4, 37, 0
4, 42, 0
4, 8, 0
4, 40, 0
35, 34, 0
35, 17, 0
35, 22, 0
35, 9, 0
30, 48, 0
30, 23, 0
30, 27, 0
30, 40, 0
30, 1, 0
30, 3, 0
30, 26, 0
30, 19, 0
30, 10, 0
30, 39, 0
30, 41, 0
30, 9, 0
42, 3, 0
42, 4, 0
42, 14, 0
42, 23, 0
42, 26, 0
42, 12, 0
42, 37, 0
42, 8, 0
22, 34, 0
22, 9, 0
22, 46, 0
22, 35, 0
36, 48, 0
36, 23, 0
36, 18, 0
36, 27, 0
36, 10, 0
36, 7, 0
36, 16, 0
36, 2, 0
36, 37, 0
36, 19, 0
36, 8, 0
36, 38, 0
36, 41, 0
45, 28, 0
45, 31, 0
45, 51, 0
45, 21, 0
45, 52, 0
45, 47, 0
16, 34, 0
16, 2, 0
16, 46, 0
16, 27, 0
16, 36, 0
16, 38, 0
16, 48, 0
16, 9, 0
27, 34, 0
27, 46, 0
27, 9, 0
27, 32, 0
27, 2, 0
27, 16, 0
27, 36, 0
27, 30, 0
27, 38, 0
27, 48, 0
27, 10, 0
1, 7, 0
1, 18, 0
1, 10, 0
1, 30, 0
1, 8, 0
1, 48, 0
1, 41, 0
44, 31, 0
12, 0, 0
12, 3, 0
12, 14, 0
12, 26, 0
12, 23, 0
12, 18, 0
12, 42, 0
18, 0, 0
18, 7, 0
18, 13, 0
18, 26, 0
18, 23, 0
18, 33, 0
18, 1, 0
18, 11, 0
18, 10, 0
18, 20, 0
18, 12, 0
18, 31, 0
18, 37, 0
18, 19, 0
18, 8, 0
18, 15, 0
18, 41, 0
18, 48, 0
18, 36, 0
52, 20, 0
52, 45, 0
52, 28, 0
52, 51, 1
52, 29, 0
52, 21, 0
52, 25, 0
52, 15, 0
52, 47, 0
50, 28, 0
50, 15, 0
50, 51, 1
50, 29, 0
26, 23, 0
26, 12, 0
26, 18, 0
26, 40, 0
26, 10, 0
26, 7, 0
26, 3, 0
26, 4, 0
26, 14, 0
26, 37, 0
26, 42, 0
26, 19, 0
26, 8, 0
26, 39, 0
26, 30, 0
6, 17, 0
6, 5, 1
43, 20, 0
43, 33, 0
43, 13, 0
43, 47, 0
43, 21, 0
9, 3, 0
9, 14, 0
9, 48, 0
9, 23, 0
9, 35, 0
9, 16, 0
9, 27, 0
9, 40, 0
9, 46, 0
9, 22, 0
9, 30, 0
