0, 7, 0
0, 6, 0
0, 8, 0
3, 8, 0
3, 5, 0
3, 4, 0
4, 3, 0
4, 8, 0
4, 5, 1
7, 0, 0
7, 6, 0
7, 8, 0
2, 6, 0
2, 1, 1
6, 0, 0
6, 7, 0
6, 1, 0
6, 2, 0
8, 0, 0
8, 3, 0
8, 4, 0
8, 7, 0
8, 5, 0
5, 3, 0
5, 8, 0
5, 4, 1
1, 6, 0
1, 2, 1
