2, 21, 0
2, 5, 0
2, 29, 0
13, 16, 0
13, 12, 1
13, 20, 0
13, 22, 0
17, 18, 0
17, 22, 0
23, 3, 0
23, 4, 0
23, 14, 0
23, 27, 0
23, 9, 0
29, 21, 0
29, 27, 0
29, 2, 0
29, 9, 0
5, 7, 0
5, 6, 0
5, 8, 0
5, 26, 0
5, 2, 0
11, 20, 0
11, 0, 0
11, 24, 0
11, 1, 0
1, 0, 1
1, 20, 0
1, 11, 0
1, 24, 0
20, 18, 0
20, 13, 0
20, 24, 0
20, 16, 0
20, 19, 0
20, 11, 0
20, 1, 0
4, 3, 1
4, 23, 0
4, 9, 0
14, 27, 0
14, 23, 0
24, 0, 0
24, 20, 0
24, 25, 0
24, 27, 0
24, 11, 0
24, 1, 0
28, 15, 0
28, 10, 0
8, 7, 1
8, 5, 0
8, 26, 0
15, 28, 0
15, 10, 0
22, 12, 0
22, 13, 0
22, 17, 0
22, 16, 0
22, 19, 0
22, 18, 0
0, 24, 0
0, 11, 0
0, 1, 1
12, 16, 0
12, 13, 1
12, 22, 0
16, 20, 0
16, 12, 0
16, 13, 0
16, 22, 0
6, 7, 1
6, 5, 0
6, 26, 0
10, 18, 0
10, 15, 0
10, 19, 0
10, 28, 0
7, 6, 1
7, 8, 1
7, 5, 0
7, 26, 0
3, 4, 1
3, 23, 0
3, 9, 0
25, 27, 0
25, 24, 0
26, 7, 0
26, 6, 0
26, 8, 0
26, 5, 0
27, 25, 0
27, 24, 0
27, 14, 0
27, 23, 0
27, 29, 0
21, 2, 0
21, 29, 0
19, 20, 0
19, 18, 1
19, 22, 0
19, 10, 0
18, 20, 0
18, 19, 1
18, 17, 0
18, 22, 0
18, 10, 0
9, 3, 0
9, 4, 0
9, 23, 0
9, 29, 0
