0, 14, 0
0, 16, 0
0, 1, 0
0, 15, 0
0, 5, 0
0, 9, 0
13, 7, 0
13, 12, 1
13, 3, 0
13, 10, 0
3, 7, 0
3, 12, 0
3, 13, 0
3, 10, 0
3, 6, 0
16, 0, 0
16, 15, 0
16, 14, 0
16, 5, 0
16, 9, 0
6, 3, 0
6, 11, 0
6, 2, 0
8, 4, 0
8, 11, 0
5, 0, 0
5, 16, 0
5, 15, 0
5, 14, 0
5, 9, 0
11, 6, 0
11, 8, 0
11, 2, 0
10, 7, 0
10, 12, 0
10, 13, 0
10, 3, 0
7, 12, 0
7, 13, 0
7, 3, 0
7, 10, 0
12, 7, 0
12, 3, 0
12, 13, 1
12, 10, 0
4, 8, 0
4, 1, 0
14, 0, 0
14, 16, 0
14, 15, 1
14, 5, 0
14, 9, 0
2, 6, 0
2, 11, 0
1, 0, 0
1, 4, 0
15, 0, 0
15, 16, 0
15, 14, 1
15, 5, 0
15, 9, 0
9, 0, 0
9, 16, 0
9, 15, 0
9, 14, 0
9, 5, 0
