2, 4, 0
2, 25, 0
13, 5, 0
13, 32, 0
13, 35, 0
17, 16, 0
17, 8, 0
17, 29, 0
31, 19, 0
31, 1, 0
31, 24, 0
23, 34, 0
24, 20, 0
24, 12, 0
24, 31, 0
24, 9, 0
5, 13, 0
5, 28, 0
5, 32, 0
5, 35, 0
11, 18, 0
11, 0, 0
11, 3, 0
11, 30, 0
1, 19, 0
1, 4, 0
1, 31, 0
20, 12, 0
20, 9, 0
20, 24, 0
34, 4, 0
34, 25, 0
34, 23, 0
4, 34, 0
4, 19, 0
4, 2, 0
4, 25, 0
4, 1, 0
14, 21, 0
14, 12, 0
14, 22, 0
14, 35, 0
35, 13, 0
35, 14, 0
35, 5, 0
28, 33, 0
28, 5, 0
28, 32, 0
28, 10, 0
30, 27, 0
30, 11, 0
30, 3, 0
8, 16, 0
8, 17, 0
8, 26, 0
8, 29, 0
15, 18, 0
15, 6, 0
22, 21, 1
22, 12, 0
22, 14, 0
0, 18, 0
0, 11, 0
3, 7, 0
3, 27, 0
3, 11, 0
3, 30, 0
16, 8, 0
16, 17, 0
27, 7, 0
27, 3, 0
27, 30, 0
10, 33, 0
10, 28, 0
7, 3, 0
7, 33, 0
7, 27, 0
12, 20, 0
12, 21, 0
12, 14, 0
12, 22, 0
12, 24, 0
25, 34, 0
25, 4, 0
25, 2, 0
33, 7, 0
33, 28, 0
33, 10, 0
32, 13, 0
32, 28, 0
32, 5, 0
6, 15, 0
6, 26, 0
21, 12, 0
21, 14, 0
21, 22, 1
29, 8, 0
29, 17, 0
19, 4, 0
19, 31, 0
19, 1, 0
26, 6, 0
26, 8, 0
18, 0, 0
18, 15, 0
18, 11, 0
9, 20, 0
9, 24, 0
