13, 7, 0
13, 12, 1
13, 25, 0
13, 23, 0
13, 1, 0
13, 8, 0
13, 10, 0
13, 22, 0
13, 9, 0
17, 21, 0
17, 24, 0
17, 18, 0
17, 19, 0
17, 22, 0
17, 9, 0
23, 20, 0
23, 0, 0
23, 13, 0
23, 25, 0
5, 3, 0
5, 15, 0
5, 26, 0
5, 2, 0
11, 9, 0
11, 24, 0
1, 0, 0
1, 12, 0
1, 13, 0
1, 25, 0
1, 9, 0
1, 8, 0
1, 7, 0
1, 10, 0
20, 16, 0
20, 25, 0
20, 23, 0
4, 7, 0
4, 3, 1
4, 14, 0
4, 16, 0
4, 6, 0
4, 15, 0
14, 7, 0
14, 4, 0
14, 26, 0
14, 2, 0
14, 16, 0
14, 6, 0
14, 15, 0
24, 21, 0
24, 17, 0
24, 22, 0
24, 11, 0
24, 9, 0
8, 3, 0
8, 13, 0
8, 25, 0
8, 9, 0
8, 12, 0
8, 19, 0
8, 10, 0
8, 22, 0
8, 1, 0
15, 3, 0
15, 4, 0
15, 14, 0
15, 26, 0
15, 2, 0
15, 16, 0
15, 6, 0
15, 5, 0
22, 18, 0
22, 13, 0
22, 17, 0
22, 24, 0
22, 21, 1
22, 19, 0
22, 8, 0
0, 7, 0
0, 12, 0
0, 25, 0
0, 23, 0
0, 3, 0
0, 1, 0
0, 10, 0
0, 9, 0
3, 7, 0
3, 0, 0
3, 4, 1
3, 2, 0
3, 16, 0
3, 6, 0
3, 8, 0
3, 15, 0
3, 5, 0
3, 9, 0
16, 20, 0
16, 3, 0
16, 4, 0
16, 14, 0
16, 26, 0
16, 6, 0
16, 15, 0
16, 25, 0
16, 7, 0
16, 9, 0
6, 7, 1
6, 3, 0
6, 4, 0
6, 14, 0
6, 16, 0
6, 15, 0
10, 0, 0
10, 12, 0
10, 13, 0
10, 25, 0
10, 1, 0
10, 8, 0
10, 9, 1
7, 0, 0
7, 3, 0
7, 13, 0
7, 14, 0
7, 26, 0
7, 2, 0
7, 16, 0
7, 6, 1
7, 25, 0
7, 4, 0
7, 1, 0
12, 0, 0
12, 13, 1
12, 25, 0
12, 9, 0
12, 8, 0
12, 10, 0
12, 1, 0
25, 0, 0
25, 7, 0
25, 13, 0
25, 1, 0
25, 23, 0
25, 12, 0
25, 16, 0
25, 20, 0
25, 8, 0
25, 10, 0
26, 7, 0
26, 14, 0
26, 2, 0
26, 16, 0
26, 15, 0
26, 5, 0
2, 7, 0
2, 3, 0
2, 14, 0
2, 26, 0
2, 15, 0
2, 5, 0
21, 17, 0
21, 22, 1
21, 24, 0
19, 18, 0
19, 8, 0
19, 17, 0
19, 22, 0
19, 9, 0
18, 19, 0
18, 17, 0
18, 22, 0
9, 0, 0
9, 13, 0
9, 17, 0
9, 12, 0
9, 16, 0
9, 11, 0
9, 1, 0
9, 3, 0
9, 24, 0
9, 19, 0
9, 8, 0
9, 10, 1
