0, 7, 0
0, 3, 0
0, 4, 0
0, 2, 0
0, 1, 0
0, 8, 0
0, 10, 0
8, 0, 0
8, 7, 0
8, 4, 0
8, 3, 0
8, 2, 0
8, 5, 0
8, 1, 0
3, 0, 0
3, 7, 0
3, 4, 1
3, 2, 1
3, 8, 0
3, 1, 0
6, 11, 0
6, 1, 0
5, 8, 0
5, 11, 0
5, 1, 0
11, 6, 0
11, 5, 0
11, 1, 0
10, 0, 0
10, 12, 0
10, 7, 0
10, 9, 0
7, 0, 0
7, 12, 0
7, 4, 0
7, 9, 0
7, 3, 0
7, 2, 0
7, 8, 0
7, 10, 0
7, 1, 0
12, 7, 0
12, 9, 0
12, 10, 0
4, 0, 0
4, 7, 0
4, 1, 0
4, 8, 0
4, 3, 1
2, 0, 0
2, 7, 0
2, 1, 0
2, 8, 0
2, 3, 1
1, 0, 0
1, 7, 0
1, 4, 0
1, 3, 0
1, 2, 0
1, 6, 0
1, 8, 0
1, 5, 0
1, 11, 0
9, 7, 0
9, 12, 0
9, 10, 0
