0, 7, 0
0, 12, 0
0, 14, 0
0, 1, 0
0, 15, 0
0, 10, 0
13, 3, 0
13, 9, 0
13, 12, 0
13, 2, 0
3, 12, 0
3, 13, 0
3, 2, 1
16, 4, 0
16, 2, 0
16, 9, 0
16, 5, 0
16, 11, 0
16, 1, 0
6, 7, 0
6, 8, 0
6, 10, 0
8, 7, 1
8, 6, 0
8, 10, 0
5, 16, 0
5, 4, 1
5, 11, 0
5, 9, 0
11, 16, 0
11, 4, 0
11, 5, 0
11, 9, 0
10, 0, 0
10, 7, 0
10, 8, 0
10, 6, 0
7, 0, 0
7, 6, 0
7, 1, 0
7, 8, 1
7, 10, 0
12, 0, 0
12, 3, 0
12, 13, 0
12, 14, 0
12, 2, 0
12, 15, 0
12, 1, 0
4, 16, 0
4, 5, 1
4, 11, 0
4, 9, 0
14, 0, 0
14, 12, 0
14, 15, 1
14, 1, 0
2, 16, 0
2, 12, 0
2, 13, 0
2, 9, 0
2, 3, 1
1, 0, 0
1, 12, 0
1, 7, 0
1, 14, 0
1, 16, 0
1, 15, 0
15, 0, 0
15, 12, 0
15, 14, 1
15, 1, 0
9, 4, 0
9, 13, 0
9, 2, 0
9, 16, 0
9, 5, 0
9, 11, 0
