0, 7, 0
0, 3, 0
0, 8, 0
0, 5, 0
0, 11, 0
0, 9, 0
6, 2, 0
6, 3, 0
6, 10, 0
6, 9, 0
1, 2, 0
1, 3, 0
1, 4, 0
1, 10, 0
5, 0, 0
5, 3, 0
5, 7, 0
5, 8, 0
5, 11, 0
5, 9, 0
11, 0, 0
11, 7, 0
11, 3, 0
11, 8, 0
11, 5, 0
11, 9, 0
10, 6, 0
10, 3, 0
10, 1, 0
7, 0, 0
7, 3, 0
7, 8, 1
7, 5, 0
7, 11, 0
7, 9, 0
3, 0, 0
3, 7, 0
3, 6, 0
3, 1, 0
3, 8, 0
3, 5, 0
3, 10, 0
3, 11, 0
3, 9, 0
4, 2, 0
4, 1, 0
2, 6, 0
2, 4, 0
2, 1, 0
8, 0, 0
8, 7, 1
8, 5, 0
8, 11, 0
8, 3, 0
9, 0, 0
9, 7, 0
9, 3, 0
9, 6, 0
9, 5, 0
9, 11, 0
