2, 27, 0
2, 6, 0
13, 8, 0
13, 14, 0
13, 22, 0
13, 29, 0
17, 16, 0
23, 20, 0
23, 29, 0
29, 13, 0
29, 14, 0
29, 23, 0
5, 3, 0
5, 22, 0
11, 12, 1
11, 19, 0
11, 22, 0
11, 27, 0
1, 6, 0
1, 4, 0
1, 14, 0
20, 14, 0
20, 25, 0
20, 23, 0
4, 15, 0
4, 1, 0
14, 0, 0
14, 20, 0
14, 13, 0
14, 28, 0
14, 18, 0
14, 27, 0
14, 29, 0
14, 1, 0
14, 7, 0
14, 26, 0
14, 6, 0
14, 21, 0
14, 15, 0
14, 22, 0
24, 21, 0
24, 0, 0
28, 7, 0
28, 14, 0
8, 3, 0
8, 13, 0
15, 18, 0
15, 4, 0
15, 14, 0
15, 26, 0
15, 10, 0
22, 3, 0
22, 13, 0
22, 14, 0
22, 12, 0
22, 19, 0
22, 5, 0
22, 11, 0
0, 7, 0
0, 14, 0
0, 24, 0
12, 27, 0
12, 19, 0
12, 22, 0
12, 11, 1
16, 25, 0
16, 17, 0
6, 2, 0
6, 14, 0
6, 1, 0
10, 18, 0
10, 15, 0
10, 26, 0
7, 0, 0
7, 28, 0
7, 14, 0
3, 8, 0
3, 5, 0
3, 22, 0
25, 20, 0
25, 16, 0
26, 21, 0
26, 14, 0
26, 18, 0
26, 10, 0
26, 15, 0
26, 9, 0
27, 12, 0
27, 19, 0
27, 14, 0
27, 11, 0
27, 2, 0
21, 9, 0
21, 14, 0
21, 26, 0
21, 24, 0
19, 27, 0
19, 22, 0
19, 11, 0
19, 12, 0
18, 15, 0
18, 14, 0
18, 26, 0
18, 10, 0
9, 21, 0
9, 26, 0
