13, 17, 0
13, 5, 0
17, 19, 0
17, 13, 0
17, 5, 0
5, 13, 0
5, 17, 0
11, 4, 0
11, 15, 0
1, 3, 0
1, 8, 0
1, 14, 0
1, 10, 0
20, 16, 0
20, 12, 0
20, 15, 0
4, 0, 0
4, 11, 0
14, 8, 0
14, 10, 0
14, 1, 0
8, 18, 0
8, 14, 0
8, 1, 0
15, 20, 0
15, 11, 0
0, 7, 0
0, 4, 0
0, 9, 0
0, 2, 0
3, 19, 0
3, 1, 0
16, 20, 0
16, 12, 0
6, 21, 0
6, 12, 0
10, 14, 0
10, 1, 0
7, 0, 0
7, 2, 0
12, 16, 0
12, 6, 0
12, 20, 0
2, 0, 0
2, 7, 0
2, 9, 0
21, 18, 0
21, 6, 0
19, 3, 0
19, 17, 0
18, 21, 0
18, 8, 0
9, 0, 0
9, 2, 0
