0, 6, 0
0, 4, 0
0, 2, 0
3, 6, 0
3, 1, 0
3, 5, 0
3, 2, 0
4, 0, 0
4, 6, 0
2, 0, 0
2, 3, 0
2, 1, 0
2, 5, 0
2, 6, 0
6, 0, 0
6, 3, 0
6, 4, 0
6, 5, 0
6, 2, 0
5, 2, 0
5, 3, 0
5, 1, 0
5, 6, 0
1, 3, 0
1, 5, 0
1, 2, 0
