0, 3, 0
0, 13, 0
0, 14, 0
0, 9, 0
0, 2, 0
0, 1, 0
0, 15, 0
0, 5, 0
0, 11, 0
0, 10, 0
13, 0, 0
13, 12, 1
13, 4, 0
13, 14, 0
13, 8, 0
13, 15, 0
13, 5, 0
17, 16, 1
17, 7, 0
17, 8, 0
17, 15, 0
17, 9, 0
3, 0, 0
3, 2, 1
3, 14, 0
3, 11, 0
3, 10, 0
16, 7, 0
16, 8, 0
16, 17, 1
6, 7, 0
6, 15, 0
6, 5, 0
6, 9, 0
8, 7, 0
8, 12, 0
8, 13, 0
8, 17, 0
8, 4, 0
8, 16, 0
8, 14, 0
8, 15, 0
8, 5, 0
8, 9, 0
5, 0, 0
5, 12, 0
5, 13, 0
5, 14, 0
5, 4, 1
5, 6, 0
5, 8, 0
5, 15, 0
5, 7, 0
5, 9, 0
11, 0, 0
11, 3, 0
11, 4, 0
11, 14, 0
11, 2, 0
11, 1, 0
11, 10, 0
10, 0, 0
10, 3, 0
10, 14, 0
10, 2, 0
10, 11, 0
10, 1, 0
7, 17, 0
7, 16, 0
7, 6, 0
7, 8, 0
7, 15, 0
7, 5, 0
7, 9, 0
12, 13, 1
12, 8, 0
12, 14, 0
12, 5, 0
12, 4, 0
4, 12, 0
4, 13, 0
4, 14, 0
4, 8, 0
4, 15, 0
4, 5, 1
4, 11, 0
4, 9, 0
14, 0, 0
14, 13, 0
14, 3, 0
14, 1, 0
14, 5, 0
14, 11, 0
14, 10, 0
14, 12, 0
14, 4, 0
14, 2, 0
14, 8, 0
14, 15, 0
2, 0, 0
2, 3, 1
2, 14, 0
2, 1, 1
2, 11, 0
2, 10, 0
1, 0, 0
1, 10, 0
1, 14, 0
1, 11, 0
1, 2, 1
15, 0, 0
15, 7, 0
15, 13, 0
15, 17, 0
15, 4, 0
15, 6, 0
15, 14, 0
15, 8, 0
15, 5, 0
15, 9, 0
9, 0, 0
9, 7, 0
9, 4, 0
9, 17, 0
9, 6, 0
9, 8, 0
9, 15, 0
9, 5, 0
