0, 7, 0
0, 3, 0
0, 4, 0
0, 2, 0
0, 6, 0
0, 5, 0
0, 1, 0
3, 7, 0
3, 0, 0
3, 4, 0
3, 2, 1
4, 0, 0
4, 3, 0
4, 7, 0
4, 5, 0
4, 2, 0
7, 0, 0
7, 3, 0
7, 4, 0
7, 2, 0
2, 0, 0
2, 3, 1
2, 4, 0
2, 7, 0
6, 0, 0
6, 5, 0
6, 1, 0
5, 0, 0
5, 6, 0
5, 4, 0
5, 1, 0
1, 0, 0
1, 6, 0
1, 5, 0
