0, 12, 0
0, 17, 0
0, 1, 0
13, 7, 0
13, 6, 0
13, 15, 0
13, 11, 0
17, 0, 0
17, 3, 0
17, 4, 0
17, 16, 0
17, 5, 0
17, 1, 0
3, 16, 0
3, 4, 1
3, 17, 0
16, 3, 0
16, 4, 0
16, 17, 0
16, 5, 0
16, 11, 0
6, 7, 1
6, 13, 0
6, 15, 0
6, 11, 0
8, 12, 0
8, 14, 0
8, 2, 0
5, 16, 0
5, 4, 1
5, 17, 0
11, 16, 0
11, 6, 0
11, 13, 0
11, 15, 0
11, 7, 0
10, 2, 0
10, 14, 0
10, 9, 1
7, 6, 1
7, 13, 0
7, 15, 0
7, 11, 0
12, 0, 0
12, 8, 0
12, 2, 0
4, 16, 0
4, 3, 1
4, 17, 0
4, 5, 1
14, 2, 0
14, 8, 0
14, 9, 0
14, 10, 0
2, 12, 0
2, 8, 0
2, 14, 0
2, 9, 0
2, 10, 0
1, 0, 0
1, 17, 0
15, 7, 0
15, 6, 0
15, 13, 0
15, 11, 0
9, 2, 0
9, 14, 0
9, 10, 1
