0, 2, 0
0, 1, 1
3, 4, 1
3, 5, 0
3, 2, 0
4, 3, 1
4, 5, 0
4, 2, 0
2, 0, 0
2, 3, 0
2, 4, 0
2, 5, 0
2, 1, 0
6, 7, 0
6, 8, 0
6, 5, 0
6, 9, 0
1, 0, 1
1, 2, 0
8, 7, 1
8, 6, 0
8, 9, 0
5, 2, 0
5, 3, 0
5, 4, 0
5, 9, 0
5, 6, 0
7, 6, 0
7, 8, 1
7, 9, 0
9, 7, 0
9, 6, 0
9, 8, 0
9, 5, 0
