0, 7, 0
0, 4, 0
0, 11, 0
0, 1, 0
13, 7, 0
13, 6, 0
13, 8, 0
13, 10, 0
3, 7, 0
3, 4, 0
6, 12, 0
6, 13, 0
6, 2, 0
6, 8, 0
6, 5, 0
6, 9, 0
8, 7, 0
8, 6, 0
8, 13, 0
8, 5, 0
5, 6, 0
5, 8, 0
11, 0, 0
11, 4, 0
11, 1, 0
10, 7, 0
10, 13, 0
7, 0, 0
7, 3, 0
7, 13, 0
7, 4, 0
7, 8, 0
7, 10, 0
12, 6, 0
12, 9, 0
4, 0, 0
4, 7, 0
4, 11, 0
4, 3, 0
2, 6, 0
2, 9, 0
1, 0, 0
1, 11, 0
9, 12, 0
9, 2, 0
9, 6, 0
