13, 0, 0
13, 23, 0
13, 18, 0
13, 6, 0
13, 5, 0
13, 1, 0
13, 12, 0
13, 4, 0
13, 2, 0
13, 8, 0
13, 15, 0
13, 22, 0
17, 7, 0
17, 6, 0
17, 4, 0
17, 15, 0
23, 20, 0
23, 13, 0
23, 14, 0
23, 24, 1
5, 12, 0
5, 13, 0
5, 9, 0
5, 8, 0
5, 10, 0
5, 11, 0
5, 1, 0
11, 12, 0
11, 8, 0
11, 5, 0
11, 10, 1
1, 8, 0
1, 13, 0
1, 5, 0
20, 21, 1
20, 14, 0
20, 23, 0
20, 24, 0
4, 7, 0
4, 6, 0
4, 13, 0
4, 15, 0
4, 17, 0
14, 20, 0
14, 21, 0
14, 19, 0
14, 23, 0
14, 24, 0
24, 20, 0
24, 21, 0
24, 14, 0
24, 23, 1
8, 19, 0
8, 13, 0
8, 5, 0
8, 11, 0
8, 1, 0
15, 7, 0
15, 12, 0
15, 13, 0
15, 17, 0
15, 4, 0
15, 22, 0
22, 7, 0
22, 12, 0
22, 13, 0
22, 15, 0
0, 3, 0
0, 13, 0
0, 2, 0
0, 16, 0
0, 6, 0
0, 18, 0
3, 0, 0
3, 18, 0
3, 16, 0
3, 2, 1
16, 0, 0
16, 3, 0
16, 6, 0
6, 0, 0
6, 16, 0
6, 13, 0
6, 17, 0
6, 4, 0
10, 12, 0
10, 5, 0
10, 11, 1
10, 9, 1
7, 15, 0
7, 4, 0
7, 17, 0
7, 22, 0
7, 12, 0
12, 7, 0
12, 13, 0
12, 22, 0
12, 9, 0
12, 15, 0
12, 5, 0
12, 11, 0
12, 10, 0
2, 0, 0
2, 3, 1
2, 13, 0
2, 18, 0
21, 20, 1
21, 19, 0
21, 14, 0
21, 24, 0
19, 21, 0
19, 8, 0
19, 14, 0
18, 0, 0
18, 3, 0
18, 13, 0
18, 2, 0
9, 12, 0
9, 5, 0
9, 10, 1
