0, 7, 0
0, 3, 0
0, 4, 0
0, 12, 0
0, 6, 0
0, 8, 0
0, 11, 0
13, 16, 0
13, 17, 0
13, 18, 0
13, 6, 0
13, 5, 0
13, 11, 0
17, 16, 1
17, 13, 0
17, 5, 0
3, 0, 0
3, 12, 0
3, 4, 0
3, 14, 0
3, 6, 0
3, 15, 0
3, 10, 0
16, 13, 0
16, 17, 1
16, 5, 0
6, 0, 0
6, 7, 0
6, 13, 0
6, 4, 0
6, 3, 0
6, 18, 0
6, 11, 0
6, 12, 0
8, 0, 0
8, 7, 0
8, 4, 0
5, 16, 0
5, 13, 0
5, 17, 0
11, 0, 0
11, 7, 0
11, 13, 0
11, 2, 0
11, 18, 0
11, 6, 0
11, 1, 0
11, 10, 0
11, 9, 0
10, 7, 0
10, 3, 0
10, 2, 0
10, 18, 0
10, 1, 0
10, 11, 0
10, 9, 1
7, 0, 0
7, 9, 0
7, 2, 0
7, 6, 0
7, 8, 0
7, 10, 0
7, 11, 0
7, 1, 0
12, 0, 0
12, 3, 0
12, 14, 0
12, 6, 0
4, 0, 0
4, 6, 0
4, 8, 0
4, 3, 0
14, 12, 0
14, 15, 1
14, 3, 0
2, 7, 0
2, 9, 0
2, 10, 0
2, 11, 0
2, 1, 1
1, 7, 0
1, 10, 0
1, 9, 0
1, 11, 0
1, 2, 1
15, 3, 0
15, 14, 1
18, 6, 0
18, 13, 0
18, 11, 0
18, 10, 0
9, 7, 0
9, 2, 0
9, 10, 1
9, 11, 0
9, 1, 0
