13, 6, 0
13, 14, 1
13, 5, 0
13, 33, 0
17, 7, 0
17, 29, 0
17, 11, 0
17, 9, 0
31, 26, 0
23, 19, 0
23, 8, 0
23, 1, 0
23, 10, 0
10, 8, 0
10, 9, 0
10, 22, 0
10, 23, 0
10, 29, 0
2, 0, 0
2, 27, 0
2, 28, 0
2, 18, 0
2, 29, 0
5, 20, 0
5, 33, 0
5, 13, 0
5, 25, 0
5, 24, 0
5, 6, 1
5, 29, 0
5, 30, 0
11, 7, 0
11, 17, 0
11, 29, 0
1, 12, 0
1, 23, 0
1, 29, 0
20, 25, 0
20, 32, 0
20, 24, 0
20, 6, 0
20, 29, 0
20, 5, 0
20, 30, 0
4, 16, 0
4, 19, 0
4, 15, 0
4, 22, 0
4, 29, 0
14, 33, 0
14, 13, 1
24, 20, 0
24, 6, 0
24, 25, 1
24, 5, 0
24, 33, 0
28, 0, 0
28, 33, 0
28, 2, 0
28, 29, 0
30, 20, 0
30, 21, 0
30, 5, 0
30, 29, 0
8, 10, 0
8, 9, 0
8, 23, 0
8, 29, 0
15, 16, 1
15, 19, 0
15, 4, 0
15, 22, 0
15, 29, 0
22, 19, 0
22, 4, 0
22, 15, 0
22, 10, 0
22, 29, 0
0, 18, 0
0, 27, 0
0, 19, 0
0, 28, 0
0, 2, 0
12, 7, 0
12, 1, 0
16, 19, 0
16, 4, 0
16, 15, 1
6, 20, 0
6, 13, 0
6, 25, 0
6, 5, 1
6, 24, 0
27, 0, 0
27, 18, 0
27, 19, 0
27, 2, 0
7, 12, 0
7, 17, 0
7, 11, 0
7, 29, 0
3, 21, 0
3, 26, 0
3, 32, 0
3, 29, 0
25, 20, 0
25, 6, 0
25, 5, 0
25, 24, 1
32, 21, 0
32, 3, 0
32, 20, 0
32, 26, 0
29, 20, 0
29, 17, 0
29, 3, 0
29, 5, 0
29, 11, 0
29, 1, 0
29, 7, 0
29, 33, 0
29, 4, 0
29, 9, 0
29, 26, 0
29, 2, 0
29, 21, 0
29, 28, 0
29, 19, 0
29, 8, 0
29, 15, 0
29, 10, 0
29, 22, 0
29, 30, 0
21, 3, 0
21, 30, 0
21, 26, 0
21, 32, 0
21, 29, 0
33, 13, 0
33, 14, 0
33, 24, 0
33, 28, 0
33, 29, 0
33, 5, 0
19, 0, 0
19, 18, 0
19, 4, 0
19, 23, 0
19, 29, 0
19, 16, 0
19, 27, 0
19, 15, 0
19, 22, 0
26, 21, 0
26, 3, 0
26, 31, 0
26, 32, 0
26, 29, 0
18, 0, 0
18, 27, 0
18, 19, 0
18, 2, 0
9, 8, 0
9, 17, 0
9, 10, 0
9, 29, 0
