0, 1, 0
0, 10, 0
3, 7, 0
3, 6, 0
3, 4, 1
4, 7, 0
4, 3, 1
4, 6, 0
2, 5, 0
2, 9, 0
6, 7, 0
6, 3, 0
6, 4, 0
1, 0, 0
1, 7, 0
8, 5, 0
8, 10, 0
5, 8, 0
5, 10, 0
5, 2, 0
7, 3, 0
7, 6, 0
7, 4, 0
7, 1, 0
10, 0, 0
10, 8, 0
10, 5, 0
9, 2, 0
