0, 7, 0
0, 6, 0
0, 8, 0
3, 2, 0
3, 8, 0
3, 1, 0
4, 5, 1
4, 1, 0
7, 0, 0
7, 6, 1
7, 8, 0
2, 3, 0
2, 8, 0
6, 0, 0
6, 7, 1
6, 8, 0
8, 0, 0
8, 3, 0
8, 6, 0
8, 7, 0
8, 2, 0
5, 4, 1
5, 1, 0
1, 3, 0
1, 4, 0
1, 5, 0
