2, 20, 0
2, 6, 0
2, 26, 0
2, 32, 0
13, 3, 0
13, 14, 1
13, 32, 0
17, 27, 0
31, 16, 0
31, 25, 0
31, 28, 0
31, 24, 0
23, 16, 0
23, 22, 0
23, 24, 0
24, 16, 0
24, 22, 0
24, 31, 0
24, 23, 0
5, 18, 0
5, 19, 0
5, 9, 0
5, 30, 0
11, 34, 0
11, 35, 0
11, 27, 0
1, 3, 0
1, 33, 0
20, 6, 0
20, 26, 0
20, 2, 0
34, 11, 0
34, 35, 0
4, 7, 0
4, 29, 0
4, 8, 0
4, 10, 0
14, 3, 0
14, 13, 1
14, 32, 0
35, 34, 0
35, 22, 0
35, 11, 0
35, 27, 0
28, 25, 0
28, 31, 0
28, 30, 0
30, 28, 0
30, 5, 0
8, 7, 0
8, 4, 0
8, 15, 0
15, 21, 0
15, 12, 0
15, 8, 0
22, 16, 0
22, 35, 0
22, 23, 0
22, 24, 0
0, 21, 0
0, 12, 0
0, 26, 0
3, 6, 0
3, 13, 0
3, 14, 0
3, 32, 0
3, 1, 0
16, 24, 0
16, 22, 0
16, 23, 0
16, 31, 0
27, 17, 0
27, 11, 0
27, 35, 0
10, 7, 0
10, 4, 0
10, 29, 0
7, 29, 0
7, 8, 0
7, 4, 0
7, 10, 0
12, 0, 0
12, 21, 0
12, 15, 0
12, 26, 0
25, 28, 0
25, 31, 0
33, 9, 0
33, 1, 0
32, 3, 0
32, 6, 0
32, 13, 0
32, 14, 0
32, 2, 0
6, 20, 0
6, 3, 0
6, 32, 0
6, 26, 0
6, 2, 0
21, 0, 0
21, 12, 0
21, 15, 0
21, 26, 0
29, 7, 0
29, 4, 0
29, 10, 0
19, 18, 1
19, 5, 0
19, 9, 0
26, 20, 0
26, 0, 0
26, 2, 0
26, 21, 0
26, 6, 0
26, 12, 0
18, 19, 1
18, 5, 0
18, 9, 0
9, 18, 0
9, 33, 0
9, 19, 0
9, 5, 0
