0, 14, 0
0, 2, 0
0, 6, 0
0, 10, 0
0, 11, 0
0, 1, 0
13, 7, 0
13, 12, 1
13, 4, 0
13, 14, 0
13, 1, 0
13, 8, 0
13, 11, 0
13, 9, 0
3, 5, 0
3, 10, 0
6, 0, 0
6, 4, 0
6, 2, 0
6, 10, 0
6, 5, 0
6, 1, 0
8, 7, 1
8, 12, 0
8, 13, 0
8, 14, 0
8, 4, 0
8, 1, 0
8, 11, 0
8, 9, 0
5, 6, 0
5, 10, 0
5, 3, 0
5, 2, 0
11, 0, 0
11, 12, 0
11, 13, 0
11, 14, 0
11, 10, 0
11, 8, 0
11, 1, 0
11, 7, 0
11, 9, 0
10, 0, 0
10, 3, 0
10, 4, 0
10, 2, 0
10, 6, 0
10, 5, 0
10, 11, 0
7, 12, 0
7, 13, 0
7, 14, 0
7, 8, 1
7, 11, 0
7, 9, 0
12, 7, 0
12, 13, 1
12, 14, 0
12, 4, 0
12, 1, 0
12, 8, 0
12, 11, 0
12, 9, 0
4, 12, 0
4, 13, 0
4, 14, 0
4, 9, 0
4, 6, 0
4, 8, 0
4, 10, 0
4, 1, 0
14, 0, 0
14, 12, 0
14, 13, 0
14, 4, 0
14, 1, 0
14, 8, 0
14, 7, 0
14, 11, 0
14, 9, 0
2, 0, 0
2, 6, 0
2, 5, 0
2, 10, 0
1, 0, 0
1, 12, 0
1, 13, 0
1, 14, 0
1, 4, 0
1, 6, 0
1, 8, 0
1, 11, 0
1, 9, 0
9, 7, 0
9, 12, 0
9, 13, 0
9, 14, 0
9, 4, 0
9, 8, 0
9, 11, 0
9, 1, 0
