0, 3, 0
0, 11, 0
13, 6, 0
13, 11, 0
13, 1, 0
17, 16, 1
17, 5, 0
17, 9, 0
3, 0, 0
3, 12, 0
3, 11, 0
3, 2, 0
16, 17, 1
16, 5, 0
16, 9, 0
6, 13, 0
6, 11, 0
6, 1, 0
8, 7, 0
8, 15, 0
8, 4, 0
8, 14, 0
8, 9, 0
5, 16, 0
5, 17, 0
5, 9, 0
11, 0, 0
11, 6, 0
11, 13, 0
11, 3, 0
11, 1, 0
10, 12, 0
10, 4, 0
10, 14, 0
7, 8, 0
7, 9, 0
12, 3, 0
12, 10, 0
12, 2, 0
4, 15, 0
4, 8, 0
4, 14, 0
4, 10, 0
14, 8, 0
14, 15, 0
14, 4, 0
14, 10, 0
2, 12, 0
2, 3, 0
1, 6, 0
1, 13, 0
1, 11, 0
15, 8, 0
15, 14, 0
15, 4, 0
9, 16, 0
9, 7, 0
9, 8, 0
9, 17, 0
9, 5, 0
