0, 6, 0
0, 2, 0
0, 1, 0
3, 6, 0
3, 5, 0
4, 7, 0
4, 8, 0
2, 0, 0
2, 6, 0
2, 1, 1
6, 0, 0
6, 3, 0
6, 1, 0
6, 2, 0
1, 0, 0
1, 6, 0
1, 2, 1
8, 4, 0
8, 9, 1
5, 3, 0
5, 10, 0
7, 4, 0
7, 10, 0
10, 7, 0
10, 5, 0
9, 8, 1
