0, 1, 0
0, 2, 0
0, 9, 0
0, 11, 0
0, 10, 0
13, 6, 0
13, 2, 0
13, 12, 0
13, 5, 0
13, 1, 0
3, 7, 0
3, 12, 0
3, 8, 0
3, 5, 0
3, 4, 0
6, 2, 0
6, 12, 0
6, 13, 0
6, 5, 0
6, 1, 0
8, 7, 1
8, 12, 0
8, 4, 0
8, 5, 0
8, 3, 0
5, 7, 0
5, 12, 0
5, 13, 0
5, 4, 0
5, 3, 0
5, 6, 0
5, 8, 0
11, 0, 0
11, 1, 0
11, 10, 1
11, 2, 0
10, 0, 0
10, 1, 0
10, 9, 1
10, 11, 1
10, 2, 0
7, 3, 0
7, 8, 1
7, 5, 0
7, 4, 0
12, 3, 0
12, 13, 0
12, 4, 0
12, 6, 0
12, 8, 0
12, 5, 0
4, 7, 0
4, 12, 0
4, 8, 0
4, 5, 0
4, 3, 0
2, 0, 0
2, 13, 0
2, 6, 0
2, 1, 0
2, 10, 0
2, 11, 0
2, 9, 0
1, 0, 0
1, 13, 0
1, 2, 0
1, 6, 0
1, 10, 0
1, 11, 0
1, 9, 0
9, 0, 0
9, 2, 0
9, 10, 1
9, 1, 0
