0, 4, 0
0, 15, 0
0, 11, 0
13, 3, 0
13, 14, 0
13, 16, 0
13, 17, 0
13, 19, 0
13, 9, 0
13, 18, 0
13, 1, 0
17, 16, 1
17, 18, 0
17, 13, 0
17, 14, 0
3, 13, 0
3, 1, 0
16, 13, 0
16, 17, 1
16, 18, 0
16, 14, 0
16, 19, 0
16, 9, 0
6, 12, 0
6, 8, 0
6, 5, 0
8, 12, 0
8, 10, 0
8, 15, 0
8, 5, 0
8, 6, 0
5, 12, 0
5, 8, 0
5, 6, 0
11, 0, 0
11, 4, 0
11, 14, 0
11, 19, 0
11, 15, 0
11, 9, 0
10, 12, 0
10, 8, 0
10, 15, 0
7, 2, 0
7, 1, 0
12, 6, 0
12, 8, 0
12, 15, 0
12, 5, 0
12, 10, 0
4, 0, 0
4, 14, 0
4, 18, 0
4, 19, 0
4, 15, 0
4, 11, 0
4, 9, 0
14, 18, 0
14, 4, 0
14, 13, 0
14, 16, 0
14, 17, 0
14, 15, 0
14, 11, 0
14, 9, 0
2, 7, 0
2, 1, 0
19, 18, 0
19, 4, 0
19, 13, 0
19, 16, 0
19, 11, 0
19, 9, 0
1, 7, 0
1, 3, 0
1, 13, 0
1, 2, 0
15, 0, 0
15, 12, 0
15, 4, 0
15, 14, 0
15, 9, 0
15, 8, 0
15, 11, 0
15, 10, 0
18, 13, 0
18, 14, 0
18, 4, 0
18, 16, 0
18, 17, 0
18, 19, 0
18, 9, 0
9, 18, 0
9, 4, 0
9, 14, 0
9, 16, 0
9, 19, 0
9, 15, 0
9, 11, 0
9, 13, 0
