2, 7, 0
2, 19, 0
2, 14, 0
13, 12, 1
13, 15, 0
13, 24, 0
17, 20, 0
17, 6, 0
17, 25, 0
23, 21, 0
23, 8, 0
23, 1, 0
29, 16, 0
29, 8, 0
29, 25, 0
29, 26, 0
5, 20, 0
5, 18, 0
5, 28, 0
11, 1, 0
11, 15, 0
11, 10, 1
1, 21, 0
1, 15, 0
1, 23, 0
1, 11, 0
1, 10, 0
20, 25, 0
20, 28, 0
20, 18, 0
20, 6, 0
20, 5, 0
20, 17, 0
4, 7, 0
4, 19, 0
14, 0, 0
14, 19, 0
14, 22, 0
14, 2, 0
24, 12, 0
24, 13, 0
24, 15, 0
28, 18, 0
28, 20, 0
28, 5, 0
8, 23, 0
8, 29, 0
15, 12, 0
15, 13, 0
15, 24, 0
15, 10, 0
15, 11, 0
15, 1, 0
22, 0, 0
22, 27, 0
22, 14, 0
22, 9, 0
0, 14, 0
0, 22, 0
12, 13, 1
12, 15, 0
12, 24, 0
16, 25, 0
16, 26, 0
16, 29, 0
6, 20, 0
6, 17, 0
10, 15, 0
10, 11, 1
10, 1, 0
7, 19, 0
7, 4, 0
7, 2, 0
3, 18, 0
3, 27, 0
25, 20, 0
25, 16, 0
25, 17, 0
25, 26, 0
25, 29, 0
26, 16, 0
26, 25, 0
26, 29, 0
27, 3, 0
27, 22, 0
27, 9, 0
21, 23, 0
21, 1, 0
19, 7, 0
19, 4, 0
19, 14, 0
19, 2, 0
18, 20, 0
18, 3, 0
18, 28, 0
18, 5, 0
9, 27, 0
9, 22, 0
