0, 7, 0
0, 13, 0
0, 9, 0
0, 8, 0
0, 15, 0
0, 1, 1
7, 0, 0
7, 3, 0
7, 13, 0
7, 9, 0
7, 15, 0
7, 1, 0
13, 0, 0
13, 7, 0
13, 9, 0
13, 8, 0
13, 15, 0
13, 1, 0
17, 18, 1
17, 11, 0
3, 7, 0
3, 12, 0
3, 14, 0
16, 6, 0
16, 8, 0
16, 5, 0
16, 4, 0
16, 2, 0
6, 16, 0
6, 4, 0
6, 5, 1
6, 2, 0
8, 0, 0
8, 13, 0
8, 2, 0
8, 16, 0
8, 15, 0
8, 5, 0
8, 9, 1
5, 16, 0
5, 6, 1
5, 8, 0
5, 2, 0
11, 20, 0
11, 12, 0
11, 17, 0
11, 18, 0
11, 19, 0
11, 1, 0
10, 20, 0
10, 12, 0
20, 1, 0
20, 11, 0
20, 10, 0
12, 3, 0
12, 14, 0
12, 11, 0
12, 10, 0
4, 16, 0
4, 6, 0
4, 2, 0
14, 12, 0
14, 3, 0
2, 4, 0
2, 16, 0
2, 6, 0
2, 8, 0
2, 15, 0
2, 5, 0
19, 18, 1
19, 11, 0
1, 0, 1
1, 7, 0
1, 13, 0
1, 20, 0
1, 15, 0
1, 11, 0
15, 0, 0
15, 7, 0
15, 13, 0
15, 9, 0
15, 2, 0
15, 8, 0
15, 1, 0
18, 19, 1
18, 17, 1
18, 11, 0
9, 0, 0
9, 7, 0
9, 8, 1
9, 15, 0
9, 13, 0
