0, 7, 0
0, 1, 0
0, 8, 0
0, 11, 0
0, 10, 0
6, 2, 0
6, 4, 0
6, 5, 0
6, 1, 0
1, 0, 0
1, 6, 0
1, 4, 0
1, 5, 0
1, 2, 0
5, 2, 0
5, 6, 0
5, 4, 1
5, 1, 0
11, 0, 0
11, 7, 0
11, 8, 0
11, 10, 1
10, 0, 0
10, 7, 0
10, 8, 0
10, 11, 1
7, 0, 0
7, 3, 0
7, 8, 0
7, 11, 0
7, 10, 0
3, 7, 0
4, 6, 0
4, 2, 0
4, 5, 1
4, 1, 0
2, 4, 0
2, 9, 0
2, 6, 0
2, 8, 0
2, 5, 0
2, 1, 0
8, 0, 0
8, 7, 0
8, 2, 0
8, 9, 1
8, 11, 0
8, 10, 0
9, 8, 1
9, 2, 0
