0, 7, 0
0, 3, 0
0, 4, 0
0, 6, 0
0, 1, 0
0, 8, 0
0, 10, 0
3, 0, 0
3, 7, 0
3, 8, 0
4, 0, 0
4, 6, 0
4, 1, 0
4, 10, 0
4, 2, 0
2, 6, 0
2, 4, 0
6, 0, 0
6, 4, 0
6, 10, 0
6, 2, 0
1, 0, 0
1, 4, 0
1, 10, 0
8, 7, 0
8, 3, 0
8, 0, 0
5, 10, 0
5, 9, 0
7, 0, 0
7, 3, 0
7, 8, 0
10, 0, 0
10, 4, 0
10, 6, 0
10, 1, 0
10, 5, 0
10, 9, 0
9, 5, 0
9, 10, 0
