12, 16, 0
12, 21, 0
12, 5, 0
12, 31, 0
13, 17, 0
13, 14, 1
13, 32, 0
17, 3, 0
17, 13, 0
17, 14, 0
17, 32, 0
17, 2, 0
17, 6, 0
31, 0, 0
31, 12, 0
31, 21, 0
31, 29, 0
31, 16, 0
31, 27, 0
31, 8, 0
23, 34, 0
23, 25, 0
23, 32, 0
23, 21, 0
23, 5, 0
23, 10, 0
24, 18, 0
24, 4, 0
24, 15, 0
24, 9, 0
24, 35, 0
5, 21, 0
5, 12, 0
5, 23, 0
5, 34, 0
11, 25, 0
11, 28, 0
11, 32, 0
11, 10, 0
1, 20, 0
1, 33, 0
1, 7, 0
1, 26, 0
1, 22, 0
1, 36, 0
20, 33, 0
20, 1, 0
4, 18, 0
4, 33, 0
4, 35, 0
4, 24, 0
4, 9, 0
14, 13, 1
14, 17, 0
14, 32, 0
35, 33, 0
35, 4, 0
35, 15, 0
35, 24, 0
28, 34, 0
28, 25, 0
28, 32, 0
28, 21, 0
28, 11, 0
28, 10, 0
30, 27, 0
30, 19, 0
30, 8, 0
30, 29, 0
8, 0, 0
8, 27, 0
8, 31, 0
8, 30, 0
15, 18, 0
15, 35, 0
15, 24, 0
15, 9, 0
22, 36, 0
22, 1, 0
22, 26, 0
22, 2, 0
36, 7, 0
36, 26, 0
36, 22, 0
36, 1, 0
0, 27, 0
0, 8, 0
0, 31, 0
0, 29, 0
6, 7, 0
6, 3, 0
6, 17, 0
6, 26, 0
6, 2, 0
3, 6, 0
3, 17, 0
16, 12, 0
16, 31, 0
27, 0, 0
27, 29, 0
27, 8, 0
27, 31, 0
27, 30, 0
10, 34, 0
10, 25, 0
10, 32, 0
10, 23, 0
10, 21, 0
10, 28, 0
10, 11, 0
7, 6, 0
7, 36, 0
7, 1, 0
7, 26, 0
7, 2, 0
34, 21, 0
34, 28, 0
34, 5, 0
34, 23, 0
34, 10, 0
25, 32, 0
25, 28, 0
25, 11, 0
25, 23, 0
25, 10, 0
33, 20, 0
33, 35, 0
33, 4, 0
33, 1, 0
32, 11, 0
32, 13, 0
32, 25, 0
32, 23, 0
32, 28, 0
32, 14, 0
32, 17, 0
32, 10, 0
2, 7, 0
2, 6, 0
2, 17, 0
2, 22, 0
2, 26, 0
21, 34, 0
21, 28, 0
21, 31, 0
21, 23, 0
21, 12, 0
21, 5, 0
21, 10, 0
29, 0, 0
29, 27, 0
29, 31, 0
29, 30, 0
19, 30, 0
26, 7, 0
26, 2, 0
26, 6, 0
26, 1, 0
26, 22, 0
26, 36, 0
18, 4, 0
18, 15, 0
18, 9, 0
18, 24, 0
9, 18, 0
9, 4, 0
9, 15, 0
9, 24, 0
