12, 23, 0
12, 26, 0
12, 24, 0
12, 22, 0
12, 5, 0
12, 11, 0
13, 0, 0
13, 28, 0
13, 26, 0
13, 16, 0
13, 17, 0
13, 15, 0
13, 30, 0
17, 0, 0
17, 13, 0
17, 26, 0
17, 16, 1
17, 15, 0
17, 30, 0
26, 0, 0
26, 12, 0
26, 13, 0
26, 17, 0
26, 24, 0
26, 16, 0
26, 11, 0
26, 30, 0
23, 18, 0
23, 12, 0
23, 5, 0
23, 22, 1
23, 24, 0
2, 20, 0
2, 21, 0
2, 4, 0
2, 18, 0
2, 6, 0
2, 19, 0
2, 8, 0
2, 9, 0
5, 12, 0
5, 11, 0
5, 23, 0
5, 24, 0
5, 21, 0
5, 8, 0
5, 18, 0
5, 22, 0
11, 0, 0
11, 12, 0
11, 5, 0
11, 26, 0
11, 24, 0
1, 7, 0
1, 3, 0
1, 14, 0
1, 31, 0
1, 29, 0
1, 10, 0
20, 27, 0
20, 19, 0
20, 4, 0
20, 25, 0
20, 2, 0
4, 20, 0
4, 6, 0
4, 19, 0
4, 27, 0
4, 2, 0
14, 7, 0
14, 10, 0
14, 31, 0
14, 1, 0
24, 12, 0
24, 23, 0
24, 26, 0
24, 22, 0
24, 5, 0
24, 11, 0
28, 3, 0
28, 13, 0
28, 15, 0
28, 29, 0
30, 0, 0
30, 13, 0
30, 17, 0
30, 26, 0
30, 16, 0
30, 15, 0
8, 18, 0
8, 2, 0
8, 21, 0
8, 6, 0
8, 5, 0
8, 9, 1
15, 3, 0
15, 13, 0
15, 28, 0
15, 31, 0
15, 29, 0
15, 16, 0
15, 17, 0
15, 30, 0
22, 12, 0
22, 5, 0
22, 23, 1
22, 24, 0
0, 13, 0
0, 17, 0
0, 26, 0
0, 16, 0
0, 11, 0
0, 30, 0
3, 15, 0
3, 1, 0
3, 28, 0
3, 31, 0
3, 29, 0
16, 0, 0
16, 13, 0
16, 17, 1
16, 26, 0
16, 15, 0
16, 30, 0
6, 21, 0
6, 8, 0
6, 9, 0
6, 4, 0
6, 2, 0
27, 20, 0
27, 19, 0
27, 4, 0
27, 25, 0
7, 10, 0
7, 14, 0
7, 1, 0
18, 21, 0
18, 8, 0
18, 5, 0
18, 23, 0
18, 2, 0
25, 20, 0
25, 27, 0
25, 19, 0
31, 3, 0
31, 15, 0
31, 29, 0
31, 14, 0
31, 1, 0
29, 28, 0
29, 3, 0
29, 15, 0
29, 31, 0
29, 1, 0
21, 2, 0
21, 18, 0
21, 6, 0
21, 8, 0
21, 5, 0
21, 9, 0
19, 20, 0
19, 27, 0
19, 4, 0
19, 25, 0
19, 2, 0
10, 7, 0
10, 14, 0
10, 1, 0
9, 21, 0
9, 6, 0
9, 8, 1
9, 2, 0
