0, 3, 0
0, 10, 0
0, 1, 1
13, 7, 0
13, 4, 0
13, 5, 0
13, 2, 0
17, 14, 0
3, 0, 0
3, 16, 0
3, 10, 0
3, 11, 0
3, 1, 0
16, 12, 0
16, 15, 0
16, 11, 0
16, 3, 0
6, 12, 0
6, 15, 0
6, 14, 0
8, 18, 0
8, 5, 0
5, 18, 0
5, 8, 0
5, 13, 0
5, 4, 0
5, 9, 0
11, 16, 0
11, 3, 0
11, 14, 0
11, 15, 0
10, 0, 0
10, 7, 0
10, 3, 0
10, 1, 0
7, 2, 0
7, 13, 0
7, 4, 0
7, 10, 0
12, 16, 0
12, 6, 0
12, 14, 0
12, 15, 0
4, 7, 0
4, 13, 0
4, 5, 0
4, 2, 0
14, 12, 0
14, 15, 0
14, 17, 0
14, 11, 0
14, 6, 0
2, 7, 0
2, 13, 0
2, 4, 0
1, 0, 1
1, 3, 0
1, 10, 0
15, 16, 0
15, 12, 0
15, 14, 0
15, 11, 0
15, 6, 0
18, 8, 0
18, 5, 0
18, 9, 0
9, 18, 0
9, 5, 0
