0, 3, 0
0, 6, 0
0, 1, 0
3, 0, 0
3, 9, 0
3, 2, 1
3, 6, 0
3, 8, 0
3, 5, 0
3, 1, 0
4, 5, 0
4, 9, 0
2, 3, 1
2, 6, 0
2, 8, 0
2, 1, 0
6, 7, 1
6, 3, 0
6, 2, 0
6, 0, 0
6, 8, 0
6, 5, 0
6, 1, 0
1, 0, 0
1, 3, 0
1, 6, 0
1, 2, 0
8, 3, 0
8, 6, 0
8, 5, 0
8, 2, 0
5, 7, 0
5, 3, 0
5, 4, 0
5, 6, 0
5, 8, 0
5, 9, 0
7, 6, 1
7, 5, 0
9, 3, 0
9, 4, 0
9, 5, 0
