13, 16, 0
13, 25, 0
13, 8, 0
13, 17, 0
17, 13, 0
17, 33, 0
17, 8, 0
17, 38, 0
17, 40, 0
23, 7, 0
23, 43, 0
23, 24, 1
23, 16, 0
23, 15, 0
23, 19, 0
23, 40, 0
23, 44, 0
23, 11, 0
23, 41, 0
42, 16, 0
42, 43, 1
42, 40, 0
42, 44, 0
46, 45, 1
46, 28, 0
46, 22, 0
46, 35, 0
46, 9, 0
46, 29, 0
46, 47, 1
46, 36, 0
20, 40, 0
20, 33, 0
20, 38, 0
14, 37, 0
14, 21, 0
14, 40, 0
14, 5, 0
14, 10, 0
24, 7, 0
24, 43, 0
24, 23, 1
24, 40, 0
24, 19, 0
24, 15, 0
24, 44, 0
24, 11, 0
24, 9, 0
28, 45, 0
28, 29, 1
28, 18, 0
28, 36, 0
28, 35, 0
28, 46, 0
28, 22, 0
28, 9, 0
39, 26, 0
39, 31, 0
39, 2, 0
39, 27, 0
39, 40, 0
39, 10, 0
41, 19, 0
41, 40, 1
41, 11, 0
41, 23, 0
0, 40, 0
0, 2, 0
8, 38, 0
8, 13, 0
8, 17, 0
8, 16, 0
8, 25, 0
8, 40, 0
34, 21, 0
34, 37, 0
34, 38, 0
15, 7, 0
15, 43, 0
15, 11, 0
15, 23, 0
15, 24, 0
47, 7, 0
47, 12, 0
47, 35, 0
47, 9, 0
47, 46, 1
47, 22, 0
47, 36, 0
10, 39, 0
10, 14, 0
10, 5, 0
10, 26, 0
10, 31, 0
7, 45, 0
7, 23, 0
7, 29, 0
7, 40, 0
7, 11, 0
7, 1, 0
7, 3, 0
7, 4, 0
7, 47, 0
7, 24, 0
7, 15, 0
7, 9, 0
3, 7, 0
3, 4, 1
3, 1, 0
32, 5, 0
32, 26, 0
32, 31, 1
2, 0, 0
2, 39, 0
21, 37, 0
21, 34, 0
21, 14, 0
33, 20, 0
33, 38, 0
33, 17, 0
19, 11, 0
19, 40, 0
19, 41, 0
19, 23, 0
19, 24, 0
18, 12, 0
18, 28, 0
18, 45, 0
18, 30, 0
18, 9, 0
18, 22, 0
18, 36, 0
31, 26, 0
31, 39, 0
31, 5, 0
31, 32, 1
31, 10, 0
29, 7, 0
29, 45, 0
29, 28, 1
29, 12, 0
29, 30, 0
29, 9, 0
29, 46, 0
29, 22, 0
29, 36, 0
40, 0, 0
40, 20, 0
40, 17, 0
40, 23, 0
40, 16, 0
40, 39, 0
40, 44, 0
40, 11, 0
40, 5, 0
40, 7, 0
40, 43, 0
40, 24, 0
40, 42, 0
40, 19, 0
40, 8, 0
40, 38, 0
40, 41, 1
40, 14, 0
11, 7, 0
11, 43, 0
11, 23, 0
11, 24, 0
11, 16, 0
11, 40, 0
11, 19, 0
11, 15, 0
11, 41, 0
11, 44, 0
5, 14, 0
5, 32, 0
5, 26, 0
5, 31, 0
5, 40, 0
5, 10, 0
37, 21, 0
37, 34, 0
37, 38, 0
37, 14, 0
4, 7, 0
4, 3, 1
4, 1, 0
35, 45, 0
35, 28, 0
35, 22, 0
35, 9, 0
35, 46, 0
35, 47, 0
35, 36, 0
30, 12, 0
30, 29, 0
30, 18, 0
30, 36, 0
30, 22, 0
30, 9, 0
38, 20, 0
38, 34, 0
38, 17, 0
38, 33, 0
38, 37, 0
38, 8, 0
38, 40, 0
22, 45, 0
22, 28, 0
22, 9, 0
22, 29, 0
22, 18, 0
22, 36, 0
22, 35, 0
22, 46, 0
22, 47, 0
22, 30, 0
36, 12, 0
36, 28, 0
36, 22, 0
36, 29, 0
36, 18, 0
36, 30, 0
36, 35, 0
36, 46, 0
36, 47, 0
36, 9, 0
45, 7, 0
45, 28, 0
45, 35, 0
45, 18, 0
45, 29, 0
45, 46, 1
45, 22, 0
16, 25, 0
16, 13, 0
16, 43, 0
16, 23, 0
16, 42, 0
16, 8, 0
16, 40, 0
16, 44, 0
16, 11, 0
27, 39, 0
27, 26, 1
1, 7, 0
1, 3, 0
1, 4, 0
1, 9, 0
1, 6, 0
44, 43, 0
44, 23, 0
44, 24, 0
44, 16, 0
44, 42, 0
44, 40, 0
44, 11, 0
12, 29, 0
12, 18, 0
12, 6, 0
12, 30, 0
12, 9, 0
12, 47, 0
12, 36, 0
25, 16, 0
25, 8, 0
25, 13, 0
26, 31, 0
26, 32, 0
26, 27, 1
26, 39, 0
26, 5, 0
26, 10, 0
6, 12, 0
6, 9, 0
6, 1, 0
43, 23, 0
43, 24, 0
43, 16, 0
43, 42, 1
43, 15, 0
43, 40, 0
43, 44, 0
43, 11, 0
9, 35, 0
9, 28, 0
9, 18, 0
9, 6, 0
9, 24, 0
9, 46, 0
9, 47, 0
9, 30, 0
9, 7, 0
9, 12, 0
9, 29, 0
9, 1, 0
9, 22, 0
9, 36, 0
