0, 8, 0
0, 5, 0
0, 9, 0
6, 7, 0
6, 1, 0
1, 7, 0
1, 6, 0
1, 11, 0
5, 0, 0
5, 8, 0
5, 9, 0
11, 2, 0
11, 3, 0
11, 9, 0
11, 4, 0
11, 1, 0
10, 8, 0
7, 6, 0
7, 1, 0
3, 4, 1
3, 9, 0
3, 11, 0
3, 2, 0
4, 3, 1
4, 9, 0
4, 11, 0
4, 2, 0
2, 3, 0
2, 4, 0
2, 11, 0
2, 9, 0
8, 0, 0
8, 9, 0
8, 5, 0
8, 10, 0
9, 0, 0
9, 3, 0
9, 4, 0
9, 2, 0
9, 8, 0
9, 5, 0
9, 11, 0
