2, 3, 1
2, 14, 0
2, 12, 0
2, 18, 0
2, 19, 0
2, 11, 0
13, 22, 0
13, 9, 0
17, 7, 0
17, 20, 0
17, 28, 0
17, 26, 0
17, 25, 0
17, 30, 0
23, 27, 0
23, 6, 0
23, 4, 0
23, 5, 0
23, 24, 1
29, 6, 0
29, 24, 0
29, 27, 0
29, 9, 0
5, 7, 0
5, 4, 1
5, 23, 0
5, 27, 0
5, 6, 0
5, 24, 0
11, 18, 0
11, 12, 1
11, 16, 0
11, 14, 0
11, 2, 0
1, 0, 1
1, 15, 0
20, 25, 0
20, 26, 0
20, 21, 1
20, 28, 0
20, 17, 0
20, 30, 0
4, 7, 0
4, 23, 0
4, 24, 0
4, 6, 0
4, 5, 1
4, 27, 0
14, 3, 0
14, 2, 0
14, 18, 0
14, 19, 0
14, 8, 0
14, 11, 0
14, 12, 0
24, 4, 0
24, 23, 1
24, 29, 0
24, 6, 0
24, 5, 0
24, 27, 0
28, 20, 0
28, 7, 0
28, 17, 0
28, 26, 0
28, 21, 0
28, 25, 0
28, 30, 0
30, 20, 0
30, 7, 0
30, 25, 0
30, 26, 0
30, 21, 0
30, 28, 0
30, 8, 0
30, 17, 0
8, 14, 0
8, 30, 0
15, 0, 0
15, 16, 0
15, 1, 0
22, 13, 0
0, 16, 0
0, 15, 0
0, 1, 1
12, 18, 0
12, 3, 0
12, 14, 0
12, 11, 1
12, 2, 0
16, 0, 0
16, 18, 0
16, 15, 0
16, 11, 0
6, 7, 0
6, 4, 0
6, 23, 0
6, 29, 0
6, 27, 0
6, 24, 0
6, 5, 0
6, 10, 0
6, 9, 0
10, 6, 0
10, 9, 1
7, 4, 0
7, 28, 0
7, 27, 0
7, 6, 0
7, 5, 0
7, 17, 0
7, 30, 0
3, 18, 0
3, 12, 0
3, 19, 0
3, 14, 0
3, 2, 1
25, 20, 0
25, 28, 0
25, 26, 1
25, 21, 0
25, 17, 0
25, 30, 0
26, 20, 0
26, 28, 0
26, 21, 0
26, 25, 1
26, 17, 0
26, 30, 0
27, 7, 0
27, 4, 0
27, 23, 0
27, 24, 0
27, 6, 0
27, 29, 0
27, 5, 0
21, 20, 1
21, 25, 0
21, 28, 0
21, 26, 0
21, 30, 0
19, 18, 0
19, 3, 0
19, 14, 0
19, 2, 0
18, 3, 0
18, 14, 0
18, 12, 0
18, 16, 0
18, 19, 0
18, 2, 0
18, 11, 0
9, 6, 0
9, 13, 0
9, 10, 1
9, 29, 0
