0, 2, 0
0, 11, 0
0, 9, 0
13, 12, 0
13, 6, 0
13, 5, 0
13, 10, 0
3, 4, 0
3, 2, 0
6, 7, 0
6, 12, 0
6, 13, 0
6, 4, 0
6, 5, 0
6, 9, 0
8, 7, 1
8, 12, 0
8, 4, 0
5, 7, 0
5, 12, 0
5, 13, 0
5, 4, 0
5, 6, 0
5, 9, 0
11, 0, 0
11, 2, 0
11, 9, 0
10, 13, 0
10, 1, 0
7, 12, 0
7, 8, 1
7, 5, 0
7, 4, 0
7, 6, 0
12, 7, 0
12, 13, 0
12, 4, 0
12, 6, 0
12, 8, 0
12, 5, 0
4, 7, 0
4, 12, 0
4, 3, 0
4, 6, 0
4, 8, 0
4, 5, 0
2, 0, 0
2, 3, 0
2, 11, 0
2, 9, 0
1, 10, 0
9, 0, 0
9, 6, 0
9, 5, 0
9, 11, 0
9, 2, 0
