0, 10, 0
0, 14, 0
0, 1, 0
7, 20, 0
7, 18, 0
7, 14, 0
7, 16, 0
7, 6, 1
7, 19, 0
7, 8, 1
7, 15, 0
7, 5, 1
7, 17, 0
13, 3, 0
13, 4, 0
13, 14, 0
13, 2, 0
13, 10, 0
13, 11, 0
13, 1, 0
17, 20, 0
17, 7, 0
17, 14, 1
17, 12, 0
17, 16, 1
17, 19, 0
17, 8, 0
17, 15, 1
17, 18, 1
17, 5, 0
3, 2, 1
3, 13, 0
3, 4, 1
3, 1, 1
16, 20, 0
16, 7, 0
16, 14, 1
16, 6, 0
16, 17, 1
16, 19, 0
16, 8, 0
16, 15, 1
16, 5, 0
16, 12, 0
6, 20, 0
6, 7, 1
6, 14, 0
6, 16, 0
6, 19, 0
6, 8, 1
6, 15, 0
6, 5, 1
6, 18, 0
6, 10, 0
8, 7, 1
8, 17, 0
8, 16, 0
8, 6, 1
8, 5, 1
8, 10, 0
8, 20, 0
8, 12, 0
8, 14, 0
8, 19, 0
8, 15, 0
8, 18, 0
8, 9, 1
5, 7, 1
5, 17, 0
5, 16, 0
5, 6, 1
5, 10, 0
5, 20, 0
5, 12, 0
5, 14, 0
5, 19, 0
5, 8, 1
5, 15, 0
5, 18, 0
5, 9, 1
11, 13, 0
10, 0, 0
10, 20, 0
10, 13, 0
10, 14, 0
10, 6, 0
10, 8, 0
10, 5, 0
10, 1, 0
20, 17, 0
20, 16, 0
20, 6, 0
20, 5, 0
20, 10, 0
20, 7, 0
20, 12, 0
20, 14, 0
20, 19, 1
20, 8, 0
20, 15, 0
20, 18, 0
12, 20, 0
12, 18, 0
12, 14, 0
12, 16, 0
12, 17, 0
12, 19, 0
12, 8, 0
12, 15, 0
12, 5, 0
4, 2, 1
4, 3, 1
4, 13, 0
4, 1, 1
14, 0, 0
14, 7, 0
14, 13, 0
14, 17, 1
14, 16, 1
14, 6, 0
14, 8, 0
14, 5, 0
14, 10, 0
14, 20, 0
14, 12, 0
14, 19, 0
14, 1, 0
14, 15, 1
14, 18, 1
2, 3, 1
2, 13, 0
2, 4, 1
2, 1, 1
19, 20, 1
19, 12, 0
19, 7, 0
19, 17, 0
19, 16, 0
19, 6, 0
19, 14, 0
19, 8, 0
19, 15, 0
19, 5, 0
19, 18, 0
1, 0, 0
1, 3, 1
1, 13, 0
1, 14, 0
1, 4, 1
1, 2, 1
1, 10, 0
15, 20, 0
15, 12, 0
15, 7, 0
15, 14, 1
15, 16, 1
15, 6, 0
15, 19, 0
15, 8, 0
15, 5, 0
15, 17, 1
18, 20, 0
18, 7, 0
18, 14, 1
18, 6, 0
18, 17, 1
18, 19, 0
18, 8, 0
18, 5, 0
18, 12, 0
9, 8, 1
9, 5, 1
