0, 3, 0
0, 4, 0
0, 11, 0
13, 14, 0
13, 1, 0
3, 0, 0
3, 12, 0
3, 8, 0
3, 5, 0
3, 11, 0
3, 9, 0
6, 14, 0
6, 10, 0
8, 12, 0
8, 5, 0
8, 3, 0
5, 12, 0
5, 8, 0
5, 3, 0
11, 0, 0
11, 3, 0
11, 4, 0
11, 9, 0
10, 6, 0
10, 14, 0
7, 4, 0
7, 9, 0
12, 3, 0
12, 8, 0
12, 5, 0
4, 0, 0
4, 7, 0
4, 11, 0
4, 9, 0
14, 6, 0
14, 1, 0
14, 13, 0
14, 10, 0
2, 9, 0
2, 1, 0
1, 13, 0
1, 14, 0
1, 9, 0
1, 2, 0
9, 7, 0
9, 3, 0
9, 4, 0
9, 2, 0
9, 11, 0
9, 1, 0
