0, 12, 0
0, 4, 0
0, 14, 0
0, 3, 0
0, 8, 0
0, 11, 0
0, 1, 0
13, 3, 0
13, 14, 0
13, 12, 0
13, 6, 0
13, 11, 0
13, 9, 0
3, 0, 0
3, 13, 0
3, 14, 0
3, 6, 0
3, 5, 0
3, 9, 0
6, 3, 0
6, 13, 0
6, 5, 1
6, 9, 0
8, 0, 0
8, 12, 0
8, 4, 0
8, 1, 0
5, 6, 1
5, 3, 0
5, 9, 0
11, 0, 0
11, 12, 0
11, 13, 0
11, 14, 0
11, 4, 0
10, 7, 0
10, 12, 0
10, 2, 0
10, 1, 0
7, 12, 0
7, 2, 0
7, 10, 0
12, 0, 0
12, 7, 0
12, 4, 0
12, 13, 0
12, 1, 0
12, 8, 0
12, 11, 0
12, 10, 0
4, 0, 0
4, 12, 0
4, 8, 0
4, 11, 0
4, 1, 0
14, 0, 0
14, 3, 0
14, 13, 0
14, 11, 0
2, 7, 0
2, 10, 0
2, 1, 0
1, 0, 0
1, 12, 0
1, 4, 0
1, 2, 0
1, 8, 0
1, 10, 0
9, 6, 0
9, 13, 0
9, 5, 0
9, 3, 0
