0, 7, 0
0, 3, 0
0, 4, 0
0, 2, 0
0, 6, 0
0, 1, 0
0, 10, 0
0, 5, 0
0, 9, 0
3, 0, 0
3, 6, 0
3, 9, 0
3, 1, 0
4, 0, 0
4, 7, 0
4, 2, 0
2, 0, 0
2, 7, 0
2, 8, 0
2, 5, 0
2, 4, 0
6, 0, 0
6, 3, 0
6, 10, 0
6, 9, 0
1, 0, 0
1, 3, 0
8, 7, 1
8, 5, 0
8, 2, 0
5, 0, 0
5, 7, 0
5, 8, 0
5, 2, 0
7, 0, 0
7, 8, 1
7, 5, 0
7, 4, 0
7, 2, 0
10, 0, 0
10, 6, 0
10, 9, 1
9, 0, 0
9, 6, 0
9, 3, 0
9, 10, 1
