0, 6, 0
0, 9, 0
0, 1, 1
8, 7, 0
8, 4, 0
8, 10, 0
3, 12, 0
3, 2, 0
3, 6, 0
3, 9, 0
3, 5, 0
3, 1, 0
6, 0, 0
6, 3, 0
6, 9, 0
6, 10, 0
6, 5, 0
6, 1, 0
5, 3, 0
5, 4, 0
5, 6, 0
5, 1, 0
5, 10, 0
5, 9, 0
11, 2, 0
10, 6, 0
10, 8, 0
10, 5, 0
10, 4, 0
7, 8, 0
12, 3, 0
12, 9, 0
12, 2, 0
4, 8, 0
4, 5, 0
4, 10, 0
2, 12, 0
2, 9, 0
2, 11, 0
2, 3, 0
1, 0, 1
1, 6, 0
1, 3, 0
1, 5, 0
1, 9, 0
9, 0, 0
9, 12, 0
9, 3, 0
9, 2, 0
9, 6, 0
9, 5, 0
9, 1, 0
