0, 6, 0
0, 2, 0
0, 15, 0
0, 10, 0
13, 4, 0
13, 5, 0
13, 10, 0
3, 8, 0
3, 14, 0
6, 0, 0
6, 12, 0
6, 15, 0
6, 2, 0
8, 7, 0
8, 3, 0
8, 14, 0
8, 1, 0
5, 7, 0
5, 13, 0
5, 4, 0
5, 1, 0
11, 14, 0
10, 0, 0
10, 13, 0
7, 8, 0
7, 5, 0
7, 1, 0
12, 6, 0
12, 2, 0
12, 15, 0
12, 9, 0
4, 13, 0
4, 5, 0
14, 3, 0
14, 8, 0
14, 11, 0
2, 0, 0
2, 12, 0
2, 15, 0
2, 6, 0
1, 7, 0
1, 8, 0
1, 5, 0
15, 0, 0
15, 6, 0
15, 12, 0
15, 2, 0
9, 12, 0
