0, 7, 0
0, 11, 0
0, 10, 0
8, 12, 0
8, 2, 0
8, 5, 0
8, 6, 0
3, 12, 0
3, 4, 1
3, 9, 0
3, 6, 0
6, 12, 0
6, 4, 0
6, 3, 0
6, 2, 0
6, 1, 0
6, 8, 0
6, 5, 0
6, 11, 0
6, 9, 0
5, 12, 0
5, 6, 0
5, 8, 0
5, 2, 0
11, 0, 0
11, 6, 0
11, 7, 0
11, 1, 0
10, 0, 0
10, 7, 0
10, 1, 0
7, 0, 0
7, 10, 0
7, 11, 0
7, 1, 0
12, 3, 0
12, 4, 0
12, 2, 0
12, 6, 0
12, 8, 0
12, 5, 0
12, 9, 0
4, 12, 0
4, 9, 0
4, 3, 1
4, 6, 0
2, 12, 0
2, 8, 0
2, 5, 0
2, 6, 0
1, 7, 0
1, 6, 0
1, 10, 0
1, 11, 0
1, 9, 0
9, 12, 0
9, 1, 0
9, 4, 0
9, 3, 0
9, 6, 0
