0, 1, 0
3, 6, 0
3, 4, 0
3, 5, 0
4, 3, 0
4, 5, 1
4, 6, 0
7, 6, 0
7, 2, 0
7, 1, 0
2, 7, 0
2, 6, 0
2, 8, 0
2, 1, 0
6, 7, 0
6, 3, 0
6, 4, 0
6, 2, 0
6, 8, 0
6, 5, 0
8, 6, 0
8, 2, 0
5, 3, 0
5, 4, 1
5, 6, 0
1, 0, 0
1, 7, 0
1, 2, 0
