13, 0, 0
13, 3, 0
13, 12, 0
13, 22, 0
13, 1, 0
17, 16, 0
17, 12, 0
17, 19, 0
17, 11, 0
17, 10, 0
5, 3, 0
5, 8, 0
11, 19, 0
11, 9, 0
11, 17, 0
11, 10, 0
1, 0, 1
1, 3, 0
1, 13, 0
20, 21, 0
20, 15, 0
20, 14, 0
4, 3, 0
4, 8, 0
4, 2, 0
14, 20, 0
14, 21, 0
14, 15, 1
8, 3, 0
8, 4, 0
8, 5, 0
8, 2, 0
15, 20, 0
15, 21, 0
15, 14, 1
22, 7, 0
22, 12, 0
22, 13, 0
0, 3, 0
0, 13, 0
0, 1, 1
3, 0, 0
3, 13, 0
3, 4, 0
3, 8, 0
3, 5, 0
3, 1, 0
16, 12, 0
16, 19, 0
16, 17, 0
16, 10, 0
6, 21, 0
6, 9, 0
10, 16, 0
10, 19, 0
10, 17, 0
10, 11, 0
7, 12, 0
7, 22, 0
12, 16, 0
12, 7, 0
12, 13, 0
12, 17, 0
12, 22, 0
2, 18, 0
2, 8, 0
2, 4, 0
21, 20, 0
21, 14, 0
21, 6, 0
21, 19, 0
21, 15, 0
21, 9, 0
19, 16, 0
19, 17, 0
19, 21, 0
19, 10, 0
19, 11, 0
19, 9, 0
18, 2, 0
9, 21, 0
9, 6, 0
9, 19, 0
9, 11, 0
