0, 13, 0
0, 3, 0
0, 5, 0
0, 11, 0
0, 10, 0
0, 7, 0
0, 12, 0
0, 4, 0
0, 14, 0
0, 2, 0
0, 1, 1
0, 9, 0
13, 0, 0
13, 7, 0
13, 3, 0
13, 11, 0
13, 12, 0
3, 0, 0
3, 13, 0
3, 5, 0
3, 11, 0
3, 1, 0
3, 7, 0
3, 12, 0
3, 4, 1
3, 14, 0
3, 2, 0
3, 10, 0
3, 9, 0
6, 8, 0
6, 9, 0
8, 6, 0
8, 9, 0
5, 0, 0
5, 3, 0
5, 10, 0
5, 2, 0
11, 0, 0
11, 7, 0
11, 13, 0
11, 3, 0
10, 0, 0
10, 3, 0
10, 14, 0
10, 5, 0
7, 0, 0
7, 3, 0
7, 13, 0
7, 11, 0
12, 0, 0
12, 3, 0
12, 13, 0
12, 1, 0
4, 0, 0
4, 3, 1
4, 14, 0
4, 9, 0
14, 0, 0
14, 3, 0
14, 4, 0
14, 9, 0
14, 10, 0
2, 0, 0
2, 3, 0
2, 5, 0
2, 1, 0
1, 0, 1
1, 12, 0
1, 3, 0
1, 2, 0
9, 0, 0
9, 3, 0
9, 4, 0
9, 14, 0
9, 6, 0
9, 8, 0
