0, 7, 0
0, 8, 0
3, 7, 0
3, 4, 1
3, 2, 0
4, 7, 0
4, 3, 1
4, 2, 0
7, 0, 0
7, 3, 0
7, 8, 0
7, 4, 0
7, 2, 0
2, 7, 0
2, 3, 0
2, 4, 0
6, 8, 0
6, 5, 1
6, 1, 0
8, 0, 0
8, 6, 0
8, 7, 0
8, 5, 0
8, 1, 0
5, 6, 1
5, 8, 0
5, 1, 0
1, 6, 0
1, 8, 0
1, 5, 0
