0, 7, 0
0, 6, 0
0, 4, 0
3, 1, 0
3, 5, 0
3, 2, 1
4, 0, 0
4, 6, 0
4, 7, 0
4, 5, 0
7, 0, 0
7, 6, 1
7, 4, 0
2, 3, 1
2, 5, 0
2, 1, 0
6, 0, 0
6, 7, 1
6, 4, 0
5, 3, 0
5, 1, 0
5, 4, 0
5, 2, 0
1, 3, 0
1, 5, 0
1, 2, 0
