0, 6, 0
0, 10, 0
13, 14, 0
17, 16, 0
17, 5, 0
17, 11, 0
17, 10, 0
3, 12, 0
3, 4, 0
3, 2, 0
16, 14, 0
16, 17, 0
16, 5, 0
6, 0, 0
6, 15, 0
6, 9, 0
8, 7, 1
8, 4, 0
5, 16, 0
5, 17, 0
5, 11, 0
11, 17, 0
11, 5, 0
10, 0, 0
10, 17, 0
7, 2, 0
7, 8, 1
7, 4, 0
7, 1, 0
12, 3, 0
12, 9, 0
4, 7, 0
4, 3, 0
4, 2, 0
4, 8, 0
4, 1, 0
14, 16, 0
14, 13, 0
2, 7, 0
2, 3, 0
2, 4, 0
2, 1, 1
1, 7, 0
1, 4, 0
1, 2, 1
15, 6, 0
15, 9, 0
9, 12, 0
9, 15, 0
9, 6, 0
