0, 4, 0
0, 11, 0
0, 10, 0
13, 7, 0
13, 12, 0
13, 3, 0
13, 2, 0
13, 5, 0
13, 9, 0
3, 7, 0
3, 13, 0
3, 2, 0
6, 8, 0
6, 14, 0
6, 10, 0
8, 6, 0
8, 15, 0
8, 10, 0
5, 7, 0
5, 12, 0
5, 13, 0
5, 9, 0
11, 0, 0
11, 14, 0
11, 10, 1
10, 0, 0
10, 4, 0
10, 14, 0
10, 2, 0
10, 6, 0
10, 8, 0
10, 15, 0
10, 11, 1
7, 12, 0
7, 13, 0
7, 9, 0
7, 5, 0
7, 3, 0
12, 7, 0
12, 13, 0
12, 5, 0
12, 9, 0
4, 0, 0
4, 10, 0
4, 1, 0
14, 6, 0
14, 11, 0
14, 10, 0
2, 3, 0
2, 13, 0
2, 15, 0
2, 10, 0
1, 4, 0
15, 2, 0
15, 8, 0
15, 10, 0
9, 7, 0
9, 12, 0
9, 13, 0
9, 5, 0
