0, 7, 0
0, 8, 0
0, 5, 0
0, 9, 0
13, 5, 0
13, 10, 0
17, 6, 0
17, 11, 0
17, 2, 0
3, 4, 1
3, 14, 0
3, 16, 0
3, 19, 0
3, 15, 0
3, 1, 0
16, 14, 0
16, 19, 0
16, 15, 1
16, 3, 0
6, 12, 0
6, 1, 0
6, 17, 0
6, 11, 0
6, 2, 0
8, 0, 0
8, 7, 1
8, 5, 0
8, 9, 1
5, 0, 0
5, 7, 0
5, 13, 0
5, 8, 0
5, 10, 0
5, 9, 0
11, 6, 0
11, 17, 0
11, 2, 0
10, 18, 0
10, 13, 0
10, 5, 0
7, 0, 0
7, 8, 1
7, 5, 0
12, 6, 0
12, 2, 0
12, 1, 0
4, 14, 0
4, 3, 1
4, 19, 0
4, 15, 0
4, 1, 0
14, 3, 0
14, 4, 0
14, 16, 0
14, 19, 0
14, 15, 0
14, 18, 0
14, 1, 0
2, 6, 0
2, 17, 0
2, 11, 0
2, 12, 0
19, 16, 0
19, 3, 0
19, 15, 0
19, 4, 0
19, 14, 0
1, 12, 0
1, 4, 0
1, 14, 0
1, 3, 0
1, 6, 0
1, 15, 0
15, 3, 0
15, 4, 0
15, 14, 0
15, 16, 1
15, 19, 0
15, 1, 0
18, 14, 0
18, 10, 0
9, 0, 0
9, 8, 1
9, 5, 0
