0, 6, 0
0, 4, 0
0, 5, 0
0, 1, 0
3, 7, 0
3, 8, 0
3, 2, 0
4, 0, 0
4, 6, 0
4, 2, 0
2, 3, 0
2, 8, 0
2, 4, 0
6, 0, 0
6, 4, 0
6, 5, 1
6, 1, 0
1, 0, 0
1, 6, 0
1, 5, 0
8, 7, 0
8, 3, 0
8, 2, 0
8, 9, 1
8, 10, 0
5, 0, 0
5, 6, 1
5, 1, 0
7, 3, 0
7, 8, 0
7, 10, 0
7, 9, 0
10, 7, 0
10, 8, 0
10, 9, 0
9, 7, 0
9, 8, 1
9, 10, 0
