13, 21, 0
13, 0, 0
13, 14, 0
13, 1, 0
17, 16, 1
17, 18, 1
17, 8, 0
17, 23, 0
23, 7, 0
23, 16, 0
23, 17, 0
23, 24, 0
23, 18, 0
23, 6, 0
23, 8, 0
23, 15, 0
23, 10, 0
5, 0, 0
5, 14, 0
5, 22, 0
5, 9, 0
11, 7, 0
11, 3, 0
11, 15, 0
11, 12, 0
1, 0, 0
1, 13, 0
1, 14, 0
1, 9, 0
1, 2, 1
20, 21, 0
20, 19, 0
20, 8, 0
20, 4, 0
20, 10, 0
4, 20, 0
4, 19, 0
4, 8, 0
4, 10, 0
14, 0, 0
14, 13, 0
14, 2, 0
14, 1, 0
14, 9, 0
14, 5, 0
14, 22, 0
14, 10, 0
24, 7, 0
24, 12, 0
24, 15, 0
24, 23, 0
24, 6, 0
8, 20, 0
8, 18, 0
8, 4, 0
8, 17, 0
8, 23, 0
8, 16, 0
8, 10, 0
15, 7, 0
15, 12, 0
15, 23, 0
15, 11, 0
15, 24, 0
22, 14, 0
22, 5, 0
22, 9, 0
0, 13, 0
0, 14, 0
0, 2, 0
0, 1, 0
0, 5, 0
0, 9, 0
3, 11, 0
16, 8, 0
16, 17, 1
16, 23, 0
6, 7, 0
6, 23, 0
6, 24, 0
10, 20, 0
10, 4, 0
10, 25, 0
10, 23, 0
10, 21, 0
10, 14, 0
10, 19, 0
10, 8, 0
7, 12, 0
7, 23, 0
7, 24, 0
7, 6, 0
7, 15, 0
7, 11, 0
12, 7, 0
12, 15, 0
12, 11, 0
12, 24, 0
25, 21, 0
25, 19, 0
25, 10, 0
2, 0, 0
2, 14, 0
2, 1, 1
21, 20, 0
21, 19, 0
21, 13, 0
21, 25, 0
21, 10, 0
19, 20, 0
19, 21, 0
19, 4, 0
19, 25, 0
19, 10, 0
18, 8, 0
18, 17, 1
18, 23, 0
9, 0, 0
9, 14, 0
9, 5, 0
9, 22, 0
9, 1, 0
