0, 5, 0
0, 1, 0
3, 2, 0
3, 6, 0
3, 8, 0
3, 9, 0
4, 5, 0
2, 7, 0
2, 3, 0
2, 8, 0
2, 1, 0
6, 3, 0
6, 9, 0
1, 0, 0
1, 7, 0
1, 8, 0
1, 2, 0
8, 7, 0
8, 3, 0
8, 1, 0
8, 2, 0
5, 0, 0
5, 4, 0
7, 1, 0
7, 8, 0
7, 2, 0
9, 3, 0
9, 6, 0
