0, 3, 0
0, 8, 0
0, 5, 0
3, 0, 0
3, 7, 0
3, 8, 0
3, 5, 0
3, 4, 0
4, 7, 0
4, 3, 0
7, 3, 0
7, 6, 0
7, 4, 0
7, 1, 0
7, 2, 0
2, 7, 0
2, 6, 0
2, 1, 1
6, 7, 0
6, 1, 0
6, 2, 0
8, 0, 0
8, 3, 0
8, 5, 0
5, 0, 0
5, 3, 0
5, 8, 0
1, 7, 0
1, 6, 0
1, 2, 1
