0, 5, 0
0, 9, 0
13, 12, 0
13, 1, 0
3, 14, 0
3, 2, 0
16, 10, 0
6, 7, 1
6, 14, 0
6, 9, 0
8, 15, 0
8, 11, 0
5, 0, 0
5, 1, 0
11, 8, 0
11, 15, 0
11, 4, 0
10, 16, 0
10, 15, 0
7, 6, 1
7, 14, 0
7, 9, 0
12, 13, 0
4, 11, 0
4, 2, 0
14, 7, 0
14, 6, 0
14, 2, 0
14, 3, 0
2, 3, 0
2, 4, 0
2, 14, 0
1, 13, 0
1, 5, 0
15, 8, 0
15, 11, 0
15, 10, 0
9, 0, 0
9, 6, 0
9, 7, 0
