0, 12, 0
0, 13, 0
13, 0, 0
13, 12, 0
3, 7, 0
3, 8, 0
3, 4, 0
3, 2, 1
6, 2, 0
6, 12, 0
6, 8, 0
6, 11, 0
6, 9, 0
8, 3, 0
8, 6, 0
8, 5, 0
8, 11, 0
8, 1, 0
8, 7, 0
8, 12, 0
8, 4, 0
8, 14, 0
8, 2, 0
8, 10, 0
8, 9, 1
5, 2, 0
5, 8, 0
5, 10, 0
5, 1, 0
11, 6, 0
11, 8, 0
11, 14, 0
11, 2, 0
10, 7, 0
10, 2, 0
10, 8, 0
10, 5, 0
10, 1, 0
7, 2, 0
7, 3, 0
7, 8, 0
7, 10, 0
12, 0, 0
12, 13, 0
12, 2, 0
12, 6, 0
12, 8, 0
12, 9, 0
4, 3, 0
4, 8, 0
4, 14, 0
4, 2, 0
14, 4, 0
14, 8, 0
14, 11, 0
14, 2, 0
2, 12, 0
2, 6, 0
2, 1, 0
2, 5, 0
2, 11, 0
2, 10, 0
2, 7, 0
2, 3, 1
2, 4, 0
2, 14, 0
2, 8, 0
2, 9, 0
1, 2, 0
1, 8, 0
1, 5, 0
1, 10, 0
9, 2, 0
9, 12, 0
9, 8, 1
9, 6, 0
