0, 7, 0
0, 3, 0
0, 8, 0
0, 17, 0
0, 10, 0
13, 12, 0
13, 5, 0
17, 0, 0
17, 16, 0
3, 7, 0
3, 0, 0
3, 2, 0
3, 8, 0
3, 10, 0
16, 4, 0
16, 17, 0
16, 10, 0
6, 18, 0
6, 19, 0
6, 14, 0
6, 11, 0
8, 0, 0
8, 7, 1
8, 2, 0
8, 3, 0
8, 10, 0
5, 12, 0
5, 13, 0
5, 4, 0
5, 10, 0
11, 6, 0
11, 14, 0
11, 15, 0
10, 7, 0
10, 3, 0
10, 4, 0
10, 2, 0
10, 16, 0
10, 8, 0
10, 5, 0
10, 0, 0
7, 0, 0
7, 3, 0
7, 2, 0
7, 8, 1
7, 10, 0
12, 13, 0
12, 5, 0
12, 4, 0
4, 16, 0
4, 12, 0
4, 5, 0
4, 10, 0
14, 18, 0
14, 6, 0
14, 19, 0
14, 15, 0
14, 11, 0
2, 7, 0
2, 3, 0
2, 8, 0
2, 10, 0
2, 1, 0
19, 18, 0
19, 6, 0
19, 14, 0
1, 15, 0
1, 2, 0
15, 14, 0
15, 11, 0
15, 1, 0
18, 6, 0
18, 19, 0
18, 14, 0
18, 9, 0
9, 18, 0
