0, 9, 0
0, 5, 0
0, 10, 0
6, 3, 0
6, 2, 0
1, 7, 0
1, 8, 0
1, 11, 0
5, 0, 0
5, 9, 0
11, 9, 0
11, 10, 0
11, 1, 0
10, 0, 0
10, 11, 0
10, 9, 1
7, 8, 1
7, 4, 0
7, 1, 0
3, 6, 0
3, 2, 0
4, 7, 0
4, 9, 0
4, 2, 0
2, 6, 0
2, 4, 0
2, 9, 0
2, 3, 0
8, 7, 1
8, 1, 0
9, 0, 0
9, 4, 0
9, 2, 0
9, 5, 0
9, 11, 0
9, 10, 1
