0, 2, 0
0, 3, 0
0, 8, 0
0, 4, 0
0, 1, 1
3, 0, 0
3, 7, 0
3, 4, 0
3, 9, 0
3, 2, 1
3, 6, 0
3, 8, 0
3, 1, 0
4, 0, 0
4, 3, 0
4, 2, 0
4, 8, 0
4, 1, 0
2, 0, 0
2, 3, 1
2, 4, 0
2, 9, 0
2, 6, 0
2, 8, 0
2, 7, 0
2, 1, 0
6, 7, 0
6, 3, 0
6, 2, 0
6, 9, 0
1, 0, 1
1, 3, 0
1, 8, 0
1, 4, 0
1, 2, 0
8, 0, 0
8, 3, 0
8, 1, 0
8, 4, 0
8, 2, 0
5, 9, 0
7, 3, 0
7, 6, 0
7, 9, 0
7, 2, 0
9, 7, 0
9, 3, 0
9, 2, 0
9, 5, 0
9, 6, 0
