0, 7, 0
0, 3, 0
0, 4, 0
0, 9, 0
0, 2, 0
0, 8, 0
0, 10, 0
0, 11, 0
0, 1, 0
6, 5, 0
6, 2, 0
1, 0, 0
1, 3, 0
1, 7, 0
5, 6, 0
5, 8, 0
5, 4, 0
5, 2, 0
11, 0, 0
11, 9, 0
11, 10, 1
10, 0, 0
10, 11, 1
10, 9, 0
7, 0, 0
7, 3, 0
7, 1, 0
3, 0, 0
3, 7, 0
3, 1, 0
4, 0, 0
4, 8, 0
4, 5, 0
4, 9, 0
2, 0, 0
2, 6, 0
2, 8, 0
2, 5, 0
2, 9, 0
8, 0, 0
8, 4, 0
8, 9, 0
8, 5, 0
8, 2, 0
9, 0, 0
9, 4, 0
9, 2, 0
9, 8, 0
9, 11, 0
9, 10, 0
