2, 21, 0
2, 27, 0
2, 12, 0
2, 29, 0
13, 33, 0
13, 28, 0
13, 18, 0
13, 17, 0
13, 19, 0
13, 8, 0
13, 10, 0
17, 20, 0
17, 33, 0
17, 13, 0
17, 28, 0
17, 24, 0
17, 18, 1
17, 8, 0
31, 0, 0
31, 7, 0
31, 32, 1
31, 23, 0
31, 29, 0
31, 16, 0
23, 0, 0
23, 7, 0
23, 32, 0
23, 31, 0
23, 12, 0
23, 29, 0
23, 15, 0
23, 30, 0
24, 20, 0
24, 28, 0
24, 18, 0
24, 17, 0
24, 19, 0
24, 11, 0
5, 34, 0
5, 22, 0
5, 26, 0
5, 9, 0
11, 6, 0
11, 1, 0
11, 14, 0
11, 28, 0
11, 24, 0
1, 6, 0
1, 14, 0
1, 11, 0
1, 28, 0
20, 33, 0
20, 17, 0
20, 24, 0
20, 18, 0
20, 28, 0
20, 19, 0
34, 25, 0
34, 5, 0
34, 26, 0
34, 9, 0
4, 3, 1
4, 22, 0
4, 6, 0
14, 6, 0
14, 28, 0
14, 11, 0
14, 1, 0
35, 7, 0
35, 25, 0
35, 9, 0
28, 13, 0
28, 17, 0
28, 18, 0
28, 6, 0
28, 11, 0
28, 1, 0
28, 20, 0
28, 33, 0
28, 14, 0
28, 24, 0
28, 19, 0
28, 8, 0
30, 0, 0
30, 7, 0
30, 32, 1
30, 23, 0
30, 29, 0
30, 16, 0
30, 15, 0
8, 33, 0
8, 13, 0
8, 28, 0
8, 18, 0
8, 17, 0
8, 19, 0
15, 16, 0
15, 29, 0
15, 23, 0
15, 32, 0
15, 30, 0
22, 3, 0
22, 4, 0
22, 26, 0
22, 6, 0
22, 5, 0
22, 9, 0
0, 7, 0
0, 23, 0
0, 31, 0
0, 32, 0
0, 29, 0
0, 30, 0
3, 6, 0
3, 4, 1
3, 22, 0
16, 7, 0
16, 32, 0
16, 31, 0
16, 29, 0
16, 27, 0
16, 15, 0
16, 30, 0
27, 16, 0
27, 21, 0
27, 29, 0
27, 12, 0
27, 2, 0
10, 13, 0
7, 0, 0
7, 25, 0
7, 32, 0
7, 23, 0
7, 35, 0
7, 16, 0
7, 31, 0
7, 29, 0
7, 30, 0
12, 21, 0
12, 27, 0
12, 29, 0
12, 23, 0
12, 2, 0
25, 7, 0
25, 34, 0
25, 9, 0
25, 26, 0
25, 35, 0
33, 20, 0
33, 13, 0
33, 17, 0
33, 18, 0
33, 28, 0
33, 19, 0
33, 8, 0
32, 0, 0
32, 7, 0
32, 23, 0
32, 31, 1
32, 29, 0
32, 16, 0
32, 15, 0
32, 30, 1
6, 3, 0
6, 4, 0
6, 28, 0
6, 22, 0
6, 14, 0
6, 11, 0
6, 1, 0
21, 12, 0
21, 29, 0
21, 27, 0
21, 2, 0
29, 0, 0
29, 32, 0
29, 23, 0
29, 16, 0
29, 27, 0
29, 30, 0
29, 7, 0
29, 12, 0
29, 31, 0
29, 2, 0
29, 21, 0
29, 15, 0
19, 20, 0
19, 33, 0
19, 13, 0
19, 28, 0
19, 24, 0
19, 18, 1
19, 8, 0
26, 34, 0
26, 25, 0
26, 5, 0
26, 22, 0
18, 20, 0
18, 33, 0
18, 13, 0
18, 28, 0
18, 24, 0
18, 17, 1
18, 19, 1
18, 8, 0
9, 34, 0
9, 25, 0
9, 5, 0
9, 22, 0
9, 35, 0
