13, 12, 0
13, 4, 0
13, 17, 0
13, 3, 0
13, 6, 0
13, 9, 0
13, 15, 0
13, 5, 0
13, 10, 0
17, 12, 0
17, 13, 0
17, 15, 0
17, 9, 0
17, 10, 0
5, 12, 0
5, 13, 0
5, 4, 1
5, 6, 0
5, 15, 0
5, 11, 0
11, 12, 0
11, 6, 0
11, 5, 0
11, 3, 0
1, 0, 1
1, 20, 0
1, 19, 0
1, 22, 0
1, 21, 0
20, 7, 0
20, 0, 0
20, 21, 0
20, 2, 0
20, 16, 0
20, 19, 0
20, 8, 0
20, 15, 0
20, 18, 0
20, 22, 0
20, 1, 0
4, 3, 1
4, 13, 0
4, 12, 0
4, 5, 1
4, 6, 0
14, 16, 0
14, 19, 0
8, 20, 0
8, 7, 1
8, 21, 0
8, 18, 0
8, 19, 0
8, 15, 0
8, 22, 0
8, 10, 0
15, 20, 0
15, 7, 0
15, 13, 0
15, 17, 0
15, 9, 0
15, 12, 0
15, 18, 0
15, 6, 0
15, 8, 0
15, 5, 0
15, 10, 0
22, 20, 0
22, 0, 0
22, 2, 0
22, 21, 0
22, 16, 0
22, 19, 0
22, 8, 0
22, 1, 0
0, 20, 0
0, 16, 0
0, 2, 1
0, 21, 0
0, 19, 0
0, 22, 0
0, 1, 1
3, 6, 0
3, 4, 1
3, 13, 0
3, 11, 0
3, 12, 0
16, 20, 0
16, 0, 0
16, 14, 0
16, 2, 0
16, 21, 0
16, 19, 0
16, 22, 0
6, 3, 0
6, 4, 0
6, 13, 0
6, 12, 0
6, 15, 0
6, 5, 0
6, 11, 0
6, 9, 0
10, 7, 0
10, 13, 0
10, 17, 0
10, 18, 0
10, 8, 0
10, 15, 0
10, 9, 1
7, 20, 0
7, 18, 0
7, 8, 1
7, 15, 0
7, 10, 0
12, 3, 0
12, 4, 0
12, 13, 0
12, 6, 0
12, 17, 0
12, 15, 0
12, 5, 0
12, 11, 0
2, 20, 0
2, 0, 1
2, 21, 0
2, 16, 0
2, 19, 0
2, 22, 0
21, 20, 0
21, 0, 0
21, 2, 0
21, 16, 0
21, 19, 0
21, 8, 0
21, 22, 0
21, 1, 0
19, 20, 0
19, 0, 0
19, 21, 0
19, 14, 0
19, 2, 0
19, 16, 0
19, 8, 0
19, 22, 0
19, 1, 0
18, 20, 0
18, 7, 0
18, 8, 0
18, 15, 0
18, 10, 0
9, 6, 0
9, 15, 0
9, 13, 0
9, 17, 0
9, 10, 1
