0, 16, 0
0, 4, 0
0, 15, 0
0, 1, 0
13, 12, 0
13, 2, 0
13, 14, 1
13, 10, 0
3, 5, 0
3, 11, 0
3, 2, 0
16, 0, 0
16, 4, 0
16, 15, 1
16, 1, 0
6, 4, 0
6, 9, 0
8, 7, 0
8, 12, 0
8, 9, 0
8, 10, 0
5, 12, 0
5, 14, 0
5, 3, 0
5, 2, 0
5, 11, 0
5, 10, 0
11, 3, 0
11, 5, 0
11, 2, 0
10, 7, 0
10, 12, 0
10, 13, 0
10, 14, 0
10, 2, 0
10, 8, 0
10, 5, 0
7, 10, 0
7, 8, 0
7, 9, 0
7, 4, 0
7, 1, 0
12, 13, 0
12, 14, 0
12, 2, 0
12, 8, 0
12, 5, 0
12, 10, 0
4, 0, 0
4, 7, 0
4, 16, 0
4, 6, 0
4, 9, 0
4, 15, 0
4, 1, 0
14, 2, 0
14, 12, 0
14, 13, 1
14, 5, 0
14, 10, 0
2, 12, 0
2, 13, 0
2, 14, 0
2, 3, 0
2, 5, 0
2, 11, 0
2, 10, 0
1, 0, 0
1, 16, 0
1, 4, 0
1, 15, 0
1, 7, 0
15, 0, 0
15, 16, 1
15, 4, 0
15, 1, 0
9, 7, 0
9, 6, 0
9, 8, 0
9, 4, 0
