0, 16, 0
0, 3, 0
0, 14, 0
0, 11, 0
0, 2, 0
13, 7, 0
13, 6, 0
13, 4, 0
13, 14, 0
3, 0, 0
3, 16, 0
3, 11, 0
16, 0, 0
16, 3, 0
16, 14, 0
16, 11, 0
16, 2, 0
6, 7, 0
6, 13, 0
6, 14, 0
6, 4, 1
6, 8, 0
6, 5, 1
8, 7, 0
8, 12, 0
8, 4, 0
8, 14, 0
8, 9, 1
8, 6, 0
8, 10, 1
8, 15, 0
8, 5, 0
8, 1, 0
5, 7, 0
5, 4, 1
5, 6, 1
5, 8, 0
5, 10, 0
5, 9, 0
11, 0, 0
11, 16, 0
11, 14, 0
11, 3, 0
10, 7, 0
10, 8, 1
10, 5, 0
10, 4, 0
10, 9, 1
7, 13, 0
7, 14, 0
7, 9, 0
7, 4, 0
7, 6, 0
7, 8, 0
7, 5, 0
7, 10, 0
12, 8, 0
12, 15, 0
12, 9, 0
12, 4, 0
12, 1, 0
4, 7, 0
4, 12, 0
4, 13, 0
4, 14, 0
4, 9, 0
4, 6, 1
4, 8, 0
4, 15, 0
4, 5, 1
4, 10, 0
4, 1, 0
14, 0, 0
14, 7, 0
14, 13, 0
14, 4, 0
14, 2, 0
14, 16, 0
14, 6, 0
14, 8, 0
14, 11, 0
2, 0, 0
2, 16, 0
2, 14, 0
1, 12, 0
1, 8, 0
1, 15, 0
1, 4, 0
1, 9, 0
15, 12, 0
15, 8, 0
15, 9, 0
15, 4, 0
15, 1, 0
9, 7, 0
9, 12, 0
9, 4, 0
9, 1, 0
9, 8, 1
9, 15, 0
9, 5, 0
9, 10, 1
