0, 12, 0
0, 13, 0
13, 0, 0
13, 12, 0
13, 3, 0
13, 10, 0
3, 2, 0
3, 13, 0
3, 9, 0
3, 10, 0
6, 7, 0
6, 14, 0
8, 7, 0
5, 4, 1
5, 14, 0
5, 11, 0
5, 1, 0
11, 4, 0
11, 14, 0
11, 5, 0
11, 1, 0
10, 3, 0
10, 13, 0
10, 9, 0
7, 6, 0
7, 8, 0
12, 0, 0
12, 13, 0
4, 14, 0
4, 5, 1
4, 11, 0
14, 6, 0
14, 4, 0
14, 5, 0
14, 11, 0
2, 3, 0
2, 1, 0
1, 5, 0
1, 11, 0
1, 2, 0
9, 3, 0
9, 10, 0
