12, 34, 0
12, 25, 0
12, 23, 0
12, 24, 0
12, 21, 0
12, 19, 0
12, 10, 0
13, 6, 0
13, 29, 0
13, 22, 0
13, 2, 0
17, 18, 1
17, 37, 0
17, 5, 0
31, 14, 0
31, 32, 1
31, 35, 0
31, 9, 0
31, 15, 0
31, 10, 0
31, 11, 0
31, 36, 0
23, 21, 0
23, 12, 0
23, 19, 0
23, 25, 0
23, 24, 0
24, 12, 0
24, 25, 0
24, 23, 0
24, 21, 0
24, 19, 0
24, 10, 0
5, 18, 0
5, 37, 0
5, 19, 0
5, 17, 0
11, 33, 0
11, 32, 0
11, 31, 0
11, 35, 0
11, 9, 0
11, 36, 0
1, 37, 0
1, 34, 0
1, 25, 0
20, 35, 0
20, 15, 0
20, 9, 0
21, 12, 0
21, 19, 0
21, 25, 0
21, 23, 0
21, 24, 0
4, 3, 0
4, 28, 0
4, 26, 0
4, 2, 0
4, 27, 0
4, 22, 0
14, 33, 0
14, 32, 0
14, 31, 0
14, 36, 0
14, 9, 0
14, 10, 0
35, 20, 0
35, 33, 0
35, 31, 0
35, 32, 0
35, 15, 0
35, 11, 0
35, 9, 0
28, 0, 0
28, 3, 0
28, 4, 0
28, 27, 1
28, 22, 0
28, 30, 0
30, 0, 0
30, 28, 0
30, 26, 0
30, 16, 0
30, 27, 0
30, 22, 0
8, 7, 1
8, 0, 0
8, 15, 0
15, 20, 0
15, 7, 0
15, 32, 0
15, 31, 0
15, 35, 0
15, 0, 0
15, 36, 0
15, 8, 0
15, 9, 0
22, 0, 0
22, 6, 0
22, 13, 0
22, 28, 0
22, 16, 0
22, 27, 0
22, 29, 0
22, 30, 0
22, 3, 0
22, 4, 0
22, 26, 0
22, 2, 0
36, 33, 0
36, 14, 0
36, 31, 0
36, 32, 0
36, 10, 0
36, 15, 0
36, 11, 0
36, 9, 0
0, 7, 0
0, 28, 0
0, 26, 0
0, 16, 0
0, 27, 0
0, 8, 0
0, 15, 0
0, 22, 0
0, 30, 0
6, 29, 0
6, 13, 0
6, 22, 0
6, 2, 0
3, 4, 0
3, 28, 0
3, 26, 0
3, 16, 0
3, 27, 0
3, 22, 0
16, 0, 0
16, 3, 0
16, 26, 0
16, 29, 0
16, 27, 0
16, 22, 0
16, 30, 0
27, 0, 0
27, 3, 0
27, 4, 0
27, 28, 1
27, 26, 1
27, 16, 0
27, 22, 0
27, 30, 0
10, 12, 0
10, 14, 0
10, 31, 0
10, 32, 0
10, 24, 0
10, 33, 0
10, 9, 0
10, 36, 0
7, 0, 0
7, 8, 1
7, 15, 0
34, 37, 0
34, 12, 0
34, 25, 0
34, 1, 0
25, 34, 0
25, 12, 0
25, 23, 0
25, 21, 0
25, 37, 0
25, 19, 0
25, 24, 0
25, 1, 0
33, 14, 0
33, 9, 0
33, 32, 1
33, 35, 0
33, 10, 0
33, 11, 0
33, 36, 0
32, 33, 1
32, 14, 0
32, 9, 0
32, 31, 1
32, 35, 0
32, 10, 0
32, 15, 0
32, 11, 0
32, 36, 0
2, 6, 0
2, 13, 0
2, 4, 0
2, 22, 0
2, 29, 0
37, 34, 0
37, 17, 0
37, 18, 0
37, 25, 0
37, 19, 0
37, 5, 0
37, 1, 0
29, 16, 0
29, 6, 0
29, 13, 0
29, 22, 0
29, 2, 0
19, 12, 0
19, 37, 0
19, 25, 0
19, 23, 0
19, 24, 0
19, 21, 0
19, 18, 0
19, 5, 0
26, 0, 0
26, 3, 0
26, 4, 0
26, 16, 0
26, 27, 1
26, 22, 0
26, 30, 0
18, 37, 0
18, 19, 0
18, 17, 1
18, 5, 0
9, 20, 0
9, 33, 0
9, 14, 0
9, 31, 0
9, 32, 0
9, 35, 0
9, 10, 0
9, 15, 0
9, 11, 0
9, 36, 0
