0, 7, 0
0, 6, 0
0, 17, 0
0, 11, 0
0, 2, 0
13, 15, 0
13, 14, 1
13, 5, 0
17, 0, 0
17, 2, 0
17, 18, 1
17, 8, 0
17, 11, 0
17, 9, 0
3, 19, 0
3, 15, 0
3, 10, 0
16, 4, 0
16, 8, 0
16, 11, 0
16, 2, 0
6, 0, 0
6, 7, 0
6, 5, 0
8, 18, 0
8, 4, 0
8, 17, 0
8, 2, 0
8, 16, 0
8, 11, 0
8, 9, 0
5, 7, 0
5, 6, 0
5, 15, 0
5, 13, 0
5, 14, 0
11, 0, 0
11, 4, 0
11, 17, 0
11, 2, 0
11, 16, 0
11, 8, 0
11, 9, 0
10, 12, 0
10, 19, 0
10, 3, 0
10, 1, 0
7, 0, 0
7, 6, 0
7, 5, 0
12, 19, 0
12, 10, 0
12, 1, 0
4, 16, 0
4, 8, 0
4, 11, 0
4, 2, 0
14, 13, 1
14, 15, 0
14, 5, 0
2, 0, 0
2, 4, 0
2, 17, 0
2, 16, 0
2, 8, 0
2, 11, 0
19, 12, 0
19, 10, 0
19, 3, 0
19, 1, 0
1, 12, 0
1, 19, 0
1, 10, 0
15, 3, 0
15, 13, 0
15, 14, 0
15, 5, 0
18, 8, 0
18, 17, 1
18, 9, 0
9, 18, 0
9, 8, 0
9, 17, 0
9, 11, 0
