0, 3, 0
0, 4, 0
13, 4, 0
13, 15, 0
3, 0, 0
3, 4, 0
6, 7, 0
6, 14, 0
6, 1, 0
6, 15, 0
6, 11, 0
6, 10, 0
8, 14, 0
8, 5, 0
8, 9, 0
5, 12, 0
5, 8, 0
11, 6, 0
11, 15, 0
11, 10, 1
10, 6, 0
10, 15, 0
10, 11, 1
7, 6, 0
7, 14, 0
7, 1, 0
12, 5, 0
12, 2, 0
4, 0, 0
4, 3, 0
4, 13, 0
14, 7, 0
14, 6, 0
14, 8, 0
14, 9, 0
14, 1, 0
2, 12, 0
1, 7, 0
1, 6, 0
1, 14, 0
15, 6, 0
15, 13, 0
15, 11, 0
15, 10, 0
9, 8, 0
9, 14, 0
