0, 7, 0
0, 8, 0
0, 1, 1
3, 6, 0
3, 5, 0
3, 2, 0
4, 7, 0
4, 1, 0
4, 8, 0
4, 9, 0
2, 3, 0
6, 3, 0
6, 5, 1
1, 0, 1
1, 7, 0
1, 4, 0
8, 0, 0
8, 7, 0
8, 4, 0
5, 3, 0
5, 6, 1
5, 9, 0
7, 0, 0
7, 8, 0
7, 4, 0
7, 1, 0
9, 4, 0
9, 5, 0
