0, 7, 0
0, 4, 0
0, 9, 0
0, 2, 0
0, 6, 0
0, 8, 0
0, 1, 0
6, 0, 0
6, 7, 0
6, 4, 0
6, 2, 0
6, 1, 0
6, 8, 0
6, 9, 0
1, 0, 0
1, 6, 0
1, 8, 0
1, 7, 0
1, 9, 0
5, 2, 0
5, 3, 0
5, 4, 0
5, 11, 0
5, 10, 0
11, 2, 0
11, 3, 0
11, 4, 0
11, 5, 0
11, 10, 1
10, 3, 0
10, 4, 0
10, 5, 0
10, 11, 1
7, 0, 0
7, 6, 0
7, 1, 0
7, 9, 1
3, 2, 0
3, 4, 0
3, 5, 0
3, 11, 0
3, 10, 0
4, 0, 0
4, 3, 0
4, 2, 0
4, 6, 0
4, 5, 0
4, 11, 0
4, 10, 0
2, 0, 0
2, 3, 0
2, 4, 0
2, 6, 0
2, 5, 0
2, 11, 0
8, 0, 0
8, 6, 0
8, 9, 1
8, 1, 0
9, 7, 1
9, 6, 0
9, 8, 1
9, 0, 0
9, 1, 0
