0, 3, 0
0, 4, 0
0, 5, 0
0, 11, 0
0, 12, 0
8, 7, 1
8, 1, 0
8, 10, 0
8, 5, 0
8, 11, 0
8, 9, 0
3, 0, 0
3, 12, 0
3, 4, 0
3, 5, 0
3, 11, 0
6, 7, 1
6, 9, 0
6, 10, 0
6, 5, 0
6, 11, 0
6, 1, 0
5, 0, 0
5, 12, 0
5, 7, 0
5, 3, 0
5, 6, 0
5, 1, 0
5, 8, 0
5, 10, 0
5, 11, 0
5, 9, 0
11, 0, 0
11, 12, 1
11, 7, 0
11, 9, 0
11, 4, 0
11, 3, 0
11, 6, 0
11, 8, 0
11, 5, 0
11, 10, 0
11, 1, 0
10, 7, 0
10, 9, 0
10, 6, 0
10, 8, 0
10, 5, 0
10, 11, 0
10, 1, 0
7, 9, 0
7, 6, 1
7, 1, 0
7, 8, 1
7, 5, 0
7, 11, 0
7, 10, 0
12, 0, 0
12, 3, 0
12, 4, 0
12, 5, 0
12, 11, 1
4, 0, 0
4, 12, 0
4, 11, 0
4, 3, 0
2, 1, 0
1, 7, 0
1, 9, 0
1, 2, 0
1, 6, 0
1, 8, 0
1, 5, 0
1, 11, 0
1, 10, 0
9, 7, 0
9, 6, 0
9, 1, 0
9, 8, 0
9, 5, 0
9, 11, 0
9, 10, 0
