13, 23, 0
13, 11, 0
17, 5, 0
17, 22, 0
23, 20, 0
23, 13, 0
5, 19, 0
5, 17, 0
5, 22, 0
11, 18, 0
11, 13, 0
11, 15, 0
1, 0, 0
1, 21, 0
1, 2, 0
20, 3, 0
20, 25, 0
20, 26, 0
20, 23, 0
4, 7, 0
4, 10, 0
14, 16, 0
14, 22, 0
14, 24, 0
24, 16, 0
24, 12, 0
24, 14, 0
24, 22, 0
8, 0, 0
8, 2, 0
8, 21, 0
8, 9, 1
8, 15, 0
8, 10, 0
15, 0, 0
15, 21, 0
15, 18, 0
15, 8, 0
15, 11, 0
15, 9, 0
22, 14, 0
22, 17, 0
22, 5, 0
22, 24, 0
0, 2, 0
0, 21, 0
0, 1, 0
0, 8, 0
0, 15, 0
0, 10, 0
0, 9, 0
3, 20, 0
3, 12, 0
3, 25, 0
3, 26, 0
3, 16, 0
3, 6, 0
16, 12, 0
16, 6, 0
16, 14, 0
16, 3, 0
16, 24, 0
6, 16, 0
6, 3, 0
6, 12, 0
10, 0, 0
10, 7, 0
10, 4, 0
10, 2, 0
10, 8, 0
10, 9, 0
7, 4, 0
7, 10, 0
12, 16, 0
12, 6, 0
12, 3, 0
12, 24, 0
25, 20, 0
25, 3, 0
25, 26, 1
26, 20, 0
26, 3, 0
26, 25, 1
2, 0, 0
2, 21, 0
2, 8, 0
2, 10, 0
2, 1, 0
21, 0, 0
21, 2, 0
21, 1, 0
21, 8, 0
21, 15, 0
21, 9, 0
19, 5, 0
18, 15, 0
18, 11, 0
18, 9, 0
9, 0, 0
9, 18, 0
9, 21, 0
9, 8, 1
9, 15, 0
9, 10, 0
