13, 0, 0
13, 12, 1
13, 16, 0
13, 4, 0
13, 14, 0
13, 29, 0
13, 37, 0
17, 27, 0
17, 36, 0
17, 2, 0
23, 33, 0
23, 29, 0
23, 28, 0
23, 35, 0
42, 45, 0
42, 46, 0
42, 26, 0
46, 45, 0
46, 32, 0
46, 2, 0
46, 42, 0
46, 41, 0
46, 1, 0
20, 22, 0
14, 0, 0
14, 13, 0
14, 16, 0
14, 10, 0
14, 37, 0
14, 12, 0
14, 4, 0
14, 43, 0
14, 31, 0
14, 29, 0
14, 21, 0
14, 19, 0
14, 8, 0
14, 38, 0
14, 18, 0
24, 43, 0
24, 25, 0
24, 5, 0
24, 11, 0
28, 33, 0
28, 23, 0
28, 35, 0
39, 34, 0
39, 40, 0
39, 44, 0
39, 22, 0
41, 43, 0
41, 46, 0
41, 30, 0
0, 37, 0
0, 33, 0
0, 13, 0
0, 14, 0
0, 4, 0
0, 12, 0
0, 16, 0
0, 6, 0
0, 35, 0
8, 21, 0
8, 43, 0
8, 31, 0
8, 18, 0
8, 14, 0
8, 19, 0
8, 15, 0
8, 38, 0
8, 10, 0
34, 32, 0
34, 2, 0
34, 39, 0
34, 40, 0
34, 44, 0
34, 36, 0
15, 18, 0
15, 21, 0
15, 43, 0
15, 8, 0
15, 38, 0
47, 3, 0
47, 30, 0
10, 43, 0
10, 19, 0
10, 8, 0
10, 14, 0
10, 31, 0
7, 6, 0
7, 29, 0
7, 4, 0
7, 33, 0
7, 9, 0
3, 11, 0
3, 47, 0
32, 34, 0
32, 45, 0
32, 43, 0
32, 2, 0
32, 46, 0
32, 36, 0
2, 34, 0
2, 17, 0
2, 32, 0
2, 45, 0
2, 27, 0
2, 46, 0
2, 36, 0
21, 14, 0
21, 15, 0
21, 8, 0
21, 43, 0
21, 38, 0
33, 0, 0
33, 7, 0
33, 28, 0
33, 23, 0
33, 29, 0
33, 6, 0
33, 35, 0
33, 9, 0
19, 43, 0
19, 8, 0
19, 14, 0
19, 10, 0
18, 15, 0
18, 38, 0
18, 8, 0
18, 14, 0
18, 43, 0
31, 43, 0
31, 8, 0
31, 14, 0
31, 10, 0
29, 7, 0
29, 12, 0
29, 13, 0
29, 14, 0
29, 23, 0
29, 33, 0
29, 37, 0
29, 4, 0
40, 34, 0
40, 39, 0
40, 44, 0
11, 3, 0
11, 25, 0
11, 5, 0
11, 24, 0
5, 43, 0
5, 25, 0
5, 11, 0
5, 24, 0
37, 0, 0
37, 12, 0
37, 13, 0
37, 14, 0
37, 4, 0
37, 29, 0
37, 16, 0
4, 0, 0
4, 7, 0
4, 16, 0
4, 13, 0
4, 14, 0
4, 29, 0
4, 37, 0
4, 6, 0
4, 9, 0
4, 12, 0
35, 0, 0
35, 33, 0
35, 28, 0
35, 23, 0
30, 41, 0
30, 47, 0
38, 21, 0
38, 14, 0
38, 18, 0
38, 43, 0
38, 8, 0
38, 15, 0
22, 20, 0
22, 39, 0
22, 44, 0
36, 34, 0
36, 17, 0
36, 32, 0
36, 2, 0
45, 32, 0
45, 26, 0
45, 2, 0
45, 27, 0
45, 42, 0
45, 46, 0
45, 1, 0
16, 0, 0
16, 12, 0
16, 13, 0
16, 14, 0
16, 4, 0
16, 37, 0
27, 45, 0
27, 1, 0
27, 17, 0
27, 2, 0
1, 45, 0
1, 46, 0
1, 26, 0
1, 27, 0
44, 40, 0
44, 39, 0
44, 22, 0
44, 34, 0
12, 0, 0
12, 16, 0
12, 13, 1
12, 14, 0
12, 4, 0
12, 29, 0
12, 37, 0
25, 43, 0
25, 5, 0
25, 11, 0
25, 24, 0
26, 45, 0
26, 42, 0
26, 1, 0
6, 0, 0
6, 7, 0
6, 4, 0
6, 33, 0
6, 9, 0
43, 31, 0
43, 18, 0
43, 38, 0
43, 5, 0
43, 10, 0
43, 14, 0
43, 32, 0
43, 24, 0
43, 21, 0
43, 25, 0
43, 19, 0
43, 8, 0
43, 15, 0
43, 41, 0
9, 7, 0
9, 33, 0
9, 4, 0
9, 6, 0
