0, 7, 0
0, 3, 0
0, 4, 0
0, 14, 0
0, 1, 1
0, 8, 0
0, 15, 0
0, 10, 0
0, 9, 0
13, 7, 0
13, 3, 0
13, 4, 0
13, 2, 0
13, 16, 0
13, 6, 0
13, 8, 0
13, 11, 0
3, 0, 0
3, 13, 0
3, 14, 0
3, 4, 0
3, 2, 1
3, 16, 0
3, 6, 0
3, 10, 0
3, 1, 0
16, 3, 0
16, 13, 0
16, 4, 0
16, 2, 0
6, 3, 0
6, 8, 0
6, 13, 0
6, 5, 1
6, 11, 0
8, 7, 0
8, 0, 0
8, 13, 0
8, 4, 0
8, 12, 0
8, 6, 0
8, 15, 0
8, 5, 0
8, 11, 0
5, 6, 1
5, 8, 0
5, 11, 0
11, 6, 0
11, 8, 0
11, 13, 0
11, 5, 0
10, 0, 0
10, 7, 0
10, 14, 0
10, 3, 0
10, 12, 0
10, 15, 0
10, 9, 1
7, 0, 0
7, 12, 0
7, 13, 0
7, 14, 0
7, 9, 0
7, 4, 0
7, 8, 0
7, 15, 0
7, 10, 0
12, 7, 0
12, 8, 0
12, 15, 0
12, 10, 0
4, 0, 0
4, 7, 0
4, 13, 0
4, 3, 0
4, 16, 0
4, 8, 0
4, 2, 0
4, 1, 0
14, 0, 0
14, 7, 0
14, 3, 0
14, 1, 0
14, 10, 0
14, 15, 0
14, 9, 0
2, 16, 0
2, 3, 1
2, 4, 0
2, 13, 0
1, 0, 1
1, 3, 0
1, 4, 0
1, 14, 0
15, 0, 0
15, 12, 0
15, 7, 0
15, 14, 0
15, 9, 0
15, 8, 0
15, 10, 0
9, 0, 0
9, 7, 0
9, 15, 0
9, 14, 0
9, 10, 1
