13, 18, 0
13, 4, 0
13, 17, 0
13, 2, 0
13, 21, 0
13, 19, 0
13, 15, 0
13, 11, 0
17, 0, 0
17, 21, 0
17, 13, 0
17, 4, 0
17, 2, 0
17, 16, 0
17, 6, 0
17, 18, 1
5, 16, 0
5, 6, 0
5, 4, 0
5, 15, 0
11, 20, 0
11, 14, 0
11, 13, 0
11, 15, 0
1, 20, 0
1, 3, 0
1, 14, 0
1, 12, 0
1, 6, 0
1, 8, 0
1, 15, 0
20, 15, 0
20, 14, 0
20, 11, 0
20, 1, 0
4, 0, 0
4, 16, 0
4, 13, 0
4, 17, 0
4, 2, 0
4, 21, 0
4, 6, 0
4, 19, 0
4, 18, 0
4, 5, 0
14, 20, 0
14, 3, 0
14, 12, 0
14, 15, 0
14, 11, 0
14, 1, 0
8, 7, 0
8, 12, 0
8, 1, 0
8, 3, 0
15, 20, 0
15, 0, 0
15, 16, 0
15, 13, 0
15, 14, 0
15, 21, 0
15, 6, 0
15, 19, 0
15, 5, 0
15, 11, 0
15, 1, 0
0, 18, 0
0, 4, 0
0, 17, 0
0, 21, 0
0, 6, 0
0, 19, 0
0, 15, 0
3, 7, 0
3, 12, 0
3, 8, 0
3, 14, 0
3, 1, 0
16, 18, 0
16, 4, 0
16, 17, 0
16, 21, 0
16, 10, 0
16, 15, 0
16, 5, 0
16, 9, 0
6, 0, 0
6, 4, 0
6, 17, 0
6, 18, 0
6, 19, 0
6, 15, 0
6, 5, 0
6, 1, 0
10, 16, 0
10, 9, 1
7, 3, 0
7, 8, 0
12, 3, 0
12, 8, 0
12, 14, 0
12, 1, 0
2, 18, 0
2, 13, 0
2, 17, 0
2, 4, 0
2, 21, 0
2, 19, 0
21, 0, 0
21, 16, 0
21, 4, 0
21, 17, 0
21, 2, 0
21, 18, 0
21, 19, 0
21, 15, 0
21, 13, 0
19, 0, 0
19, 21, 0
19, 4, 0
19, 13, 0
19, 2, 0
19, 18, 1
19, 6, 0
19, 15, 0
18, 0, 0
18, 16, 0
18, 4, 0
18, 17, 1
18, 2, 0
18, 21, 0
18, 6, 0
18, 19, 1
18, 13, 0
9, 16, 0
9, 10, 1
