0, 8, 0
0, 5, 0
0, 10, 0
3, 7, 0
3, 2, 0
3, 4, 0
3, 10, 0
3, 9, 0
4, 3, 0
4, 9, 0
2, 7, 0
2, 3, 0
2, 10, 0
6, 1, 0
1, 6, 0
1, 8, 0
8, 0, 0
8, 1, 0
5, 0, 0
5, 10, 0
7, 3, 0
7, 10, 0
7, 2, 0
10, 0, 0
10, 7, 0
10, 3, 0
10, 5, 0
10, 2, 0
9, 3, 0
9, 4, 0
