0, 16, 0
0, 8, 0
0, 9, 0
0, 10, 0
13, 6, 0
13, 8, 0
13, 4, 0
13, 3, 0
3, 16, 0
3, 8, 0
3, 13, 0
3, 4, 1
3, 9, 0
16, 0, 0
16, 3, 0
16, 9, 0
6, 8, 0
6, 13, 0
8, 0, 0
8, 3, 0
8, 13, 0
8, 14, 0
8, 4, 0
8, 12, 0
8, 6, 0
8, 10, 0
8, 15, 0
8, 9, 0
5, 7, 0
5, 12, 0
5, 14, 0
5, 9, 0
11, 2, 0
11, 1, 0
10, 0, 0
10, 8, 0
10, 15, 0
10, 9, 1
7, 2, 0
7, 9, 0
7, 5, 0
7, 1, 0
12, 15, 0
12, 8, 0
12, 14, 0
12, 5, 0
12, 9, 0
4, 3, 1
4, 8, 0
4, 13, 0
14, 12, 0
14, 8, 0
14, 5, 0
14, 9, 0
2, 7, 0
2, 9, 0
2, 11, 0
2, 1, 0
1, 7, 0
1, 9, 0
1, 11, 0
1, 2, 0
15, 12, 0
15, 8, 0
15, 9, 0
15, 10, 0
9, 0, 0
9, 3, 0
9, 16, 0
9, 1, 0
9, 5, 0
9, 10, 1
9, 7, 0
9, 12, 0
9, 14, 0
9, 2, 0
9, 8, 0
9, 15, 0
