0, 7, 0
0, 12, 0
0, 4, 0
0, 2, 0
0, 6, 0
0, 5, 0
0, 10, 0
8, 7, 1
8, 2, 0
8, 5, 0
8, 10, 0
3, 12, 0
3, 4, 1
3, 11, 0
3, 10, 0
6, 0, 0
6, 7, 1
6, 2, 0
6, 5, 0
6, 10, 0
5, 7, 0
5, 0, 0
5, 9, 0
5, 2, 0
5, 6, 0
5, 8, 0
5, 10, 0
5, 1, 0
11, 12, 1
11, 4, 0
11, 10, 0
11, 3, 0
10, 0, 0
10, 12, 0
10, 7, 0
10, 4, 0
10, 3, 0
10, 2, 0
10, 6, 0
10, 8, 0
10, 5, 0
10, 11, 0
10, 9, 0
7, 0, 0
7, 2, 0
7, 6, 1
7, 8, 1
7, 5, 0
7, 10, 0
12, 0, 0
12, 3, 0
12, 4, 0
12, 11, 1
12, 10, 0
4, 0, 0
4, 12, 0
4, 3, 1
4, 11, 0
4, 10, 0
2, 0, 0
2, 7, 0
2, 9, 0
2, 6, 0
2, 8, 0
2, 5, 0
2, 10, 0
1, 5, 0
1, 9, 0
9, 2, 0
9, 10, 0
9, 5, 0
9, 1, 0
