0, 3, 0
0, 6, 0
0, 8, 0
0, 5, 0
0, 2, 0
3, 0, 0
3, 2, 0
4, 1, 0
4, 2, 0
7, 6, 0
7, 8, 0
7, 5, 0
2, 0, 0
2, 3, 0
2, 4, 0
2, 1, 0
6, 7, 0
6, 0, 0
6, 8, 0
6, 5, 1
8, 0, 0
8, 7, 0
8, 5, 0
8, 6, 0
5, 7, 0
5, 6, 1
5, 8, 0
5, 0, 0
1, 4, 0
1, 2, 0
