58, 12, 0
58, 42, 0
58, 36, 0
58, 5, 0
58, 11, 0
58, 30, 0
13, 4, 0
13, 32, 0
13, 31, 0
17, 42, 0
17, 43, 0
17, 11, 0
17, 30, 0
23, 45, 0
23, 62, 0
23, 63, 0
23, 53, 0
23, 59, 0
23, 34, 0
23, 25, 0
23, 35, 0
23, 21, 0
23, 19, 0
23, 49, 0
23, 38, 0
23, 48, 0
23, 22, 0
63, 49, 0
63, 23, 0
63, 18, 0
63, 38, 0
63, 55, 0
63, 40, 0
63, 46, 0
63, 4, 0
63, 25, 0
63, 35, 0
63, 19, 0
63, 8, 0
63, 15, 0
63, 22, 0
46, 63, 0
46, 4, 0
46, 41, 0
46, 26, 0
46, 47, 0
20, 54, 0
34, 0, 0
34, 45, 0
34, 62, 0
34, 23, 0
34, 27, 0
34, 53, 0
34, 59, 0
34, 33, 0
34, 25, 0
34, 29, 0
34, 21, 0
34, 38, 0
34, 48, 0
14, 33, 0
14, 28, 0
14, 44, 0
14, 9, 0
24, 61, 0
24, 52, 0
24, 50, 0
24, 51, 0
24, 30, 0
28, 37, 0
28, 14, 0
28, 9, 0
15, 4, 0
15, 32, 0
15, 26, 0
15, 2, 0
15, 63, 0
15, 41, 0
41, 4, 0
41, 31, 0
41, 26, 0
41, 15, 0
41, 46, 0
41, 47, 0
41, 1, 0
0, 34, 0
0, 27, 0
38, 45, 0
38, 55, 0
38, 25, 0
38, 23, 0
38, 35, 0
38, 34, 0
38, 19, 0
38, 49, 0
38, 40, 0
38, 63, 0
38, 22, 0
62, 45, 0
62, 34, 0
62, 25, 0
62, 23, 0
62, 29, 0
62, 21, 0
62, 19, 0
62, 53, 0
62, 59, 0
62, 48, 0
51, 7, 0
51, 52, 1
51, 50, 0
51, 24, 0
51, 61, 0
51, 30, 0
33, 27, 0
33, 14, 0
33, 44, 0
33, 34, 0
39, 3, 0
39, 10, 0
39, 2, 0
54, 20, 0
54, 3, 0
54, 10, 0
47, 1, 0
47, 41, 0
47, 46, 0
10, 54, 0
10, 2, 0
10, 39, 0
10, 3, 0
7, 61, 0
7, 52, 0
7, 51, 0
7, 30, 0
3, 54, 0
3, 2, 0
3, 39, 0
3, 10, 0
53, 45, 0
53, 62, 0
53, 23, 0
53, 29, 0
53, 21, 0
53, 34, 0
53, 59, 0
32, 13, 0
32, 15, 0
32, 4, 0
32, 2, 0
2, 3, 0
2, 4, 0
2, 32, 0
2, 15, 0
2, 39, 0
2, 10, 0
37, 60, 0
37, 16, 0
37, 57, 0
37, 28, 0
37, 56, 0
25, 34, 0
25, 45, 0
25, 62, 0
25, 23, 0
25, 29, 0
25, 63, 0
25, 38, 0
25, 59, 0
25, 48, 0
19, 45, 0
19, 62, 0
19, 23, 0
19, 63, 0
19, 49, 0
19, 38, 0
49, 45, 0
49, 23, 0
49, 21, 0
49, 63, 0
49, 19, 0
49, 38, 0
49, 22, 0
48, 45, 0
48, 25, 0
48, 62, 0
48, 23, 0
48, 29, 0
48, 21, 0
48, 34, 0
48, 59, 0
31, 13, 0
31, 41, 0
31, 4, 0
31, 1, 0
45, 34, 0
45, 53, 0
45, 25, 0
45, 62, 0
45, 23, 0
45, 29, 0
45, 21, 0
45, 19, 0
45, 49, 0
45, 38, 0
45, 48, 0
60, 16, 0
60, 57, 0
60, 37, 0
60, 11, 0
60, 56, 0
59, 34, 0
59, 25, 0
59, 62, 0
59, 23, 0
59, 29, 0
59, 21, 0
59, 53, 0
59, 48, 0
29, 34, 0
29, 25, 0
29, 62, 0
29, 45, 0
29, 21, 0
29, 53, 0
29, 59, 0
29, 48, 0
40, 63, 0
40, 38, 0
40, 22, 0
40, 35, 0
11, 58, 0
11, 16, 0
11, 17, 0
11, 56, 0
11, 60, 0
11, 6, 0
11, 5, 0
11, 30, 0
11, 12, 0
11, 43, 0
11, 42, 0
11, 36, 0
5, 58, 0
5, 42, 0
5, 30, 0
5, 11, 0
5, 12, 0
61, 7, 0
61, 52, 0
61, 50, 0
61, 51, 0
61, 24, 0
61, 30, 0
4, 13, 0
4, 32, 0
4, 31, 0
4, 2, 0
4, 63, 0
4, 26, 0
4, 15, 0
4, 46, 0
4, 41, 0
35, 63, 0
35, 38, 0
35, 55, 0
35, 40, 0
35, 23, 0
30, 58, 0
30, 17, 0
30, 51, 0
30, 6, 0
30, 5, 0
30, 11, 0
30, 7, 0
30, 43, 0
30, 50, 0
30, 24, 0
30, 61, 0
30, 52, 0
30, 42, 0
30, 36, 0
8, 18, 0
8, 63, 0
8, 26, 0
42, 58, 0
42, 12, 0
42, 43, 0
42, 6, 0
42, 17, 0
42, 36, 0
42, 5, 0
42, 11, 0
42, 30, 0
22, 63, 0
22, 38, 0
22, 49, 0
22, 40, 0
22, 23, 0
36, 58, 0
36, 42, 0
36, 30, 0
36, 11, 0
36, 12, 0
57, 60, 0
57, 37, 0
57, 16, 0
57, 56, 1
56, 60, 0
56, 37, 0
56, 16, 0
56, 11, 0
56, 57, 1
16, 60, 0
16, 37, 0
16, 11, 0
16, 56, 0
16, 57, 0
27, 0, 0
27, 33, 0
27, 34, 0
1, 41, 0
1, 47, 0
1, 31, 0
55, 63, 0
55, 38, 0
55, 35, 0
44, 33, 0
44, 14, 0
12, 58, 0
12, 42, 0
12, 5, 0
12, 11, 0
12, 36, 0
18, 63, 0
18, 8, 0
18, 26, 0
21, 45, 0
21, 53, 0
21, 62, 0
21, 23, 0
21, 29, 0
21, 34, 0
21, 49, 0
21, 59, 0
21, 48, 0
52, 7, 0
52, 50, 0
52, 51, 1
52, 24, 0
52, 61, 0
52, 30, 0
50, 61, 0
50, 30, 0
50, 52, 0
50, 51, 0
50, 24, 0
26, 4, 0
26, 18, 0
26, 8, 0
26, 15, 0
26, 46, 0
26, 41, 0
6, 42, 0
6, 43, 0
6, 11, 0
6, 30, 0
43, 42, 0
43, 6, 0
43, 17, 0
43, 11, 0
43, 30, 0
9, 28, 0
9, 14, 0
