0, 8, 0
0, 1, 0
13, 12, 0
13, 14, 0
13, 9, 0
3, 2, 0
3, 5, 0
3, 11, 0
3, 10, 0
6, 7, 0
6, 2, 0
8, 0, 0
8, 12, 0
8, 1, 0
5, 3, 0
5, 2, 0
5, 11, 0
5, 10, 0
11, 3, 0
11, 2, 0
11, 5, 0
11, 10, 1
10, 3, 0
10, 5, 0
10, 11, 1
10, 2, 0
7, 6, 0
7, 4, 0
7, 2, 0
12, 13, 0
12, 8, 0
12, 14, 0
4, 7, 0
4, 9, 0
14, 12, 0
14, 13, 0
14, 9, 0
2, 7, 0
2, 3, 0
2, 6, 0
2, 5, 0
2, 11, 0
2, 10, 0
1, 0, 0
1, 8, 0
9, 13, 0
9, 14, 0
9, 4, 0
