0, 7, 0
0, 6, 0
0, 8, 0
0, 1, 0
3, 9, 0
3, 5, 0
3, 2, 1
4, 5, 0
4, 1, 0
2, 3, 1
2, 5, 0
2, 9, 0
6, 0, 0
6, 7, 1
6, 8, 1
6, 1, 0
1, 0, 0
1, 7, 0
1, 4, 0
1, 6, 0
8, 0, 0
8, 7, 1
8, 6, 1
5, 2, 0
5, 3, 0
5, 4, 0
5, 9, 0
7, 0, 0
7, 6, 1
7, 8, 1
7, 1, 0
9, 3, 0
9, 5, 0
9, 2, 0
