0, 4, 0
0, 10, 0
3, 7, 0
3, 6, 0
3, 10, 0
4, 0, 0
4, 10, 0
4, 9, 0
2, 9, 0
6, 7, 0
6, 3, 0
1, 7, 0
1, 8, 0
1, 5, 0
8, 7, 0
8, 5, 0
8, 1, 0
5, 8, 0
5, 1, 0
7, 3, 0
7, 6, 0
7, 8, 0
7, 1, 0
10, 0, 0
10, 3, 0
10, 4, 0
10, 9, 0
9, 4, 0
9, 10, 0
9, 2, 0
