0, 4, 0
6, 4, 0
6, 5, 1
6, 11, 0
1, 7, 0
1, 8, 0
1, 10, 0
1, 9, 0
5, 6, 1
5, 4, 0
5, 11, 0
5, 2, 0
11, 7, 0
11, 3, 0
11, 4, 0
11, 2, 0
11, 6, 0
11, 8, 0
11, 5, 0
10, 7, 0
10, 8, 0
10, 9, 0
10, 1, 0
7, 3, 0
7, 4, 0
7, 2, 0
7, 1, 0
7, 8, 0
7, 10, 0
7, 11, 0
7, 9, 0
3, 7, 0
3, 8, 0
3, 11, 0
3, 2, 0
4, 0, 0
4, 7, 0
4, 2, 0
4, 6, 0
4, 5, 0
4, 11, 0
2, 7, 0
2, 3, 0
2, 4, 0
2, 8, 0
2, 5, 0
2, 11, 0
2, 9, 0
8, 7, 0
8, 3, 0
8, 2, 0
8, 1, 0
8, 10, 0
8, 11, 0
8, 9, 0
9, 7, 0
9, 2, 0
9, 8, 0
9, 10, 0
9, 1, 0
