13, 0, 0
13, 12, 1
13, 8, 0
13, 27, 0
17, 20, 0
17, 21, 0
17, 16, 0
17, 28, 0
17, 2, 0
17, 18, 0
17, 6, 0
17, 8, 0
17, 24, 0
17, 9, 0
23, 6, 0
23, 28, 0
23, 16, 0
23, 27, 0
23, 24, 0
23, 10, 0
23, 20, 0
23, 4, 0
23, 2, 0
23, 21, 0
23, 1, 0
23, 9, 0
2, 0, 0
2, 12, 0
2, 4, 0
2, 17, 0
2, 23, 0
2, 24, 0
2, 16, 0
2, 27, 0
2, 8, 0
5, 7, 0
5, 3, 0
5, 25, 0
5, 26, 0
5, 19, 0
5, 15, 0
5, 22, 0
5, 9, 0
11, 7, 0
11, 3, 0
11, 19, 0
11, 15, 0
11, 25, 0
1, 20, 0
1, 21, 0
1, 4, 0
1, 28, 0
1, 23, 0
1, 27, 0
1, 18, 0
1, 6, 0
1, 9, 0
1, 10, 0
20, 16, 0
20, 4, 0
20, 28, 0
20, 23, 0
20, 6, 0
20, 21, 1
20, 27, 0
20, 18, 0
20, 17, 0
20, 1, 0
4, 0, 0
4, 8, 0
4, 28, 0
4, 23, 0
4, 18, 0
4, 6, 0
4, 27, 0
4, 20, 0
4, 12, 0
4, 2, 0
4, 21, 0
4, 1, 0
14, 7, 0
14, 3, 0
14, 26, 0
14, 15, 0
14, 22, 0
14, 9, 0
24, 21, 0
24, 17, 0
24, 23, 0
24, 2, 0
24, 16, 0
24, 6, 0
24, 8, 0
24, 18, 0
24, 27, 0
28, 20, 0
28, 21, 0
28, 4, 0
28, 17, 0
28, 23, 0
28, 6, 0
28, 16, 0
28, 27, 0
28, 18, 0
28, 1, 0
8, 0, 0
8, 12, 0
8, 4, 0
8, 17, 0
8, 27, 0
8, 2, 0
8, 16, 0
8, 6, 0
8, 21, 0
8, 24, 0
8, 13, 0
15, 7, 0
15, 3, 0
15, 25, 0
15, 11, 0
15, 26, 0
15, 14, 0
15, 5, 0
15, 22, 0
15, 9, 0
22, 7, 0
22, 3, 0
22, 14, 0
22, 26, 0
22, 25, 0
22, 19, 0
22, 15, 0
22, 5, 0
22, 9, 0
0, 12, 0
0, 13, 0
0, 4, 0
0, 2, 0
0, 18, 0
0, 27, 0
0, 8, 0
12, 0, 0
12, 13, 1
12, 4, 0
12, 2, 0
12, 27, 0
12, 8, 0
16, 20, 0
16, 18, 0
16, 17, 0
16, 23, 0
16, 2, 0
16, 21, 0
16, 6, 0
16, 28, 0
16, 8, 0
16, 24, 0
16, 27, 0
6, 20, 0
6, 21, 0
6, 4, 0
6, 17, 0
6, 23, 0
6, 24, 0
6, 16, 0
6, 28, 0
6, 8, 0
6, 18, 0
6, 1, 0
10, 18, 0
10, 27, 0
10, 9, 0
10, 23, 0
10, 1, 0
7, 3, 0
7, 25, 0
7, 11, 0
7, 26, 0
7, 14, 0
7, 19, 0
7, 15, 0
7, 5, 0
7, 22, 0
7, 9, 0
3, 7, 0
3, 25, 0
3, 11, 0
3, 26, 0
3, 14, 0
3, 19, 0
3, 15, 0
3, 5, 0
3, 22, 0
3, 9, 0
25, 7, 0
25, 3, 0
25, 11, 0
25, 19, 0
25, 15, 0
25, 5, 0
25, 22, 0
25, 9, 0
26, 7, 0
26, 3, 0
26, 14, 0
26, 15, 0
26, 5, 0
26, 22, 0
26, 9, 0
27, 0, 0
27, 13, 0
27, 28, 0
27, 23, 0
27, 16, 0
27, 24, 0
27, 1, 0
27, 20, 0
27, 12, 0
27, 4, 0
27, 2, 0
27, 21, 0
27, 8, 0
27, 10, 0
27, 18, 0
21, 8, 0
21, 17, 0
21, 23, 0
21, 16, 0
21, 6, 0
21, 27, 0
21, 20, 1
21, 18, 0
21, 4, 0
21, 24, 0
21, 28, 0
21, 1, 0
19, 7, 0
19, 3, 0
19, 25, 0
19, 11, 0
19, 5, 0
19, 22, 0
18, 0, 0
18, 17, 0
18, 16, 0
18, 6, 0
18, 27, 0
18, 20, 0
18, 4, 0
18, 24, 0
18, 21, 0
18, 28, 0
18, 1, 0
18, 10, 0
18, 9, 0
9, 17, 0
9, 23, 0
9, 18, 0
9, 5, 0
9, 10, 0
9, 7, 0
9, 3, 0
9, 14, 0
9, 26, 0
9, 25, 0
9, 1, 0
9, 15, 0
9, 22, 0
