0, 7, 0
0, 13, 0
0, 14, 0
0, 9, 0
0, 4, 0
0, 6, 0
0, 8, 0
0, 15, 0
0, 5, 0
0, 17, 0
0, 10, 0
13, 0, 0
13, 8, 0
13, 16, 1
13, 6, 0
13, 5, 0
13, 11, 0
13, 10, 0
13, 7, 0
13, 3, 0
13, 4, 0
13, 14, 1
13, 2, 0
13, 1, 0
13, 9, 0
17, 0, 0
17, 14, 1
17, 15, 1
17, 6, 0
3, 12, 0
3, 13, 0
3, 4, 1
3, 2, 0
3, 18, 0
3, 19, 0
16, 13, 1
16, 14, 1
16, 4, 0
16, 2, 0
16, 6, 0
16, 5, 0
6, 0, 0
6, 7, 0
6, 13, 0
6, 17, 0
6, 4, 0
6, 16, 0
6, 14, 0
6, 5, 1
6, 11, 0
8, 7, 0
8, 0, 0
8, 13, 0
8, 14, 0
8, 4, 0
8, 9, 1
8, 5, 0
8, 11, 0
8, 1, 0
5, 0, 0
5, 13, 0
5, 16, 0
5, 6, 1
5, 11, 0
5, 1, 0
5, 7, 0
5, 4, 0
5, 14, 0
5, 2, 0
5, 8, 0
5, 10, 0
5, 9, 0
11, 7, 0
11, 13, 0
11, 14, 0
11, 9, 0
11, 6, 0
11, 8, 0
11, 5, 0
11, 10, 0
11, 1, 0
10, 0, 0
10, 7, 0
10, 13, 0
10, 4, 0
10, 1, 0
10, 5, 0
10, 11, 0
10, 9, 1
7, 0, 0
7, 13, 0
7, 14, 0
7, 9, 0
7, 4, 0
7, 6, 0
7, 8, 0
7, 5, 0
7, 10, 0
7, 11, 0
7, 1, 0
12, 18, 0
12, 3, 0
12, 19, 0
12, 1, 0
12, 2, 0
4, 0, 0
4, 13, 0
4, 16, 0
4, 6, 0
4, 1, 0
4, 5, 0
4, 10, 0
4, 7, 0
4, 3, 1
4, 14, 0
4, 2, 0
4, 19, 0
4, 8, 0
4, 18, 0
4, 9, 0
14, 0, 0
14, 13, 1
14, 17, 1
14, 16, 1
14, 6, 0
14, 5, 0
14, 11, 0
14, 7, 0
14, 4, 0
14, 2, 0
14, 8, 0
14, 15, 1
2, 12, 0
2, 13, 0
2, 14, 0
2, 4, 0
2, 3, 0
2, 16, 0
2, 19, 0
2, 5, 0
2, 18, 0
19, 12, 0
19, 4, 0
19, 3, 0
19, 2, 0
19, 18, 1
19, 1, 0
1, 7, 0
1, 12, 0
1, 13, 0
1, 4, 0
1, 10, 0
1, 19, 0
1, 8, 0
1, 5, 0
1, 11, 0
1, 9, 0
15, 0, 0
15, 14, 1
15, 17, 1
18, 2, 0
18, 12, 0
18, 19, 1
18, 4, 0
18, 3, 0
9, 7, 0
9, 0, 0
9, 13, 0
9, 4, 0
9, 1, 0
9, 8, 1
9, 5, 0
9, 11, 0
9, 10, 1
