13, 7, 0
13, 6, 0
13, 5, 0
13, 9, 0
17, 0, 0
17, 3, 0
17, 23, 0
17, 2, 0
23, 0, 0
23, 3, 0
23, 2, 0
23, 17, 0
23, 1, 0
5, 7, 0
5, 13, 0
5, 6, 0
5, 8, 0
5, 10, 0
5, 9, 0
11, 21, 0
11, 3, 0
11, 2, 0
1, 0, 1
1, 3, 0
1, 23, 0
1, 2, 0
20, 16, 0
20, 21, 0
20, 4, 0
4, 20, 0
4, 16, 0
4, 22, 0
14, 12, 0
14, 18, 0
14, 19, 0
14, 15, 1
14, 22, 0
14, 10, 0
8, 10, 0
8, 5, 0
8, 9, 1
15, 12, 0
15, 14, 1
15, 18, 0
15, 19, 0
15, 22, 0
15, 10, 0
22, 4, 0
22, 14, 0
22, 18, 0
22, 19, 0
22, 15, 0
22, 10, 0
0, 3, 0
0, 2, 0
0, 17, 0
0, 23, 0
0, 1, 1
3, 0, 0
3, 17, 0
3, 23, 0
3, 2, 0
3, 11, 0
3, 1, 0
16, 20, 0
16, 4, 0
6, 7, 1
6, 13, 0
6, 5, 0
10, 14, 0
10, 18, 0
10, 19, 0
10, 8, 0
10, 15, 0
10, 5, 0
10, 22, 0
10, 9, 0
7, 6, 1
7, 13, 0
7, 5, 0
7, 9, 0
12, 18, 0
12, 15, 0
12, 19, 0
12, 14, 0
2, 0, 0
2, 3, 0
2, 17, 0
2, 23, 0
2, 21, 0
2, 11, 0
2, 1, 0
21, 20, 0
21, 11, 0
21, 2, 0
19, 12, 0
19, 14, 0
19, 18, 1
19, 9, 0
19, 15, 0
19, 22, 0
19, 10, 0
18, 12, 0
18, 14, 0
18, 19, 1
18, 15, 0
18, 22, 0
18, 10, 0
9, 7, 0
9, 13, 0
9, 19, 0
9, 8, 1
9, 5, 0
9, 10, 0
