2, 3, 0
2, 12, 0
2, 11, 0
2, 23, 0
2, 10, 0
13, 18, 0
13, 6, 0
13, 5, 0
13, 22, 0
13, 27, 0
17, 20, 0
17, 16, 0
17, 28, 0
17, 25, 0
23, 24, 0
23, 3, 0
23, 2, 0
23, 19, 0
23, 8, 0
23, 10, 0
29, 27, 0
29, 5, 0
29, 22, 0
29, 6, 0
5, 6, 0
5, 13, 0
5, 22, 0
5, 29, 0
11, 12, 1
11, 2, 0
1, 7, 0
1, 30, 0
20, 0, 0
20, 21, 0
20, 4, 0
20, 25, 0
20, 18, 0
20, 17, 0
4, 20, 0
4, 18, 0
4, 0, 0
14, 19, 0
14, 15, 1
14, 9, 0
24, 19, 0
24, 8, 0
24, 23, 0
24, 10, 0
28, 16, 0
28, 25, 0
28, 17, 0
28, 21, 0
30, 21, 0
30, 16, 0
30, 25, 0
30, 1, 0
8, 3, 0
8, 10, 0
8, 23, 0
8, 24, 0
15, 19, 0
15, 14, 1
15, 9, 0
22, 13, 0
22, 29, 0
22, 18, 0
22, 6, 0
22, 5, 0
22, 27, 0
0, 20, 0
0, 4, 0
12, 11, 1
12, 2, 0
16, 21, 0
16, 28, 0
16, 17, 0
16, 25, 0
16, 30, 0
6, 18, 0
6, 13, 0
6, 5, 0
6, 22, 0
6, 29, 0
10, 2, 0
10, 3, 0
10, 8, 0
10, 23, 0
10, 24, 0
7, 9, 0
7, 1, 0
3, 2, 0
3, 19, 0
3, 8, 0
3, 23, 0
3, 10, 0
25, 20, 0
25, 21, 0
25, 28, 0
25, 16, 0
25, 17, 0
25, 30, 0
26, 27, 0
27, 13, 0
27, 22, 0
27, 26, 0
27, 29, 0
21, 16, 0
21, 20, 0
21, 25, 0
21, 28, 0
21, 30, 0
19, 3, 0
19, 14, 0
19, 23, 0
19, 24, 0
19, 15, 0
19, 9, 0
18, 20, 0
18, 6, 0
18, 13, 0
18, 22, 0
18, 4, 0
9, 7, 0
9, 15, 0
9, 19, 0
9, 14, 0
