0, 7, 0
0, 3, 0
0, 4, 0
0, 6, 0
0, 10, 0
0, 5, 0
0, 1, 0
13, 16, 0
13, 12, 1
13, 17, 0
13, 10, 0
17, 16, 0
17, 12, 0
17, 13, 0
17, 10, 0
3, 0, 0
3, 7, 0
3, 4, 1
3, 6, 0
3, 8, 0
3, 1, 0
16, 12, 0
16, 13, 0
16, 17, 0
16, 10, 0
6, 0, 0
6, 3, 0
6, 4, 0
6, 8, 0
6, 5, 0
6, 1, 0
8, 3, 0
8, 4, 0
8, 6, 0
8, 5, 0
8, 11, 0
8, 1, 0
5, 0, 0
5, 7, 0
5, 4, 1
5, 6, 0
5, 8, 0
5, 10, 0
5, 1, 0
11, 15, 0
11, 8, 0
11, 14, 0
11, 9, 0
11, 1, 0
10, 0, 0
10, 12, 0
10, 13, 0
10, 17, 0
10, 4, 0
10, 16, 0
10, 5, 0
10, 7, 0
10, 1, 0
7, 0, 0
7, 3, 0
7, 4, 0
7, 1, 0
7, 5, 0
7, 10, 0
12, 16, 0
12, 13, 1
12, 17, 0
12, 10, 0
4, 0, 0
4, 3, 1
4, 7, 0
4, 6, 0
4, 8, 0
4, 5, 1
4, 10, 0
4, 1, 0
14, 9, 0
14, 15, 0
14, 11, 0
14, 1, 0
2, 9, 0
1, 0, 0
1, 6, 0
1, 5, 0
1, 11, 0
1, 10, 0
1, 7, 0
1, 3, 0
1, 4, 0
1, 14, 0
1, 8, 0
1, 15, 0
1, 9, 0
15, 9, 0
15, 14, 0
15, 11, 0
15, 1, 0
9, 15, 0
9, 2, 0
9, 14, 0
9, 11, 0
9, 1, 0
