0, 7, 0
0, 6, 0
0, 8, 0
0, 5, 0
0, 10, 0
0, 1, 1
6, 0, 0
6, 7, 0
6, 2, 0
6, 10, 0
6, 5, 0
6, 1, 0
1, 0, 1
1, 7, 0
1, 2, 1
1, 6, 0
1, 8, 0
1, 5, 0
1, 10, 0
5, 0, 0
5, 3, 0
5, 4, 0
5, 2, 0
5, 6, 0
5, 9, 0
5, 7, 0
5, 1, 0
11, 7, 0
10, 0, 0
10, 7, 0
10, 2, 0
10, 6, 0
10, 8, 0
10, 1, 0
7, 0, 0
7, 2, 0
7, 6, 0
7, 1, 0
7, 8, 0
7, 5, 0
7, 11, 0
7, 10, 0
3, 4, 0
3, 5, 0
3, 9, 0
4, 3, 0
4, 5, 0
2, 7, 0
2, 6, 0
2, 1, 1
2, 8, 0
2, 5, 0
2, 10, 0
8, 0, 0
8, 7, 0
8, 2, 0
8, 10, 0
8, 1, 0
9, 3, 0
9, 5, 0
