0, 7, 0
0, 1, 0
0, 10, 0
0, 11, 0
0, 9, 0
13, 6, 0
13, 4, 0
3, 16, 0
3, 15, 0
3, 14, 0
3, 5, 0
3, 2, 1
16, 12, 0
16, 8, 0
16, 15, 0
16, 5, 0
16, 3, 0
6, 12, 0
6, 13, 0
8, 16, 0
8, 12, 0
8, 5, 0
5, 3, 0
5, 2, 0
5, 16, 0
5, 8, 0
5, 15, 0
5, 12, 0
11, 0, 0
11, 7, 0
11, 1, 0
11, 10, 1
11, 9, 0
10, 0, 0
10, 7, 0
10, 9, 0
10, 11, 1
10, 1, 0
7, 0, 0
7, 14, 0
7, 9, 0
7, 15, 0
7, 11, 0
7, 10, 0
12, 16, 0
12, 6, 0
12, 8, 0
12, 5, 0
4, 13, 0
14, 7, 0
14, 3, 0
14, 15, 0
14, 2, 0
2, 3, 1
2, 15, 0
2, 14, 0
2, 5, 0
1, 0, 0
1, 10, 0
1, 11, 0
1, 9, 0
15, 7, 0
15, 3, 0
15, 14, 0
15, 2, 0
15, 16, 0
15, 5, 0
9, 0, 0
9, 7, 0
9, 10, 0
9, 11, 0
9, 1, 0
