0, 12, 0
13, 6, 0
13, 14, 0
3, 11, 0
3, 10, 0
16, 15, 0
16, 10, 0
6, 13, 0
6, 14, 0
6, 4, 0
8, 7, 1
8, 4, 0
8, 5, 0
8, 2, 0
5, 7, 0
5, 8, 0
5, 2, 0
11, 3, 0
10, 16, 0
10, 3, 0
7, 8, 1
7, 5, 0
7, 4, 0
7, 2, 0
12, 0, 0
12, 2, 0
12, 9, 0
12, 1, 0
4, 7, 0
4, 6, 0
4, 8, 0
4, 14, 0
14, 6, 0
14, 13, 0
14, 15, 0
14, 4, 0
2, 7, 0
2, 12, 0
2, 1, 0
2, 8, 0
2, 5, 0
2, 9, 0
1, 12, 0
1, 2, 0
1, 9, 0
15, 16, 0
15, 14, 0
9, 12, 0
9, 2, 0
9, 1, 0
