0, 15, 0
13, 10, 0
13, 14, 0
13, 9, 0
13, 1, 0
3, 16, 0
3, 11, 0
16, 3, 0
16, 1, 0
6, 14, 0
6, 5, 1
8, 7, 0
8, 4, 0
5, 6, 1
5, 14, 0
11, 7, 0
11, 3, 0
10, 13, 0
10, 14, 0
10, 9, 1
7, 8, 0
7, 11, 0
12, 4, 0
12, 2, 0
4, 12, 0
4, 8, 0
14, 6, 0
14, 13, 0
14, 9, 0
14, 5, 0
14, 10, 0
2, 12, 0
2, 15, 0
1, 16, 0
1, 13, 0
15, 0, 0
15, 2, 0
9, 13, 0
9, 14, 0
9, 10, 1
