0, 8, 0
0, 11, 0
0, 4, 0
0, 9, 0
13, 7, 0
3, 12, 0
3, 15, 0
3, 8, 0
3, 14, 0
3, 4, 1
6, 10, 0
6, 5, 0
6, 9, 0
8, 0, 0
8, 3, 0
8, 4, 0
8, 14, 0
5, 6, 0
5, 9, 0
5, 10, 0
5, 1, 0
11, 0, 0
11, 9, 0
10, 6, 0
10, 1, 0
10, 5, 0
10, 9, 0
7, 13, 0
7, 15, 0
12, 14, 0
12, 15, 0
12, 3, 0
12, 2, 0
4, 0, 0
4, 3, 1
4, 14, 0
4, 2, 0
4, 8, 0
4, 15, 0
14, 12, 0
14, 4, 0
14, 3, 0
14, 2, 0
14, 8, 0
14, 15, 0
2, 12, 0
2, 15, 0
2, 4, 0
2, 14, 0
1, 5, 0
1, 10, 0
15, 7, 0
15, 12, 0
15, 4, 0
15, 14, 0
15, 3, 0
15, 2, 0
9, 0, 0
9, 6, 0
9, 5, 0
9, 11, 0
9, 10, 0
