0, 6, 0
0, 8, 0
0, 9, 0
8, 0, 0
8, 7, 0
8, 1, 0
8, 11, 0
8, 9, 0
3, 2, 0
3, 12, 0
3, 4, 0
3, 5, 0
3, 1, 0
6, 0, 0
5, 2, 0
5, 12, 0
5, 4, 1
5, 3, 0
11, 8, 0
11, 9, 0
11, 10, 0
10, 11, 0
10, 1, 0
7, 2, 0
7, 8, 0
7, 1, 0
12, 3, 0
12, 4, 0
12, 5, 0
12, 2, 0
4, 12, 0
4, 2, 0
4, 5, 1
4, 3, 0
2, 7, 0
2, 12, 0
2, 4, 0
2, 5, 0
2, 3, 0
1, 7, 0
1, 3, 0
1, 8, 0
1, 10, 0
9, 0, 0
9, 8, 0
9, 11, 0
