13, 4, 0
13, 1, 0
17, 0, 0
17, 7, 0
17, 22, 0
17, 2, 0
17, 18, 0
17, 11, 0
23, 20, 0
23, 3, 0
23, 19, 0
23, 14, 0
23, 12, 0
5, 16, 0
5, 15, 0
11, 7, 0
11, 0, 0
11, 8, 0
11, 17, 0
11, 18, 0
1, 20, 0
1, 3, 0
1, 13, 0
1, 14, 0
1, 4, 0
1, 2, 0
1, 19, 0
20, 12, 0
20, 14, 0
20, 1, 0
20, 23, 0
20, 2, 0
20, 21, 1
20, 10, 0
20, 19, 0
20, 8, 0
20, 18, 0
20, 9, 0
4, 6, 0
4, 13, 0
4, 1, 0
14, 20, 0
14, 12, 0
14, 8, 0
14, 23, 0
14, 3, 0
14, 21, 0
14, 1, 0
14, 2, 0
14, 9, 0
8, 20, 0
8, 7, 0
8, 14, 0
8, 2, 0
8, 21, 0
8, 12, 0
8, 18, 0
8, 11, 0
8, 9, 0
15, 16, 0
15, 5, 0
22, 18, 0
22, 17, 0
0, 7, 0
0, 17, 0
0, 11, 0
3, 19, 0
3, 14, 0
3, 23, 0
3, 1, 0
16, 6, 0
16, 15, 0
16, 5, 0
6, 16, 0
6, 4, 0
10, 20, 0
10, 21, 0
10, 12, 0
10, 18, 0
10, 19, 0
10, 9, 0
7, 0, 0
7, 8, 0
7, 17, 0
7, 11, 0
7, 2, 0
12, 20, 0
12, 21, 0
12, 14, 0
12, 23, 0
12, 18, 0
12, 19, 0
12, 8, 0
12, 10, 0
12, 9, 0
2, 20, 0
2, 7, 0
2, 14, 0
2, 21, 0
2, 17, 0
2, 1, 0
2, 8, 0
2, 9, 0
21, 20, 1
21, 12, 0
21, 14, 0
21, 9, 0
21, 2, 0
21, 18, 0
21, 19, 0
21, 8, 0
21, 10, 0
19, 20, 0
19, 12, 0
19, 23, 0
19, 3, 0
19, 21, 0
19, 1, 0
19, 10, 0
19, 9, 0
18, 20, 0
18, 12, 0
18, 17, 0
18, 22, 0
18, 21, 0
18, 8, 0
18, 10, 0
18, 11, 0
18, 9, 0
9, 20, 0
9, 12, 0
9, 14, 0
9, 2, 0
9, 21, 0
9, 19, 0
9, 8, 0
9, 18, 0
9, 10, 0
