0, 8, 0
0, 10, 0
7, 16, 0
7, 11, 0
7, 2, 0
13, 20, 0
13, 3, 0
13, 17, 0
13, 12, 0
13, 6, 0
13, 15, 0
17, 12, 0
17, 13, 0
17, 4, 0
17, 3, 0
17, 5, 0
17, 9, 0
3, 12, 0
3, 13, 0
3, 15, 0
3, 17, 0
16, 7, 0
16, 18, 0
16, 1, 0
6, 20, 0
6, 18, 0
6, 15, 0
6, 13, 0
6, 14, 0
8, 0, 0
8, 19, 0
8, 9, 0
5, 4, 1
5, 17, 0
5, 9, 0
11, 7, 0
11, 2, 0
10, 0, 0
20, 18, 0
20, 6, 0
20, 15, 0
20, 13, 0
20, 14, 0
12, 3, 0
12, 13, 0
12, 17, 0
4, 17, 0
4, 5, 1
4, 9, 0
14, 20, 0
14, 6, 0
14, 18, 0
2, 7, 0
2, 11, 0
19, 8, 0
19, 9, 0
1, 16, 0
1, 18, 0
15, 20, 0
15, 6, 0
15, 13, 0
15, 3, 0
18, 20, 0
18, 16, 0
18, 1, 0
18, 14, 0
18, 6, 0
9, 19, 0
9, 8, 0
9, 17, 0
9, 5, 0
9, 4, 0
