0, 6, 0
0, 5, 0
0, 2, 0
8, 12, 0
8, 4, 0
8, 11, 0
8, 10, 0
3, 6, 0
3, 9, 0
6, 0, 0
6, 3, 0
6, 2, 0
6, 5, 0
6, 9, 0
5, 0, 0
5, 6, 0
5, 2, 0
11, 8, 0
11, 4, 0
11, 10, 1
10, 8, 0
10, 11, 1
10, 4, 0
7, 12, 0
7, 1, 0
12, 7, 0
12, 8, 0
4, 8, 0
4, 9, 0
4, 11, 0
4, 10, 0
2, 0, 0
2, 6, 0
2, 5, 0
1, 7, 0
9, 6, 0
9, 4, 0
9, 3, 0
