0, 7, 0
0, 4, 0
0, 6, 0
0, 1, 0
0, 8, 0
0, 10, 0
0, 11, 0
0, 9, 0
6, 0, 0
6, 3, 0
6, 4, 0
6, 7, 0
6, 2, 0
6, 10, 0
6, 8, 0
6, 5, 0
6, 11, 0
6, 9, 0
1, 0, 0
5, 2, 0
5, 6, 0
5, 4, 0
5, 3, 0
11, 0, 0
11, 4, 0
11, 9, 0
11, 6, 0
11, 8, 0
11, 10, 0
10, 0, 0
10, 7, 0
10, 4, 0
10, 6, 0
10, 8, 0
10, 11, 0
10, 9, 0
7, 0, 0
7, 6, 0
7, 8, 1
7, 4, 0
7, 10, 0
3, 6, 0
3, 4, 0
3, 5, 0
3, 2, 0
4, 0, 0
4, 7, 0
4, 3, 0
4, 6, 0
4, 8, 0
4, 5, 0
4, 11, 0
4, 10, 0
2, 6, 0
2, 5, 0
2, 3, 0
8, 0, 0
8, 7, 1
8, 4, 0
8, 6, 0
8, 10, 0
8, 11, 0
8, 9, 1
9, 0, 0
9, 6, 0
9, 8, 1
9, 11, 0
9, 10, 0
