13, 6, 0
13, 8, 0
13, 14, 0
17, 4, 0
17, 15, 0
17, 5, 0
17, 22, 0
23, 16, 0
23, 12, 0
23, 2, 0
23, 10, 0
23, 1, 0
5, 15, 0
5, 4, 0
5, 17, 0
5, 9, 0
11, 25, 0
11, 14, 0
1, 16, 0
1, 23, 0
1, 10, 0
20, 21, 1
20, 7, 0
20, 19, 1
20, 22, 0
4, 15, 0
4, 17, 0
4, 5, 0
14, 8, 0
14, 13, 0
14, 11, 0
24, 7, 0
24, 3, 0
8, 6, 0
8, 13, 0
8, 14, 0
15, 4, 0
15, 17, 0
15, 5, 0
22, 20, 0
22, 21, 0
22, 19, 0
22, 7, 0
22, 17, 0
0, 6, 0
3, 18, 0
3, 7, 0
3, 21, 0
3, 24, 0
16, 2, 0
16, 12, 0
16, 10, 0
16, 23, 0
16, 1, 0
6, 0, 0
6, 8, 0
6, 13, 0
10, 16, 0
10, 2, 0
10, 23, 0
10, 1, 0
7, 20, 0
7, 3, 0
7, 24, 0
7, 21, 0
7, 19, 0
7, 22, 0
12, 16, 0
12, 23, 0
25, 11, 0
25, 9, 0
2, 16, 0
2, 18, 0
2, 23, 0
2, 10, 0
21, 20, 1
21, 7, 0
21, 22, 0
21, 3, 0
19, 20, 1
19, 7, 0
19, 22, 0
18, 3, 0
18, 2, 0
9, 25, 0
9, 5, 0
