0, 12, 0
0, 13, 0
0, 6, 0
0, 5, 0
0, 11, 0
0, 1, 0
13, 0, 0
13, 12, 1
13, 7, 0
13, 6, 0
13, 5, 0
13, 1, 0
3, 6, 0
3, 4, 0
3, 1, 0
6, 0, 0
6, 12, 0
6, 13, 0
6, 4, 0
6, 3, 0
6, 11, 0
6, 1, 0
8, 7, 0
8, 2, 0
8, 9, 0
8, 5, 0
8, 10, 0
5, 0, 0
5, 12, 0
5, 13, 0
5, 8, 0
5, 7, 0
5, 11, 0
5, 1, 0
11, 0, 0
11, 12, 1
11, 7, 0
11, 6, 0
11, 5, 0
11, 1, 0
10, 2, 0
10, 8, 0
10, 9, 1
7, 12, 0
7, 13, 0
7, 8, 0
7, 5, 0
7, 11, 0
7, 1, 0
12, 0, 0
12, 7, 0
12, 13, 1
12, 6, 0
12, 5, 0
12, 11, 1
12, 1, 0
4, 6, 0
4, 3, 0
4, 1, 0
2, 8, 0
2, 9, 0
2, 10, 0
1, 0, 0
1, 12, 0
1, 13, 0
1, 4, 0
1, 3, 0
1, 6, 0
1, 7, 0
1, 11, 0
1, 5, 0
9, 2, 0
9, 8, 0
9, 10, 1
