13, 12, 1
13, 25, 0
13, 3, 0
13, 26, 0
13, 2, 0
13, 5, 0
13, 11, 0
17, 26, 0
17, 24, 0
17, 18, 0
17, 19, 0
17, 2, 0
17, 11, 0
23, 0, 0
23, 21, 0
23, 10, 0
2, 13, 0
2, 17, 0
2, 12, 0
2, 18, 0
2, 5, 0
2, 11, 0
2, 3, 1
2, 4, 1
2, 25, 0
2, 24, 0
2, 21, 0
2, 22, 0
5, 3, 0
5, 13, 0
5, 25, 0
5, 26, 0
5, 4, 0
5, 2, 0
5, 18, 0
5, 24, 0
5, 11, 0
5, 12, 0
11, 3, 0
11, 13, 0
11, 17, 0
11, 26, 0
11, 2, 0
11, 18, 0
11, 4, 0
11, 19, 0
11, 5, 0
11, 12, 0
1, 7, 0
1, 0, 0
1, 14, 0
1, 12, 0
1, 21, 0
1, 6, 0
1, 24, 0
1, 15, 0
1, 22, 0
20, 27, 0
20, 19, 1
20, 26, 0
20, 24, 0
4, 18, 0
4, 3, 1
4, 5, 0
4, 11, 0
4, 2, 1
14, 7, 0
14, 0, 0
14, 16, 0
14, 12, 0
14, 21, 0
14, 6, 0
14, 1, 0
14, 8, 0
14, 10, 0
14, 9, 0
24, 0, 0
24, 17, 0
24, 18, 0
24, 5, 0
24, 1, 0
24, 20, 0
24, 25, 0
24, 2, 0
24, 21, 0
24, 19, 0
24, 15, 0
24, 22, 0
8, 0, 0
8, 21, 0
8, 14, 0
8, 16, 0
8, 9, 1
8, 10, 0
15, 0, 0
15, 12, 0
15, 25, 0
15, 24, 0
15, 21, 0
15, 22, 0
15, 1, 0
22, 0, 0
22, 7, 0
22, 24, 0
22, 21, 1
22, 2, 0
22, 15, 0
22, 1, 0
0, 23, 0
0, 18, 0
0, 1, 0
0, 10, 0
0, 7, 0
0, 14, 0
0, 24, 0
0, 21, 0
0, 25, 0
0, 8, 0
0, 15, 0
0, 22, 0
0, 9, 0
3, 12, 0
3, 4, 1
3, 13, 0
3, 2, 1
3, 18, 0
3, 5, 0
3, 11, 0
16, 8, 0
16, 14, 0
16, 9, 0
16, 10, 0
6, 7, 1
6, 12, 0
6, 14, 0
6, 1, 0
10, 0, 0
10, 12, 0
10, 14, 0
10, 23, 0
10, 21, 0
10, 16, 0
10, 8, 0
7, 0, 0
7, 12, 0
7, 14, 0
7, 21, 0
7, 6, 1
7, 22, 0
7, 1, 0
12, 13, 1
12, 6, 0
12, 5, 0
12, 11, 0
12, 1, 0
12, 7, 0
12, 3, 0
12, 14, 0
12, 26, 0
12, 2, 0
12, 25, 0
12, 10, 0
12, 15, 0
25, 0, 0
25, 12, 0
25, 13, 0
25, 24, 0
25, 21, 0
25, 2, 0
25, 15, 0
25, 5, 0
25, 18, 0
26, 20, 0
26, 12, 0
26, 13, 0
26, 17, 0
26, 27, 1
26, 19, 0
26, 5, 0
26, 11, 0
27, 20, 0
27, 19, 0
27, 26, 1
21, 0, 0
21, 23, 0
21, 18, 0
21, 2, 0
21, 1, 0
21, 7, 0
21, 25, 0
21, 24, 0
21, 14, 0
21, 8, 0
21, 15, 0
21, 10, 0
21, 22, 1
21, 9, 0
19, 20, 1
19, 17, 0
19, 26, 0
19, 24, 0
19, 27, 0
19, 11, 0
18, 0, 0
18, 3, 0
18, 4, 0
18, 17, 0
18, 24, 0
18, 21, 0
18, 25, 0
18, 2, 0
18, 5, 0
18, 11, 0
9, 0, 0
9, 16, 0
9, 8, 1
9, 14, 0
9, 21, 0
