0, 8, 0
0, 4, 0
3, 4, 0
4, 0, 0
4, 3, 0
7, 2, 0
7, 6, 1
7, 8, 0
7, 5, 0
7, 1, 0
2, 7, 0
2, 6, 0
2, 5, 0
2, 1, 0
6, 7, 1
6, 1, 0
6, 5, 0
6, 2, 0
8, 0, 0
8, 7, 0
8, 1, 0
5, 7, 0
5, 6, 0
5, 1, 0
5, 2, 0
1, 7, 0
1, 6, 0
1, 8, 0
1, 5, 0
1, 2, 0
