0, 7, 0
0, 6, 0
0, 4, 0
0, 5, 0
0, 1, 1
3, 7, 0
3, 4, 0
3, 2, 0
4, 0, 0
4, 3, 0
4, 7, 0
4, 6, 0
4, 5, 0
4, 1, 0
7, 0, 0
7, 3, 0
7, 4, 0
7, 6, 1
7, 5, 0
7, 1, 0
2, 3, 0
6, 0, 0
6, 7, 1
6, 4, 0
6, 5, 0
6, 1, 0
5, 0, 0
5, 7, 0
5, 1, 0
5, 4, 0
5, 6, 0
1, 0, 1
1, 7, 0
1, 4, 0
1, 5, 0
1, 6, 0
