12, 0, 0
12, 7, 0
12, 17, 0
12, 26, 0
12, 18, 0
12, 6, 0
12, 10, 0
12, 20, 0
12, 31, 0
12, 35, 0
12, 30, 0
12, 15, 0
13, 24, 0
13, 37, 0
13, 28, 0
13, 39, 0
13, 29, 0
13, 21, 0
13, 25, 0
13, 8, 0
13, 38, 0
13, 9, 0
17, 12, 0
17, 22, 0
17, 30, 0
31, 20, 0
31, 3, 0
31, 26, 0
31, 32, 1
31, 12, 0
31, 18, 0
31, 6, 0
31, 15, 0
31, 33, 0
31, 10, 0
23, 14, 0
23, 24, 0
23, 37, 0
23, 25, 0
23, 19, 0
23, 39, 0
23, 36, 0
24, 13, 0
24, 14, 0
24, 23, 0
24, 37, 0
24, 25, 1
24, 19, 0
24, 39, 0
24, 5, 0
24, 36, 0
5, 4, 1
5, 14, 0
5, 24, 0
5, 25, 0
5, 19, 0
5, 39, 0
11, 0, 0
11, 8, 0
11, 15, 0
11, 33, 0
11, 16, 0
11, 6, 0
11, 1, 0
11, 10, 1
11, 7, 0
11, 3, 0
11, 2, 0
11, 37, 0
11, 19, 0
11, 34, 0
11, 38, 0
11, 36, 0
1, 0, 1
1, 35, 0
1, 10, 0
1, 11, 0
1, 2, 1
20, 0, 0
20, 33, 0
20, 32, 0
20, 31, 0
20, 3, 0
20, 18, 0
20, 6, 0
20, 10, 0
20, 15, 0
20, 26, 0
20, 12, 0
21, 13, 0
21, 28, 0
21, 26, 0
21, 29, 0
21, 37, 0
21, 8, 0
21, 38, 0
21, 22, 0
21, 9, 0
4, 39, 0
4, 14, 0
4, 5, 1
14, 4, 0
14, 25, 0
14, 23, 0
14, 24, 0
14, 37, 0
14, 19, 0
14, 39, 0
14, 5, 0
14, 36, 0
39, 13, 0
39, 23, 0
39, 5, 0
39, 4, 0
39, 25, 0
39, 24, 0
39, 37, 0
39, 14, 0
39, 19, 0
39, 8, 0
39, 38, 0
39, 9, 0
35, 0, 0
35, 7, 0
35, 26, 0
35, 12, 0
35, 6, 0
35, 27, 0
35, 2, 0
35, 15, 0
35, 10, 0
35, 1, 0
28, 21, 0
28, 13, 0
28, 29, 1
30, 0, 0
30, 12, 0
30, 17, 0
30, 22, 0
8, 21, 0
8, 13, 0
8, 22, 0
8, 29, 0
8, 37, 0
8, 39, 0
8, 38, 0
8, 11, 0
8, 9, 0
15, 7, 0
15, 32, 0
15, 12, 0
15, 16, 1
15, 6, 0
15, 27, 0
15, 11, 0
15, 10, 0
15, 20, 0
15, 3, 0
15, 31, 0
15, 35, 0
15, 33, 0
22, 0, 0
22, 17, 0
22, 21, 0
22, 30, 0
22, 8, 0
22, 9, 0
36, 34, 0
36, 14, 0
36, 23, 0
36, 24, 0
36, 25, 0
36, 19, 0
36, 11, 0
0, 34, 0
0, 16, 0
0, 27, 0
0, 2, 1
0, 11, 0
0, 30, 0
0, 20, 0
0, 12, 0
0, 32, 0
0, 35, 0
0, 19, 0
0, 1, 1
0, 38, 0
0, 10, 0
0, 22, 0
6, 7, 1
6, 32, 0
6, 12, 0
6, 18, 0
6, 27, 0
6, 11, 0
6, 10, 0
6, 20, 0
6, 3, 0
6, 31, 0
6, 35, 0
6, 26, 0
6, 15, 0
3, 7, 0
3, 32, 0
3, 18, 0
3, 6, 0
3, 11, 0
3, 10, 0
3, 20, 0
3, 33, 0
3, 31, 0
3, 27, 0
3, 26, 0
3, 15, 0
16, 7, 0
16, 33, 0
16, 0, 0
16, 34, 0
16, 27, 0
16, 2, 0
16, 15, 1
16, 11, 0
16, 10, 0
38, 0, 0
38, 21, 0
38, 13, 0
38, 29, 0
38, 37, 0
38, 8, 0
38, 39, 0
38, 11, 0
38, 9, 0
27, 0, 0
27, 3, 0
27, 7, 0
27, 26, 1
27, 33, 0
27, 16, 0
27, 6, 0
27, 35, 0
27, 15, 0
27, 10, 0
10, 0, 0
10, 7, 0
10, 31, 0
10, 12, 0
10, 16, 0
10, 6, 0
10, 27, 0
10, 35, 0
10, 11, 1
10, 1, 0
10, 20, 0
10, 3, 0
10, 32, 0
10, 2, 0
10, 26, 0
10, 15, 0
7, 3, 0
7, 12, 0
7, 35, 0
7, 16, 0
7, 6, 1
7, 10, 0
7, 15, 0
7, 11, 0
7, 27, 0
34, 0, 0
34, 16, 0
34, 11, 0
34, 36, 0
25, 13, 0
25, 14, 0
25, 23, 0
25, 24, 1
25, 37, 0
25, 19, 0
25, 39, 0
25, 5, 0
25, 36, 0
33, 20, 0
33, 3, 0
33, 31, 0
33, 32, 0
33, 16, 0
33, 27, 0
33, 15, 0
33, 18, 0
33, 11, 0
32, 20, 0
32, 33, 0
32, 0, 0
32, 26, 0
32, 31, 1
32, 3, 0
32, 18, 0
32, 6, 0
32, 15, 0
32, 10, 0
2, 0, 1
2, 35, 0
2, 16, 0
2, 1, 1
2, 11, 0
2, 10, 0
37, 13, 0
37, 23, 0
37, 39, 0
37, 11, 0
37, 14, 0
37, 24, 0
37, 21, 0
37, 25, 0
37, 19, 0
37, 8, 0
37, 38, 0
37, 9, 0
29, 21, 0
29, 38, 0
29, 8, 0
29, 28, 1
29, 13, 0
19, 0, 0
19, 14, 0
19, 23, 0
19, 24, 0
19, 37, 0
19, 25, 0
19, 39, 0
19, 5, 0
19, 11, 0
19, 36, 0
26, 20, 0
26, 3, 0
26, 32, 0
26, 31, 0
26, 12, 0
26, 21, 0
26, 6, 0
26, 27, 1
26, 35, 0
26, 18, 0
26, 10, 0
18, 20, 0
18, 3, 0
18, 31, 0
18, 26, 0
18, 12, 0
18, 6, 0
18, 33, 0
18, 32, 0
9, 21, 0
9, 13, 0
9, 37, 0
9, 39, 0
9, 8, 0
9, 38, 0
9, 22, 0
