0, 12, 0
0, 4, 0
0, 14, 0
0, 9, 0
0, 2, 0
0, 6, 0
0, 8, 0
0, 10, 0
0, 11, 0
0, 1, 0
13, 10, 0
13, 9, 0
13, 5, 0
13, 2, 0
3, 7, 0
3, 9, 0
3, 5, 0
3, 10, 0
6, 0, 0
6, 12, 0
6, 4, 0
6, 14, 0
6, 10, 0
6, 1, 0
8, 0, 0
8, 12, 0
8, 4, 0
8, 9, 0
8, 11, 0
8, 10, 0
5, 7, 0
5, 3, 0
5, 13, 0
5, 9, 0
5, 10, 0
11, 0, 0
11, 8, 0
11, 9, 0
11, 10, 0
10, 0, 0
10, 13, 0
10, 3, 0
10, 6, 0
10, 5, 0
10, 11, 0
10, 1, 0
10, 7, 0
10, 12, 0
10, 14, 0
10, 2, 0
10, 8, 0
10, 9, 1
7, 3, 0
7, 9, 0
7, 5, 0
7, 10, 0
12, 0, 0
12, 4, 0
12, 14, 0
12, 6, 0
12, 8, 0
12, 10, 0
12, 1, 0
4, 0, 0
4, 12, 0
4, 14, 0
4, 6, 0
4, 8, 0
4, 1, 0
14, 0, 0
14, 12, 0
14, 4, 0
14, 2, 0
14, 6, 0
14, 10, 0
14, 1, 0
2, 0, 0
2, 13, 0
2, 14, 0
2, 1, 0
2, 9, 0
2, 10, 0
1, 0, 0
1, 12, 0
1, 4, 0
1, 14, 0
1, 2, 0
1, 6, 0
1, 10, 0
9, 0, 0
9, 7, 0
9, 13, 0
9, 3, 0
9, 2, 0
9, 8, 0
9, 5, 0
9, 11, 0
9, 10, 1
