0, 13, 0
0, 2, 0
13, 0, 0
13, 5, 0
17, 4, 0
17, 5, 0
3, 16, 0
3, 11, 0
3, 9, 0
16, 3, 0
16, 6, 0
16, 9, 0
16, 15, 0
16, 10, 0
16, 1, 0
6, 16, 0
6, 14, 0
6, 8, 0
6, 15, 0
6, 1, 0
8, 7, 1
8, 12, 0
8, 6, 0
8, 14, 0
8, 1, 0
5, 13, 0
5, 17, 0
11, 3, 0
11, 4, 0
11, 9, 0
11, 2, 0
10, 16, 0
10, 9, 1
7, 12, 0
7, 8, 1
7, 14, 0
7, 1, 0
12, 7, 0
12, 8, 0
12, 14, 0
12, 1, 0
4, 17, 0
4, 11, 0
14, 7, 0
14, 12, 0
14, 6, 0
14, 8, 0
14, 1, 0
2, 0, 0
2, 11, 0
1, 7, 0
1, 12, 0
1, 14, 0
1, 16, 0
1, 6, 0
1, 8, 0
15, 16, 0
15, 6, 0
9, 16, 0
9, 3, 0
9, 11, 0
9, 10, 1
