0, 3, 0
0, 1, 0
0, 10, 0
0, 9, 0
3, 0, 0
3, 6, 0
3, 10, 0
3, 9, 0
4, 7, 0
4, 6, 0
2, 8, 0
2, 5, 0
6, 7, 0
6, 3, 0
6, 4, 0
1, 0, 0
1, 10, 0
1, 9, 0
8, 7, 0
8, 5, 0
8, 2, 0
5, 7, 0
5, 8, 0
5, 2, 0
7, 6, 0
7, 8, 0
7, 5, 0
7, 4, 0
10, 0, 0
10, 3, 0
10, 1, 0
10, 9, 1
9, 0, 0
9, 3, 0
9, 1, 0
9, 10, 1
