0, 6, 0
0, 10, 0
13, 10, 0
13, 11, 0
13, 9, 0
3, 7, 0
3, 12, 0
3, 4, 0
3, 5, 0
3, 1, 0
6, 0, 0
6, 10, 0
8, 12, 0
8, 5, 0
5, 7, 0
5, 3, 0
5, 4, 0
5, 12, 0
5, 8, 0
5, 1, 0
11, 13, 0
11, 9, 0
11, 10, 0
10, 0, 0
10, 6, 0
10, 13, 0
10, 11, 0
10, 9, 0
7, 3, 0
7, 4, 0
7, 5, 0
12, 3, 0
12, 8, 0
12, 5, 0
12, 1, 0
4, 7, 0
4, 3, 0
4, 5, 0
4, 2, 0
2, 4, 0
2, 9, 0
1, 12, 0
1, 5, 0
1, 3, 0
9, 13, 0
9, 10, 0
9, 11, 0
9, 2, 0
