0, 3, 0
0, 8, 0
0, 5, 0
0, 9, 0
13, 3, 0
3, 0, 0
3, 8, 0
3, 13, 0
3, 5, 0
3, 9, 0
6, 7, 0
6, 2, 0
6, 11, 0
6, 1, 0
8, 0, 0
8, 3, 0
8, 12, 0
8, 10, 0
8, 5, 0
8, 9, 1
5, 0, 0
5, 3, 0
5, 4, 0
5, 9, 0
5, 12, 0
5, 8, 0
5, 10, 0
11, 7, 0
11, 6, 0
11, 2, 0
11, 1, 0
10, 12, 0
10, 8, 0
10, 5, 0
10, 4, 0
7, 12, 0
7, 6, 0
7, 2, 0
7, 11, 0
7, 1, 0
12, 7, 0
12, 8, 0
12, 5, 0
12, 4, 0
12, 10, 0
4, 12, 0
4, 5, 0
4, 10, 0
2, 7, 0
2, 6, 0
2, 11, 0
2, 1, 1
1, 7, 0
1, 6, 0
1, 11, 0
1, 2, 1
9, 0, 0
9, 3, 0
9, 8, 1
9, 5, 0
