13, 0, 0
13, 20, 0
13, 4, 0
13, 17, 0
13, 26, 0
13, 3, 0
13, 16, 0
13, 18, 0
17, 0, 0
17, 18, 0
17, 4, 0
17, 13, 0
17, 26, 0
23, 7, 0
23, 21, 0
23, 25, 0
23, 26, 0
23, 18, 0
23, 6, 0
23, 22, 0
5, 14, 0
5, 9, 0
5, 24, 0
5, 21, 0
5, 6, 0
5, 19, 0
5, 2, 0
5, 15, 0
5, 1, 0
11, 12, 0
11, 25, 0
11, 21, 0
11, 6, 0
11, 22, 0
11, 10, 0
1, 9, 0
1, 8, 0
1, 15, 0
1, 5, 0
1, 2, 1
20, 0, 0
20, 16, 0
20, 13, 0
4, 0, 0
4, 3, 1
4, 13, 0
4, 17, 0
4, 26, 0
4, 16, 0
4, 18, 0
14, 12, 0
14, 2, 0
14, 21, 0
14, 6, 0
14, 19, 0
14, 5, 0
14, 9, 0
24, 19, 0
24, 15, 0
24, 5, 0
8, 2, 0
8, 9, 1
8, 15, 0
8, 1, 0
15, 24, 0
15, 9, 0
15, 2, 0
15, 8, 0
15, 5, 0
15, 1, 0
22, 7, 0
22, 21, 0
22, 25, 0
22, 23, 0
22, 16, 0
22, 6, 0
22, 11, 0
0, 20, 0
0, 13, 0
0, 17, 0
0, 4, 0
3, 18, 0
3, 16, 0
3, 13, 0
3, 4, 1
16, 20, 0
16, 3, 0
16, 13, 0
16, 4, 0
16, 18, 0
16, 22, 0
6, 12, 0
6, 14, 0
6, 26, 0
6, 23, 0
6, 21, 0
6, 25, 0
6, 5, 0
6, 22, 0
6, 18, 0
6, 11, 0
6, 10, 0
10, 21, 0
10, 6, 0
10, 25, 0
10, 11, 0
7, 18, 0
7, 22, 0
7, 26, 0
7, 23, 0
12, 14, 0
12, 6, 0
12, 21, 0
12, 25, 0
12, 19, 0
12, 11, 0
25, 12, 0
25, 11, 0
25, 23, 0
25, 21, 0
25, 6, 0
25, 22, 0
25, 10, 0
26, 7, 0
26, 4, 0
26, 13, 0
26, 23, 0
26, 18, 0
26, 6, 0
26, 17, 0
2, 14, 0
2, 1, 1
2, 19, 0
2, 8, 0
2, 15, 0
2, 5, 0
2, 9, 0
21, 25, 0
21, 12, 0
21, 14, 0
21, 22, 0
21, 23, 0
21, 6, 0
21, 5, 0
21, 11, 0
21, 10, 0
19, 12, 0
19, 2, 0
19, 14, 0
19, 5, 0
19, 24, 0
18, 7, 0
18, 3, 0
18, 4, 0
18, 13, 0
18, 26, 0
18, 23, 0
18, 16, 0
18, 6, 0
18, 17, 0
9, 14, 0
9, 2, 0
9, 8, 1
9, 15, 0
9, 5, 0
9, 1, 0
