0, 12, 0
0, 6, 0
13, 7, 0
13, 8, 0
13, 4, 0
13, 10, 0
3, 4, 0
3, 5, 0
3, 1, 0
6, 0, 0
6, 2, 0
8, 7, 1
8, 13, 0
8, 4, 0
8, 10, 0
5, 3, 0
5, 14, 0
5, 11, 0
5, 1, 0
11, 9, 0
11, 14, 0
11, 5, 0
11, 1, 0
10, 7, 0
10, 12, 0
10, 13, 0
10, 4, 0
10, 2, 0
10, 8, 0
7, 12, 0
7, 8, 1
7, 13, 0
7, 4, 0
7, 10, 0
12, 0, 0
12, 7, 0
12, 10, 0
4, 7, 0
4, 3, 0
4, 8, 0
4, 13, 0
4, 10, 0
14, 5, 0
14, 11, 0
14, 1, 0
2, 6, 0
2, 10, 0
1, 3, 0
1, 14, 0
1, 5, 0
1, 11, 0
9, 11, 0
