13, 12, 0
13, 6, 0
13, 10, 0
13, 15, 0
13, 9, 0
17, 0, 0
17, 18, 0
17, 4, 0
17, 14, 0
17, 26, 0
17, 2, 0
17, 16, 1
17, 15, 0
23, 15, 0
23, 25, 0
23, 26, 0
23, 22, 1
23, 2, 0
5, 0, 0
5, 7, 0
5, 26, 0
5, 18, 0
5, 6, 0
5, 19, 0
5, 10, 0
5, 11, 0
5, 9, 0
11, 18, 0
11, 6, 0
11, 19, 0
11, 15, 0
11, 5, 0
1, 21, 0
1, 2, 0
1, 8, 0
1, 15, 0
1, 24, 0
20, 4, 0
20, 24, 0
4, 20, 0
4, 0, 0
4, 21, 0
4, 17, 0
4, 26, 0
4, 2, 0
4, 16, 0
4, 14, 0
4, 15, 0
4, 18, 0
14, 0, 0
14, 18, 0
14, 4, 0
14, 17, 0
14, 26, 0
14, 16, 0
14, 19, 0
24, 20, 0
24, 3, 0
24, 2, 0
24, 21, 0
24, 0, 0
24, 8, 0
24, 15, 0
24, 1, 0
8, 3, 0
8, 25, 0
8, 2, 0
8, 21, 0
8, 24, 0
8, 22, 0
8, 1, 0
15, 13, 0
15, 17, 0
15, 23, 0
15, 16, 0
15, 6, 0
15, 2, 0
15, 11, 0
15, 1, 0
15, 18, 0
15, 4, 0
15, 26, 0
15, 24, 0
15, 21, 0
22, 21, 1
22, 8, 0
22, 25, 0
22, 23, 1
22, 2, 0
0, 3, 0
0, 4, 0
0, 14, 0
0, 26, 0
0, 24, 0
0, 16, 0
0, 17, 0
0, 19, 0
0, 5, 0
3, 0, 0
3, 2, 0
3, 25, 0
3, 24, 0
3, 21, 0
3, 8, 0
16, 0, 0
16, 4, 0
16, 14, 0
16, 26, 0
16, 18, 0
16, 17, 1
16, 15, 0
6, 7, 0
6, 12, 0
6, 13, 0
6, 19, 0
6, 15, 0
6, 5, 0
6, 11, 0
10, 13, 0
10, 5, 0
10, 9, 0
7, 12, 0
7, 19, 0
7, 6, 0
7, 5, 0
7, 9, 0
12, 7, 0
12, 6, 0
12, 13, 0
12, 9, 0
25, 3, 0
25, 23, 0
25, 2, 0
25, 21, 0
25, 8, 0
25, 22, 0
26, 0, 0
26, 17, 0
26, 23, 0
26, 18, 0
26, 5, 0
26, 16, 0
26, 4, 0
26, 14, 0
26, 2, 0
26, 21, 0
26, 19, 0
26, 15, 0
2, 17, 0
2, 23, 0
2, 1, 0
2, 3, 0
2, 4, 0
2, 25, 0
2, 26, 0
2, 24, 0
2, 21, 0
2, 8, 0
2, 15, 0
2, 22, 0
21, 3, 0
21, 4, 0
21, 25, 0
21, 26, 0
21, 24, 0
21, 18, 0
21, 2, 0
21, 8, 0
21, 15, 0
21, 22, 1
21, 1, 0
19, 0, 0
19, 7, 0
19, 14, 0
19, 26, 0
19, 18, 0
19, 6, 0
19, 5, 0
19, 11, 0
18, 21, 0
18, 4, 0
18, 14, 0
18, 26, 0
18, 16, 0
18, 17, 0
18, 19, 0
18, 15, 0
18, 5, 0
18, 11, 0
9, 7, 0
9, 12, 0
9, 13, 0
9, 5, 0
9, 10, 0
