12, 13, 0
12, 26, 0
13, 12, 0
13, 26, 0
13, 11, 0
13, 35, 0
17, 37, 0
17, 7, 0
17, 0, 0
31, 3, 0
31, 38, 0
31, 32, 1
23, 0, 0
23, 22, 1
23, 24, 0
24, 0, 0
24, 3, 0
24, 4, 0
24, 25, 0
24, 23, 0
24, 22, 0
40, 29, 0
40, 9, 0
40, 39, 1
40, 36, 0
5, 6, 1
5, 15, 0
5, 34, 0
11, 35, 0
11, 13, 0
11, 2, 0
30, 20, 0
30, 10, 0
30, 29, 0
20, 10, 0
20, 30, 0
21, 42, 0
21, 10, 0
21, 41, 0
21, 6, 0
4, 3, 1
4, 25, 0
4, 24, 0
14, 35, 0
14, 9, 0
14, 1, 0
35, 1, 0
35, 13, 0
35, 14, 0
35, 11, 0
35, 2, 0
42, 21, 0
42, 41, 1
42, 10, 0
1, 9, 0
1, 14, 0
1, 35, 0
15, 34, 0
15, 5, 0
15, 6, 0
41, 21, 0
41, 42, 1
41, 10, 0
22, 0, 0
22, 23, 1
22, 32, 0
22, 24, 0
36, 39, 0
36, 40, 0
36, 29, 0
0, 17, 0
0, 32, 0
0, 23, 0
0, 24, 0
0, 37, 0
0, 22, 0
7, 37, 0
7, 8, 0
7, 17, 0
6, 21, 0
6, 34, 0
6, 15, 0
6, 5, 1
8, 7, 0
38, 16, 0
38, 3, 0
38, 31, 0
38, 32, 0
3, 4, 1
3, 25, 0
3, 32, 0
3, 31, 0
3, 24, 0
3, 38, 0
16, 33, 0
16, 19, 0
16, 38, 0
16, 32, 0
39, 9, 0
39, 40, 1
39, 36, 0
18, 34, 0
18, 19, 0
18, 28, 0
18, 33, 0
18, 27, 0
27, 18, 0
27, 28, 0
28, 18, 0
28, 34, 0
28, 27, 0
34, 18, 0
34, 28, 0
34, 15, 0
34, 5, 0
34, 6, 0
25, 3, 0
25, 4, 0
25, 24, 0
33, 16, 0
33, 18, 0
33, 19, 0
32, 0, 0
32, 3, 0
32, 31, 1
32, 16, 0
32, 38, 0
32, 22, 0
2, 11, 0
2, 35, 0
37, 0, 0
37, 7, 0
37, 17, 0
29, 36, 0
29, 9, 0
29, 40, 0
29, 30, 0
19, 16, 0
19, 18, 0
19, 33, 0
26, 12, 0
26, 13, 0
10, 20, 0
10, 42, 0
10, 30, 0
10, 41, 0
10, 21, 0
9, 14, 0
9, 29, 0
9, 40, 0
9, 39, 0
9, 1, 0
