0, 7, 0
0, 6, 0
0, 8, 0
0, 5, 0
0, 4, 0
3, 2, 0
3, 8, 0
3, 1, 0
4, 0, 0
4, 6, 0
4, 8, 0
4, 7, 0
4, 5, 1
2, 3, 0
2, 1, 0
2, 8, 0
2, 9, 0
6, 0, 0
6, 7, 1
6, 8, 0
6, 5, 0
6, 4, 0
1, 3, 0
1, 8, 0
1, 9, 0
1, 2, 0
8, 0, 0
8, 3, 0
8, 4, 0
8, 7, 0
8, 2, 0
8, 6, 0
8, 5, 0
8, 1, 0
5, 0, 0
5, 7, 0
5, 8, 0
5, 4, 1
5, 6, 0
7, 0, 0
7, 6, 1
7, 8, 0
7, 5, 0
7, 4, 0
9, 1, 0
9, 2, 0
