2, 27, 0
2, 17, 0
2, 6, 0
13, 25, 0
13, 8, 0
13, 14, 1
13, 5, 0
13, 29, 0
17, 6, 0
17, 29, 0
17, 9, 0
17, 26, 0
17, 2, 0
23, 7, 0
23, 24, 0
29, 13, 0
29, 17, 0
29, 6, 0
29, 27, 0
29, 5, 0
29, 9, 0
5, 13, 0
5, 28, 0
5, 29, 0
11, 21, 0
11, 25, 0
11, 15, 0
1, 16, 0
1, 3, 0
1, 4, 0
1, 10, 0
20, 7, 0
20, 19, 0
4, 16, 0
4, 10, 0
4, 1, 0
14, 13, 1
14, 8, 0
14, 25, 0
24, 18, 0
24, 0, 0
24, 23, 0
28, 12, 0
28, 5, 0
8, 25, 0
8, 12, 0
8, 13, 0
8, 14, 0
15, 21, 0
15, 11, 0
22, 21, 0
22, 0, 0
0, 18, 0
0, 22, 0
0, 24, 0
12, 8, 0
12, 28, 0
16, 4, 0
16, 1, 0
6, 3, 0
6, 29, 0
6, 17, 0
6, 2, 0
10, 4, 0
10, 1, 0
7, 20, 0
7, 23, 0
3, 6, 0
3, 26, 0
3, 1, 0
25, 21, 0
25, 8, 0
25, 14, 0
25, 11, 0
25, 13, 0
26, 3, 0
26, 17, 0
27, 29, 0
27, 9, 0
27, 2, 0
21, 25, 0
21, 15, 0
21, 11, 0
21, 22, 0
19, 20, 0
18, 0, 0
18, 24, 0
9, 27, 0
9, 17, 0
9, 29, 0
