0, 3, 0
0, 15, 0
0, 1, 1
13, 12, 0
13, 14, 1
13, 2, 0
3, 0, 0
3, 7, 0
3, 15, 0
3, 1, 0
6, 12, 0
6, 4, 0
6, 8, 0
6, 5, 0
6, 11, 0
6, 10, 0
8, 6, 0
8, 11, 0
8, 10, 0
5, 12, 0
5, 4, 1
5, 11, 0
5, 6, 0
11, 12, 0
11, 4, 0
11, 6, 0
11, 8, 0
11, 5, 0
11, 10, 1
10, 12, 0
10, 8, 0
10, 11, 1
10, 6, 0
7, 3, 0
12, 13, 0
12, 14, 0
12, 4, 0
12, 2, 0
12, 6, 0
12, 5, 0
12, 11, 0
12, 10, 0
4, 12, 0
4, 5, 1
4, 11, 0
4, 6, 0
14, 12, 0
14, 13, 1
14, 2, 0
2, 12, 0
2, 13, 0
2, 14, 0
2, 9, 0
1, 0, 1
1, 3, 0
1, 15, 0
15, 0, 0
15, 3, 0
15, 9, 0
15, 1, 0
9, 15, 0
9, 2, 0
