13, 34, 0
13, 8, 0
13, 41, 0
13, 22, 0
13, 9, 0
17, 36, 0
17, 10, 0
23, 20, 0
23, 3, 0
23, 4, 0
23, 14, 0
23, 2, 0
23, 6, 0
23, 24, 0
23, 1, 0
42, 33, 0
42, 10, 0
42, 36, 0
5, 18, 0
5, 25, 0
5, 29, 0
5, 37, 0
5, 44, 0
5, 10, 0
20, 0, 0
20, 14, 0
20, 23, 0
20, 24, 0
20, 16, 0
20, 43, 0
20, 1, 0
14, 20, 0
14, 24, 0
14, 23, 0
14, 1, 0
24, 20, 0
24, 43, 0
24, 23, 0
24, 16, 0
24, 14, 0
24, 1, 0
28, 27, 1
28, 45, 0
28, 12, 0
28, 30, 0
39, 15, 0
39, 19, 0
39, 40, 1
39, 33, 0
41, 8, 0
41, 13, 0
41, 22, 0
0, 20, 0
0, 16, 0
0, 1, 0
0, 43, 0
0, 45, 0
8, 13, 0
8, 41, 0
8, 22, 0
12, 7, 0
12, 28, 0
12, 31, 0
12, 26, 0
12, 21, 0
12, 27, 0
12, 11, 0
12, 30, 0
15, 7, 0
15, 31, 0
15, 21, 0
15, 40, 0
15, 19, 0
15, 39, 0
15, 11, 0
10, 25, 0
10, 17, 0
10, 29, 0
10, 18, 0
10, 42, 0
10, 5, 0
10, 36, 0
7, 12, 0
7, 31, 0
7, 21, 0
7, 19, 0
7, 15, 0
7, 11, 0
3, 6, 0
3, 4, 1
3, 23, 0
3, 2, 1
32, 34, 0
32, 4, 0
32, 9, 0
32, 6, 0
2, 3, 1
2, 23, 0
2, 6, 0
21, 7, 0
21, 12, 0
21, 15, 0
21, 11, 0
21, 31, 0
33, 42, 0
33, 39, 0
19, 7, 0
19, 39, 0
19, 15, 0
19, 31, 0
18, 29, 0
18, 44, 0
18, 25, 0
18, 5, 0
18, 10, 0
31, 7, 0
31, 12, 0
31, 21, 0
31, 19, 0
31, 15, 0
31, 11, 0
29, 18, 0
29, 5, 0
29, 25, 0
29, 44, 0
29, 10, 0
40, 15, 0
40, 39, 1
11, 7, 0
11, 12, 0
11, 15, 0
11, 31, 0
11, 21, 0
1, 20, 0
1, 0, 0
1, 14, 0
1, 23, 0
1, 24, 0
37, 35, 0
37, 25, 0
37, 44, 0
37, 5, 0
4, 3, 1
4, 32, 0
4, 23, 0
4, 6, 0
35, 37, 0
35, 38, 0
35, 44, 0
30, 12, 0
30, 27, 0
30, 28, 0
30, 26, 0
30, 45, 0
38, 35, 0
22, 34, 0
22, 8, 0
22, 13, 0
22, 41, 0
22, 9, 0
36, 42, 0
36, 17, 0
36, 10, 0
45, 0, 0
45, 16, 0
45, 28, 0
45, 30, 0
16, 20, 0
16, 0, 0
16, 45, 0
16, 43, 0
16, 24, 0
27, 12, 0
27, 28, 1
27, 26, 1
27, 30, 0
44, 18, 0
44, 25, 0
44, 35, 0
44, 37, 0
44, 29, 0
44, 5, 0
34, 13, 0
34, 22, 0
34, 32, 0
34, 9, 0
25, 18, 0
25, 29, 0
25, 37, 0
25, 10, 0
25, 44, 0
25, 5, 0
26, 12, 0
26, 27, 1
26, 30, 0
6, 3, 0
6, 4, 0
6, 32, 0
6, 23, 0
6, 2, 0
43, 20, 0
43, 16, 0
43, 0, 0
43, 24, 0
9, 34, 0
9, 13, 0
9, 32, 0
9, 22, 0
