0, 18, 0
0, 2, 0
0, 11, 0
0, 10, 0
7, 15, 0
7, 8, 1
7, 14, 0
7, 9, 0
13, 12, 0
13, 16, 0
13, 6, 0
13, 19, 0
13, 15, 0
13, 5, 0
17, 3, 0
17, 4, 0
17, 2, 0
3, 4, 1
3, 17, 0
3, 1, 0
16, 19, 0
16, 13, 0
16, 15, 1
6, 20, 0
6, 12, 0
6, 13, 0
6, 5, 0
6, 18, 0
8, 7, 1
8, 9, 0
5, 12, 0
5, 19, 0
5, 13, 0
5, 6, 0
11, 0, 0
11, 10, 0
11, 2, 0
10, 0, 0
10, 11, 0
10, 2, 0
20, 18, 0
20, 6, 0
12, 6, 0
12, 13, 0
12, 5, 0
4, 3, 1
4, 17, 0
4, 1, 0
14, 7, 0
14, 15, 1
2, 0, 0
2, 17, 0
2, 11, 0
2, 10, 0
19, 16, 0
19, 13, 0
19, 15, 0
19, 5, 0
1, 3, 0
1, 4, 0
15, 16, 1
15, 7, 0
15, 19, 0
15, 13, 0
15, 14, 1
18, 0, 0
18, 20, 0
18, 6, 0
9, 7, 0
9, 8, 0
