0, 3, 0
0, 15, 0
0, 13, 0
0, 14, 0
0, 11, 0
13, 0, 0
13, 3, 0
13, 14, 1
13, 11, 0
17, 3, 0
17, 4, 0
17, 16, 0
17, 6, 0
17, 15, 0
17, 1, 0
3, 0, 0
3, 13, 0
3, 17, 0
3, 2, 0
3, 6, 0
3, 14, 0
3, 15, 0
3, 11, 0
16, 4, 0
16, 17, 0
16, 2, 0
16, 15, 0
16, 5, 0
16, 1, 0
6, 2, 0
6, 15, 0
6, 4, 0
6, 17, 0
6, 3, 0
8, 7, 1
8, 12, 0
8, 9, 0
8, 5, 0
8, 1, 0
5, 16, 0
5, 7, 0
5, 2, 0
5, 8, 0
5, 1, 0
11, 0, 0
11, 3, 0
11, 15, 0
11, 13, 0
11, 14, 0
10, 9, 1
7, 12, 0
7, 2, 0
7, 1, 0
7, 8, 1
7, 5, 0
7, 9, 0
12, 7, 0
12, 2, 0
12, 8, 0
12, 9, 0
4, 16, 0
4, 6, 0
4, 17, 0
4, 2, 0
14, 0, 0
14, 3, 0
14, 13, 1
14, 15, 0
14, 11, 0
2, 7, 0
2, 3, 0
2, 4, 0
2, 12, 0
2, 16, 0
2, 6, 0
2, 5, 0
2, 1, 0
1, 7, 0
1, 17, 0
1, 2, 0
1, 16, 0
1, 8, 0
1, 5, 0
1, 9, 0
15, 0, 0
15, 3, 0
15, 17, 0
15, 16, 0
15, 6, 0
15, 14, 0
15, 11, 0
9, 7, 0
9, 12, 0
9, 8, 0
9, 10, 1
9, 1, 0
