0, 7, 0
0, 3, 0
0, 4, 0
0, 2, 0
0, 6, 0
0, 5, 0
3, 0, 0
3, 2, 1
4, 0, 0
4, 6, 1
4, 5, 1
2, 0, 0
2, 3, 1
2, 9, 0
6, 0, 0
6, 7, 1
6, 4, 1
6, 5, 1
1, 8, 0
1, 9, 0
8, 1, 0
5, 0, 0
5, 6, 1
5, 4, 1
7, 0, 0
7, 6, 1
9, 2, 0
9, 1, 0
