0, 3, 0
0, 4, 0
0, 2, 0
3, 0, 0
3, 8, 0
3, 4, 0
3, 1, 0
4, 0, 0
4, 3, 0
4, 2, 0
4, 6, 0
4, 8, 0
4, 5, 0
7, 6, 1
7, 8, 0
2, 0, 0
2, 4, 0
6, 7, 1
6, 8, 0
6, 5, 0
6, 4, 0
6, 1, 0
8, 7, 0
8, 3, 0
8, 1, 0
8, 4, 0
8, 6, 0
5, 6, 0
5, 4, 0
5, 1, 0
1, 6, 0
1, 8, 0
1, 5, 0
1, 3, 0
