0, 3, 0
0, 4, 0
0, 15, 0
0, 10, 0
0, 9, 0
13, 7, 0
13, 10, 0
3, 0, 0
3, 1, 0
3, 8, 0
3, 4, 0
3, 9, 0
6, 11, 0
6, 2, 0
8, 3, 0
8, 5, 0
8, 1, 0
5, 8, 0
5, 4, 0
5, 1, 0
11, 2, 0
11, 12, 0
11, 1, 0
11, 6, 0
10, 0, 0
10, 7, 0
10, 14, 0
10, 13, 0
10, 15, 0
7, 15, 0
7, 13, 0
7, 14, 0
7, 10, 0
12, 11, 0
12, 1, 0
4, 0, 0
4, 3, 0
4, 5, 0
4, 9, 0
14, 7, 0
14, 10, 0
14, 15, 0
14, 9, 0
2, 6, 0
2, 11, 0
1, 12, 0
1, 8, 0
1, 5, 0
1, 11, 0
1, 3, 0
15, 0, 0
15, 7, 0
15, 9, 0
15, 14, 0
15, 10, 0
9, 0, 0
9, 3, 0
9, 15, 0
9, 4, 0
9, 14, 0
