0, 3, 0
0, 4, 0
0, 9, 0
0, 2, 0
0, 6, 0
0, 8, 0
0, 5, 0
0, 1, 0
3, 7, 0
3, 0, 0
3, 1, 0
4, 0, 0
4, 6, 0
4, 9, 0
4, 5, 1
4, 2, 0
2, 0, 0
2, 6, 0
2, 4, 0
2, 5, 0
2, 9, 0
6, 0, 0
6, 2, 0
6, 4, 0
6, 5, 0
6, 9, 0
1, 0, 0
1, 3, 0
8, 7, 0
8, 0, 0
5, 0, 0
5, 6, 0
5, 2, 0
5, 4, 1
5, 9, 0
7, 3, 0
7, 8, 0
9, 0, 0
9, 6, 0
9, 4, 0
9, 5, 0
9, 2, 0
