0, 7, 0
0, 4, 0
13, 7, 0
13, 10, 0
3, 12, 0
3, 4, 0
3, 9, 0
6, 14, 0
6, 5, 1
6, 1, 0
8, 12, 0
8, 14, 0
5, 6, 1
5, 14, 0
5, 1, 0
11, 10, 0
11, 2, 0
10, 7, 0
10, 13, 0
10, 11, 0
10, 2, 0
7, 0, 0
7, 13, 0
7, 10, 0
12, 3, 0
12, 8, 0
12, 9, 0
4, 0, 0
4, 3, 0
4, 9, 0
14, 6, 0
14, 8, 0
14, 5, 0
14, 1, 0
2, 11, 0
2, 10, 0
1, 6, 0
1, 14, 0
1, 5, 0
9, 12, 0
9, 4, 0
9, 3, 0
