0, 7, 0
0, 6, 0
0, 8, 0
3, 6, 0
3, 2, 0
4, 6, 0
4, 5, 0
4, 1, 0
7, 0, 0
7, 6, 0
7, 8, 0
7, 5, 0
7, 1, 0
2, 3, 0
2, 8, 0
2, 6, 0
6, 0, 0
6, 7, 0
6, 4, 0
6, 3, 0
6, 2, 0
6, 8, 0
6, 5, 0
6, 1, 0
8, 0, 0
8, 7, 0
8, 6, 0
8, 2, 0
5, 7, 0
5, 6, 0
5, 4, 0
5, 1, 0
1, 7, 0
1, 6, 0
1, 4, 0
1, 5, 0
