0, 9, 0
0, 1, 1
3, 7, 0
3, 8, 0
3, 5, 0
3, 4, 1
3, 9, 0
4, 7, 0
4, 3, 1
4, 2, 0
4, 8, 0
4, 5, 0
4, 9, 0
2, 7, 0
2, 4, 0
2, 6, 0
2, 9, 0
2, 5, 0
2, 1, 0
6, 1, 0
6, 9, 0
6, 2, 0
1, 0, 1
1, 6, 0
1, 2, 0
1, 9, 0
8, 7, 0
8, 3, 0
8, 4, 0
8, 5, 0
8, 9, 0
5, 7, 0
5, 3, 0
5, 4, 0
5, 2, 0
5, 8, 0
5, 9, 0
7, 3, 0
7, 4, 0
7, 2, 0
7, 8, 0
7, 5, 0
7, 9, 0
9, 0, 0
9, 3, 0
9, 4, 0
9, 2, 0
9, 6, 0
9, 1, 0
9, 8, 0
9, 7, 0
9, 5, 0
