13, 6, 0
13, 15, 0
17, 18, 0
17, 12, 0
17, 15, 0
17, 1, 0
5, 0, 0
5, 4, 0
5, 2, 0
11, 20, 0
11, 3, 0
11, 16, 0
1, 16, 0
1, 7, 0
1, 8, 0
1, 17, 0
1, 18, 0
20, 16, 0
20, 3, 0
20, 11, 0
4, 0, 0
4, 5, 0
4, 2, 0
14, 2, 0
8, 7, 1
8, 18, 0
8, 1, 0
15, 12, 0
15, 13, 0
15, 17, 0
0, 2, 0
0, 4, 0
0, 5, 0
0, 10, 0
3, 20, 0
3, 16, 0
3, 19, 0
3, 11, 0
16, 20, 0
16, 3, 0
16, 11, 0
16, 1, 0
6, 13, 0
6, 10, 0
6, 9, 0
10, 0, 0
10, 6, 0
10, 9, 0
7, 18, 0
7, 8, 1
7, 1, 0
12, 18, 0
12, 15, 0
12, 17, 0
2, 0, 0
2, 4, 0
2, 14, 0
2, 5, 0
21, 19, 0
19, 21, 0
19, 3, 0
18, 7, 0
18, 12, 0
18, 8, 0
18, 17, 0
18, 1, 0
9, 6, 0
9, 10, 0
