2, 20, 0
2, 12, 0
2, 4, 0
2, 11, 0
2, 16, 0
2, 5, 0
2, 22, 0
2, 10, 0
13, 7, 0
13, 4, 0
13, 28, 0
13, 29, 0
13, 18, 0
13, 27, 0
13, 19, 0
13, 5, 0
13, 1, 0
17, 23, 0
17, 6, 0
17, 5, 0
17, 11, 0
17, 30, 0
17, 20, 0
17, 3, 0
17, 25, 0
17, 24, 0
17, 10, 0
17, 22, 0
17, 9, 0
23, 0, 0
23, 17, 0
23, 24, 0
23, 6, 0
23, 15, 0
23, 5, 0
23, 30, 0
29, 18, 0
29, 27, 1
29, 13, 0
29, 14, 0
29, 28, 1
5, 13, 0
5, 17, 0
5, 23, 0
5, 16, 0
5, 6, 1
5, 1, 0
5, 24, 0
5, 27, 0
5, 20, 0
5, 4, 0
5, 2, 0
5, 19, 0
5, 8, 0
5, 30, 0
11, 12, 0
11, 17, 0
11, 2, 0
11, 16, 0
11, 22, 0
11, 10, 1
1, 7, 0
1, 12, 0
1, 13, 0
1, 19, 0
1, 8, 0
1, 5, 0
1, 10, 0
20, 12, 0
20, 4, 0
20, 17, 0
20, 2, 0
20, 16, 0
20, 6, 0
20, 30, 0
20, 9, 0
20, 5, 0
20, 22, 0
20, 10, 0
4, 20, 0
4, 13, 0
4, 26, 0
4, 2, 0
4, 16, 0
4, 19, 0
4, 8, 0
4, 5, 0
4, 10, 0
14, 18, 0
14, 27, 0
14, 12, 0
14, 28, 0
14, 29, 0
24, 0, 0
24, 3, 0
24, 17, 0
24, 23, 0
24, 21, 0
24, 6, 0
24, 30, 0
24, 15, 0
24, 25, 0
24, 5, 0
28, 18, 0
28, 27, 1
28, 13, 0
28, 14, 0
28, 29, 1
30, 20, 0
30, 3, 0
30, 17, 0
30, 23, 0
30, 24, 0
30, 6, 0
30, 25, 0
30, 5, 0
30, 9, 0
8, 12, 0
8, 4, 0
8, 26, 0
8, 19, 0
8, 10, 0
8, 5, 0
8, 1, 0
15, 21, 0
15, 0, 0
15, 6, 0
15, 23, 0
15, 24, 0
22, 20, 0
22, 12, 0
22, 17, 0
22, 3, 0
22, 2, 0
22, 21, 0
22, 25, 0
22, 9, 0
22, 0, 0
22, 11, 0
22, 10, 0
0, 3, 0
0, 23, 0
0, 24, 0
0, 21, 0
0, 15, 0
0, 22, 0
12, 7, 0
12, 16, 0
12, 11, 0
12, 1, 0
12, 20, 0
12, 18, 0
12, 14, 0
12, 26, 0
12, 2, 0
12, 8, 0
12, 10, 0
12, 22, 0
12, 9, 0
16, 20, 0
16, 12, 0
16, 4, 0
16, 26, 0
16, 2, 0
16, 5, 0
16, 11, 0
16, 10, 0
6, 20, 0
6, 17, 0
6, 23, 0
6, 24, 0
6, 15, 0
6, 5, 1
6, 30, 0
10, 7, 0
10, 17, 0
10, 16, 0
10, 11, 1
10, 1, 0
10, 20, 0
10, 12, 0
10, 4, 0
10, 26, 0
10, 2, 0
10, 8, 0
10, 22, 0
10, 9, 0
7, 12, 0
7, 13, 0
7, 18, 0
7, 27, 0
7, 1, 0
7, 10, 0
3, 0, 0
3, 17, 0
3, 24, 0
3, 25, 0
3, 22, 0
3, 30, 0
25, 3, 0
25, 17, 0
25, 24, 0
25, 30, 0
25, 22, 0
25, 9, 0
26, 12, 0
26, 4, 0
26, 16, 0
26, 19, 0
26, 8, 0
26, 10, 0
27, 7, 0
27, 13, 0
27, 28, 1
27, 29, 1
27, 18, 0
27, 14, 0
27, 5, 0
21, 0, 0
21, 15, 0
21, 22, 0
21, 24, 0
19, 4, 0
19, 13, 0
19, 26, 0
19, 8, 0
19, 5, 0
19, 1, 0
18, 7, 0
18, 12, 0
18, 13, 0
18, 14, 0
18, 29, 0
18, 28, 0
18, 27, 0
9, 20, 0
9, 12, 0
9, 17, 0
9, 25, 0
9, 30, 0
9, 22, 0
9, 10, 0
