12, 0, 0
12, 7, 0
12, 6, 0
12, 17, 0
12, 31, 0
12, 16, 0
12, 27, 0
12, 24, 0
12, 10, 0
12, 20, 0
12, 3, 0
12, 4, 0
12, 14, 0
12, 26, 0
12, 29, 0
12, 2, 0
12, 25, 0
12, 19, 0
12, 8, 0
12, 18, 0
12, 9, 0
13, 0, 0
13, 15, 0
17, 12, 0
17, 25, 0
17, 3, 0
17, 24, 0
17, 18, 1
17, 6, 0
17, 14, 0
17, 19, 0
17, 10, 0
26, 20, 0
26, 12, 0
26, 7, 0
26, 14, 0
26, 31, 0
26, 24, 0
26, 18, 0
26, 6, 0
26, 19, 0
26, 8, 0
26, 0, 0
23, 28, 0
23, 29, 0
23, 21, 0
23, 6, 0
23, 14, 0
23, 30, 0
23, 5, 0
23, 11, 0
23, 1, 0
2, 0, 0
2, 12, 0
2, 22, 0
2, 31, 0
2, 6, 0
5, 25, 0
5, 28, 0
5, 23, 0
5, 6, 0
5, 14, 0
5, 30, 0
11, 21, 0
11, 23, 0
11, 31, 0
11, 1, 0
1, 21, 0
1, 11, 0
1, 23, 0
20, 7, 0
20, 12, 0
20, 14, 0
20, 26, 0
20, 3, 0
20, 19, 1
20, 8, 0
20, 24, 0
20, 10, 0
4, 0, 0
4, 12, 0
4, 22, 0
14, 7, 0
14, 17, 0
14, 23, 0
14, 18, 0
14, 6, 0
14, 5, 0
14, 20, 0
14, 12, 0
14, 25, 0
14, 26, 0
14, 21, 0
14, 8, 0
24, 20, 0
24, 12, 0
24, 17, 0
24, 26, 0
24, 31, 0
24, 18, 0
24, 25, 0
24, 19, 0
24, 0, 0
24, 10, 0
28, 5, 0
28, 23, 0
28, 30, 0
30, 25, 0
30, 28, 0
30, 5, 0
30, 23, 0
8, 20, 0
8, 12, 0
8, 7, 1
8, 14, 0
8, 26, 0
15, 0, 0
15, 13, 0
15, 9, 0
15, 29, 0
22, 0, 0
22, 4, 0
22, 2, 0
0, 13, 0
0, 26, 0
0, 3, 0
0, 16, 0
0, 27, 0
0, 2, 0
0, 10, 0
0, 24, 0
0, 12, 0
0, 4, 0
0, 31, 0
0, 6, 0
0, 29, 0
0, 19, 0
0, 15, 0
0, 22, 0
0, 9, 0
3, 20, 0
3, 12, 0
3, 17, 0
3, 29, 0
3, 18, 0
3, 6, 0
3, 10, 0
3, 25, 0
3, 0, 0
16, 0, 0
16, 12, 0
16, 9, 0
16, 27, 0
16, 29, 0
6, 0, 0
6, 17, 0
6, 31, 0
6, 23, 0
6, 3, 0
6, 18, 0
6, 27, 0
6, 2, 0
6, 5, 0
6, 7, 1
6, 12, 0
6, 14, 0
6, 26, 0
6, 29, 0
6, 21, 0
6, 25, 0
6, 19, 0
27, 0, 0
27, 12, 0
27, 16, 0
27, 6, 0
27, 29, 0
7, 20, 0
7, 12, 0
7, 14, 0
7, 26, 0
7, 18, 0
7, 6, 1
7, 8, 1
7, 25, 0
18, 17, 1
18, 3, 0
18, 6, 0
18, 24, 0
18, 10, 0
18, 7, 0
18, 12, 0
18, 14, 0
18, 26, 0
18, 29, 0
18, 25, 0
18, 19, 0
25, 17, 0
25, 3, 0
25, 18, 0
25, 6, 0
25, 24, 0
25, 5, 0
25, 30, 0
25, 7, 0
25, 12, 0
25, 14, 0
25, 29, 0
25, 19, 0
25, 10, 0
31, 0, 0
31, 12, 0
31, 26, 0
31, 24, 0
31, 6, 0
31, 19, 0
31, 2, 0
31, 11, 0
31, 10, 0
29, 0, 0
29, 12, 0
29, 25, 0
29, 23, 0
29, 3, 0
29, 16, 0
29, 6, 0
29, 27, 0
29, 15, 0
29, 18, 0
29, 9, 0
21, 6, 0
21, 14, 0
21, 11, 0
21, 23, 0
21, 1, 0
19, 20, 1
19, 12, 0
19, 25, 0
19, 26, 0
19, 31, 0
19, 24, 0
19, 18, 0
19, 6, 0
19, 17, 0
19, 0, 0
10, 20, 0
10, 12, 0
10, 17, 0
10, 31, 0
10, 3, 0
10, 18, 0
10, 25, 0
10, 24, 0
10, 0, 0
9, 0, 0
9, 12, 0
9, 16, 0
9, 15, 0
9, 29, 0
