13, 0, 0
13, 17, 0
13, 14, 0
17, 21, 0
17, 7, 0
17, 20, 0
17, 13, 0
17, 14, 0
5, 3, 0
5, 4, 1
11, 16, 0
11, 20, 0
11, 6, 0
11, 10, 1
1, 0, 1
1, 8, 0
20, 7, 0
20, 21, 0
20, 14, 0
20, 16, 0
20, 17, 0
20, 10, 0
20, 11, 0
20, 9, 0
4, 3, 0
4, 5, 1
14, 21, 0
14, 7, 0
14, 20, 0
14, 13, 0
14, 17, 0
8, 0, 0
8, 12, 0
8, 2, 0
8, 18, 0
8, 1, 0
15, 18, 0
15, 2, 0
0, 8, 0
0, 13, 0
0, 1, 1
3, 19, 0
3, 4, 0
3, 5, 0
16, 20, 0
16, 6, 0
16, 9, 0
16, 11, 0
16, 10, 0
6, 16, 0
6, 19, 0
6, 11, 0
10, 20, 0
10, 16, 0
10, 11, 1
10, 9, 1
7, 20, 0
7, 14, 0
7, 17, 0
7, 21, 0
12, 18, 0
12, 8, 0
12, 2, 0
2, 18, 0
2, 12, 0
2, 8, 0
2, 15, 0
21, 7, 0
21, 20, 0
21, 14, 0
21, 17, 0
19, 3, 0
19, 6, 0
18, 12, 0
18, 8, 0
18, 15, 0
18, 2, 0
9, 20, 0
9, 16, 0
9, 10, 1
