12, 3, 0
12, 19, 0
12, 30, 0
13, 18, 0
17, 29, 0
17, 10, 0
17, 25, 0
17, 11, 0
17, 24, 0
31, 8, 0
31, 14, 0
31, 5, 0
31, 26, 0
23, 28, 0
23, 22, 1
23, 24, 0
24, 7, 0
24, 25, 0
24, 17, 0
24, 22, 0
24, 23, 0
24, 29, 0
24, 28, 0
24, 11, 0
24, 9, 0
40, 0, 0
40, 6, 0
40, 41, 1
40, 32, 0
40, 35, 0
5, 14, 0
5, 31, 0
5, 26, 0
5, 28, 0
5, 8, 0
5, 15, 0
11, 25, 0
11, 9, 0
11, 29, 0
11, 17, 0
11, 24, 0
11, 22, 0
11, 10, 1
1, 16, 0
1, 27, 0
1, 38, 0
1, 25, 0
1, 29, 0
20, 37, 0
20, 4, 0
20, 38, 0
20, 29, 0
21, 34, 0
21, 36, 0
4, 20, 0
4, 37, 0
4, 38, 0
14, 28, 0
14, 31, 0
14, 26, 0
14, 8, 0
14, 15, 0
14, 5, 0
39, 18, 0
39, 34, 0
39, 2, 0
35, 0, 0
35, 6, 0
35, 40, 0
35, 41, 0
35, 32, 0
28, 14, 0
28, 26, 0
28, 23, 0
28, 24, 0
28, 29, 0
28, 15, 0
28, 5, 0
28, 22, 0
28, 9, 0
30, 0, 0
30, 12, 0
30, 19, 0
30, 32, 0
30, 29, 0
8, 15, 0
8, 14, 0
8, 5, 0
8, 26, 0
8, 31, 0
15, 28, 0
15, 8, 0
15, 14, 0
15, 5, 0
15, 26, 0
41, 29, 0
41, 40, 1
41, 32, 0
41, 35, 0
22, 28, 0
22, 26, 0
22, 23, 1
22, 24, 0
22, 11, 0
22, 9, 0
36, 21, 0
36, 6, 0
0, 33, 0
0, 32, 0
0, 35, 0
0, 6, 0
0, 40, 0
0, 30, 0
6, 0, 0
6, 29, 0
6, 36, 0
6, 40, 0
6, 35, 0
38, 20, 0
38, 4, 0
38, 29, 0
38, 37, 0
38, 27, 0
38, 1, 0
3, 37, 0
3, 12, 0
3, 19, 0
16, 27, 0
16, 25, 0
16, 1, 0
27, 16, 0
27, 25, 0
27, 38, 0
27, 1, 0
10, 25, 0
10, 17, 0
10, 11, 1
10, 29, 0
7, 29, 0
7, 9, 0
7, 24, 0
34, 21, 0
34, 29, 0
34, 39, 0
34, 2, 0
25, 17, 0
25, 29, 0
25, 16, 0
25, 27, 0
25, 24, 0
25, 10, 0
25, 11, 0
25, 1, 0
33, 0, 0
33, 32, 1
32, 0, 0
32, 33, 1
32, 35, 0
32, 29, 0
32, 40, 0
32, 41, 0
32, 30, 0
2, 34, 0
2, 39, 0
37, 20, 0
37, 3, 0
37, 4, 0
37, 29, 0
37, 19, 0
37, 38, 0
29, 20, 0
29, 28, 0
29, 18, 0
29, 6, 0
29, 11, 0
29, 10, 0
29, 7, 0
29, 34, 0
29, 25, 0
29, 32, 0
29, 24, 0
29, 37, 0
29, 17, 0
29, 30, 0
29, 1, 0
29, 38, 0
29, 41, 0
29, 9, 0
19, 37, 0
19, 3, 0
19, 12, 0
19, 30, 0
26, 14, 0
26, 31, 0
26, 28, 0
26, 8, 0
26, 15, 0
26, 5, 0
26, 22, 0
26, 9, 0
18, 13, 0
18, 39, 0
18, 29, 0
9, 7, 0
9, 28, 0
9, 11, 0
9, 26, 0
9, 29, 0
9, 24, 0
9, 22, 0
