13, 16, 0
13, 21, 0
13, 19, 0
13, 22, 0
13, 23, 0
17, 0, 0
17, 2, 0
17, 1, 0
17, 8, 0
17, 11, 0
17, 10, 0
23, 16, 0
23, 21, 0
23, 13, 0
5, 4, 1
5, 15, 0
5, 26, 0
5, 24, 0
11, 7, 0
11, 0, 0
11, 17, 0
11, 2, 0
11, 8, 0
11, 15, 0
11, 1, 0
1, 0, 1
1, 7, 0
1, 17, 0
1, 2, 1
1, 8, 0
1, 15, 0
1, 11, 0
1, 10, 0
20, 22, 0
4, 15, 0
4, 5, 1
4, 26, 0
4, 24, 0
14, 18, 0
14, 6, 0
14, 19, 0
14, 8, 0
14, 25, 0
24, 4, 0
24, 15, 0
24, 5, 0
24, 26, 0
8, 0, 0
8, 17, 0
8, 18, 0
8, 11, 0
8, 1, 0
8, 7, 0
8, 25, 0
8, 2, 0
8, 14, 0
8, 19, 0
8, 10, 0
8, 15, 0
15, 7, 0
15, 0, 0
15, 4, 0
15, 26, 0
15, 24, 0
15, 2, 0
15, 8, 0
15, 5, 0
15, 11, 0
15, 1, 0
22, 20, 0
22, 13, 0
0, 7, 0
0, 17, 0
0, 8, 0
0, 15, 0
0, 10, 0
0, 11, 0
0, 1, 1
3, 12, 0
3, 19, 0
3, 9, 0
16, 21, 0
16, 12, 0
16, 19, 0
16, 13, 0
16, 23, 0
6, 19, 0
6, 14, 0
6, 9, 0
10, 0, 0
10, 17, 0
10, 2, 0
10, 25, 0
10, 8, 0
10, 1, 0
7, 0, 0
7, 2, 0
7, 8, 0
7, 15, 0
7, 11, 0
7, 1, 0
12, 16, 0
12, 3, 0
12, 19, 0
12, 9, 0
12, 21, 0
25, 18, 0
25, 8, 0
25, 14, 0
25, 10, 0
26, 4, 0
26, 15, 0
26, 5, 0
26, 24, 0
2, 7, 0
2, 17, 0
2, 1, 1
2, 8, 0
2, 15, 0
2, 11, 0
2, 10, 0
21, 16, 0
21, 12, 0
21, 13, 0
21, 23, 0
19, 3, 0
19, 13, 0
19, 14, 0
19, 12, 0
19, 16, 0
19, 6, 0
19, 8, 0
19, 9, 0
18, 25, 0
18, 8, 0
18, 14, 0
9, 3, 0
9, 19, 0
9, 12, 0
9, 6, 0
