0, 4, 0
0, 9, 0
13, 3, 0
13, 8, 0
13, 11, 0
13, 1, 0
3, 8, 0
3, 13, 0
3, 11, 0
3, 1, 0
6, 2, 0
8, 3, 0
8, 13, 0
8, 5, 0
8, 1, 0
5, 8, 0
5, 1, 0
11, 7, 0
11, 3, 0
11, 13, 0
11, 12, 0
11, 10, 0
10, 7, 0
10, 12, 0
10, 11, 0
7, 11, 0
7, 10, 0
12, 4, 0
12, 9, 0
12, 11, 0
12, 10, 0
4, 0, 0
4, 12, 0
2, 6, 0
2, 9, 0
1, 3, 0
1, 8, 0
1, 13, 0
1, 5, 0
9, 0, 0
9, 12, 0
9, 2, 0
