0, 11, 0
0, 10, 0
13, 4, 0
13, 6, 0
13, 9, 0
13, 5, 0
13, 10, 0
13, 1, 0
3, 12, 0
3, 5, 0
3, 6, 0
6, 3, 0
6, 13, 0
6, 5, 0
6, 4, 0
6, 10, 0
8, 1, 0
5, 12, 0
5, 13, 0
5, 4, 0
5, 3, 0
5, 6, 0
5, 1, 0
5, 10, 0
5, 9, 0
11, 0, 0
11, 7, 0
10, 0, 0
10, 6, 0
10, 13, 0
10, 5, 0
10, 4, 0
7, 11, 0
7, 2, 0
12, 3, 0
12, 1, 0
12, 5, 0
12, 9, 0
4, 13, 0
4, 6, 0
4, 1, 0
4, 5, 0
4, 10, 0
4, 9, 0
14, 2, 0
2, 7, 0
2, 14, 0
1, 12, 0
1, 13, 0
1, 4, 0
1, 8, 0
1, 5, 0
1, 9, 0
9, 12, 0
9, 13, 0
9, 5, 0
9, 4, 0
9, 1, 0
