2, 13, 0
2, 27, 0
2, 19, 0
2, 8, 0
2, 22, 0
2, 1, 0
13, 12, 1
13, 17, 0
13, 2, 0
13, 16, 0
13, 8, 0
13, 22, 0
17, 12, 0
17, 13, 0
17, 21, 0
17, 16, 1
17, 27, 0
17, 8, 0
17, 18, 0
23, 19, 0
23, 24, 1
29, 28, 1
29, 18, 0
29, 10, 0
29, 5, 0
29, 22, 0
29, 9, 0
5, 28, 0
5, 22, 0
5, 29, 0
5, 9, 0
5, 11, 0
5, 10, 0
11, 0, 0
11, 4, 0
11, 28, 0
11, 26, 0
11, 16, 0
11, 5, 0
11, 10, 0
1, 19, 0
1, 8, 0
1, 2, 0
20, 7, 0
20, 3, 0
20, 4, 0
20, 14, 0
20, 6, 0
20, 30, 0
4, 20, 0
4, 3, 1
4, 7, 0
4, 14, 0
4, 0, 0
4, 16, 0
4, 6, 0
4, 25, 0
4, 11, 0
4, 30, 0
14, 20, 0
14, 7, 0
14, 4, 0
14, 25, 0
14, 26, 0
14, 6, 0
14, 15, 0
14, 30, 0
24, 19, 0
24, 23, 1
28, 16, 0
28, 11, 0
28, 29, 1
28, 18, 0
28, 9, 0
28, 5, 0
28, 22, 0
28, 10, 0
30, 20, 0
30, 3, 0
30, 4, 0
30, 14, 0
30, 26, 0
30, 6, 0
30, 7, 0
8, 12, 0
8, 13, 0
8, 17, 0
8, 2, 0
8, 16, 0
8, 27, 0
8, 19, 0
8, 1, 0
15, 0, 0
15, 14, 0
15, 25, 0
15, 26, 0
22, 13, 0
22, 28, 0
22, 18, 0
22, 27, 0
22, 2, 0
22, 5, 0
22, 10, 0
22, 16, 0
22, 29, 0
22, 21, 1
22, 19, 0
22, 9, 0
0, 4, 0
0, 15, 0
0, 26, 0
0, 11, 0
12, 16, 0
12, 8, 0
12, 17, 0
12, 13, 1
16, 12, 0
16, 13, 0
16, 28, 0
16, 11, 0
16, 4, 0
16, 21, 0
16, 27, 0
16, 8, 0
16, 18, 0
16, 17, 1
16, 22, 0
6, 20, 0
6, 7, 1
6, 4, 0
6, 14, 0
6, 3, 0
6, 30, 0
10, 28, 0
10, 11, 0
10, 26, 0
10, 29, 0
10, 18, 0
10, 5, 0
10, 22, 0
10, 9, 1
7, 20, 0
7, 3, 0
7, 4, 0
7, 14, 0
7, 6, 1
7, 30, 0
3, 20, 0
3, 6, 0
3, 4, 1
3, 7, 0
3, 30, 0
25, 15, 0
25, 4, 0
25, 14, 0
25, 26, 0
26, 0, 0
26, 25, 0
26, 14, 0
26, 30, 0
26, 15, 0
26, 11, 0
26, 10, 0
27, 21, 0
27, 17, 0
27, 2, 0
27, 16, 0
27, 19, 0
27, 8, 0
27, 18, 0
27, 22, 0
21, 16, 0
21, 27, 0
21, 17, 0
21, 18, 0
21, 22, 1
19, 2, 0
19, 23, 0
19, 24, 0
19, 27, 0
19, 8, 0
19, 22, 0
19, 1, 0
18, 21, 0
18, 28, 0
18, 27, 0
18, 29, 0
18, 16, 0
18, 17, 0
18, 22, 0
18, 10, 0
9, 10, 1
9, 28, 0
9, 5, 0
9, 22, 0
9, 29, 0
