0, 14, 0
0, 1, 0
13, 7, 0
13, 3, 0
13, 4, 0
13, 12, 0
13, 6, 0
13, 5, 0
3, 7, 0
3, 6, 0
3, 13, 0
6, 7, 1
6, 3, 0
6, 13, 0
8, 9, 0
8, 11, 0
8, 10, 0
5, 12, 0
5, 13, 0
5, 4, 1
11, 8, 0
11, 9, 0
11, 10, 1
10, 8, 0
10, 9, 0
10, 11, 1
10, 2, 0
7, 6, 1
7, 13, 0
7, 3, 0
12, 4, 0
12, 13, 0
12, 5, 0
12, 2, 0
4, 12, 0
4, 13, 0
4, 5, 1
4, 2, 0
14, 0, 0
14, 9, 0
2, 12, 0
2, 4, 0
2, 10, 0
1, 0, 0
9, 8, 0
9, 14, 0
9, 11, 0
9, 10, 0
