0, 7, 0
0, 12, 0
0, 6, 0
0, 8, 0
0, 9, 0
13, 7, 0
13, 8, 0
13, 5, 0
3, 7, 0
3, 4, 0
3, 10, 0
3, 11, 0
3, 1, 0
6, 0, 0
6, 8, 0
6, 9, 0
8, 0, 0
8, 6, 0
8, 13, 0
8, 7, 0
8, 9, 0
5, 7, 0
5, 13, 0
5, 1, 0
11, 7, 0
11, 3, 0
11, 4, 0
11, 10, 0
10, 7, 0
10, 3, 0
10, 4, 0
10, 11, 0
7, 0, 0
7, 3, 0
7, 13, 0
7, 4, 0
7, 12, 0
7, 1, 0
7, 8, 0
7, 5, 0
7, 11, 0
7, 10, 0
12, 0, 0
12, 7, 0
12, 9, 0
12, 2, 0
4, 7, 0
4, 3, 0
4, 1, 0
4, 11, 0
4, 10, 0
2, 12, 0
1, 7, 0
1, 3, 0
1, 4, 0
1, 5, 0
9, 0, 0
9, 6, 0
9, 8, 0
9, 12, 0
