0, 12, 0
0, 6, 0
0, 10, 0
0, 1, 1
8, 11, 0
3, 12, 0
3, 11, 0
6, 0, 0
6, 12, 0
6, 1, 0
6, 10, 0
5, 2, 0
5, 9, 0
5, 10, 0
11, 3, 0
11, 8, 0
10, 0, 0
10, 2, 0
10, 6, 0
10, 9, 0
10, 5, 0
10, 1, 0
7, 4, 0
7, 2, 0
12, 0, 0
12, 3, 0
12, 6, 0
12, 1, 0
4, 7, 0
4, 2, 0
2, 7, 0
2, 10, 0
2, 4, 0
2, 5, 0
2, 9, 0
1, 0, 1
1, 12, 0
1, 10, 0
1, 6, 0
9, 10, 0
9, 5, 0
9, 2, 0
