0, 3, 0
0, 6, 0
0, 4, 0
0, 5, 0
0, 2, 0
3, 0, 0
3, 6, 0
3, 4, 0
3, 2, 1
4, 0, 0
4, 3, 0
4, 2, 0
4, 5, 0
4, 6, 0
7, 6, 0
7, 8, 1
7, 1, 0
2, 0, 0
2, 3, 1
2, 1, 0
2, 4, 0
2, 6, 0
6, 0, 0
6, 3, 0
6, 4, 0
6, 2, 0
6, 8, 0
6, 7, 0
6, 1, 0
8, 7, 1
8, 6, 0
8, 1, 0
5, 0, 0
5, 4, 0
1, 7, 0
1, 6, 0
1, 8, 0
1, 2, 0
