0, 3, 0
0, 4, 0
0, 9, 0
0, 8, 0
0, 10, 0
0, 1, 0
6, 7, 0
6, 11, 0
1, 0, 0
1, 8, 0
1, 10, 0
5, 2, 0
5, 11, 0
5, 9, 0
11, 7, 0
11, 6, 0
11, 5, 0
11, 2, 0
10, 0, 0
10, 3, 0
10, 8, 0
10, 9, 0
10, 1, 0
7, 6, 0
7, 11, 0
7, 2, 0
3, 0, 0
3, 4, 0
3, 10, 0
4, 0, 0
4, 3, 0
4, 9, 0
2, 7, 0
2, 5, 0
2, 11, 0
2, 9, 0
8, 0, 0
8, 10, 0
8, 1, 0
9, 0, 0
9, 2, 0
9, 4, 0
9, 5, 0
9, 10, 0
