0, 18, 0
0, 8, 0
0, 17, 0
13, 12, 0
13, 19, 0
13, 1, 0
13, 10, 0
17, 0, 0
17, 18, 1
17, 9, 0
3, 7, 0
3, 15, 0
16, 5, 0
16, 11, 0
16, 10, 0
6, 15, 0
6, 5, 0
6, 2, 0
8, 0, 0
8, 12, 0
8, 18, 0
8, 1, 0
5, 16, 0
5, 6, 0
5, 15, 0
5, 11, 0
5, 2, 0
11, 16, 0
11, 5, 0
10, 16, 0
10, 13, 0
7, 3, 0
7, 15, 0
7, 14, 0
7, 2, 0
12, 19, 0
12, 8, 0
12, 13, 0
12, 1, 0
4, 14, 0
14, 7, 0
14, 4, 0
2, 7, 0
2, 6, 0
2, 15, 0
2, 5, 0
19, 12, 0
19, 13, 0
1, 12, 0
1, 8, 0
1, 13, 0
15, 7, 0
15, 6, 0
15, 2, 0
15, 5, 0
15, 3, 0
18, 0, 0
18, 8, 0
18, 17, 1
18, 9, 0
9, 18, 0
9, 17, 0
