0, 6, 0
0, 2, 0
0, 5, 0
0, 10, 0
6, 0, 0
6, 7, 0
6, 9, 0
6, 8, 0
6, 10, 0
6, 1, 0
1, 7, 0
1, 6, 0
1, 8, 0
1, 9, 0
1, 10, 0
5, 0, 0
5, 11, 0
5, 2, 0
11, 4, 0
11, 5, 0
11, 2, 0
10, 0, 0
10, 6, 0
10, 8, 0
10, 9, 0
10, 1, 0
7, 6, 0
7, 8, 0
7, 9, 0
7, 1, 0
3, 4, 0
3, 2, 1
4, 3, 0
4, 11, 0
4, 2, 0
2, 0, 0
2, 3, 1
2, 4, 0
2, 5, 0
2, 11, 0
8, 7, 0
8, 6, 0
8, 9, 1
8, 10, 0
8, 1, 0
9, 7, 0
9, 6, 0
9, 8, 1
9, 10, 0
9, 1, 0
