12, 20, 0
12, 7, 0
12, 31, 0
12, 21, 0
12, 16, 0
12, 5, 0
12, 22, 0
13, 34, 0
13, 14, 1
13, 32, 0
13, 28, 0
13, 25, 0
13, 8, 0
17, 0, 0
17, 28, 0
17, 23, 0
17, 18, 1
17, 27, 0
17, 2, 0
17, 30, 0
17, 24, 0
17, 31, 0
17, 35, 0
17, 21, 0
17, 19, 1
31, 2, 0
31, 17, 0
31, 23, 0
31, 12, 0
31, 18, 0
31, 6, 0
31, 24, 0
31, 5, 0
31, 11, 0
31, 30, 0
31, 7, 0
31, 3, 0
31, 27, 0
31, 35, 0
31, 28, 0
31, 19, 0
31, 10, 0
23, 28, 0
23, 31, 0
23, 24, 0
23, 18, 0
23, 17, 0
23, 2, 0
23, 27, 0
24, 28, 0
24, 23, 0
24, 2, 0
24, 5, 0
24, 11, 0
24, 30, 0
24, 37, 0
24, 35, 0
24, 17, 0
24, 8, 0
24, 15, 0
24, 0, 0
24, 34, 0
24, 16, 0
24, 6, 0
24, 10, 0
24, 3, 0
24, 31, 0
24, 27, 0
24, 21, 0
24, 19, 0
24, 18, 0
5, 20, 0
5, 12, 0
5, 21, 0
5, 31, 0
5, 35, 0
5, 16, 0
5, 0, 0
5, 24, 0
5, 11, 0
5, 10, 0
11, 0, 0
11, 21, 0
11, 31, 0
11, 35, 0
11, 16, 0
11, 24, 0
11, 5, 0
11, 10, 1
1, 28, 0
1, 36, 0
20, 12, 0
20, 5, 0
21, 0, 0
21, 2, 0
21, 6, 0
21, 17, 0
21, 16, 0
21, 27, 0
21, 24, 0
21, 5, 0
21, 11, 0
21, 10, 0
21, 12, 0
21, 35, 0
21, 19, 0
21, 30, 0
21, 18, 0
4, 34, 0
4, 28, 0
4, 29, 0
4, 33, 0
4, 8, 0
4, 9, 0
14, 34, 0
14, 13, 1
14, 28, 0
14, 32, 0
14, 25, 0
14, 8, 0
14, 15, 1
35, 0, 0
35, 17, 0
35, 16, 0
35, 6, 0
35, 2, 0
35, 5, 0
35, 11, 0
35, 27, 0
35, 18, 0
35, 31, 0
35, 24, 0
35, 21, 0
35, 19, 0
35, 10, 0
35, 30, 0
28, 13, 0
28, 17, 0
28, 32, 0
28, 23, 0
28, 30, 0
28, 4, 0
28, 14, 0
28, 24, 0
28, 8, 0
28, 15, 0
28, 36, 0
28, 0, 0
28, 34, 0
28, 18, 0
28, 27, 0
28, 1, 0
28, 3, 0
28, 25, 0
28, 31, 0
28, 29, 0
28, 37, 0
28, 33, 0
28, 19, 0
28, 26, 0
28, 9, 0
30, 0, 0
30, 17, 0
30, 16, 0
30, 6, 0
30, 2, 0
30, 27, 0
30, 24, 0
30, 37, 0
30, 25, 0
30, 31, 0
30, 35, 0
30, 21, 0
30, 28, 0
30, 19, 0
8, 0, 0
8, 13, 0
8, 28, 0
8, 26, 0
8, 33, 0
8, 34, 0
8, 4, 0
8, 14, 0
8, 32, 0
8, 24, 0
8, 25, 0
8, 15, 0
15, 34, 0
15, 28, 0
15, 32, 0
15, 24, 0
15, 25, 0
15, 14, 1
15, 8, 0
22, 7, 0
22, 12, 0
22, 16, 0
36, 33, 0
36, 28, 0
36, 1, 0
0, 17, 0
0, 16, 0
0, 6, 0
0, 24, 0
0, 5, 0
0, 11, 0
0, 27, 0
0, 21, 0
0, 25, 0
0, 26, 0
0, 35, 0
0, 37, 0
0, 28, 0
0, 19, 0
0, 8, 0
0, 10, 0
0, 18, 0
0, 30, 0
6, 0, 0
6, 21, 0
6, 31, 0
6, 35, 0
6, 16, 0
6, 27, 0
6, 24, 0
6, 30, 0
3, 28, 0
3, 31, 0
3, 24, 0
16, 0, 0
16, 12, 0
16, 22, 0
16, 35, 0
16, 21, 0
16, 6, 0
16, 10, 0
16, 24, 0
16, 5, 0
16, 11, 0
16, 30, 0
27, 0, 0
27, 21, 0
27, 17, 0
27, 23, 0
27, 31, 0
27, 35, 0
27, 18, 0
27, 6, 0
27, 28, 0
27, 24, 0
27, 30, 0
10, 0, 0
10, 21, 0
10, 31, 0
10, 35, 0
10, 16, 0
10, 24, 0
10, 5, 0
10, 11, 1
7, 12, 0
7, 31, 0
7, 22, 0
34, 13, 0
34, 28, 0
34, 24, 0
34, 33, 0
34, 4, 0
34, 25, 0
34, 32, 0
34, 29, 0
34, 14, 0
34, 8, 0
34, 15, 0
34, 9, 0
25, 0, 0
25, 13, 0
25, 28, 0
25, 32, 0
25, 30, 0
25, 34, 0
25, 14, 0
25, 26, 0
25, 29, 0
25, 37, 0
25, 8, 0
25, 15, 0
33, 34, 0
33, 4, 0
33, 28, 0
33, 9, 0
33, 29, 0
33, 8, 0
33, 36, 0
32, 34, 0
32, 13, 0
32, 28, 0
32, 26, 0
32, 29, 0
32, 25, 0
32, 14, 0
32, 8, 0
32, 15, 0
2, 17, 0
2, 31, 0
2, 23, 0
2, 24, 0
2, 21, 0
2, 19, 0
2, 35, 0
2, 30, 0
37, 0, 0
37, 25, 0
37, 30, 0
37, 28, 0
37, 24, 0
29, 34, 0
29, 4, 0
29, 28, 0
29, 32, 0
29, 33, 0
29, 25, 0
29, 9, 0
19, 0, 0
19, 17, 1
19, 31, 0
19, 35, 0
19, 21, 0
19, 28, 0
19, 2, 0
19, 24, 0
19, 30, 0
26, 0, 0
26, 25, 0
26, 8, 0
26, 28, 0
26, 32, 0
18, 0, 0
18, 17, 1
18, 23, 0
18, 31, 0
18, 35, 0
18, 21, 0
18, 27, 0
18, 28, 0
18, 24, 0
9, 34, 0
9, 4, 0
9, 28, 0
9, 33, 0
9, 29, 0
