0, 12, 0
0, 14, 0
0, 5, 0
0, 10, 0
13, 7, 0
13, 12, 1
13, 10, 0
3, 7, 0
3, 6, 0
3, 4, 0
3, 15, 0
3, 2, 1
6, 2, 0
6, 3, 0
6, 4, 0
6, 15, 0
6, 1, 0
8, 14, 0
8, 5, 0
8, 9, 0
5, 0, 0
5, 8, 0
5, 14, 0
11, 7, 0
11, 12, 0
11, 4, 0
11, 15, 0
10, 0, 0
10, 12, 0
10, 13, 0
7, 12, 0
7, 13, 0
7, 4, 0
7, 3, 0
7, 15, 0
7, 11, 0
12, 7, 0
12, 0, 0
12, 13, 1
12, 11, 0
12, 10, 0
4, 7, 0
4, 3, 0
4, 2, 0
4, 6, 0
4, 15, 0
4, 11, 0
4, 1, 0
14, 0, 0
14, 8, 0
14, 5, 0
2, 6, 0
2, 4, 0
2, 15, 0
2, 3, 1
2, 1, 1
1, 6, 0
1, 4, 0
1, 2, 1
15, 7, 0
15, 3, 0
15, 4, 0
15, 2, 0
15, 6, 0
15, 11, 0
9, 8, 0
