13, 12, 0
13, 8, 0
13, 9, 0
17, 16, 0
17, 15, 0
17, 14, 0
17, 10, 0
23, 20, 0
23, 4, 0
23, 5, 0
23, 1, 0
5, 7, 0
5, 3, 0
5, 4, 0
5, 23, 0
5, 6, 0
5, 19, 0
5, 1, 0
11, 0, 0
11, 3, 0
11, 25, 0
11, 24, 0
11, 21, 0
11, 19, 0
11, 2, 0
1, 20, 0
1, 4, 0
1, 5, 0
1, 23, 0
20, 4, 0
20, 23, 0
20, 1, 0
4, 20, 0
4, 5, 0
4, 23, 0
4, 1, 0
14, 16, 0
14, 15, 1
14, 17, 0
14, 10, 0
24, 21, 0
24, 3, 0
24, 25, 0
24, 22, 0
24, 11, 0
8, 12, 0
8, 13, 0
8, 18, 0
8, 9, 0
8, 22, 0
8, 10, 0
15, 16, 0
15, 14, 1
15, 17, 0
15, 10, 0
22, 0, 0
22, 12, 0
22, 25, 0
22, 3, 0
22, 24, 0
22, 21, 1
22, 8, 0
0, 12, 0
0, 25, 0
0, 22, 0
0, 11, 0
3, 7, 0
3, 25, 0
3, 11, 0
3, 2, 1
3, 19, 0
3, 24, 0
3, 5, 0
3, 22, 0
16, 14, 0
16, 15, 0
16, 17, 0
16, 10, 0
6, 7, 1
6, 19, 0
6, 5, 0
10, 18, 0
10, 14, 0
10, 16, 0
10, 17, 0
10, 8, 0
10, 15, 0
10, 9, 0
7, 6, 1
7, 19, 0
7, 5, 0
7, 3, 0
12, 0, 0
12, 8, 0
12, 13, 0
12, 22, 0
25, 0, 0
25, 3, 0
25, 11, 0
25, 24, 0
25, 21, 0
25, 19, 0
25, 22, 0
2, 3, 1
2, 19, 0
2, 11, 0
21, 25, 0
21, 22, 1
21, 11, 0
21, 24, 0
19, 7, 0
19, 3, 0
19, 25, 0
19, 2, 0
19, 6, 0
19, 5, 0
19, 11, 0
18, 8, 0
18, 9, 0
18, 10, 0
9, 18, 0
9, 8, 0
9, 13, 0
9, 10, 0
