0, 6, 0
0, 1, 0
13, 12, 0
13, 6, 0
13, 11, 0
13, 2, 0
3, 4, 0
3, 15, 0
3, 5, 0
6, 0, 0
6, 12, 0
6, 13, 0
6, 2, 0
6, 10, 0
6, 1, 0
8, 7, 1
8, 4, 0
8, 14, 0
8, 9, 0
5, 3, 0
5, 14, 0
5, 4, 1
5, 15, 0
5, 9, 0
11, 13, 0
11, 14, 0
10, 12, 0
10, 1, 0
10, 6, 0
7, 8, 1
7, 14, 0
7, 4, 0
7, 9, 0
12, 6, 0
12, 1, 0
12, 13, 0
12, 10, 0
12, 2, 0
4, 7, 0
4, 3, 0
4, 8, 0
4, 15, 0
4, 5, 1
4, 9, 0
14, 7, 0
14, 8, 0
14, 5, 0
14, 11, 0
14, 9, 0
2, 12, 0
2, 13, 0
2, 6, 0
1, 0, 0
1, 12, 0
1, 10, 0
1, 6, 0
15, 3, 0
15, 4, 0
15, 5, 0
9, 7, 0
9, 8, 0
9, 14, 0
9, 5, 0
9, 4, 0
