0, 7, 0
0, 17, 0
0, 5, 0
13, 16, 0
13, 14, 1
13, 9, 0
17, 7, 0
17, 0, 0
17, 11, 0
17, 1, 0
3, 18, 0
3, 4, 0
3, 2, 1
16, 13, 0
16, 14, 0
16, 9, 0
16, 1, 0
6, 8, 0
6, 15, 0
6, 10, 0
6, 9, 0
8, 12, 0
8, 15, 0
8, 6, 0
5, 0, 0
5, 4, 0
11, 7, 0
11, 17, 0
11, 1, 0
10, 6, 0
10, 15, 0
10, 9, 0
7, 0, 0
7, 17, 0
7, 11, 0
7, 1, 0
12, 8, 0
4, 18, 0
4, 3, 0
4, 5, 0
4, 2, 0
14, 16, 0
14, 13, 1
14, 9, 0
2, 18, 0
2, 3, 1
2, 4, 0
1, 16, 0
1, 7, 0
1, 17, 0
1, 11, 0
15, 6, 0
15, 8, 0
15, 9, 0
15, 10, 0
18, 3, 0
18, 4, 0
18, 2, 0
9, 13, 0
9, 14, 0
9, 16, 0
9, 6, 0
9, 15, 0
9, 10, 0
