0, 6, 0
0, 8, 0
0, 9, 0
0, 10, 0
8, 7, 0
8, 12, 0
8, 4, 0
8, 3, 0
8, 6, 0
8, 10, 0
8, 0, 0
8, 5, 0
8, 1, 0
3, 4, 1
3, 8, 0
3, 5, 0
3, 11, 0
6, 0, 0
6, 7, 0
6, 4, 0
6, 1, 0
6, 8, 0
6, 5, 0
6, 10, 0
6, 9, 0
5, 3, 0
5, 4, 0
5, 6, 0
5, 8, 0
5, 10, 0
5, 11, 0
5, 9, 0
11, 7, 0
11, 12, 1
11, 4, 0
11, 3, 0
11, 2, 0
11, 5, 0
11, 1, 0
10, 0, 0
10, 6, 0
10, 8, 0
10, 5, 0
10, 9, 0
7, 12, 0
7, 2, 0
7, 6, 0
7, 8, 0
7, 11, 0
7, 1, 0
12, 7, 0
12, 4, 0
12, 8, 0
12, 11, 1
12, 1, 0
4, 12, 0
4, 3, 1
4, 6, 0
4, 8, 0
4, 5, 0
4, 11, 0
4, 1, 0
2, 7, 0
2, 11, 0
1, 7, 0
1, 12, 0
1, 4, 0
1, 6, 0
1, 8, 0
1, 11, 0
9, 0, 0
9, 6, 0
9, 5, 0
9, 10, 0
