2, 0, 0
2, 10, 0
13, 24, 0
13, 25, 0
13, 9, 0
17, 33, 0
17, 14, 0
17, 6, 0
17, 28, 0
17, 8, 0
17, 30, 0
31, 6, 0
31, 27, 0
31, 33, 1
31, 32, 1
31, 30, 1
23, 14, 0
23, 1, 0
24, 20, 0
24, 13, 0
24, 25, 1
5, 18, 0
5, 35, 0
5, 26, 0
5, 29, 0
11, 7, 0
11, 20, 0
11, 10, 0
1, 14, 0
1, 4, 0
1, 15, 0
1, 23, 0
20, 7, 0
20, 25, 0
20, 24, 0
20, 9, 0
20, 11, 0
20, 10, 0
34, 16, 0
34, 22, 0
34, 9, 0
4, 14, 0
4, 15, 0
4, 1, 0
14, 4, 0
14, 8, 0
14, 17, 0
14, 23, 0
14, 1, 0
35, 18, 0
35, 19, 0
35, 5, 0
35, 26, 0
28, 8, 0
28, 17, 0
30, 33, 1
30, 17, 0
30, 32, 1
30, 31, 1
30, 6, 0
30, 27, 0
8, 14, 0
8, 17, 0
8, 28, 0
15, 3, 0
15, 4, 0
15, 22, 0
15, 1, 0
22, 16, 0
22, 3, 0
22, 15, 0
22, 34, 0
0, 21, 0
0, 10, 0
0, 2, 0
3, 15, 0
3, 22, 0
16, 34, 0
16, 22, 0
27, 12, 0
27, 31, 0
27, 32, 0
27, 33, 0
27, 6, 0
27, 26, 0
27, 30, 0
10, 20, 0
10, 0, 0
10, 21, 0
10, 11, 0
10, 2, 0
7, 20, 0
7, 11, 0
12, 27, 0
12, 26, 0
12, 33, 0
25, 20, 0
25, 13, 0
25, 9, 0
25, 24, 1
33, 12, 0
33, 17, 0
33, 32, 1
33, 31, 1
33, 27, 0
33, 6, 0
33, 30, 1
32, 33, 1
32, 27, 0
32, 6, 0
32, 31, 1
32, 30, 1
6, 33, 0
6, 17, 0
6, 32, 0
6, 31, 0
6, 27, 0
6, 30, 0
21, 0, 0
21, 10, 0
29, 5, 0
19, 18, 1
19, 26, 0
19, 35, 0
26, 12, 0
26, 35, 0
26, 18, 0
26, 27, 0
26, 19, 0
26, 5, 0
18, 19, 1
18, 5, 0
18, 26, 0
18, 35, 0
9, 20, 0
9, 34, 0
9, 13, 0
9, 25, 0
