0, 7, 0
0, 3, 0
0, 4, 0
0, 2, 0
0, 8, 0
0, 9, 0
3, 0, 0
3, 7, 0
3, 4, 0
3, 10, 0
3, 1, 0
4, 0, 0
4, 3, 0
4, 8, 0
4, 9, 0
4, 2, 0
2, 0, 0
2, 7, 0
2, 8, 0
2, 4, 0
2, 9, 0
6, 5, 0
1, 3, 0
1, 10, 0
8, 0, 0
8, 7, 1
8, 2, 0
8, 4, 0
8, 9, 0
5, 6, 0
5, 10, 0
7, 0, 0
7, 3, 0
7, 2, 0
7, 8, 1
7, 9, 0
10, 3, 0
10, 5, 0
10, 1, 0
9, 0, 0
9, 7, 0
9, 8, 0
9, 4, 0
9, 2, 0
