13, 3, 0
13, 19, 0
13, 22, 0
13, 9, 0
17, 12, 0
17, 1, 0
17, 8, 0
17, 4, 0
17, 2, 0
5, 6, 1
5, 19, 0
5, 14, 0
11, 0, 0
11, 4, 0
11, 10, 0
1, 4, 0
1, 17, 0
1, 2, 1
20, 21, 1
20, 16, 0
20, 9, 0
4, 0, 0
4, 2, 0
4, 17, 0
4, 11, 0
4, 1, 0
14, 18, 0
14, 6, 0
14, 19, 0
14, 15, 0
14, 5, 0
8, 7, 0
8, 12, 0
8, 17, 0
15, 7, 0
15, 18, 0
15, 14, 0
22, 13, 0
22, 9, 0
0, 4, 0
0, 11, 0
3, 19, 0
3, 13, 0
16, 20, 0
16, 21, 0
16, 9, 0
6, 19, 0
6, 14, 0
6, 5, 1
10, 11, 0
7, 12, 0
7, 8, 0
7, 15, 0
12, 7, 0
12, 8, 0
12, 17, 0
2, 4, 0
2, 17, 0
2, 1, 1
21, 20, 1
21, 16, 0
21, 9, 0
19, 3, 0
19, 13, 0
19, 14, 0
19, 5, 0
19, 6, 0
18, 15, 0
18, 14, 0
9, 20, 0
9, 16, 0
9, 13, 0
9, 22, 0
9, 21, 0
