12, 28, 0
12, 11, 1
12, 30, 0
13, 31, 0
17, 27, 0
17, 24, 0
17, 29, 0
26, 0, 0
26, 27, 1
26, 7, 0
26, 23, 0
26, 30, 0
23, 7, 0
23, 27, 0
23, 8, 0
23, 4, 0
23, 26, 0
2, 21, 0
2, 6, 0
5, 18, 0
5, 3, 0
5, 9, 0
5, 22, 0
5, 6, 0
11, 12, 1
11, 28, 0
11, 30, 0
1, 28, 0
1, 25, 0
1, 15, 0
1, 31, 0
20, 22, 0
4, 7, 0
4, 27, 0
4, 19, 0
4, 8, 0
4, 23, 0
14, 27, 0
14, 19, 0
14, 24, 0
24, 14, 0
24, 17, 0
24, 27, 0
28, 12, 0
28, 30, 0
28, 25, 0
28, 11, 0
28, 1, 0
30, 0, 0
30, 12, 0
30, 28, 0
30, 26, 0
30, 27, 0
30, 11, 0
8, 7, 1
8, 27, 0
8, 4, 0
8, 23, 0
15, 25, 0
15, 31, 0
15, 1, 0
22, 20, 0
22, 3, 0
22, 18, 0
22, 9, 0
22, 5, 0
22, 10, 0
0, 27, 0
0, 26, 0
0, 30, 0
3, 5, 0
3, 22, 0
16, 21, 0
16, 29, 0
6, 21, 0
6, 2, 0
6, 18, 0
6, 9, 0
6, 5, 0
6, 10, 0
27, 0, 0
27, 4, 0
27, 14, 0
27, 26, 1
27, 23, 0
27, 29, 0
27, 17, 0
27, 19, 0
27, 8, 0
27, 24, 0
27, 30, 0
7, 4, 0
7, 19, 0
7, 8, 1
7, 26, 0
7, 23, 0
18, 6, 0
18, 9, 0
18, 5, 0
18, 22, 0
18, 10, 0
25, 28, 0
25, 15, 0
25, 31, 0
25, 1, 0
31, 15, 0
31, 13, 0
31, 25, 0
31, 1, 0
29, 16, 0
29, 27, 0
29, 17, 0
21, 16, 0
21, 6, 0
21, 2, 0
19, 7, 0
19, 27, 0
19, 4, 0
19, 14, 0
10, 18, 0
10, 6, 0
10, 22, 0
10, 9, 1
9, 18, 0
9, 6, 0
9, 5, 0
9, 22, 0
9, 10, 1
