0, 3, 0
0, 13, 0
0, 12, 0
0, 6, 0
0, 5, 0
0, 1, 0
13, 0, 0
13, 6, 0
13, 1, 0
3, 0, 0
3, 12, 0
3, 5, 0
6, 0, 0
6, 7, 0
6, 13, 0
6, 9, 0
6, 4, 0
6, 2, 0
6, 8, 0
6, 5, 0
6, 10, 0
6, 11, 0
6, 1, 0
8, 7, 1
8, 6, 0
8, 11, 0
8, 10, 0
5, 0, 0
5, 12, 0
5, 3, 0
5, 6, 0
11, 7, 0
11, 4, 0
11, 2, 0
11, 6, 0
11, 1, 0
11, 8, 0
11, 9, 0
10, 7, 0
10, 4, 0
10, 2, 0
10, 6, 0
10, 8, 0
10, 9, 0
7, 2, 0
7, 6, 0
7, 8, 1
7, 10, 0
7, 11, 0
7, 9, 1
12, 0, 0
12, 3, 0
12, 5, 0
4, 2, 0
4, 6, 0
4, 10, 0
4, 11, 0
4, 9, 0
2, 7, 0
2, 4, 0
2, 6, 0
2, 10, 0
2, 11, 0
2, 9, 0
1, 0, 0
1, 6, 0
1, 13, 0
1, 11, 0
9, 7, 1
9, 4, 0
9, 2, 0
9, 6, 0
9, 11, 0
9, 10, 0
