12, 8, 0
12, 17, 0
13, 7, 0
13, 33, 0
13, 2, 0
17, 16, 0
17, 12, 0
17, 8, 0
17, 4, 0
17, 2, 0
31, 21, 0
31, 19, 0
23, 20, 0
23, 34, 0
23, 5, 0
23, 24, 1
24, 20, 0
24, 5, 0
24, 23, 1
5, 20, 0
5, 34, 0
5, 19, 0
5, 23, 0
5, 24, 0
11, 27, 0
11, 32, 0
11, 10, 1
1, 33, 0
20, 34, 0
20, 26, 0
20, 5, 0
20, 23, 0
20, 24, 0
21, 31, 0
21, 35, 0
4, 7, 0
4, 33, 0
4, 17, 0
4, 2, 0
14, 18, 0
14, 16, 0
14, 9, 0
14, 28, 0
14, 36, 0
35, 21, 0
35, 0, 0
28, 37, 0
28, 16, 0
28, 14, 0
28, 9, 0
30, 16, 0
30, 8, 0
30, 9, 0
30, 29, 1
8, 12, 0
8, 16, 0
8, 17, 0
8, 29, 0
8, 37, 0
8, 9, 0
8, 30, 0
15, 18, 0
15, 37, 0
15, 22, 0
15, 36, 0
22, 18, 0
22, 3, 0
22, 15, 0
22, 36, 0
36, 3, 0
36, 14, 0
36, 15, 0
36, 22, 0
0, 3, 0
0, 35, 0
6, 34, 0
6, 25, 0
6, 32, 0
3, 0, 0
3, 22, 0
3, 36, 0
16, 14, 0
16, 37, 0
16, 28, 0
16, 30, 0
16, 8, 0
16, 17, 0
16, 9, 0
27, 32, 0
27, 26, 0
27, 11, 0
27, 10, 0
10, 27, 0
10, 11, 1
10, 32, 0
7, 37, 0
7, 4, 0
7, 13, 0
7, 2, 0
34, 20, 0
34, 25, 0
34, 23, 0
34, 26, 0
34, 6, 0
34, 5, 0
25, 6, 0
25, 32, 0
25, 34, 0
33, 13, 0
33, 4, 0
33, 1, 0
32, 25, 0
32, 26, 0
32, 27, 0
32, 6, 0
32, 11, 0
32, 10, 0
2, 7, 0
2, 13, 0
2, 17, 0
2, 4, 0
37, 7, 0
37, 28, 0
37, 29, 0
37, 16, 0
37, 8, 0
37, 15, 0
37, 9, 0
29, 37, 0
29, 8, 0
29, 9, 0
29, 30, 1
19, 5, 0
19, 31, 0
26, 20, 0
26, 34, 0
26, 32, 0
26, 27, 0
18, 15, 0
18, 14, 0
18, 22, 0
9, 16, 0
9, 14, 0
9, 29, 0
9, 37, 0
9, 28, 0
9, 8, 0
9, 30, 0
