2, 0, 0
2, 17, 0
2, 26, 0
2, 21, 0
2, 6, 0
2, 22, 0
13, 7, 0
13, 27, 0
13, 9, 0
13, 23, 0
13, 24, 0
17, 0, 0
17, 6, 0
17, 11, 0
17, 2, 0
23, 27, 0
23, 13, 0
23, 24, 1
29, 3, 0
29, 14, 0
29, 15, 0
29, 28, 0
5, 4, 0
5, 1, 0
11, 16, 0
11, 17, 0
11, 1, 0
1, 16, 0
1, 5, 0
1, 11, 0
20, 27, 0
20, 8, 0
4, 28, 0
4, 5, 0
4, 10, 0
14, 3, 0
14, 28, 0
14, 29, 0
14, 12, 0
14, 15, 0
14, 9, 0
24, 27, 0
24, 13, 0
24, 23, 1
28, 3, 0
28, 4, 0
28, 14, 0
28, 29, 0
28, 15, 0
28, 10, 0
8, 20, 0
8, 27, 0
8, 18, 0
15, 28, 0
15, 14, 0
15, 29, 0
22, 21, 0
22, 25, 0
22, 26, 0
22, 2, 0
0, 6, 0
0, 17, 0
0, 2, 0
12, 14, 0
12, 9, 0
16, 11, 0
16, 1, 0
6, 0, 0
6, 17, 0
6, 2, 0
10, 4, 0
10, 28, 0
7, 13, 0
7, 9, 0
3, 28, 0
3, 14, 0
3, 29, 0
25, 21, 0
25, 22, 0
26, 21, 0
26, 22, 0
26, 2, 0
27, 20, 0
27, 8, 0
27, 13, 0
27, 23, 0
27, 24, 0
21, 25, 0
21, 26, 0
21, 22, 0
21, 2, 0
19, 18, 1
18, 19, 1
18, 8, 0
9, 7, 0
9, 12, 0
9, 13, 0
9, 14, 0
