0, 10, 0
0, 15, 0
0, 11, 0
0, 1, 1
13, 7, 0
13, 12, 0
3, 14, 0
3, 4, 0
3, 15, 0
3, 2, 0
16, 12, 0
16, 8, 0
16, 5, 0
6, 4, 0
6, 2, 0
8, 7, 0
8, 12, 0
8, 2, 0
8, 16, 0
8, 15, 0
8, 11, 0
8, 9, 0
5, 16, 0
5, 12, 0
11, 0, 0
11, 7, 0
11, 1, 0
11, 8, 0
11, 15, 0
11, 10, 0
10, 0, 0
10, 15, 0
10, 11, 0
10, 1, 0
7, 12, 0
7, 8, 0
7, 13, 0
7, 11, 0
12, 16, 0
12, 7, 0
12, 8, 0
12, 13, 0
12, 5, 0
4, 6, 0
4, 14, 0
4, 3, 0
14, 3, 0
14, 4, 0
14, 15, 0
2, 6, 0
2, 8, 0
2, 9, 0
2, 3, 0
1, 0, 1
1, 15, 0
1, 11, 0
1, 10, 0
15, 0, 0
15, 3, 0
15, 14, 0
15, 1, 0
15, 8, 0
15, 11, 0
15, 10, 0
9, 8, 0
9, 2, 0
