0, 7, 0
0, 2, 0
8, 4, 0
8, 10, 0
3, 7, 0
3, 12, 0
3, 5, 0
3, 11, 0
3, 9, 0
6, 9, 0
6, 10, 0
5, 7, 0
5, 3, 0
5, 4, 0
5, 2, 0
5, 1, 0
5, 9, 0
11, 7, 0
11, 12, 1
11, 3, 0
10, 6, 0
10, 8, 0
10, 4, 0
10, 9, 0
7, 0, 0
7, 12, 0
7, 3, 0
7, 2, 0
7, 5, 0
7, 11, 0
12, 7, 0
12, 3, 0
12, 11, 1
4, 8, 0
4, 5, 0
4, 10, 0
2, 0, 0
2, 7, 0
2, 5, 0
2, 1, 0
1, 5, 0
1, 2, 0
9, 6, 0
9, 3, 0
9, 5, 0
9, 10, 0
