0, 3, 0
0, 5, 0
0, 2, 0
3, 0, 0
3, 8, 0
3, 5, 0
3, 1, 0
4, 7, 0
4, 6, 0
4, 10, 0
2, 0, 0
2, 7, 0
6, 7, 0
6, 4, 0
6, 10, 0
1, 3, 0
1, 8, 0
8, 3, 0
8, 1, 0
8, 9, 0
5, 0, 0
5, 3, 0
7, 6, 0
7, 4, 0
7, 10, 0
7, 2, 0
10, 7, 0
10, 6, 0
10, 4, 0
9, 8, 0
