13, 19, 0
13, 14, 1
13, 22, 0
17, 18, 0
17, 4, 0
17, 9, 0
23, 12, 0
23, 16, 0
23, 6, 0
23, 1, 0
23, 5, 0
23, 10, 0
5, 0, 0
5, 21, 0
5, 23, 0
5, 16, 0
5, 6, 0
5, 10, 0
5, 22, 0
5, 1, 0
11, 18, 0
11, 3, 0
11, 15, 0
11, 9, 0
1, 0, 1
1, 6, 0
1, 5, 0
1, 23, 0
20, 19, 1
20, 14, 0
4, 7, 0
4, 18, 0
4, 8, 0
4, 17, 0
4, 10, 0
14, 20, 0
14, 19, 0
14, 13, 1
14, 22, 0
8, 7, 1
8, 4, 0
8, 10, 0
15, 18, 0
15, 3, 0
15, 11, 0
15, 2, 0
22, 21, 0
22, 19, 0
22, 13, 0
22, 14, 0
22, 5, 0
0, 6, 0
0, 5, 0
0, 1, 1
3, 18, 0
3, 15, 0
3, 11, 0
3, 2, 1
16, 21, 0
16, 5, 0
16, 23, 0
6, 0, 0
6, 12, 0
6, 23, 0
6, 1, 0
6, 5, 0
6, 10, 0
10, 7, 0
10, 12, 0
10, 4, 0
10, 23, 0
10, 6, 0
10, 8, 0
10, 5, 0
7, 8, 1
7, 4, 0
7, 10, 0
12, 6, 0
12, 23, 0
12, 10, 0
2, 18, 0
2, 3, 1
2, 15, 0
21, 16, 0
21, 5, 0
21, 22, 0
19, 20, 1
19, 13, 0
19, 14, 0
19, 22, 0
18, 3, 0
18, 4, 0
18, 17, 0
18, 2, 0
18, 15, 0
18, 11, 0
18, 9, 0
9, 18, 0
9, 17, 0
9, 11, 0
