0, 6, 0
0, 8, 0
0, 3, 0
0, 11, 0
0, 9, 0
13, 14, 0
13, 15, 0
13, 9, 0
3, 0, 0
3, 9, 0
3, 6, 0
3, 1, 0
3, 8, 0
3, 10, 0
16, 6, 0
16, 5, 0
16, 9, 0
6, 0, 0
6, 3, 0
6, 16, 0
6, 10, 0
6, 11, 0
6, 9, 0
8, 0, 0
8, 3, 0
8, 1, 0
8, 9, 0
8, 11, 0
8, 10, 0
5, 16, 0
5, 7, 0
5, 9, 0
11, 0, 0
11, 6, 0
11, 1, 0
11, 8, 0
11, 9, 0
10, 6, 0
10, 8, 0
10, 9, 0
10, 3, 0
10, 1, 0
7, 5, 0
7, 2, 0
12, 4, 0
12, 15, 0
12, 2, 0
4, 12, 0
4, 15, 0
14, 13, 0
14, 15, 0
2, 7, 0
2, 12, 0
1, 3, 0
1, 8, 0
1, 11, 0
1, 10, 0
15, 12, 0
15, 13, 0
15, 14, 0
15, 4, 0
9, 0, 0
9, 3, 0
9, 13, 0
9, 16, 0
9, 6, 0
9, 8, 0
9, 5, 0
9, 11, 0
9, 10, 0
