0, 6, 0
0, 4, 0
0, 11, 0
13, 12, 0
13, 8, 0
13, 5, 0
13, 9, 0
3, 6, 0
3, 2, 1
3, 1, 1
6, 0, 0
6, 12, 0
6, 4, 0
6, 3, 0
6, 2, 0
6, 7, 0
6, 11, 0
6, 1, 0
8, 12, 0
8, 13, 0
8, 5, 0
8, 9, 1
5, 12, 0
5, 8, 0
5, 13, 0
5, 11, 0
5, 9, 0
11, 0, 0
11, 12, 1
11, 14, 0
11, 2, 0
11, 6, 0
11, 1, 0
11, 5, 0
11, 10, 0
10, 14, 0
10, 11, 0
10, 2, 0
7, 12, 0
7, 14, 0
7, 6, 0
12, 7, 0
12, 13, 0
12, 14, 0
12, 2, 0
12, 6, 0
12, 8, 0
12, 5, 0
12, 11, 1
4, 0, 0
4, 6, 0
14, 7, 0
14, 12, 0
14, 2, 0
14, 11, 0
14, 10, 0
2, 12, 0
2, 14, 0
2, 3, 1
2, 6, 0
2, 10, 0
2, 11, 0
2, 1, 1
1, 6, 0
1, 2, 1
1, 11, 0
1, 3, 1
9, 8, 1
9, 13, 0
9, 5, 0
