0, 7, 0
0, 3, 0
0, 12, 0
0, 2, 0
13, 16, 0
13, 10, 0
13, 14, 0
13, 11, 0
13, 1, 0
3, 0, 0
3, 7, 0
3, 15, 0
3, 2, 0
16, 1, 0
16, 8, 0
16, 13, 0
16, 9, 0
16, 10, 0
6, 4, 1
6, 14, 0
6, 11, 0
8, 16, 0
8, 12, 0
8, 9, 0
8, 15, 0
8, 1, 0
5, 4, 1
5, 14, 0
11, 6, 0
11, 13, 0
11, 14, 0
11, 4, 0
10, 16, 0
10, 13, 0
10, 9, 1
10, 1, 0
7, 0, 0
7, 3, 0
12, 0, 0
12, 8, 0
12, 15, 0
12, 2, 0
4, 6, 1
4, 14, 0
4, 5, 1
4, 11, 0
14, 13, 0
14, 4, 0
14, 6, 0
14, 5, 0
14, 11, 0
14, 1, 0
2, 0, 0
2, 12, 0
2, 15, 0
2, 3, 0
1, 13, 0
1, 14, 0
1, 16, 0
1, 8, 0
1, 10, 0
1, 9, 0
15, 2, 0
15, 12, 0
15, 8, 0
15, 3, 0
9, 16, 0
9, 8, 0
9, 10, 1
9, 1, 0
