0, 3, 0
0, 9, 0
0, 5, 0
0, 10, 0
7, 13, 0
7, 16, 0
7, 6, 0
7, 11, 0
7, 1, 0
7, 12, 0
7, 4, 0
7, 14, 0
7, 2, 0
7, 19, 0
7, 8, 0
7, 18, 0
13, 7, 0
13, 12, 1
13, 14, 1
13, 2, 0
13, 19, 0
13, 1, 0
17, 15, 0
17, 11, 0
3, 0, 0
3, 6, 0
3, 9, 0
3, 5, 0
3, 10, 0
16, 7, 0
16, 4, 0
16, 8, 0
16, 11, 0
6, 20, 0
6, 7, 0
6, 3, 0
6, 9, 0
6, 10, 0
6, 1, 0
8, 16, 0
8, 7, 0
8, 4, 0
8, 18, 0
8, 11, 0
5, 0, 0
5, 3, 0
5, 9, 0
11, 7, 0
11, 18, 0
11, 17, 0
11, 16, 0
11, 8, 0
11, 15, 0
10, 0, 0
10, 6, 0
10, 3, 0
10, 9, 0
20, 6, 0
20, 19, 0
20, 1, 0
12, 7, 0
12, 19, 0
12, 13, 1
12, 1, 0
12, 2, 0
4, 16, 0
4, 7, 0
4, 8, 0
4, 18, 0
14, 7, 0
14, 2, 0
14, 19, 0
14, 13, 1
14, 1, 0
2, 7, 0
2, 12, 0
2, 13, 0
2, 14, 0
2, 19, 0
2, 1, 0
19, 20, 0
19, 12, 0
19, 13, 0
19, 14, 0
19, 2, 0
19, 7, 0
19, 1, 0
1, 20, 0
1, 12, 0
1, 13, 0
1, 14, 0
1, 2, 0
1, 6, 0
1, 19, 0
1, 7, 0
15, 17, 0
15, 11, 0
18, 7, 0
18, 4, 0
18, 8, 0
18, 11, 0
9, 0, 0
9, 6, 0
9, 3, 0
9, 5, 0
9, 10, 0
