0, 3, 0
0, 10, 0
0, 9, 0
0, 1, 0
6, 2, 0
6, 5, 0
6, 10, 0
1, 0, 0
1, 3, 0
1, 9, 0
5, 3, 0
5, 2, 0
5, 6, 0
5, 9, 0
5, 11, 0
5, 10, 0
11, 5, 0
11, 9, 0
10, 0, 0
10, 3, 0
10, 4, 0
10, 2, 0
10, 6, 0
10, 5, 0
7, 8, 1
7, 4, 0
7, 2, 0
3, 0, 0
3, 10, 0
3, 9, 0
3, 5, 0
3, 1, 0
4, 7, 0
4, 8, 0
4, 10, 0
4, 2, 0
2, 7, 0
2, 4, 0
2, 6, 0
2, 8, 0
2, 5, 0
2, 10, 0
8, 7, 1
8, 4, 0
8, 2, 0
9, 0, 0
9, 3, 0
9, 5, 0
9, 11, 0
9, 1, 0
