0, 2, 0
0, 17, 0
0, 1, 0
13, 19, 0
13, 9, 0
13, 15, 0
13, 2, 0
17, 0, 0
17, 11, 0
17, 1, 0
3, 12, 0
3, 4, 1
3, 2, 0
3, 18, 0
3, 10, 0
3, 9, 0
16, 6, 0
16, 8, 0
16, 10, 0
6, 16, 0
6, 7, 0
6, 8, 0
6, 14, 0
8, 7, 1
8, 6, 0
8, 16, 0
8, 14, 0
5, 12, 0
5, 4, 1
5, 2, 0
5, 18, 0
5, 10, 0
5, 9, 0
11, 15, 0
11, 17, 0
11, 1, 0
10, 12, 0
10, 4, 0
10, 3, 0
10, 2, 0
10, 16, 0
10, 5, 0
10, 18, 0
10, 9, 0
7, 6, 0
7, 8, 1
7, 14, 0
12, 3, 0
12, 4, 0
12, 2, 0
12, 18, 0
12, 9, 0
12, 5, 0
12, 10, 0
4, 12, 0
4, 3, 1
4, 2, 0
4, 18, 0
4, 10, 0
4, 5, 1
4, 9, 0
14, 7, 0
14, 6, 0
14, 8, 0
2, 0, 0
2, 13, 0
2, 12, 0
2, 18, 0
2, 5, 0
2, 1, 0
2, 3, 0
2, 4, 0
2, 19, 0
2, 10, 0
2, 15, 0
2, 9, 0
19, 13, 0
19, 15, 0
19, 2, 0
1, 0, 0
1, 15, 0
1, 17, 0
1, 11, 0
1, 2, 0
15, 2, 0
15, 19, 0
15, 13, 0
15, 11, 0
15, 1, 0
18, 12, 0
18, 4, 0
18, 3, 0
18, 2, 0
18, 5, 0
18, 10, 0
9, 12, 0
9, 13, 0
9, 3, 0
9, 4, 0
9, 2, 0
9, 5, 0
9, 10, 0
