0, 13, 0
0, 17, 0
0, 3, 0
0, 16, 0
0, 5, 0
0, 11, 0
0, 10, 0
0, 20, 0
0, 12, 0
0, 4, 0
0, 19, 0
0, 15, 0
0, 18, 0
7, 6, 0
7, 14, 0
7, 9, 1
7, 15, 0
7, 2, 0
13, 0, 0
13, 12, 0
13, 17, 0
13, 2, 0
13, 18, 0
13, 19, 0
13, 15, 0
13, 11, 0
13, 1, 0
17, 0, 0
17, 12, 0
17, 13, 0
17, 18, 1
17, 15, 0
17, 11, 0
3, 0, 0
3, 16, 0
3, 20, 0
3, 4, 1
3, 10, 0
16, 20, 0
16, 3, 0
16, 4, 0
16, 0, 0
16, 5, 0
16, 10, 0
6, 7, 0
6, 14, 0
6, 9, 0
6, 8, 0
6, 15, 0
6, 1, 0
8, 14, 0
8, 2, 0
8, 6, 0
8, 1, 0
8, 15, 0
8, 9, 1
5, 0, 0
5, 16, 0
5, 20, 0
5, 4, 1
5, 10, 0
11, 0, 0
11, 12, 0
11, 13, 0
11, 17, 0
11, 18, 0
11, 19, 0
11, 15, 0
11, 20, 0
10, 0, 0
10, 20, 0
10, 4, 0
10, 3, 0
10, 16, 0
10, 5, 0
20, 0, 0
20, 12, 0
20, 4, 0
20, 3, 0
20, 16, 0
20, 5, 0
20, 11, 0
20, 10, 0
12, 0, 0
12, 20, 0
12, 13, 0
12, 17, 0
12, 18, 0
12, 19, 0
12, 15, 0
12, 11, 0
4, 0, 0
4, 3, 1
4, 16, 0
4, 20, 0
4, 5, 1
4, 10, 0
14, 7, 0
14, 9, 0
14, 2, 0
14, 6, 0
14, 8, 0
14, 15, 0
14, 1, 0
2, 7, 0
2, 13, 0
2, 14, 0
2, 1, 0
2, 8, 0
2, 15, 0
2, 9, 0
19, 0, 0
19, 12, 0
19, 13, 0
19, 18, 1
19, 15, 0
19, 11, 0
1, 13, 0
1, 14, 0
1, 2, 0
1, 6, 0
1, 8, 0
1, 15, 0
1, 9, 0
15, 0, 0
15, 13, 0
15, 17, 0
15, 18, 0
15, 6, 0
15, 11, 0
15, 1, 0
15, 7, 0
15, 12, 0
15, 14, 0
15, 2, 0
15, 19, 0
15, 8, 0
15, 9, 0
18, 0, 0
18, 12, 0
18, 13, 0
18, 17, 1
18, 19, 1
18, 15, 0
18, 11, 0
9, 7, 1
9, 14, 0
9, 2, 0
9, 6, 0
9, 8, 1
9, 15, 0
9, 1, 0
