0, 7, 0
0, 6, 0
0, 4, 0
0, 5, 0
0, 2, 0
3, 7, 0
3, 1, 0
4, 0, 0
4, 7, 0
4, 6, 0
4, 2, 0
7, 0, 0
7, 3, 0
7, 1, 0
7, 4, 0
7, 2, 0
2, 0, 0
2, 7, 0
2, 4, 0
6, 0, 0
6, 4, 0
6, 5, 1
5, 0, 0
5, 6, 1
1, 7, 0
1, 3, 0
