0, 4, 0
0, 15, 0
0, 1, 1
13, 7, 0
13, 6, 0
13, 15, 0
13, 14, 1
13, 2, 0
3, 12, 0
3, 9, 0
3, 2, 0
3, 8, 0
3, 5, 0
3, 11, 0
3, 10, 0
6, 7, 1
6, 15, 0
6, 13, 0
6, 14, 0
6, 2, 0
8, 12, 0
8, 3, 0
8, 2, 0
8, 9, 0
8, 5, 0
8, 11, 0
8, 10, 0
5, 3, 0
5, 8, 0
11, 12, 1
11, 3, 0
11, 2, 0
11, 8, 0
11, 10, 1
11, 9, 0
10, 2, 0
10, 3, 0
10, 8, 0
10, 11, 1
10, 9, 0
7, 6, 1
7, 15, 0
7, 13, 0
7, 14, 0
7, 2, 0
12, 3, 0
12, 8, 0
12, 9, 0
12, 11, 1
12, 2, 0
4, 0, 0
4, 15, 0
4, 1, 0
14, 7, 0
14, 13, 1
14, 2, 0
14, 6, 0
14, 15, 0
14, 9, 0
2, 7, 0
2, 12, 0
2, 13, 0
2, 14, 0
2, 9, 0
2, 3, 0
2, 6, 0
2, 8, 0
2, 15, 0
2, 11, 0
2, 10, 0
1, 0, 1
1, 4, 0
1, 15, 0
15, 0, 0
15, 7, 0
15, 13, 0
15, 14, 0
15, 4, 0
15, 2, 0
15, 6, 0
15, 9, 0
15, 1, 0
9, 3, 0
9, 14, 0
9, 2, 0
9, 8, 0
9, 15, 0
9, 10, 0
9, 11, 0
9, 12, 0
