2, 27, 0
2, 13, 0
2, 28, 0
13, 28, 0
13, 23, 0
13, 2, 0
13, 27, 0
13, 8, 0
13, 1, 0
17, 21, 0
17, 19, 0
17, 5, 0
23, 8, 0
23, 13, 0
29, 7, 0
29, 25, 0
29, 26, 0
29, 22, 0
5, 16, 0
5, 4, 0
5, 17, 0
5, 21, 0
5, 6, 0
5, 19, 0
5, 15, 0
5, 11, 0
11, 20, 0
11, 3, 0
11, 4, 0
11, 14, 0
11, 15, 0
11, 5, 0
1, 16, 0
1, 13, 0
1, 24, 0
20, 0, 0
20, 3, 0
20, 14, 0
20, 11, 0
20, 6, 0
4, 6, 0
4, 14, 0
4, 15, 0
4, 5, 0
4, 11, 0
14, 20, 0
14, 3, 0
14, 4, 0
14, 6, 0
14, 15, 1
14, 11, 0
14, 0, 0
24, 8, 0
24, 1, 0
28, 27, 1
28, 13, 0
28, 2, 0
8, 13, 0
8, 23, 0
8, 24, 0
15, 3, 0
15, 4, 0
15, 14, 1
15, 6, 0
15, 5, 0
15, 11, 0
22, 7, 0
22, 29, 0
0, 20, 0
0, 18, 0
0, 14, 0
12, 18, 0
12, 25, 0
12, 26, 0
16, 10, 0
16, 19, 0
16, 1, 0
16, 5, 0
16, 9, 0
6, 20, 0
6, 3, 0
6, 4, 0
6, 14, 0
6, 15, 0
6, 5, 0
10, 16, 0
10, 19, 0
10, 9, 1
7, 22, 0
7, 29, 0
3, 20, 0
3, 15, 0
3, 14, 0
3, 11, 0
3, 6, 0
25, 12, 0
25, 26, 1
25, 29, 0
26, 18, 0
26, 12, 0
26, 25, 1
26, 29, 0
27, 13, 0
27, 28, 1
27, 2, 0
21, 19, 0
21, 17, 0
21, 5, 0
19, 21, 0
19, 17, 0
19, 16, 0
19, 9, 0
19, 5, 0
19, 10, 0
18, 0, 0
18, 12, 0
18, 26, 0
9, 16, 0
9, 19, 0
9, 10, 1
