0, 14, 0
0, 11, 0
0, 2, 0
13, 16, 0
13, 12, 0
13, 9, 0
13, 15, 0
13, 1, 0
17, 16, 0
17, 6, 0
17, 4, 0
17, 5, 0
3, 7, 0
3, 8, 0
3, 14, 0
3, 2, 0
16, 13, 0
16, 17, 0
16, 4, 0
16, 6, 0
16, 1, 0
16, 5, 0
16, 9, 0
6, 16, 0
6, 4, 0
6, 17, 0
6, 5, 0
8, 7, 1
8, 3, 0
5, 16, 0
5, 6, 0
5, 4, 1
5, 17, 0
11, 0, 0
11, 7, 0
11, 14, 0
11, 2, 0
10, 12, 0
10, 14, 0
7, 3, 0
7, 8, 1
7, 11, 0
7, 2, 0
12, 13, 0
12, 15, 0
12, 9, 0
12, 10, 0
4, 16, 0
4, 6, 0
4, 17, 0
4, 5, 1
14, 0, 0
14, 3, 0
14, 2, 0
14, 11, 0
14, 10, 0
2, 0, 0
2, 7, 0
2, 14, 0
2, 11, 0
2, 3, 0
1, 16, 0
1, 13, 0
1, 9, 0
15, 12, 0
15, 13, 0
15, 9, 0
9, 16, 0
9, 12, 0
9, 13, 0
9, 15, 0
9, 1, 0
