0, 7, 0
0, 12, 0
0, 4, 0
0, 17, 0
0, 8, 0
0, 11, 0
13, 6, 0
13, 1, 0
13, 14, 1
13, 10, 0
17, 0, 0
17, 11, 0
3, 16, 0
3, 9, 0
3, 15, 0
3, 5, 0
3, 2, 0
16, 12, 0
16, 9, 0
16, 15, 0
16, 3, 0
16, 2, 0
6, 7, 0
6, 13, 0
6, 14, 0
6, 4, 0
6, 10, 0
8, 0, 0
8, 7, 0
8, 4, 0
8, 10, 0
5, 3, 0
5, 15, 0
5, 9, 0
11, 0, 0
11, 12, 0
11, 17, 0
10, 7, 0
10, 13, 0
10, 14, 0
10, 4, 0
10, 6, 0
10, 8, 0
7, 0, 0
7, 6, 0
7, 8, 0
7, 4, 0
7, 10, 0
12, 0, 0
12, 16, 0
12, 11, 0
12, 2, 0
4, 7, 0
4, 6, 0
4, 8, 0
4, 0, 0
4, 10, 0
14, 6, 0
14, 13, 1
14, 10, 0
2, 16, 0
2, 3, 0
2, 15, 0
2, 12, 0
1, 13, 0
15, 16, 0
15, 3, 0
15, 9, 0
15, 5, 0
15, 2, 0
9, 16, 0
9, 3, 0
9, 15, 0
9, 5, 0
