0, 7, 0
0, 6, 0
0, 4, 0
0, 11, 0
0, 12, 0
13, 3, 0
13, 1, 0
13, 8, 0
13, 12, 0
13, 2, 0
3, 2, 0
3, 8, 0
3, 13, 0
3, 1, 0
6, 0, 0
6, 7, 0
6, 4, 0
6, 10, 0
6, 5, 0
6, 9, 0
8, 2, 0
8, 12, 0
8, 13, 0
8, 3, 0
8, 1, 0
5, 7, 0
5, 6, 0
5, 4, 1
11, 0, 0
11, 12, 0
10, 6, 0
10, 9, 1
7, 0, 0
7, 6, 0
7, 4, 0
7, 5, 0
12, 0, 0
12, 13, 0
12, 2, 0
12, 8, 0
12, 11, 0
12, 1, 0
4, 7, 0
4, 6, 0
4, 5, 1
4, 0, 0
2, 12, 0
2, 8, 0
2, 13, 0
2, 3, 0
2, 1, 1
1, 12, 0
1, 8, 0
1, 13, 0
1, 3, 0
1, 2, 1
9, 6, 0
9, 10, 1
