13, 33, 0
13, 14, 0
13, 32, 0
13, 24, 0
13, 25, 0
13, 35, 0
17, 18, 0
17, 12, 0
17, 19, 0
17, 43, 0
17, 31, 0
23, 7, 0
23, 1, 0
23, 2, 0
42, 39, 0
42, 41, 1
42, 30, 0
5, 7, 0
5, 2, 0
5, 10, 0
5, 39, 0
5, 1, 0
20, 16, 0
20, 37, 0
20, 43, 0
20, 22, 0
14, 33, 0
14, 13, 0
14, 25, 0
14, 11, 0
14, 32, 0
24, 6, 0
24, 13, 0
24, 35, 0
28, 21, 0
28, 8, 0
28, 4, 0
28, 29, 0
39, 42, 0
39, 1, 0
39, 30, 0
39, 40, 0
39, 41, 0
39, 10, 0
39, 5, 0
41, 40, 1
41, 42, 1
41, 39, 0
41, 30, 0
0, 12, 0
0, 15, 0
8, 4, 0
8, 28, 0
8, 32, 0
8, 29, 0
8, 21, 0
8, 25, 0
8, 11, 0
12, 0, 0
12, 18, 0
12, 19, 0
12, 17, 0
12, 31, 0
15, 0, 0
15, 27, 0
15, 9, 0
15, 26, 0
15, 36, 0
10, 1, 0
10, 39, 0
10, 5, 0
10, 2, 0
7, 5, 0
7, 23, 0
7, 2, 0
3, 37, 0
3, 22, 0
3, 29, 0
32, 33, 0
32, 13, 0
32, 25, 0
32, 14, 0
32, 8, 0
32, 11, 0
2, 7, 0
2, 1, 0
2, 5, 0
2, 23, 0
2, 10, 0
21, 8, 0
21, 28, 0
21, 4, 0
21, 29, 0
33, 25, 0
33, 13, 0
33, 14, 0
33, 11, 0
33, 32, 0
19, 18, 0
19, 12, 0
19, 17, 0
19, 31, 0
18, 43, 0
18, 19, 0
18, 17, 0
18, 31, 0
18, 12, 0
31, 18, 0
31, 12, 0
31, 19, 0
31, 17, 0
31, 43, 0
29, 37, 0
29, 3, 0
29, 8, 0
29, 28, 0
29, 21, 0
40, 39, 0
40, 41, 1
40, 30, 0
11, 25, 0
11, 33, 0
11, 8, 0
11, 14, 0
11, 32, 0
1, 23, 0
1, 2, 0
1, 30, 0
1, 10, 0
1, 39, 0
1, 5, 0
1, 36, 0
37, 20, 0
37, 3, 0
37, 22, 0
37, 29, 0
4, 21, 0
4, 8, 0
4, 28, 0
35, 6, 0
35, 13, 0
35, 24, 0
30, 34, 0
30, 38, 0
30, 9, 0
30, 42, 0
30, 39, 0
30, 36, 0
30, 40, 0
30, 41, 0
30, 1, 0
38, 34, 0
38, 36, 0
38, 30, 0
22, 37, 0
22, 3, 0
22, 16, 0
22, 20, 0
36, 34, 0
36, 38, 0
36, 26, 0
36, 27, 0
36, 1, 0
36, 30, 0
36, 15, 0
36, 9, 0
16, 20, 0
16, 22, 0
27, 9, 0
27, 15, 0
27, 26, 1
27, 36, 0
34, 30, 0
34, 9, 0
34, 38, 0
34, 26, 0
34, 36, 0
25, 33, 0
25, 13, 0
25, 14, 0
25, 32, 0
25, 8, 0
25, 11, 0
26, 34, 0
26, 27, 1
26, 9, 0
26, 15, 0
26, 36, 0
6, 35, 0
6, 24, 0
43, 20, 0
43, 18, 0
43, 17, 0
43, 31, 0
9, 34, 0
9, 26, 0
9, 27, 0
9, 30, 0
9, 15, 0
9, 36, 0
