0, 3, 0
0, 8, 0
0, 9, 0
0, 10, 0
3, 0, 0
3, 10, 0
3, 8, 0
3, 5, 0
3, 9, 0
4, 7, 0
4, 6, 0
4, 1, 0
4, 10, 0
4, 2, 0
2, 7, 0
2, 6, 0
2, 4, 0
2, 1, 1
6, 7, 0
6, 1, 0
6, 4, 0
6, 5, 0
6, 2, 0
1, 7, 0
1, 6, 0
1, 4, 0
1, 5, 0
1, 2, 1
8, 0, 0
8, 3, 0
8, 10, 0
5, 7, 0
5, 3, 0
5, 6, 0
5, 9, 0
5, 10, 0
5, 1, 0
7, 4, 0
7, 2, 0
7, 6, 0
7, 10, 0
7, 5, 0
7, 1, 0
10, 0, 0
10, 3, 0
10, 4, 0
10, 8, 0
10, 7, 0
10, 5, 0
9, 0, 0
9, 3, 0
9, 5, 0
