0, 6, 0
0, 11, 0
13, 6, 0
13, 1, 0
13, 8, 0
13, 14, 1
13, 2, 0
3, 7, 0
3, 4, 0
3, 5, 0
3, 10, 0
6, 0, 0
6, 1, 0
6, 13, 0
6, 14, 0
6, 2, 0
8, 13, 0
8, 14, 0
5, 3, 0
5, 9, 0
11, 0, 0
11, 12, 0
10, 7, 0
10, 3, 0
10, 4, 0
7, 3, 0
7, 4, 0
7, 9, 0
7, 10, 0
12, 4, 0
12, 11, 0
4, 7, 0
4, 12, 0
4, 3, 0
4, 10, 0
14, 2, 0
14, 6, 0
14, 8, 0
14, 13, 1
14, 1, 0
2, 6, 0
2, 13, 0
2, 14, 0
2, 1, 1
1, 6, 0
1, 13, 0
1, 14, 0
1, 2, 1
9, 7, 0
9, 5, 0
