12, 34, 0
12, 35, 0
12, 21, 0
12, 15, 0
12, 5, 0
12, 10, 0
13, 37, 0
13, 38, 0
13, 23, 0
17, 20, 0
17, 19, 0
17, 14, 0
17, 11, 0
17, 2, 0
31, 6, 0
31, 23, 0
31, 32, 0
23, 13, 0
23, 31, 0
24, 4, 0
24, 25, 1
24, 26, 0
5, 12, 0
5, 15, 0
5, 10, 0
11, 20, 0
11, 3, 0
11, 17, 0
11, 2, 0
11, 15, 0
11, 9, 0
1, 18, 0
1, 33, 0
1, 0, 0
20, 3, 0
20, 19, 0
20, 17, 0
20, 11, 0
20, 2, 0
21, 37, 0
21, 34, 0
21, 12, 0
21, 15, 0
21, 35, 0
4, 25, 0
4, 26, 0
4, 24, 0
14, 16, 0
14, 17, 0
14, 2, 0
39, 27, 0
39, 28, 0
39, 30, 0
35, 21, 0
35, 34, 1
35, 12, 0
28, 8, 0
28, 39, 0
30, 27, 0
30, 39, 0
8, 16, 0
8, 28, 0
15, 3, 0
15, 12, 0
15, 21, 0
15, 19, 0
15, 10, 0
15, 5, 0
15, 11, 0
15, 9, 0
22, 7, 0
22, 18, 0
22, 26, 0
22, 36, 0
36, 18, 0
36, 7, 0
36, 26, 0
36, 22, 0
0, 18, 0
0, 1, 0
6, 31, 0
6, 32, 0
3, 20, 0
3, 2, 1
3, 19, 0
3, 15, 0
3, 11, 0
3, 9, 0
16, 8, 0
16, 14, 0
16, 2, 0
38, 37, 1
38, 13, 0
27, 39, 0
27, 30, 0
10, 12, 0
10, 15, 0
10, 5, 0
7, 18, 0
7, 26, 0
7, 22, 0
7, 36, 0
34, 21, 0
34, 12, 0
34, 35, 1
25, 4, 0
25, 26, 0
25, 24, 1
33, 29, 0
33, 1, 0
32, 6, 0
32, 31, 0
32, 29, 0
2, 20, 0
2, 3, 1
2, 17, 0
2, 16, 0
2, 14, 0
2, 19, 0
2, 11, 0
2, 9, 0
37, 21, 0
37, 13, 0
37, 38, 1
29, 33, 0
29, 32, 0
19, 20, 0
19, 3, 0
19, 17, 0
19, 2, 0
19, 15, 0
19, 9, 0
26, 7, 0
26, 4, 0
26, 25, 0
26, 24, 0
26, 22, 0
26, 36, 0
18, 0, 0
18, 7, 0
18, 1, 0
18, 22, 0
18, 36, 0
9, 3, 0
9, 19, 0
9, 15, 0
9, 11, 0
9, 2, 0
