0, 7, 0
0, 3, 0
0, 2, 0
0, 6, 0
0, 1, 0
0, 8, 0
0, 5, 0
0, 9, 0
3, 0, 0
3, 2, 0
3, 6, 0
3, 8, 0
3, 5, 0
3, 1, 0
4, 7, 0
4, 9, 0
2, 0, 0
2, 3, 0
2, 6, 0
2, 8, 0
2, 5, 0
2, 1, 1
6, 0, 0
6, 3, 0
6, 2, 0
6, 8, 0
6, 5, 1
6, 1, 0
1, 0, 0
1, 3, 0
1, 2, 1
1, 6, 0
1, 8, 0
1, 5, 0
8, 0, 0
8, 3, 0
8, 2, 0
8, 6, 0
8, 5, 0
8, 1, 0
5, 0, 0
5, 3, 0
5, 2, 0
5, 6, 1
5, 8, 0
5, 1, 0
7, 0, 0
7, 4, 0
7, 9, 0
9, 7, 0
9, 0, 0
9, 4, 0
