0, 6, 0
0, 1, 0
13, 17, 0
13, 14, 1
17, 13, 0
17, 14, 0
17, 5, 0
17, 2, 0
3, 16, 0
3, 7, 0
3, 4, 1
3, 15, 0
16, 7, 0
16, 3, 0
16, 4, 0
16, 15, 0
16, 1, 0
6, 0, 0
6, 1, 0
8, 7, 0
8, 12, 0
8, 9, 1
8, 5, 0
8, 11, 0
8, 10, 0
5, 7, 0
5, 12, 0
5, 14, 0
5, 2, 0
5, 17, 0
5, 8, 0
5, 10, 0
5, 11, 0
5, 9, 0
11, 7, 0
11, 12, 0
11, 10, 1
11, 8, 0
11, 15, 0
11, 5, 0
11, 9, 0
10, 7, 0
10, 12, 0
10, 8, 0
10, 5, 0
10, 11, 1
10, 9, 0
7, 12, 0
7, 4, 0
7, 9, 0
7, 3, 0
7, 16, 0
7, 2, 0
7, 8, 0
7, 15, 0
7, 5, 0
7, 11, 0
7, 10, 0
12, 7, 0
12, 9, 0
12, 2, 0
12, 8, 0
12, 5, 0
12, 11, 0
12, 10, 0
4, 16, 0
4, 7, 0
4, 15, 0
4, 3, 1
14, 13, 1
14, 17, 0
14, 5, 0
2, 7, 0
2, 12, 0
2, 17, 0
2, 5, 0
1, 0, 0
1, 16, 0
1, 6, 0
15, 16, 0
15, 7, 0
15, 4, 0
15, 11, 0
15, 3, 0
9, 7, 0
9, 12, 0
9, 8, 1
9, 5, 0
9, 11, 0
9, 10, 0
