13, 0, 0
13, 3, 0
13, 21, 0
13, 2, 0
13, 16, 0
13, 18, 0
13, 1, 0
17, 21, 0
17, 3, 0
17, 4, 0
17, 2, 0
5, 7, 0
5, 21, 0
5, 10, 0
11, 21, 0
11, 0, 0
11, 4, 0
11, 15, 0
11, 2, 0
1, 0, 1
1, 3, 0
1, 13, 0
1, 21, 0
1, 2, 0
1, 16, 0
20, 19, 1
20, 8, 0
20, 22, 0
4, 21, 0
4, 17, 0
4, 11, 0
4, 2, 0
14, 7, 0
14, 12, 0
14, 22, 0
14, 9, 0
8, 20, 0
8, 12, 0
8, 19, 0
8, 22, 0
15, 6, 0
15, 11, 0
15, 2, 0
22, 20, 0
22, 12, 0
22, 8, 0
22, 14, 0
22, 9, 0
0, 3, 0
0, 13, 0
0, 21, 0
0, 16, 0
0, 2, 0
0, 11, 0
0, 1, 1
3, 0, 0
3, 21, 0
3, 13, 0
3, 17, 0
3, 2, 1
3, 16, 0
3, 1, 0
16, 0, 0
16, 3, 0
16, 2, 0
16, 13, 0
16, 1, 0
6, 15, 0
10, 5, 0
10, 9, 0
7, 12, 0
7, 14, 0
7, 18, 0
7, 19, 0
7, 5, 0
7, 9, 0
12, 7, 0
12, 14, 0
12, 19, 0
12, 8, 0
12, 22, 0
12, 9, 0
2, 0, 0
2, 3, 1
2, 4, 0
2, 17, 0
2, 16, 0
2, 13, 0
2, 15, 0
2, 18, 0
2, 11, 0
2, 1, 0
21, 0, 0
21, 3, 0
21, 4, 0
21, 17, 0
21, 13, 0
21, 5, 0
21, 11, 0
21, 1, 0
19, 20, 1
19, 7, 0
19, 8, 0
19, 12, 0
18, 7, 0
18, 13, 0
18, 2, 0
9, 7, 0
9, 12, 0
9, 14, 0
9, 22, 0
9, 10, 0
