0, 12, 0
0, 8, 0
0, 2, 0
13, 7, 0
13, 5, 0
13, 2, 0
3, 6, 0
3, 5, 0
3, 1, 0
6, 3, 0
6, 9, 0
8, 0, 0
8, 12, 0
8, 2, 0
5, 7, 0
5, 3, 0
5, 13, 0
5, 4, 0
5, 2, 0
5, 1, 0
5, 11, 0
5, 10, 0
11, 7, 0
11, 2, 0
11, 4, 0
11, 5, 0
11, 10, 1
10, 7, 0
10, 4, 0
10, 14, 0
10, 2, 0
10, 5, 0
10, 11, 1
10, 1, 0
7, 13, 0
7, 4, 0
7, 2, 0
7, 5, 0
7, 11, 0
7, 10, 0
12, 0, 0
12, 8, 0
4, 7, 0
4, 14, 0
4, 2, 0
4, 5, 0
4, 11, 0
4, 10, 0
14, 2, 0
14, 10, 0
14, 4, 0
14, 1, 0
2, 0, 0
2, 7, 0
2, 13, 0
2, 14, 0
2, 4, 0
2, 8, 0
2, 5, 0
2, 11, 0
2, 10, 0
1, 3, 0
1, 14, 0
1, 5, 0
1, 10, 0
9, 6, 0
