13, 6, 0
13, 9, 0
13, 12, 0
13, 5, 0
13, 2, 0
17, 24, 0
17, 8, 0
17, 11, 0
17, 10, 0
23, 18, 0
23, 19, 0
5, 20, 0
5, 3, 0
5, 4, 0
5, 14, 0
5, 2, 0
5, 13, 0
11, 17, 0
11, 9, 0
11, 24, 0
11, 18, 0
11, 6, 0
11, 8, 0
11, 10, 0
1, 0, 0
1, 14, 0
20, 3, 0
20, 4, 0
20, 5, 0
20, 2, 0
4, 20, 0
4, 16, 0
4, 14, 0
4, 5, 0
14, 0, 0
14, 7, 0
14, 16, 0
14, 4, 0
14, 2, 0
14, 21, 0
14, 5, 0
14, 22, 0
14, 1, 0
24, 18, 0
24, 8, 0
24, 17, 0
24, 11, 0
24, 10, 0
8, 17, 0
8, 11, 0
8, 24, 0
15, 16, 0
15, 7, 0
15, 0, 0
22, 21, 1
22, 16, 0
22, 14, 0
22, 0, 0
0, 7, 0
0, 16, 0
0, 14, 0
0, 21, 0
0, 15, 0
0, 22, 0
0, 1, 0
3, 20, 0
3, 12, 0
3, 5, 0
3, 2, 0
16, 0, 0
16, 7, 0
16, 4, 0
16, 14, 0
16, 21, 0
16, 15, 0
16, 22, 0
6, 13, 0
6, 11, 0
6, 9, 0
10, 18, 0
10, 17, 0
10, 11, 0
10, 24, 0
7, 0, 0
7, 16, 0
7, 15, 0
7, 14, 0
7, 21, 0
12, 3, 0
12, 13, 0
12, 2, 0
2, 20, 0
2, 3, 0
2, 13, 0
2, 14, 0
2, 12, 0
2, 5, 0
21, 0, 0
21, 16, 0
21, 7, 0
21, 14, 0
21, 22, 1
19, 18, 0
19, 23, 0
18, 19, 0
18, 10, 0
18, 11, 0
18, 23, 0
18, 24, 0
9, 6, 0
9, 13, 0
9, 11, 0
