0, 2, 0
0, 9, 0
0, 5, 0
0, 4, 0
0, 1, 0
3, 2, 0
4, 0, 0
4, 7, 0
4, 5, 0
4, 9, 0
2, 0, 0
2, 3, 0
2, 1, 0
2, 7, 0
2, 9, 0
6, 8, 0
6, 5, 0
1, 7, 0
1, 0, 0
1, 2, 0
1, 9, 0
8, 6, 0
8, 10, 0
5, 0, 0
5, 6, 0
5, 4, 0
7, 2, 0
7, 9, 0
7, 4, 0
7, 1, 0
10, 8, 0
9, 0, 0
9, 7, 0
9, 2, 0
9, 4, 0
9, 1, 0
