0, 7, 0
0, 4, 0
0, 2, 0
0, 6, 0
0, 5, 0
0, 1, 0
3, 6, 0
4, 0, 0
4, 7, 0
4, 1, 0
7, 0, 0
7, 4, 0
7, 5, 0
7, 2, 0
2, 0, 0
2, 7, 0
2, 5, 0
6, 0, 0
6, 3, 0
6, 5, 0
6, 1, 0
5, 0, 0
5, 7, 0
5, 6, 0
5, 2, 0
1, 0, 0
1, 6, 0
1, 4, 0
