13, 3, 0
13, 4, 0
13, 26, 0
13, 12, 1
13, 18, 0
13, 27, 0
13, 11, 0
17, 7, 0
17, 2, 0
23, 20, 0
23, 9, 0
23, 6, 0
23, 8, 0
23, 10, 0
23, 1, 0
2, 20, 0
2, 7, 0
2, 17, 0
2, 16, 0
2, 6, 0
2, 15, 0
2, 5, 0
5, 7, 0
5, 20, 0
5, 8, 0
5, 2, 0
5, 16, 0
5, 24, 0
5, 15, 0
5, 1, 0
11, 0, 0
11, 12, 0
11, 4, 0
11, 13, 0
11, 26, 0
11, 18, 0
11, 27, 0
11, 19, 0
1, 28, 0
1, 23, 0
1, 6, 0
1, 5, 0
1, 10, 0
1, 20, 0
1, 12, 0
1, 4, 0
1, 21, 0
1, 19, 0
1, 8, 0
1, 9, 0
20, 7, 0
20, 8, 0
20, 23, 0
20, 24, 0
20, 16, 0
20, 6, 0
20, 1, 0
20, 2, 0
20, 5, 0
20, 22, 0
20, 9, 0
4, 0, 0
4, 21, 0
4, 13, 0
4, 28, 0
4, 6, 0
4, 18, 0
4, 27, 0
4, 19, 0
4, 11, 0
4, 1, 0
14, 7, 0
14, 24, 0
24, 20, 0
24, 7, 0
24, 14, 0
24, 6, 0
24, 10, 0
24, 5, 0
24, 9, 0
28, 0, 0
28, 12, 0
28, 4, 0
28, 21, 0
28, 19, 0
28, 1, 0
8, 20, 0
8, 12, 0
8, 23, 0
8, 6, 0
8, 1, 0
8, 5, 0
8, 10, 0
8, 9, 0
15, 16, 0
15, 5, 0
15, 2, 0
22, 20, 0
22, 16, 0
22, 25, 0
0, 12, 0
0, 4, 0
0, 28, 0
0, 26, 0
0, 3, 0
0, 27, 0
0, 19, 0
0, 11, 0
12, 0, 0
12, 13, 1
12, 28, 0
12, 26, 0
12, 18, 0
12, 27, 0
12, 19, 0
12, 8, 0
12, 11, 0
12, 1, 0
16, 20, 0
16, 2, 0
16, 6, 0
16, 15, 0
16, 5, 0
16, 22, 0
6, 20, 0
6, 7, 0
6, 4, 0
6, 9, 0
6, 23, 0
6, 24, 0
6, 16, 0
6, 2, 0
6, 8, 0
6, 10, 0
6, 1, 0
10, 9, 1
10, 23, 0
10, 24, 0
10, 6, 0
10, 8, 0
10, 1, 0
7, 20, 0
7, 14, 0
7, 2, 0
7, 6, 0
7, 24, 0
7, 5, 0
7, 17, 0
3, 0, 0
3, 13, 0
3, 26, 0
3, 18, 0
3, 27, 0
3, 19, 0
25, 22, 0
26, 0, 0
26, 3, 0
26, 13, 0
26, 12, 0
26, 18, 0
26, 27, 0
26, 19, 0
26, 11, 0
27, 0, 0
27, 3, 0
27, 4, 0
27, 13, 0
27, 26, 0
27, 12, 0
27, 18, 0
27, 11, 0
21, 4, 0
21, 28, 0
21, 1, 0
19, 0, 0
19, 3, 0
19, 4, 0
19, 28, 0
19, 26, 0
19, 12, 0
19, 18, 1
19, 11, 0
19, 1, 0
18, 12, 0
18, 4, 0
18, 13, 0
18, 26, 0
18, 3, 0
18, 27, 0
18, 19, 1
18, 11, 0
9, 20, 0
9, 23, 0
9, 24, 0
9, 6, 0
9, 8, 0
9, 10, 1
9, 1, 0
