0, 7, 0
0, 6, 0
0, 8, 0
0, 4, 0
3, 9, 0
3, 2, 0
3, 8, 0
3, 5, 0
3, 10, 0
3, 1, 0
4, 0, 0
4, 6, 0
4, 8, 0
4, 7, 0
2, 7, 0
2, 3, 0
2, 8, 0
2, 5, 0
2, 10, 0
6, 0, 0
6, 7, 1
6, 8, 0
6, 4, 0
1, 3, 0
1, 5, 0
1, 9, 0
8, 0, 0
8, 7, 0
8, 4, 0
8, 3, 0
8, 2, 0
8, 6, 0
8, 10, 0
5, 3, 0
5, 1, 0
5, 9, 0
5, 2, 0
7, 0, 0
7, 6, 1
7, 8, 0
7, 4, 0
7, 2, 0
10, 3, 0
10, 8, 0
10, 2, 0
9, 3, 0
9, 5, 0
9, 1, 0
