0, 6, 0
0, 19, 0
0, 11, 0
0, 10, 0
7, 20, 0
7, 12, 0
7, 16, 0
7, 13, 0
7, 17, 0
13, 16, 0
13, 12, 1
13, 7, 0
13, 17, 0
17, 20, 0
17, 7, 0
17, 13, 0
17, 4, 0
17, 12, 0
17, 16, 0
17, 2, 0
17, 18, 0
3, 19, 0
3, 9, 0
16, 7, 0
16, 12, 0
16, 13, 0
16, 17, 0
6, 0, 0
6, 19, 0
6, 11, 0
6, 10, 0
8, 18, 0
8, 15, 0
8, 10, 0
8, 14, 0
8, 1, 0
5, 14, 0
5, 10, 0
5, 15, 0
5, 11, 0
5, 1, 0
11, 0, 0
11, 6, 0
11, 19, 0
11, 5, 0
11, 10, 0
10, 0, 0
10, 14, 0
10, 6, 0
10, 19, 0
10, 8, 0
10, 15, 0
10, 5, 0
10, 11, 0
10, 1, 0
20, 18, 0
20, 7, 0
20, 4, 0
20, 17, 0
20, 2, 0
12, 16, 0
12, 7, 0
12, 13, 1
12, 17, 0
4, 20, 0
4, 18, 0
4, 17, 0
4, 2, 0
14, 10, 0
14, 8, 0
14, 15, 1
14, 5, 0
14, 1, 0
2, 20, 0
2, 18, 0
2, 4, 0
2, 17, 0
19, 0, 0
19, 3, 0
19, 6, 0
19, 9, 0
19, 11, 0
19, 10, 0
1, 14, 0
1, 18, 0
1, 8, 0
1, 15, 0
1, 5, 0
1, 10, 0
15, 10, 0
15, 8, 0
15, 14, 1
15, 5, 0
15, 1, 0
18, 20, 0
18, 4, 0
18, 17, 0
18, 2, 0
18, 8, 0
18, 1, 0
9, 3, 0
9, 19, 0
