0, 20, 0
0, 12, 0
0, 14, 0
0, 16, 0
0, 11, 0
0, 9, 0
7, 11, 0
7, 10, 0
13, 20, 0
13, 6, 0
13, 9, 0
13, 12, 0
17, 19, 0
17, 8, 0
17, 5, 0
17, 1, 0
3, 20, 0
3, 4, 0
3, 2, 1
3, 18, 0
3, 8, 0
3, 5, 0
3, 10, 0
16, 0, 0
16, 14, 0
16, 11, 0
6, 20, 0
6, 13, 0
8, 20, 0
8, 3, 0
8, 4, 0
8, 17, 0
8, 2, 0
8, 18, 0
8, 19, 0
8, 15, 0
8, 5, 0
8, 10, 0
5, 3, 0
5, 17, 0
5, 2, 0
5, 18, 0
5, 19, 0
5, 8, 0
5, 15, 0
5, 1, 0
11, 0, 0
11, 20, 0
11, 16, 0
11, 7, 0
11, 14, 0
10, 20, 0
10, 7, 0
10, 4, 0
10, 3, 0
10, 2, 0
10, 8, 0
20, 0, 0
20, 13, 0
20, 18, 0
20, 6, 0
20, 11, 0
20, 10, 0
20, 3, 0
20, 4, 0
20, 14, 0
20, 2, 0
20, 19, 0
20, 8, 0
12, 0, 0
12, 13, 0
12, 9, 0
4, 20, 0
4, 3, 0
4, 2, 0
4, 18, 0
4, 8, 0
4, 10, 0
14, 0, 0
14, 20, 0
14, 16, 0
14, 11, 0
2, 20, 0
2, 3, 1
2, 4, 0
2, 18, 0
2, 8, 0
2, 5, 0
2, 10, 0
19, 20, 0
19, 17, 0
19, 18, 0
19, 8, 0
19, 15, 0
19, 5, 0
19, 1, 0
1, 18, 0
1, 19, 0
1, 17, 0
1, 5, 0
15, 18, 0
15, 19, 0
15, 8, 0
15, 5, 0
18, 20, 0
18, 3, 0
18, 4, 0
18, 2, 0
18, 19, 0
18, 8, 0
18, 15, 0
18, 5, 0
18, 1, 0
9, 0, 0
9, 12, 0
9, 13, 0
