0, 12, 0
0, 4, 0
0, 5, 0
0, 10, 0
0, 1, 0
8, 7, 0
8, 3, 0
3, 7, 0
3, 8, 0
3, 11, 0
6, 10, 0
6, 11, 0
6, 9, 0
5, 0, 0
5, 4, 1
5, 2, 0
11, 6, 0
11, 9, 0
11, 3, 0
11, 10, 0
10, 0, 0
10, 6, 0
10, 4, 0
10, 11, 0
10, 9, 0
7, 12, 0
7, 8, 0
7, 3, 0
12, 7, 0
12, 0, 0
12, 1, 0
4, 0, 0
4, 2, 0
4, 9, 0
4, 5, 1
4, 10, 0
2, 4, 0
2, 5, 0
2, 9, 0
1, 0, 0
1, 12, 0
9, 2, 0
9, 6, 0
9, 4, 0
9, 11, 0
9, 10, 0
