0, 17, 0
0, 14, 0
0, 9, 0
13, 15, 0
13, 5, 0
13, 11, 0
17, 0, 0
17, 9, 0
17, 1, 0
3, 4, 1
3, 15, 0
3, 1, 0
16, 7, 0
16, 6, 0
16, 11, 0
6, 16, 0
6, 7, 0
6, 11, 0
6, 10, 0
8, 7, 0
8, 10, 0
5, 13, 0
5, 15, 0
11, 16, 0
11, 6, 0
11, 13, 0
11, 7, 0
10, 7, 0
10, 6, 0
10, 8, 0
7, 16, 0
7, 6, 0
7, 8, 0
7, 11, 0
7, 10, 0
12, 14, 0
12, 2, 0
4, 3, 1
4, 15, 0
4, 1, 0
14, 0, 0
14, 12, 0
14, 9, 0
14, 2, 0
2, 12, 0
2, 14, 0
1, 3, 0
1, 4, 0
1, 15, 0
1, 17, 0
1, 9, 0
15, 3, 0
15, 13, 0
15, 5, 0
15, 4, 0
15, 1, 0
9, 0, 0
9, 14, 0
9, 17, 0
9, 1, 0
