0, 3, 0
0, 11, 0
0, 9, 0
6, 7, 0
6, 11, 0
6, 1, 0
1, 7, 0
1, 6, 0
1, 11, 0
1, 2, 0
5, 7, 0
5, 8, 0
5, 4, 0
5, 10, 0
11, 0, 0
11, 6, 0
11, 2, 0
11, 9, 0
11, 1, 0
10, 4, 0
10, 5, 0
7, 6, 0
7, 8, 0
7, 5, 0
7, 1, 0
3, 0, 0
3, 9, 0
4, 5, 0
4, 10, 0
2, 11, 0
2, 1, 0
8, 7, 0
8, 5, 0
9, 0, 0
9, 3, 0
9, 11, 0
