0, 7, 0
0, 3, 0
0, 6, 0
0, 8, 0
0, 1, 1
8, 0, 0
8, 12, 0
8, 7, 0
8, 3, 0
8, 6, 0
8, 10, 0
8, 5, 0
8, 11, 0
8, 1, 0
3, 0, 0
3, 6, 0
3, 8, 0
3, 7, 0
3, 1, 0
6, 0, 0
6, 7, 1
6, 8, 0
6, 3, 0
6, 1, 0
5, 12, 0
5, 4, 1
5, 2, 0
5, 8, 0
5, 11, 0
5, 10, 0
11, 7, 0
11, 12, 0
11, 9, 0
11, 2, 0
11, 1, 0
11, 8, 0
11, 5, 0
11, 10, 0
10, 12, 0
10, 4, 0
10, 2, 0
10, 8, 0
10, 5, 0
10, 11, 0
7, 0, 0
7, 3, 0
7, 6, 1
7, 8, 0
7, 11, 0
7, 1, 0
12, 4, 0
12, 9, 0
12, 2, 0
12, 8, 0
12, 5, 0
12, 11, 0
12, 10, 0
4, 12, 0
4, 2, 0
4, 5, 1
4, 10, 0
2, 12, 0
2, 4, 0
2, 9, 0
2, 5, 0
2, 11, 0
2, 10, 0
1, 0, 1
1, 7, 0
1, 3, 0
1, 6, 0
1, 8, 0
1, 11, 0
9, 12, 0
9, 11, 0
9, 2, 0
