0, 7, 0
0, 4, 0
0, 2, 0
3, 6, 0
3, 8, 0
3, 5, 0
4, 0, 0
4, 2, 0
7, 0, 0
2, 0, 0
2, 6, 0
2, 8, 0
2, 4, 0
2, 1, 0
6, 3, 0
6, 1, 0
6, 8, 0
6, 2, 0
8, 2, 0
8, 3, 0
8, 1, 0
8, 6, 0
5, 3, 0
1, 6, 0
1, 8, 0
1, 2, 0
