0, 4, 0
0, 2, 0
3, 6, 0
3, 5, 0
3, 1, 0
4, 0, 0
4, 7, 0
4, 1, 0
4, 2, 0
7, 2, 0
7, 4, 0
7, 1, 0
2, 7, 0
2, 0, 0
2, 4, 0
2, 1, 0
6, 3, 0
6, 5, 1
6, 1, 0
5, 3, 0
5, 1, 0
5, 6, 1
1, 7, 0
1, 3, 0
1, 4, 0
1, 2, 0
1, 6, 0
1, 5, 0
