13, 20, 0
13, 14, 0
17, 7, 0
17, 18, 0
17, 16, 0
17, 0, 0
17, 15, 0
17, 1, 0
5, 0, 0
5, 3, 0
5, 14, 0
5, 2, 0
11, 7, 0
11, 12, 0
1, 7, 0
1, 17, 0
20, 21, 0
20, 13, 0
20, 14, 0
4, 12, 0
4, 19, 0
14, 20, 0
14, 13, 0
14, 5, 0
8, 6, 0
8, 22, 0
8, 9, 1
15, 16, 1
15, 18, 0
15, 17, 0
15, 0, 0
22, 6, 0
22, 8, 0
22, 9, 0
0, 3, 0
0, 17, 0
0, 2, 0
0, 16, 0
0, 15, 0
0, 18, 0
0, 5, 0
3, 0, 0
3, 5, 0
3, 2, 1
16, 0, 0
16, 15, 1
16, 17, 0
16, 18, 0
6, 21, 0
6, 8, 0
6, 22, 0
6, 9, 0
10, 19, 0
7, 18, 0
7, 17, 0
7, 11, 0
7, 1, 0
12, 4, 0
12, 11, 0
2, 0, 0
2, 3, 1
2, 5, 0
21, 20, 0
21, 6, 0
19, 4, 0
19, 10, 0
18, 0, 0
18, 16, 0
18, 7, 0
18, 15, 0
18, 17, 0
9, 6, 0
9, 8, 1
9, 22, 0
