13, 21, 0
13, 16, 0
13, 22, 0
17, 12, 0
17, 5, 0
17, 11, 0
23, 7, 0
23, 3, 0
23, 8, 0
23, 2, 0
23, 0, 0
23, 19, 0
23, 1, 0
23, 15, 0
23, 10, 0
23, 20, 0
23, 9, 0
5, 0, 0
5, 12, 0
5, 19, 0
5, 17, 0
5, 11, 0
11, 12, 1
11, 17, 0
11, 5, 0
1, 3, 0
1, 2, 0
1, 23, 0
1, 10, 0
20, 0, 0
20, 7, 0
20, 8, 0
20, 15, 0
20, 23, 0
4, 18, 0
4, 6, 0
14, 16, 0
14, 18, 0
8, 20, 0
8, 7, 1
8, 23, 0
8, 0, 0
8, 19, 0
8, 15, 0
8, 9, 1
15, 20, 0
15, 7, 0
15, 23, 0
15, 2, 0
15, 8, 0
15, 9, 0
22, 21, 1
22, 16, 0
22, 13, 0
0, 20, 0
0, 7, 0
0, 23, 0
0, 19, 0
0, 8, 0
0, 5, 0
0, 9, 0
3, 2, 0
3, 10, 0
3, 23, 0
3, 1, 0
16, 13, 0
16, 14, 0
16, 22, 0
6, 4, 0
6, 10, 0
10, 3, 0
10, 6, 0
10, 2, 0
10, 23, 0
10, 1, 0
7, 20, 0
7, 0, 0
7, 23, 0
7, 19, 0
7, 8, 1
7, 15, 0
12, 17, 0
12, 5, 0
12, 11, 1
2, 3, 0
2, 10, 0
2, 15, 0
2, 23, 0
2, 1, 0
21, 13, 0
21, 22, 1
19, 0, 0
19, 7, 0
19, 23, 0
19, 8, 0
19, 5, 0
19, 9, 0
18, 4, 0
18, 14, 0
9, 0, 0
9, 19, 0
9, 8, 1
9, 15, 0
9, 23, 0
