13, 21, 0
13, 9, 0
13, 17, 0
13, 22, 0
13, 10, 0
17, 21, 0
17, 7, 0
17, 13, 0
17, 22, 0
17, 10, 0
5, 4, 1
5, 2, 0
11, 0, 0
11, 12, 1
11, 1, 0
11, 3, 0
11, 16, 0
11, 6, 0
11, 2, 0
11, 8, 0
11, 10, 0
11, 9, 0
1, 0, 0
1, 12, 0
1, 7, 0
1, 6, 0
1, 19, 0
1, 8, 0
1, 11, 0
1, 9, 0
20, 18, 0
20, 16, 0
20, 7, 0
20, 9, 0
20, 2, 0
4, 7, 0
4, 2, 0
4, 5, 1
4, 10, 0
14, 19, 0
14, 15, 1
8, 0, 0
8, 3, 0
8, 16, 0
8, 6, 0
8, 11, 0
8, 1, 0
8, 12, 0
8, 2, 0
8, 19, 0
8, 10, 0
8, 15, 0
8, 9, 1
15, 6, 0
15, 19, 0
15, 8, 0
15, 14, 1
22, 21, 1
22, 13, 0
22, 17, 0
22, 10, 0
0, 7, 0
0, 3, 0
0, 9, 0
0, 6, 0
0, 8, 0
0, 11, 0
0, 1, 0
3, 0, 0
3, 7, 0
3, 12, 0
3, 16, 0
3, 6, 0
3, 8, 0
3, 11, 0
3, 9, 0
16, 20, 0
16, 3, 0
16, 7, 0
16, 12, 0
16, 18, 0
16, 8, 0
16, 11, 0
16, 9, 0
6, 0, 0
6, 3, 0
6, 9, 0
6, 12, 0
6, 19, 0
6, 8, 0
6, 15, 0
6, 11, 0
6, 1, 0
10, 7, 0
10, 4, 0
10, 13, 0
10, 22, 0
10, 2, 0
10, 21, 0
10, 17, 0
10, 8, 0
10, 11, 0
10, 9, 0
7, 0, 0
7, 3, 0
7, 4, 0
7, 17, 0
7, 2, 0
7, 16, 0
7, 20, 0
7, 10, 0
7, 1, 0
12, 3, 0
12, 9, 0
12, 16, 0
12, 6, 0
12, 8, 0
12, 11, 1
12, 1, 0
2, 20, 0
2, 7, 0
2, 4, 0
2, 9, 0
2, 8, 0
2, 5, 0
2, 11, 0
2, 10, 0
21, 13, 0
21, 17, 0
21, 22, 1
21, 10, 0
19, 6, 0
19, 15, 0
19, 8, 0
19, 14, 0
19, 1, 0
18, 20, 0
18, 16, 0
18, 9, 0
9, 0, 0
9, 13, 0
9, 12, 0
9, 16, 0
9, 6, 0
9, 1, 0
9, 11, 0
9, 10, 0
9, 20, 0
9, 3, 0
9, 2, 0
9, 8, 1
9, 18, 0
