0, 12, 0
0, 11, 0
0, 3, 0
8, 7, 0
8, 5, 0
3, 0, 0
3, 12, 0
3, 11, 0
3, 2, 0
6, 2, 0
6, 9, 0
5, 8, 0
5, 4, 0
5, 10, 0
11, 0, 0
11, 3, 0
11, 12, 0
11, 2, 0
10, 4, 0
10, 5, 0
7, 8, 0
12, 0, 0
12, 3, 0
12, 4, 0
12, 11, 0
12, 1, 0
4, 12, 0
4, 10, 0
4, 5, 0
4, 1, 0
2, 6, 0
2, 9, 0
2, 11, 0
2, 3, 0
1, 12, 0
1, 4, 0
9, 6, 0
9, 2, 0
