13, 12, 1
13, 15, 0
17, 45, 0
17, 43, 0
17, 26, 0
17, 42, 0
17, 46, 0
17, 11, 0
23, 34, 0
23, 33, 0
23, 30, 0
23, 40, 0
23, 41, 0
23, 22, 0
23, 36, 0
42, 45, 0
42, 17, 0
42, 43, 0
42, 46, 0
42, 26, 0
46, 42, 0
46, 17, 0
46, 43, 0
46, 26, 0
46, 11, 0
20, 16, 0
20, 14, 0
20, 15, 0
20, 29, 0
14, 20, 0
14, 28, 0
14, 31, 0
14, 2, 0
14, 37, 0
14, 43, 0
14, 29, 0
14, 39, 0
14, 27, 0
24, 27, 0
24, 2, 0
24, 39, 0
24, 31, 0
24, 9, 0
28, 16, 0
28, 0, 0
28, 14, 0
28, 31, 0
28, 29, 0
39, 2, 0
39, 14, 0
39, 31, 0
39, 24, 0
41, 25, 0
41, 40, 0
41, 23, 0
41, 22, 0
41, 30, 0
0, 12, 0
0, 28, 0
0, 31, 0
0, 29, 0
0, 16, 0
0, 15, 0
8, 6, 0
8, 2, 0
8, 44, 0
8, 27, 0
34, 33, 0
34, 23, 0
34, 36, 0
15, 20, 0
15, 0, 0
15, 16, 0
15, 13, 0
15, 12, 0
47, 27, 0
47, 43, 0
47, 38, 0
10, 3, 0
10, 27, 0
10, 9, 0
7, 45, 0
7, 25, 0
7, 33, 0
7, 21, 0
7, 5, 0
7, 19, 0
7, 40, 0
7, 18, 0
7, 30, 0
3, 27, 0
3, 35, 0
3, 10, 0
32, 45, 0
32, 4, 0
32, 43, 0
32, 26, 0
2, 24, 0
2, 6, 0
2, 38, 0
2, 14, 0
2, 27, 0
2, 43, 0
2, 8, 0
2, 39, 0
2, 44, 0
2, 9, 0
21, 7, 0
21, 33, 0
21, 45, 0
21, 18, 0
21, 19, 0
21, 5, 0
21, 30, 0
33, 7, 0
33, 18, 0
33, 23, 0
33, 45, 0
33, 21, 0
33, 19, 0
33, 34, 0
33, 40, 0
19, 7, 0
19, 33, 0
19, 45, 0
19, 21, 0
19, 5, 0
19, 18, 1
19, 30, 0
18, 7, 0
18, 33, 0
18, 45, 0
18, 21, 0
18, 19, 1
18, 5, 0
18, 30, 0
31, 0, 0
31, 14, 0
31, 24, 0
31, 16, 0
31, 28, 0
31, 39, 0
31, 27, 0
29, 20, 0
29, 16, 0
29, 14, 0
29, 28, 0
29, 0, 0
40, 7, 0
40, 33, 0
40, 25, 0
40, 23, 0
40, 41, 0
40, 22, 0
11, 45, 0
11, 17, 0
11, 43, 0
11, 46, 0
11, 26, 0
5, 7, 0
5, 21, 0
5, 25, 0
5, 45, 0
5, 18, 0
5, 19, 0
5, 30, 0
37, 27, 0
37, 43, 0
37, 14, 0
37, 44, 0
4, 45, 0
4, 43, 0
4, 26, 0
4, 32, 0
4, 1, 0
35, 3, 0
35, 43, 0
35, 27, 0
30, 7, 0
30, 45, 0
30, 25, 0
30, 23, 0
30, 41, 0
30, 21, 0
30, 19, 0
30, 36, 0
30, 18, 0
30, 5, 0
38, 6, 0
38, 27, 0
38, 43, 0
38, 47, 0
38, 2, 0
22, 40, 0
22, 41, 0
22, 23, 0
36, 34, 0
36, 23, 0
36, 30, 0
45, 17, 0
45, 26, 0
45, 18, 0
45, 5, 0
45, 11, 0
45, 30, 0
45, 7, 0
45, 33, 0
45, 4, 0
45, 43, 0
45, 32, 0
45, 21, 0
45, 42, 0
45, 19, 0
45, 1, 0
16, 20, 0
16, 0, 0
16, 28, 0
16, 31, 0
16, 29, 0
16, 15, 0
27, 2, 0
27, 6, 0
27, 24, 0
27, 44, 0
27, 47, 0
27, 10, 0
27, 3, 0
27, 14, 0
27, 31, 0
27, 35, 0
27, 37, 0
27, 43, 0
27, 8, 0
27, 38, 0
27, 9, 0
1, 45, 0
1, 4, 0
1, 43, 0
1, 26, 0
44, 37, 0
44, 27, 0
44, 8, 0
44, 43, 0
44, 2, 0
12, 0, 0
12, 13, 1
12, 15, 0
25, 7, 0
25, 30, 0
25, 40, 0
25, 5, 0
25, 41, 0
26, 45, 0
26, 4, 0
26, 43, 0
26, 11, 0
26, 32, 0
26, 42, 0
26, 46, 0
26, 17, 0
26, 1, 0
6, 27, 0
6, 8, 0
6, 38, 0
6, 2, 0
43, 45, 0
43, 17, 0
43, 32, 0
43, 27, 0
43, 35, 0
43, 44, 0
43, 11, 0
43, 46, 0
43, 4, 0
43, 14, 0
43, 47, 0
43, 26, 0
43, 2, 0
43, 37, 0
43, 42, 0
43, 1, 0
43, 38, 0
9, 2, 0
9, 27, 0
9, 10, 0
9, 24, 0
