0, 2, 0
0, 9, 0
6, 1, 0
6, 10, 0
1, 7, 0
1, 6, 0
1, 4, 0
1, 11, 0
5, 8, 0
5, 10, 0
11, 2, 0
11, 4, 0
11, 1, 0
10, 6, 0
10, 5, 0
7, 3, 0
7, 1, 0
3, 7, 0
3, 8, 0
4, 11, 0
4, 1, 0
2, 0, 0
2, 11, 0
2, 9, 0
8, 3, 0
8, 5, 0
9, 0, 0
9, 2, 0
