0, 2, 0
0, 10, 0
0, 1, 1
6, 10, 0
6, 5, 0
6, 9, 0
1, 0, 1
1, 10, 0
1, 2, 0
5, 6, 0
5, 9, 0
5, 11, 0
5, 10, 0
11, 5, 0
11, 9, 0
10, 0, 0
10, 6, 0
10, 2, 0
10, 5, 0
10, 1, 0
7, 3, 0
7, 2, 0
3, 7, 0
3, 4, 0
4, 3, 0
4, 8, 0
2, 0, 0
2, 7, 0
2, 10, 0
2, 1, 0
8, 4, 0
9, 6, 0
9, 5, 0
9, 11, 0
