0, 8, 0
0, 9, 0
0, 4, 0
0, 1, 1
6, 7, 1
6, 5, 1
6, 11, 0
6, 10, 0
1, 0, 1
1, 8, 0
1, 4, 0
1, 9, 0
5, 6, 1
5, 11, 0
5, 10, 0
11, 7, 0
11, 3, 0
11, 2, 0
11, 6, 0
11, 5, 0
11, 10, 0
10, 7, 0
10, 6, 0
10, 5, 0
10, 11, 0
10, 3, 0
7, 6, 1
7, 11, 0
7, 10, 0
3, 2, 0
3, 10, 0
3, 11, 0
3, 9, 0
4, 0, 0
4, 8, 0
4, 9, 0
4, 1, 0
2, 3, 0
2, 8, 0
2, 11, 0
2, 9, 0
8, 0, 0
8, 2, 0
8, 4, 0
8, 9, 0
8, 1, 0
9, 0, 0
9, 3, 0
9, 4, 0
9, 2, 0
9, 8, 0
9, 1, 0
