0, 16, 0
0, 12, 0
0, 2, 0
13, 12, 0
13, 5, 0
13, 2, 0
17, 18, 0
17, 15, 0
17, 11, 0
3, 7, 0
3, 9, 0
3, 10, 0
16, 0, 0
6, 18, 0
6, 1, 0
8, 5, 0
8, 1, 0
5, 2, 0
5, 12, 0
5, 8, 0
5, 13, 0
5, 1, 0
11, 18, 0
11, 17, 0
10, 7, 0
10, 3, 0
10, 9, 0
7, 3, 0
7, 9, 0
7, 14, 0
7, 10, 0
12, 0, 0
12, 13, 0
12, 5, 0
12, 2, 0
4, 15, 0
4, 14, 0
14, 7, 0
14, 4, 0
2, 0, 0
2, 12, 0
2, 13, 0
2, 5, 0
1, 18, 0
1, 6, 0
1, 8, 0
1, 5, 0
15, 4, 0
15, 17, 0
18, 6, 0
18, 17, 0
18, 11, 0
18, 1, 0
9, 7, 0
9, 3, 0
9, 10, 0
