0, 7, 0
0, 3, 0
0, 8, 0
0, 1, 0
8, 0, 0
8, 3, 0
3, 0, 0
3, 8, 0
3, 11, 0
3, 9, 0
6, 4, 0
5, 10, 0
5, 1, 0
11, 3, 0
11, 9, 0
10, 5, 0
10, 1, 0
7, 0, 0
7, 1, 0
12, 4, 0
12, 9, 0
12, 2, 0
4, 12, 0
4, 6, 0
2, 12, 0
2, 9, 0
1, 7, 0
1, 0, 0
1, 5, 0
1, 10, 0
9, 3, 0
9, 12, 0
9, 11, 0
9, 2, 0
