0, 7, 0
0, 5, 0
8, 2, 0
3, 4, 0
6, 11, 0
6, 2, 0
5, 0, 0
5, 12, 0
11, 6, 0
11, 9, 0
11, 10, 0
11, 1, 0
10, 7, 0
10, 9, 1
10, 11, 0
10, 1, 0
7, 0, 0
7, 9, 0
7, 10, 0
12, 4, 0
12, 5, 0
4, 12, 0
4, 3, 0
2, 6, 0
2, 8, 0
1, 10, 0
1, 11, 0
1, 9, 0
9, 7, 0
9, 10, 1
9, 11, 0
9, 1, 0
