12, 20, 0
12, 41, 0
13, 38, 0
13, 8, 0
13, 14, 1
17, 7, 0
17, 27, 0
17, 5, 0
31, 0, 0
31, 21, 0
31, 30, 1
23, 33, 0
23, 22, 1
24, 20, 0
24, 2, 0
24, 18, 0
24, 39, 0
24, 19, 0
24, 40, 0
40, 24, 0
40, 39, 1
40, 2, 0
5, 7, 0
5, 33, 0
5, 17, 0
5, 22, 0
5, 27, 0
11, 35, 0
11, 4, 0
11, 28, 0
11, 29, 0
11, 8, 0
11, 1, 0
1, 4, 0
1, 28, 0
1, 22, 0
1, 37, 0
1, 11, 0
1, 36, 0
20, 12, 0
20, 24, 0
20, 39, 0
20, 41, 0
20, 2, 0
21, 0, 0
21, 15, 0
21, 31, 0
21, 32, 0
21, 30, 0
4, 28, 0
4, 11, 0
4, 35, 0
4, 36, 0
4, 22, 0
4, 1, 0
14, 16, 0
14, 8, 0
14, 38, 0
14, 13, 1
39, 20, 0
39, 24, 0
39, 40, 1
39, 2, 0
35, 4, 0
35, 28, 0
35, 22, 0
35, 11, 0
28, 37, 0
28, 35, 0
28, 4, 0
28, 11, 0
28, 1, 0
30, 0, 0
30, 21, 0
30, 31, 1
8, 13, 0
8, 14, 0
8, 29, 0
8, 16, 0
8, 38, 0
8, 11, 0
15, 21, 0
15, 32, 0
41, 20, 0
41, 3, 0
41, 25, 0
41, 26, 0
41, 12, 0
22, 33, 0
22, 4, 0
22, 23, 1
22, 35, 0
22, 37, 0
22, 36, 0
22, 5, 0
22, 1, 0
36, 37, 1
36, 4, 0
36, 22, 0
36, 1, 0
0, 21, 0
0, 31, 0
0, 30, 0
6, 16, 0
6, 34, 0
6, 38, 0
6, 18, 0
6, 10, 0
38, 34, 0
38, 13, 0
38, 14, 0
38, 16, 0
38, 6, 0
38, 8, 0
38, 10, 0
3, 25, 0
3, 41, 0
3, 26, 0
3, 32, 0
16, 34, 0
16, 14, 0
16, 18, 0
16, 6, 0
16, 8, 0
16, 38, 0
16, 10, 0
27, 7, 0
27, 17, 0
27, 5, 0
10, 16, 0
10, 34, 0
10, 38, 0
10, 18, 0
10, 6, 0
7, 27, 0
7, 17, 0
7, 5, 0
34, 18, 0
34, 6, 0
34, 16, 0
34, 38, 0
34, 10, 0
25, 3, 0
25, 32, 0
25, 41, 0
25, 26, 0
25, 9, 0
33, 22, 0
33, 5, 0
33, 23, 0
32, 3, 0
32, 25, 0
32, 26, 0
32, 21, 0
32, 15, 0
32, 9, 0
2, 20, 0
2, 40, 0
2, 39, 0
2, 24, 0
37, 36, 1
37, 28, 0
37, 22, 0
37, 1, 0
29, 8, 0
29, 11, 0
19, 18, 0
19, 24, 0
26, 3, 0
26, 25, 0
26, 41, 0
26, 32, 0
26, 9, 0
18, 34, 0
18, 24, 0
18, 16, 0
18, 6, 0
18, 19, 0
18, 10, 0
9, 25, 0
9, 26, 0
9, 32, 0
