0, 7, 0
0, 6, 0
0, 11, 0
0, 1, 1
6, 0, 0
6, 7, 0
6, 1, 0
6, 8, 0
6, 5, 0
6, 11, 0
6, 9, 0
1, 0, 1
1, 6, 0
1, 7, 0
1, 11, 0
5, 6, 0
5, 8, 0
5, 9, 0
5, 10, 0
11, 0, 0
11, 6, 0
11, 7, 0
11, 1, 0
10, 8, 0
10, 5, 0
7, 0, 0
7, 6, 0
7, 1, 0
7, 8, 0
7, 11, 0
7, 9, 0
3, 8, 0
3, 4, 1
4, 3, 1
4, 8, 0
4, 9, 0
4, 2, 1
2, 4, 1
2, 9, 0
8, 7, 0
8, 3, 0
8, 4, 0
8, 6, 0
8, 9, 0
8, 5, 0
8, 10, 0
9, 7, 0
9, 4, 0
9, 2, 0
9, 6, 0
9, 8, 0
9, 5, 0
