0, 1, 0
0, 8, 0
0, 9, 0
13, 14, 1
13, 5, 0
17, 18, 1
17, 19, 0
17, 11, 0
3, 16, 0
3, 12, 0
3, 15, 0
3, 2, 1
16, 12, 0
16, 4, 0
16, 3, 0
16, 18, 0
16, 19, 0
16, 2, 0
16, 15, 1
16, 11, 0
6, 11, 0
6, 9, 0
8, 0, 0
8, 9, 0
8, 1, 0
5, 7, 0
5, 12, 0
5, 13, 0
5, 14, 0
11, 18, 0
11, 17, 0
11, 16, 0
11, 6, 0
11, 19, 0
11, 9, 0
10, 1, 0
7, 12, 0
7, 4, 0
7, 2, 0
7, 19, 0
7, 15, 0
7, 5, 0
12, 7, 0
12, 3, 0
12, 4, 0
12, 14, 0
12, 2, 0
12, 16, 0
12, 19, 0
12, 15, 0
12, 5, 0
4, 7, 0
4, 12, 0
4, 2, 0
4, 16, 0
4, 19, 0
4, 15, 0
14, 12, 0
14, 13, 1
14, 5, 0
2, 7, 0
2, 12, 0
2, 4, 0
2, 3, 1
2, 16, 0
2, 19, 0
2, 15, 0
19, 7, 0
19, 12, 0
19, 4, 0
19, 17, 0
19, 2, 0
19, 16, 0
19, 15, 0
19, 18, 0
19, 11, 0
1, 0, 0
1, 8, 0
1, 10, 0
15, 7, 0
15, 12, 0
15, 4, 0
15, 3, 0
15, 2, 0
15, 16, 1
15, 19, 0
18, 16, 0
18, 19, 0
18, 17, 1
18, 11, 0
9, 0, 0
9, 6, 0
9, 8, 0
9, 11, 0
