0, 7, 0
0, 3, 0
0, 4, 0
0, 5, 0
0, 6, 0
3, 0, 0
3, 6, 0
3, 4, 0
3, 5, 0
4, 0, 0
4, 3, 0
4, 5, 1
7, 0, 0
7, 6, 0
7, 2, 0
2, 7, 0
2, 6, 0
2, 1, 0
6, 7, 0
6, 3, 0
6, 0, 0
6, 2, 0
5, 0, 0
5, 3, 0
5, 4, 1
1, 2, 0
