13, 20, 0
13, 12, 0
13, 18, 0
13, 9, 0
17, 14, 0
17, 26, 0
17, 24, 0
23, 1, 0
23, 4, 0
23, 2, 0
2, 7, 0
2, 6, 0
2, 4, 0
2, 23, 0
2, 1, 0
5, 16, 0
5, 14, 0
5, 15, 0
5, 11, 0
11, 16, 0
11, 15, 0
11, 5, 0
1, 7, 0
1, 6, 0
1, 4, 0
1, 23, 0
1, 2, 0
20, 12, 0
20, 13, 0
20, 27, 0
4, 7, 0
4, 2, 0
4, 8, 0
4, 23, 0
4, 1, 0
14, 17, 0
14, 26, 0
14, 24, 0
14, 16, 0
14, 15, 0
14, 5, 0
24, 0, 0
24, 14, 0
24, 19, 0
24, 17, 0
24, 26, 0
8, 4, 0
15, 16, 0
15, 14, 0
15, 5, 0
15, 11, 0
22, 21, 1
22, 3, 0
22, 19, 0
22, 10, 0
0, 19, 0
0, 24, 0
3, 21, 0
3, 27, 0
3, 25, 0
3, 22, 0
3, 10, 0
16, 14, 0
16, 15, 0
16, 5, 0
16, 11, 0
6, 18, 0
6, 7, 0
6, 2, 0
6, 1, 0
10, 21, 0
10, 3, 0
10, 19, 0
10, 22, 0
7, 2, 0
7, 6, 0
7, 4, 0
7, 1, 0
12, 20, 0
12, 27, 0
12, 13, 0
25, 27, 0
25, 3, 0
26, 14, 0
26, 17, 0
26, 24, 0
27, 20, 0
27, 12, 0
27, 25, 0
27, 3, 0
21, 3, 0
21, 19, 0
21, 22, 1
21, 10, 0
19, 0, 0
19, 21, 0
19, 10, 0
19, 22, 0
19, 24, 0
18, 6, 0
18, 13, 0
18, 9, 0
9, 18, 0
9, 13, 0
