0, 13, 0
0, 15, 0
0, 5, 0
0, 4, 0
7, 16, 0
7, 12, 0
13, 0, 0
13, 15, 0
13, 4, 0
13, 14, 0
17, 6, 0
17, 14, 0
3, 18, 0
3, 2, 1
3, 10, 0
3, 11, 0
3, 9, 0
16, 7, 0
16, 12, 0
6, 14, 0
6, 17, 0
8, 20, 0
8, 12, 0
8, 19, 0
8, 1, 0
5, 0, 0
5, 18, 0
11, 18, 0
11, 3, 0
11, 2, 0
11, 9, 0
11, 10, 1
10, 18, 0
10, 3, 0
10, 2, 0
10, 11, 1
10, 9, 0
20, 12, 0
20, 19, 0
20, 8, 0
20, 9, 0
20, 1, 0
12, 20, 0
12, 7, 0
12, 9, 0
12, 16, 0
12, 8, 0
12, 1, 0
4, 0, 0
4, 14, 0
4, 13, 0
4, 15, 0
14, 6, 0
14, 13, 0
14, 17, 0
14, 4, 0
2, 18, 0
2, 3, 1
2, 9, 0
2, 11, 0
2, 10, 0
19, 20, 0
19, 1, 0
19, 8, 0
19, 9, 0
1, 20, 0
1, 12, 0
1, 19, 0
1, 8, 0
15, 0, 0
15, 13, 0
15, 4, 0
18, 3, 0
18, 2, 0
18, 5, 0
18, 11, 0
18, 10, 0
9, 20, 0
9, 3, 0
9, 12, 0
9, 2, 0
9, 19, 0
9, 11, 0
9, 10, 0
