13, 0, 0
13, 12, 1
13, 25, 0
13, 18, 0
13, 17, 0
13, 19, 0
13, 15, 0
17, 16, 1
17, 18, 0
17, 13, 0
17, 15, 0
17, 1, 0
23, 7, 0
23, 18, 0
23, 4, 0
23, 24, 0
23, 21, 0
23, 6, 0
23, 5, 0
5, 7, 0
5, 18, 0
5, 4, 1
5, 14, 0
5, 23, 0
5, 24, 0
5, 21, 0
5, 6, 1
11, 20, 0
11, 0, 0
11, 19, 0
11, 18, 0
1, 16, 0
1, 14, 0
1, 15, 0
1, 18, 0
1, 17, 0
20, 0, 0
20, 18, 0
20, 19, 0
20, 11, 0
4, 7, 0
4, 18, 0
4, 14, 0
4, 23, 0
4, 24, 0
4, 21, 0
4, 5, 1
14, 7, 0
14, 4, 0
14, 24, 0
14, 18, 0
14, 6, 0
14, 1, 0
14, 10, 0
14, 5, 0
14, 9, 0
24, 7, 0
24, 4, 0
24, 14, 0
24, 23, 0
24, 18, 0
24, 9, 0
24, 5, 0
24, 10, 0
8, 7, 0
8, 3, 0
8, 18, 0
8, 22, 0
8, 2, 0
15, 12, 0
15, 13, 0
15, 17, 0
15, 16, 0
15, 25, 0
15, 19, 0
15, 18, 0
15, 1, 0
22, 7, 0
22, 3, 0
22, 8, 0
22, 18, 0
22, 2, 0
0, 20, 0
0, 18, 0
0, 19, 0
0, 13, 0
0, 11, 0
3, 7, 0
3, 21, 0
3, 8, 0
3, 22, 0
3, 2, 1
16, 18, 0
16, 15, 0
16, 17, 1
16, 1, 0
6, 7, 0
6, 18, 0
6, 14, 0
6, 23, 0
6, 21, 0
6, 5, 1
10, 18, 0
10, 9, 1
10, 14, 0
10, 24, 0
7, 23, 0
7, 18, 0
7, 6, 0
7, 2, 0
7, 5, 0
7, 3, 0
7, 4, 0
7, 14, 0
7, 24, 0
7, 21, 0
7, 8, 0
7, 22, 0
7, 9, 0
12, 18, 0
12, 25, 0
12, 13, 1
12, 15, 0
25, 18, 0
25, 12, 0
25, 19, 0
25, 13, 0
25, 15, 0
2, 7, 0
2, 3, 1
2, 8, 0
2, 22, 0
21, 7, 0
21, 3, 0
21, 4, 0
21, 23, 0
21, 18, 0
21, 6, 0
21, 5, 0
19, 20, 0
19, 0, 0
19, 13, 0
19, 25, 0
19, 18, 0
19, 15, 0
19, 11, 0
18, 13, 0
18, 17, 0
18, 23, 0
18, 5, 0
18, 11, 0
18, 1, 0
18, 20, 0
18, 4, 0
18, 14, 0
18, 24, 0
18, 8, 0
18, 15, 0
18, 22, 0
18, 0, 0
18, 16, 0
18, 6, 0
18, 10, 0
18, 7, 0
18, 12, 0
18, 25, 0
18, 21, 0
18, 19, 0
18, 9, 0
9, 7, 0
9, 18, 0
9, 10, 1
9, 14, 0
9, 24, 0
