12, 16, 0
12, 13, 0
13, 18, 0
13, 12, 0
13, 16, 0
17, 37, 0
17, 8, 0
17, 14, 0
31, 8, 0
23, 21, 1
23, 3, 0
23, 15, 0
23, 22, 1
24, 19, 0
24, 29, 0
24, 26, 0
24, 30, 0
5, 34, 0
5, 6, 0
5, 4, 1
5, 32, 0
5, 2, 0
11, 33, 0
11, 9, 0
11, 14, 0
11, 34, 0
1, 19, 0
1, 29, 0
1, 28, 0
1, 10, 0
20, 0, 0
20, 36, 0
21, 7, 0
21, 3, 0
21, 15, 0
21, 22, 1
21, 23, 1
4, 34, 0
4, 9, 0
4, 5, 1
4, 32, 0
4, 6, 0
14, 37, 0
14, 17, 0
14, 11, 0
35, 7, 0
35, 3, 0
35, 10, 0
28, 19, 0
28, 29, 1
28, 1, 0
30, 36, 0
30, 26, 0
30, 24, 0
8, 37, 0
8, 17, 0
8, 31, 0
15, 21, 0
15, 3, 0
15, 22, 0
15, 23, 0
22, 21, 1
22, 3, 0
22, 15, 0
22, 23, 1
36, 20, 0
36, 26, 0
36, 30, 0
0, 20, 0
0, 27, 0
0, 16, 0
6, 34, 0
6, 4, 0
6, 33, 0
6, 5, 0
6, 2, 0
3, 21, 0
3, 15, 0
3, 22, 0
3, 23, 0
3, 35, 0
16, 0, 0
16, 27, 0
16, 13, 0
16, 12, 0
27, 0, 0
27, 16, 0
10, 29, 0
10, 35, 0
10, 1, 0
7, 21, 0
7, 35, 0
34, 4, 0
34, 32, 0
34, 2, 0
34, 6, 0
34, 5, 0
34, 11, 0
25, 18, 0
25, 9, 0
25, 32, 0
25, 2, 0
33, 6, 0
33, 11, 0
32, 34, 0
32, 4, 0
32, 25, 0
32, 2, 0
32, 5, 0
32, 9, 0
2, 34, 0
2, 25, 0
2, 32, 0
2, 6, 0
2, 5, 0
2, 9, 0
37, 14, 0
37, 8, 0
37, 17, 0
29, 24, 0
29, 19, 0
29, 10, 0
29, 28, 1
29, 1, 0
19, 1, 0
19, 29, 0
19, 28, 0
19, 24, 0
26, 36, 0
26, 30, 0
26, 24, 0
18, 13, 0
18, 25, 0
9, 4, 0
9, 25, 0
9, 11, 0
9, 32, 0
9, 2, 0
