0, 16, 0
0, 6, 0
0, 19, 0
0, 11, 0
0, 10, 0
13, 3, 0
13, 9, 0
17, 18, 0
17, 7, 0
17, 2, 0
17, 8, 0
17, 12, 0
3, 13, 0
3, 1, 0
16, 0, 0
16, 6, 0
16, 19, 0
16, 11, 0
6, 0, 0
6, 16, 0
6, 5, 0
8, 7, 1
8, 12, 0
8, 17, 0
8, 2, 0
5, 6, 0
5, 4, 0
11, 0, 0
11, 16, 0
11, 19, 0
11, 10, 1
10, 0, 0
10, 19, 0
10, 11, 1
7, 12, 0
7, 17, 0
7, 2, 0
7, 18, 0
7, 8, 1
7, 9, 0
12, 7, 0
12, 8, 0
12, 17, 0
12, 2, 0
4, 15, 0
4, 5, 0
14, 15, 0
2, 7, 0
2, 12, 0
2, 8, 0
2, 17, 0
2, 9, 0
19, 0, 0
19, 16, 0
19, 10, 0
19, 11, 0
19, 1, 0
1, 3, 0
1, 19, 0
15, 4, 0
15, 14, 0
18, 7, 0
18, 17, 0
18, 9, 0
9, 7, 0
9, 18, 0
9, 13, 0
9, 2, 0
