0, 4, 0
0, 13, 0
0, 2, 0
0, 6, 0
0, 8, 0
0, 5, 0
13, 0, 0
13, 6, 0
13, 5, 0
3, 12, 0
3, 4, 0
3, 9, 0
3, 8, 0
3, 11, 0
3, 10, 0
6, 0, 0
6, 13, 0
6, 5, 1
8, 0, 0
8, 3, 0
8, 4, 0
8, 5, 0
8, 2, 0
5, 0, 0
5, 6, 1
5, 8, 0
5, 13, 0
5, 4, 0
11, 7, 0
11, 12, 1
11, 4, 0
11, 3, 0
11, 1, 0
11, 10, 1
11, 9, 0
10, 7, 0
10, 3, 0
10, 4, 0
10, 1, 0
10, 11, 1
10, 9, 0
7, 12, 0
7, 4, 0
7, 10, 0
7, 11, 0
7, 1, 0
12, 7, 0
12, 3, 0
12, 4, 0
12, 9, 0
12, 11, 1
12, 1, 0
4, 0, 0
4, 12, 0
4, 7, 0
4, 9, 0
4, 3, 0
4, 2, 0
4, 10, 0
4, 8, 0
4, 5, 0
4, 11, 0
4, 1, 0
2, 0, 0
2, 8, 0
2, 4, 0
1, 7, 0
1, 12, 0
1, 4, 0
1, 9, 0
1, 11, 0
1, 10, 0
9, 12, 0
9, 4, 0
9, 3, 0
9, 1, 0
9, 11, 0
9, 10, 0
