0, 14, 0
0, 5, 0
0, 9, 0
13, 7, 0
13, 14, 0
13, 10, 0
3, 5, 0
3, 11, 0
3, 9, 0
6, 2, 0
6, 12, 0
6, 8, 0
6, 4, 0
6, 1, 0
8, 6, 0
8, 2, 0
8, 1, 0
5, 0, 0
5, 3, 0
5, 11, 0
5, 9, 0
11, 3, 0
11, 14, 0
11, 5, 0
11, 9, 0
10, 12, 0
10, 13, 0
7, 13, 0
7, 14, 0
12, 6, 0
12, 4, 0
12, 10, 0
4, 12, 0
4, 6, 0
14, 0, 0
14, 7, 0
14, 13, 0
14, 11, 0
14, 9, 0
2, 6, 0
2, 8, 0
2, 1, 1
1, 6, 0
1, 8, 0
1, 2, 1
9, 0, 0
9, 3, 0
9, 14, 0
9, 5, 0
9, 11, 0
