0, 13, 0
0, 3, 0
0, 5, 0
0, 11, 0
0, 1, 1
0, 7, 0
0, 12, 0
0, 4, 0
0, 14, 0
0, 2, 0
0, 8, 0
0, 10, 0
0, 9, 0
13, 0, 0
13, 3, 0
13, 8, 0
13, 2, 0
3, 0, 0
3, 7, 0
3, 13, 0
3, 2, 1
6, 5, 0
6, 10, 0
8, 0, 0
8, 2, 0
8, 13, 0
8, 10, 0
5, 0, 0
5, 6, 0
5, 2, 0
5, 10, 0
11, 0, 0
11, 4, 0
11, 2, 0
10, 0, 0
10, 6, 0
10, 8, 0
10, 5, 0
10, 2, 0
7, 0, 0
7, 3, 0
7, 14, 0
7, 2, 0
12, 0, 0
12, 2, 0
12, 4, 0
12, 1, 0
4, 0, 0
4, 12, 0
4, 11, 0
4, 2, 0
14, 0, 0
14, 7, 0
14, 2, 0
14, 9, 0
2, 0, 0
2, 13, 0
2, 3, 1
2, 8, 0
2, 5, 0
2, 11, 0
2, 10, 0
2, 7, 0
2, 12, 0
2, 4, 0
2, 14, 0
2, 1, 0
2, 9, 0
1, 0, 1
1, 12, 0
1, 2, 0
1, 9, 0
9, 0, 0
9, 2, 0
9, 14, 0
9, 1, 0
