0, 7, 0
0, 3, 0
0, 2, 1
0, 1, 1
0, 8, 0
0, 11, 0
0, 10, 0
6, 7, 0
6, 4, 0
6, 2, 0
6, 8, 0
6, 5, 0
6, 11, 0
6, 10, 0
1, 0, 1
1, 7, 0
1, 3, 0
1, 8, 0
1, 10, 0
1, 11, 0
1, 9, 0
5, 6, 0
5, 4, 1
11, 0, 0
11, 7, 0
11, 4, 0
11, 2, 0
11, 6, 0
11, 1, 0
10, 0, 0
10, 7, 0
10, 2, 0
10, 6, 0
10, 8, 0
10, 1, 0
7, 0, 0
7, 3, 0
7, 4, 0
7, 9, 0
7, 6, 0
7, 8, 0
7, 10, 0
7, 11, 0
7, 1, 0
3, 0, 0
3, 7, 0
3, 4, 0
3, 2, 0
3, 1, 0
3, 9, 0
4, 7, 0
4, 3, 0
4, 2, 0
4, 6, 0
4, 8, 0
4, 5, 1
4, 11, 0
2, 0, 1
2, 3, 0
2, 4, 0
2, 6, 0
2, 8, 0
2, 11, 0
2, 10, 0
8, 0, 0
8, 7, 0
8, 4, 0
8, 9, 0
8, 2, 0
8, 6, 0
8, 10, 0
8, 1, 0
9, 7, 0
9, 3, 0
9, 8, 0
9, 1, 0
