0, 7, 0
0, 6, 0
0, 8, 0
0, 10, 0
0, 1, 0
3, 10, 0
3, 4, 0
3, 9, 0
3, 2, 1
4, 3, 0
4, 10, 0
4, 9, 0
4, 2, 0
2, 3, 1
2, 4, 0
2, 9, 0
6, 0, 0
6, 7, 0
6, 8, 0
6, 1, 0
1, 0, 0
1, 6, 0
1, 8, 0
1, 5, 0
1, 10, 0
1, 9, 0
8, 0, 0
8, 7, 0
8, 1, 0
8, 6, 0
5, 1, 0
5, 9, 0
5, 10, 0
7, 0, 0
7, 6, 0
7, 8, 0
7, 10, 0
10, 0, 0
10, 3, 0
10, 4, 0
10, 7, 0
10, 9, 0
10, 5, 0
10, 1, 0
9, 3, 0
9, 4, 0
9, 2, 0
9, 1, 0
9, 5, 0
9, 10, 0
