12, 19, 0
12, 9, 0
12, 35, 0
13, 15, 0
13, 22, 0
13, 24, 0
17, 6, 0
17, 15, 0
17, 23, 0
31, 20, 0
31, 28, 0
31, 1, 0
23, 6, 0
23, 25, 0
23, 17, 0
24, 18, 0
24, 13, 0
24, 15, 0
40, 3, 0
40, 38, 0
5, 16, 0
5, 3, 0
5, 34, 0
5, 2, 0
11, 0, 0
11, 28, 0
11, 39, 0
11, 29, 0
1, 20, 0
1, 31, 0
20, 31, 0
20, 1, 0
21, 37, 0
21, 38, 0
21, 10, 0
4, 37, 0
4, 32, 0
14, 34, 0
14, 27, 0
14, 26, 0
14, 30, 0
39, 0, 0
39, 28, 0
39, 11, 0
39, 29, 0
35, 33, 0
35, 36, 0
35, 12, 0
28, 39, 0
28, 31, 0
28, 11, 0
28, 29, 0
30, 25, 0
30, 27, 0
30, 14, 0
30, 26, 0
8, 7, 1
8, 22, 0
8, 9, 0
15, 18, 0
15, 13, 0
15, 17, 0
15, 24, 0
41, 36, 0
22, 18, 0
22, 7, 0
22, 8, 0
22, 13, 0
22, 9, 0
36, 33, 0
36, 41, 0
36, 35, 0
0, 39, 0
0, 11, 0
0, 32, 0
0, 29, 0
6, 17, 0
6, 23, 0
38, 21, 0
38, 40, 0
38, 10, 0
3, 16, 0
3, 40, 0
3, 5, 0
3, 10, 0
16, 3, 0
16, 5, 0
27, 14, 0
27, 25, 0
27, 26, 0
27, 30, 0
10, 21, 0
10, 3, 0
10, 38, 0
7, 8, 1
7, 22, 0
7, 9, 0
34, 14, 0
34, 5, 0
34, 2, 0
25, 27, 0
25, 26, 0
25, 23, 0
25, 30, 0
33, 36, 0
33, 35, 0
32, 0, 0
32, 37, 0
32, 4, 0
2, 34, 0
2, 5, 0
37, 21, 0
37, 4, 0
37, 32, 0
29, 0, 0
29, 39, 0
29, 28, 0
29, 11, 0
19, 12, 0
19, 9, 0
26, 27, 0
26, 14, 0
26, 25, 0
26, 30, 0
18, 15, 0
18, 22, 0
18, 24, 0
9, 7, 0
9, 12, 0
9, 19, 0
9, 8, 0
9, 22, 0
