0, 16, 0
0, 15, 0
13, 15, 0
13, 14, 0
13, 5, 0
17, 16, 0
17, 3, 0
17, 8, 0
17, 4, 0
17, 12, 0
3, 12, 0
3, 4, 1
3, 17, 0
16, 7, 0
16, 12, 0
16, 17, 0
16, 0, 0
16, 9, 0
16, 5, 0
16, 1, 0
6, 7, 0
6, 1, 0
8, 2, 0
8, 12, 0
8, 4, 0
8, 17, 0
8, 10, 0
5, 16, 0
5, 13, 0
5, 10, 0
11, 7, 0
11, 9, 0
10, 8, 0
10, 5, 0
10, 2, 0
7, 16, 0
7, 6, 0
7, 9, 0
7, 11, 0
7, 1, 0
12, 3, 0
12, 4, 0
12, 17, 0
12, 16, 0
12, 8, 0
12, 1, 0
4, 12, 0
4, 8, 0
4, 17, 0
4, 3, 1
14, 13, 0
14, 15, 0
2, 8, 0
2, 10, 0
1, 16, 0
1, 12, 0
1, 7, 0
1, 6, 0
15, 0, 0
15, 13, 0
15, 14, 0
9, 16, 0
9, 7, 0
9, 11, 0
