0, 12, 0
0, 4, 0
0, 3, 0
0, 5, 0
0, 11, 0
0, 10, 0
8, 7, 1
8, 6, 1
8, 4, 0
8, 9, 0
8, 10, 0
3, 0, 0
3, 12, 0
3, 7, 0
3, 6, 0
3, 10, 0
3, 5, 0
3, 11, 0
3, 1, 0
6, 7, 1
6, 3, 0
6, 4, 0
6, 1, 0
6, 8, 1
6, 9, 0
6, 5, 0
6, 11, 0
6, 10, 0
5, 0, 0
5, 6, 0
5, 3, 0
5, 1, 0
11, 0, 0
11, 12, 1
11, 7, 0
11, 3, 0
11, 6, 0
11, 10, 0
10, 0, 0
10, 12, 0
10, 4, 0
10, 3, 0
10, 6, 0
10, 8, 0
10, 7, 0
10, 11, 0
7, 3, 0
7, 4, 0
7, 6, 1
7, 8, 1
7, 10, 0
7, 11, 0
7, 9, 0
12, 0, 0
12, 3, 0
12, 11, 1
12, 10, 0
4, 7, 0
4, 0, 0
4, 6, 0
4, 8, 0
4, 10, 0
4, 9, 0
2, 9, 0
2, 1, 1
1, 6, 0
1, 9, 0
1, 5, 0
1, 3, 0
1, 2, 1
9, 7, 0
9, 4, 0
9, 2, 0
9, 6, 0
9, 8, 0
9, 1, 0
