0, 7, 0
0, 3, 0
0, 4, 0
0, 2, 0
0, 5, 0
0, 1, 0
3, 0, 0
3, 6, 0
3, 8, 0
3, 4, 1
3, 2, 0
4, 0, 0
4, 3, 1
7, 0, 0
7, 2, 0
7, 5, 0
7, 1, 0
2, 0, 0
2, 7, 0
2, 3, 0
2, 1, 1
6, 3, 0
6, 8, 0
8, 3, 0
8, 6, 0
5, 0, 0
5, 7, 0
1, 7, 0
1, 0, 0
1, 2, 1
