0, 16, 0
0, 19, 0
0, 8, 0
0, 2, 0
13, 3, 0
13, 10, 0
17, 12, 0
17, 6, 0
3, 13, 0
3, 14, 0
3, 4, 0
16, 0, 0
16, 18, 0
16, 19, 0
6, 12, 0
6, 17, 0
6, 5, 0
8, 7, 1
8, 0, 0
8, 11, 0
8, 1, 0
5, 6, 0
5, 15, 0
11, 7, 0
11, 8, 0
11, 9, 0
11, 1, 0
10, 12, 0
10, 13, 0
7, 8, 1
7, 11, 0
7, 1, 0
12, 6, 0
12, 17, 0
12, 10, 0
4, 3, 0
4, 14, 0
14, 18, 0
14, 3, 0
14, 4, 0
2, 0, 0
2, 9, 0
19, 0, 0
19, 16, 0
1, 7, 0
1, 8, 0
1, 11, 0
15, 5, 0
18, 16, 0
18, 14, 0
9, 11, 0
9, 2, 0
