0, 3, 0
0, 4, 0
3, 0, 0
3, 6, 0
3, 4, 0
4, 0, 0
4, 3, 0
4, 9, 0
4, 10, 0
2, 7, 0
2, 5, 0
6, 3, 0
6, 8, 0
1, 7, 0
1, 10, 0
1, 9, 0
8, 6, 0
5, 2, 0
7, 2, 0
7, 1, 0
10, 1, 0
10, 4, 0
10, 9, 1
9, 1, 0
9, 4, 0
9, 10, 1
