0, 3, 0
0, 1, 0
0, 5, 0
0, 2, 0
3, 0, 0
3, 1, 0
3, 5, 0
3, 2, 0
4, 7, 0
4, 6, 0
4, 5, 0
4, 1, 0
7, 6, 1
7, 4, 0
7, 5, 0
7, 1, 0
2, 0, 0
2, 3, 0
2, 5, 0
2, 1, 0
6, 7, 1
6, 4, 0
6, 5, 0
5, 0, 0
5, 3, 0
5, 4, 0
5, 2, 0
5, 6, 0
5, 7, 0
5, 1, 0
1, 0, 0
1, 3, 0
1, 7, 0
1, 4, 0
1, 2, 0
1, 5, 0
