13, 42, 0
13, 47, 0
13, 11, 0
13, 9, 0
17, 0, 0
17, 41, 0
17, 29, 0
23, 12, 0
23, 3, 0
46, 12, 0
46, 28, 0
46, 3, 0
46, 24, 0
20, 21, 1
20, 42, 0
20, 2, 0
20, 34, 0
34, 20, 0
34, 21, 0
34, 35, 1
34, 37, 1
34, 42, 0
34, 38, 1
14, 33, 0
14, 6, 0
14, 15, 1
14, 2, 0
24, 12, 0
24, 46, 0
28, 46, 0
28, 41, 0
15, 33, 0
15, 14, 1
15, 6, 0
41, 0, 0
41, 3, 0
41, 28, 0
41, 29, 0
41, 16, 0
41, 17, 0
0, 16, 0
0, 29, 0
0, 17, 0
0, 50, 0
0, 41, 0
8, 25, 0
8, 4, 0
8, 43, 0
8, 5, 0
51, 6, 0
51, 52, 1
51, 22, 0
51, 31, 0
51, 44, 0
3, 12, 0
3, 23, 0
3, 27, 0
3, 39, 0
3, 46, 0
3, 41, 0
38, 37, 1
38, 34, 1
38, 35, 1
47, 42, 0
47, 13, 0
47, 9, 0
10, 45, 0
10, 19, 0
10, 40, 0
10, 32, 0
10, 1, 0
7, 25, 0
7, 4, 0
7, 40, 0
33, 6, 0
33, 15, 0
33, 14, 0
33, 2, 0
32, 45, 0
32, 40, 0
32, 10, 0
2, 20, 0
2, 33, 0
2, 14, 0
2, 26, 0
2, 6, 0
2, 36, 0
21, 20, 1
21, 42, 0
21, 26, 0
21, 34, 0
25, 7, 0
25, 4, 0
25, 43, 0
25, 8, 0
25, 40, 0
25, 5, 0
19, 18, 1
19, 1, 0
19, 10, 0
49, 50, 1
49, 48, 1
49, 29, 0
48, 16, 0
48, 30, 0
48, 49, 1
48, 29, 0
31, 52, 0
31, 51, 0
31, 16, 0
31, 6, 0
31, 53, 0
31, 22, 0
39, 27, 0
39, 3, 0
29, 0, 0
29, 17, 0
29, 50, 0
29, 16, 0
29, 30, 1
29, 49, 0
29, 41, 0
29, 48, 0
40, 7, 0
40, 45, 0
40, 4, 0
40, 25, 0
40, 32, 0
40, 10, 0
11, 42, 0
11, 13, 0
11, 43, 0
11, 9, 0
5, 25, 0
5, 8, 0
5, 43, 0
5, 4, 1
37, 34, 1
37, 38, 1
37, 35, 1
4, 7, 0
4, 25, 0
4, 8, 0
4, 40, 0
4, 5, 1
35, 37, 1
35, 34, 1
35, 38, 1
35, 26, 0
35, 36, 1
30, 16, 0
30, 48, 0
30, 29, 1
42, 20, 0
42, 34, 0
42, 13, 0
42, 43, 0
42, 11, 0
42, 26, 0
42, 21, 0
42, 47, 0
42, 9, 0
22, 6, 0
22, 51, 0
22, 31, 0
36, 35, 1
36, 26, 0
36, 2, 0
45, 40, 0
45, 32, 0
45, 10, 0
16, 0, 0
16, 44, 0
16, 52, 0
16, 31, 0
16, 29, 0
16, 30, 0
16, 53, 0
16, 48, 0
16, 41, 0
27, 3, 0
27, 39, 0
1, 18, 0
1, 19, 0
1, 10, 0
53, 16, 0
53, 52, 1
53, 44, 0
53, 31, 0
44, 16, 0
44, 6, 0
44, 53, 0
44, 52, 0
44, 51, 0
12, 3, 0
12, 46, 0
12, 23, 0
12, 24, 0
18, 19, 1
18, 1, 0
52, 16, 0
52, 53, 1
52, 31, 0
52, 51, 1
52, 44, 0
50, 0, 0
50, 49, 1
50, 29, 0
26, 21, 0
26, 42, 0
26, 36, 0
26, 35, 0
26, 2, 0
6, 33, 0
6, 14, 0
6, 51, 0
6, 31, 0
6, 2, 0
6, 15, 0
6, 44, 0
6, 22, 0
43, 25, 0
43, 42, 0
43, 8, 0
43, 5, 0
43, 11, 0
43, 9, 0
9, 42, 0
9, 13, 0
9, 43, 0
9, 47, 0
9, 11, 0
