13, 3, 0
13, 4, 0
13, 14, 1
17, 20, 0
17, 2, 0
17, 1, 0
23, 7, 0
23, 22, 0
5, 7, 0
5, 0, 0
11, 12, 0
11, 8, 0
11, 15, 0
11, 10, 1
11, 2, 0
1, 12, 0
1, 17, 0
1, 2, 0
1, 6, 0
1, 8, 0
1, 10, 0
20, 3, 0
20, 17, 0
4, 3, 0
4, 13, 0
4, 14, 0
14, 3, 0
14, 13, 1
14, 4, 0
8, 12, 0
8, 2, 0
8, 6, 0
8, 1, 0
8, 15, 0
8, 11, 0
8, 10, 0
15, 6, 0
15, 19, 0
15, 8, 0
15, 11, 0
22, 18, 0
22, 16, 0
22, 23, 0
0, 7, 0
0, 5, 0
0, 9, 0
3, 20, 0
3, 13, 0
3, 14, 0
3, 4, 0
16, 18, 0
16, 22, 0
6, 12, 0
6, 9, 0
6, 21, 0
6, 19, 0
6, 8, 0
6, 15, 0
6, 1, 0
10, 2, 0
10, 12, 0
10, 8, 0
10, 11, 1
10, 1, 0
7, 0, 0
7, 5, 0
7, 23, 0
12, 9, 0
12, 2, 0
12, 6, 0
12, 1, 0
12, 8, 0
12, 11, 0
12, 10, 0
2, 12, 0
2, 17, 0
2, 1, 0
2, 8, 0
2, 11, 0
2, 10, 0
21, 6, 0
21, 9, 0
19, 6, 0
19, 15, 0
18, 16, 0
18, 22, 0
9, 0, 0
9, 6, 0
9, 21, 0
9, 12, 0
