0, 12, 0
0, 4, 0
0, 13, 0
0, 6, 0
0, 1, 0
0, 5, 0
0, 11, 0
0, 10, 0
13, 0, 0
13, 6, 0
13, 5, 0
13, 11, 0
13, 1, 0
3, 7, 0
3, 8, 0
3, 14, 0
3, 9, 0
3, 2, 1
6, 0, 0
6, 12, 0
6, 13, 0
6, 4, 0
6, 5, 0
6, 11, 0
6, 1, 0
8, 3, 0
8, 14, 0
5, 0, 0
5, 6, 0
5, 13, 0
5, 11, 0
5, 1, 0
11, 0, 0
11, 6, 0
11, 13, 0
11, 5, 0
11, 1, 0
10, 0, 0
10, 4, 0
10, 9, 0
7, 3, 0
7, 9, 0
7, 14, 0
7, 2, 0
12, 0, 0
12, 6, 0
12, 4, 0
4, 0, 0
4, 12, 0
4, 9, 0
4, 10, 0
4, 6, 0
14, 7, 0
14, 3, 0
14, 8, 0
2, 7, 0
2, 3, 1
2, 9, 0
1, 0, 0
1, 6, 0
1, 13, 0
1, 5, 0
1, 11, 0
9, 7, 0
9, 3, 0
9, 2, 0
9, 4, 0
9, 10, 0
