127637, 127635, 2
127637, 127636, 2
127637, 127634, 2
127635, 127637, 2
127635, 127634, 2
127635, 127636, 2
127634, 127637, 1
127634, 127635, 3
127634, 127636, 0
127636, 127637, 2
127636, 127635, 2
127636, 127634, 2
