71365, 71367, 2
71365, 71368, 2
71365, 71364, 2
71365, 71366, 2
71368, 71365, 2
71368, 71367, 2
71364, 71365, 0
71364, 71367, 2
71364, 71366, 1
71366, 71365, 2
71366, 71364, 2
71366, 71367, 1
71367, 71365, 2
71367, 71368, 0
71367, 71364, 2
71367, 71366, 2
