300105, 300107, 2
300105, 300104, 2
300105, 300106, 1
300107, 300105, 2
300107, 300106, 2
300107, 300108, 2
300104, 300105, 1
300106, 300105, 2
300106, 300107, 3
300106, 300108, 1
300108, 300107, 2
300108, 300106, 2
