293804, 293805, 2
293804, 293807, 2
293804, 293803, 2
293804, 293806, 1
293805, 293804, 2
293805, 293803, 2
293805, 293801, 2
293805, 293807, 2
293805, 293808, 2
293805, 293806, 2
293803, 293804, 1
293803, 293802, 2
293803, 293805, 2
293802, 293801, 2
293802, 293803, 1
293801, 293802, 1
293801, 293805, 2
293806, 293804, 2
293806, 293805, 6
293806, 293807, 8
293806, 293808, 1
293807, 293805, 2
293807, 293804, 2
293807, 293808, 2
293807, 293806, 2
293808, 293805, 2
293808, 293807, 2
293808, 293809, 1
293808, 293806, 2
293809, 293808, 2
