196339, 196340, 1
196339, 196342, 2
196339, 196338, 2
196338, 196342, 2
196338, 196339, 1
196338, 196341, 2
196338, 196350, 2
196346, 196348, 2
196346, 196350, 2
196346, 196344, 2
196346, 196347, 2
196346, 196349, 2
196346, 196342, 2
196346, 196345, 2
196346, 196341, 2
196353, 196348, 2
196353, 196344, 2
196353, 196349, 2
196353, 196350, 2
196353, 196352, 2
196353, 196351, 2
196353, 196354, 3
196352, 196341, 2
196352, 196344, 2
196352, 196353, 2
196352, 196350, 2
196352, 196351, 2
196352, 196354, 2
196345, 196341, 2
196345, 196348, 2
196345, 196346, 3
196345, 196347, 1
196345, 196342, 2
196345, 196343, 2
196345, 196340, 2
196345, 196344, 2
196345, 196350, 2
196341, 196342, 2
196341, 196338, 2
196341, 196346, 2
196341, 196343, 2
196341, 196340, 2
196341, 196352, 2
196341, 196345, 2
196341, 196350, 2
196350, 196348, 2
196350, 196338, 2
196350, 196346, 2
196350, 196353, 2
196350, 196352, 3
196350, 196345, 2
196350, 196341, 2
196350, 196344, 2
196350, 196347, 2
196350, 196349, 2
196350, 196342, 2
196350, 196351, 2
196350, 196354, 2
196344, 196348, 2
196344, 196350, 2
196344, 196352, 2
196344, 196346, 2
196344, 196343, 2
196344, 196349, 2
196344, 196353, 2
196344, 196342, 2
196344, 196347, 2
196344, 196345, 2
196344, 196354, 2
196343, 196341, 2
196343, 196342, 4
196343, 196340, 2
196343, 196344, 2
196343, 196345, 1
196349, 196348, 2
196349, 196350, 2
196349, 196346, 2
196349, 196354, 2
196349, 196353, 2
196349, 196342, 2
196349, 196351, 2
196349, 196344, 2
196348, 196350, 2
196348, 196346, 2
196348, 196347, 2
196348, 196349, 3
196348, 196353, 2
196348, 196342, 2
196348, 196345, 2
196348, 196351, 1
196348, 196344, 2
196342, 196339, 2
196342, 196338, 2
196342, 196346, 2
196342, 196345, 2
196342, 196341, 2
196342, 196350, 2
196342, 196344, 3
196342, 196343, 2
196342, 196349, 2
196342, 196348, 2
196342, 196340, 2
196342, 196354, 2
196347, 196348, 1
196347, 196350, 2
196347, 196346, 2
196347, 196345, 2
196347, 196344, 2
196340, 196341, 3
196340, 196339, 2
196340, 196345, 2
196340, 196343, 1
196340, 196342, 2
196351, 196348, 2
196351, 196350, 4
196351, 196352, 2
196351, 196349, 2
196351, 196353, 1
196354, 196350, 2
196354, 196344, 2
196354, 196349, 2
196354, 196353, 2
196354, 196342, 2
196354, 196352, 2
