63552, 63551, 2
63541, 63543, 2
63541, 63542, 1
63541, 63540, 2
63543, 63542, 2
63543, 63541, 2
63543, 63544, 1
63540, 63539, 2
63540, 63541, 1
63545, 63544, 2
63545, 63546, 1
63539, 63540, 1
63548, 63547, 2
63548, 63549, 1
63548, 63550, 2
63548, 63546, 2
63551, 63550, 2
63551, 63552, 1
63547, 63549, 2
63547, 63550, 2
63547, 63548, 1
63547, 63546, 2
63542, 63543, 1
63542, 63541, 2
63550, 63551, 1
63550, 63547, 2
63550, 63549, 2
63550, 63548, 2
63546, 63545, 2
63546, 63547, 1
63546, 63549, 2
63546, 63548, 2
63549, 63547, 2
63549, 63550, 1
63549, 63548, 2
63549, 63546, 2
63544, 63543, 2
63544, 63545, 1
