301039, 301037, 2
301039, 301036, 2
301039, 301038, 2
301036, 301037, 1
301036, 301039, 2
301036, 301035, 2
301035, 301036, 1
301035, 301034, 2
301037, 301039, 2
301037, 301036, 2
301037, 301038, 1
301034, 301035, 1
301034, 301033, 2
301033, 301034, 1
301038, 301037, 2
301038, 301039, 1
