122303, 122306, 2
122303, 122290, 2
122303, 122301, 2
122303, 122300, 2
122303, 122294, 2
122303, 122305, 2
122303, 122302, 2
122303, 122304, 2
122303, 122297, 2
122295, 122290, 2
122295, 122294, 2
122295, 122296, 2
122295, 122297, 2
122305, 122303, 2
122305, 122304, 2
122305, 122306, 1
122305, 122293, 2
122305, 122302, 2
122288, 122290, 2
122288, 122286, 2
122288, 122287, 2
122292, 122302, 2
122292, 122290, 2
122292, 122301, 2
122292, 122300, 2
122292, 122299, 2
122292, 122294, 2
122292, 122293, 3
122292, 122296, 2
122292, 122291, 2
122292, 122297, 2
122287, 122290, 1
122287, 122289, 6
122287, 122288, 4
122287, 122286, 2
122299, 122298, 2
122299, 122292, 2
122299, 122300, 2
122299, 122293, 2
122299, 122297, 2
122299, 122301, 2
122293, 122302, 2
122293, 122290, 2
122293, 122292, 2
122293, 122300, 2
122293, 122299, 2
122293, 122294, 2
122293, 122305, 2
122293, 122296, 2
122293, 122306, 2
122293, 122297, 2
122293, 122301, 2
122296, 122295, 6
122296, 122293, 2
122296, 122294, 2
122296, 122297, 1
122296, 122292, 2
122297, 122303, 2
122297, 122298, 1
122297, 122295, 2
122297, 122292, 2
122297, 122300, 2
122297, 122296, 2
122297, 122293, 2
122297, 122299, 2
122298, 122300, 1
122298, 122299, 8
122298, 122301, 2
122298, 122297, 2
122294, 122303, 2
122294, 122295, 2
122294, 122290, 2
122294, 122292, 2
122294, 122293, 2
122294, 122296, 1
122294, 122291, 2
122302, 122303, 0
122302, 122293, 2
122302, 122292, 2
122302, 122304, 1
122302, 122305, 2
122302, 122301, 2
122290, 122303, 2
122290, 122295, 2
122290, 122289, 2
122290, 122288, 2
122290, 122292, 2
122290, 122287, 2
122290, 122294, 1
122290, 122293, 2
122290, 122291, 3
122290, 122286, 2
122286, 122290, 2
122286, 122289, 2
122286, 122288, 2
122286, 122287, 1
122304, 122303, 2
122304, 122305, 1
122304, 122302, 2
122300, 122303, 2
122300, 122298, 2
122300, 122292, 2
122300, 122293, 2
122300, 122299, 2
122300, 122297, 2
122300, 122301, 1
122306, 122303, 2
122306, 122305, 2
122306, 122293, 2
122289, 122290, 2
122289, 122286, 2
122289, 122287, 2
122291, 122294, 2
122291, 122290, 2
122291, 122292, 1
122301, 122303, 2
122301, 122298, 2
122301, 122302, 1
122301, 122292, 2
122301, 122300, 2
122301, 122293, 2
122301, 122299, 2
