257571, 257602, 2
257571, 257582, 2
257571, 257609, 2
257571, 257586, 4
257571, 257585, 2
257571, 257608, 2
257571, 257588, 2
257571, 257603, 2
257571, 257606, 2
257571, 257590, 2
257571, 257601, 2
257571, 257580, 2
257571, 257577, 2
257571, 257583, 2
257571, 257573, 2
257571, 257584, 2
257571, 257575, 2
257571, 257569, 2
257571, 257594, 2
257571, 257598, 2
257571, 257572, 6
257571, 257604, 2
257571, 257578, 2
257571, 257610, 2
257571, 257611, 2
257571, 257597, 2
257571, 257579, 2
257571, 257607, 2
257571, 257605, 2
257571, 257592, 2
257571, 257593, 2
257571, 257591, 2
257571, 257589, 2
257571, 257596, 2
257571, 257599, 2
257571, 257600, 2
257571, 257576, 2
257571, 257581, 2
257571, 257574, 2
257571, 257587, 2
257571, 257570, 2
257571, 257595, 2
257602, 257571, 2
257602, 257601, 2
257602, 257603, 1
257602, 257604, 2
257566, 257565, 2
257566, 257567, 8
257566, 257572, 2
257566, 257568, 1
257585, 257571, 2
257585, 257584, 2
257585, 257588, 1
257585, 257590, 2
257588, 257571, 2
257588, 257585, 2
257588, 257590, 1
257603, 257571, 2
257603, 257602, 2
257603, 257605, 1
257603, 257604, 6
257606, 257571, 2
257606, 257605, 2
257606, 257608, 1
257606, 257604, 2
257606, 257607, 8
257568, 257569, 1
257568, 257566, 2
257568, 257572, 2
257568, 257567, 2
257601, 257571, 2
257601, 257602, 1
257601, 257593, 2
257601, 257592, 2
257601, 257600, 2
257601, 257598, 2
257601, 257604, 2
257580, 257571, 2
257580, 257577, 2
257580, 257581, 1
257580, 257579, 2
257580, 257582, 2
257595, 257571, 2
257595, 257594, 2
257595, 257597, 1
257595, 257599, 2
257583, 257571, 2
257583, 257584, 1
257583, 257582, 2
257583, 257570, 2
257583, 257581, 2
257573, 257571, 2
257573, 257575, 2
257573, 257574, 1
257573, 257572, 2
257611, 257571, 2
257611, 257610, 2
257611, 257604, 2
257575, 257571, 2
257575, 257573, 2
257575, 257577, 2
257575, 257576, 1
257575, 257574, 2
257575, 257570, 2
257575, 257572, 2
257569, 257571, 2
257569, 257586, 2
257569, 257570, 1
257569, 257568, 2
257569, 257572, 2
257569, 257567, 2
257598, 257571, 2
257598, 257601, 2
257598, 257593, 2
257598, 257596, 2
257598, 257592, 2
257598, 257600, 2
257598, 257604, 2
257604, 257602, 2
257604, 257571, 2
257604, 257593, 2
257604, 257610, 2
257604, 257579, 2
257604, 257605, 2
257604, 257608, 2
257604, 257603, 2
257604, 257606, 2
257604, 257601, 2
257604, 257611, 2
257604, 257609, 2
257604, 257598, 2
257604, 257581, 2
257578, 257571, 2
257578, 257577, 2
257578, 257579, 1
257610, 257571, 2
257610, 257611, 0
257610, 257609, 2
257610, 257604, 2
257605, 257571, 2
257605, 257607, 2
257605, 257603, 2
257605, 257606, 1
257605, 257604, 2
257592, 257571, 2
257592, 257601, 2
257592, 257600, 1
257592, 257590, 2
257592, 257596, 2
257592, 257593, 0
257592, 257598, 2
257593, 257571, 2
257593, 257601, 2
257593, 257596, 1
257593, 257592, 2
257593, 257600, 2
257593, 257598, 2
257593, 257604, 2
257586, 257571, 2
257586, 257591, 2
257586, 257565, 2
257586, 257569, 2
257586, 257587, 1
257586, 257570, 2
257599, 257571, 2
257599, 257594, 2
257599, 257595, 2
257599, 257597, 2
257565, 257586, 2
257565, 257566, 1
257565, 257564, 2
257565, 257572, 2
257565, 257567, 2
257600, 257571, 2
257600, 257601, 1
257600, 257592, 2
257600, 257593, 2
257600, 257598, 2
257581, 257571, 2
257581, 257580, 2
257581, 257604, 2
257581, 257582, 2
257581, 257583, 2
257582, 257571, 2
257582, 257580, 2
257582, 257577, 2
257582, 257583, 1
257582, 257570, 2
257582, 257581, 2
257608, 257571, 2
257608, 257607, 2
257608, 257609, 1
257608, 257606, 2
257608, 257604, 2
257577, 257571, 2
257577, 257578, 0
257577, 257580, 2
257577, 257582, 1
257577, 257579, 2
257577, 257572, 2
257577, 257576, 2
257577, 257575, 2
257577, 257570, 2
257576, 257571, 2
257576, 257575, 2
257576, 257570, 2
257576, 257577, 2
257579, 257571, 2
257579, 257578, 2
257579, 257580, 1
257579, 257577, 2
257579, 257604, 2
257590, 257571, 2
257590, 257585, 2
257590, 257588, 2
257590, 257592, 1
257584, 257571, 2
257584, 257585, 1
257584, 257583, 2
257594, 257571, 2
257594, 257597, 2
257594, 257599, 2
257594, 257595, 0
257594, 257587, 2
257594, 257591, 2
257591, 257571, 2
257591, 257589, 2
257591, 257594, 1
257591, 257587, 2
257591, 257586, 2
257572, 257571, 2
257572, 257565, 2
257572, 257574, 2
257572, 257577, 1
257572, 257573, 0
257572, 257575, 2
257572, 257569, 2
257572, 257568, 2
257572, 257570, 2
257572, 257566, 2
257574, 257573, 2
257574, 257571, 2
257574, 257575, 1
257574, 257572, 2
257609, 257571, 2
257609, 257608, 2
257609, 257610, 1
257609, 257607, 2
257609, 257604, 2
257597, 257571, 2
257597, 257594, 2
257597, 257595, 2
257597, 257599, 1
257596, 257571, 2
257596, 257592, 2
257596, 257593, 2
257596, 257598, 1
257607, 257571, 2
257607, 257605, 2
257607, 257608, 2
257607, 257609, 2
257607, 257606, 2
257564, 257565, 1
257589, 257571, 2
257589, 257587, 2
257589, 257591, 1
257567, 257565, 2
257567, 257569, 2
257567, 257566, 2
257567, 257568, 2
257587, 257571, 2
257587, 257589, 1
257587, 257594, 2
257587, 257586, 2
257587, 257591, 2
257570, 257571, 1
257570, 257577, 2
257570, 257572, 2
257570, 257583, 2
257570, 257576, 2
257570, 257575, 2
257570, 257569, 2
257570, 257586, 2
257570, 257582, 2
