170792, 170794, 1
170792, 170793, 3
170794, 170795, 1
170794, 170793, 2
170794, 170792, 2
170795, 170794, 2
170795, 170796, 1
170798, 170796, 2
170798, 170797, 2
170796, 170797, 1
170796, 170798, 2
170796, 170795, 2
170793, 170794, 2
170793, 170792, 2
170797, 170796, 2
170797, 170798, 1
