163789, 163788, 2
163789, 163790, 1
163790, 163791, 1
163790, 163789, 2
163777, 163776, 2
163777, 163778, 1
163784, 163785, 1
163784, 163783, 2
163784, 163786, 2
163778, 163779, 1
163778, 163777, 2
163785, 163788, 2
163785, 163787, 2
163785, 163784, 2
163785, 163786, 2
163782, 163781, 2
163782, 163783, 1
163782, 163786, 2
163780, 163781, 1
163780, 163779, 2
163792, 163791, 2
163792, 163793, 1
163775, 163774, 2
163775, 163776, 1
163774, 163775, 1
163774, 163773, 2
163774, 163772, 2
163795, 163796, 3
163795, 163794, 2
163787, 163788, 1
163787, 163786, 2
163787, 163785, 2
163779, 163776, 2
163779, 163780, 1
163779, 163778, 2
163783, 163782, 2
163783, 163784, 3
163783, 163786, 1
163793, 163794, 1
163793, 163792, 2
163796, 163795, 2
163791, 163790, 2
163791, 163792, 1
163786, 163782, 2
163786, 163783, 2
163786, 163788, 2
163786, 163787, 1
163786, 163784, 2
163786, 163785, 2
163788, 163787, 2
163788, 163786, 2
163788, 163785, 2
163788, 163789, 1
163781, 163782, 1
163781, 163780, 2
163794, 163795, 1
163794, 163793, 2
163773, 163774, 1
163773, 163772, 2
163772, 163774, 2
163772, 163773, 1
163776, 163775, 2
163776, 163779, 2
163776, 163777, 1
