300640, 300641, 3
300640, 300642, 1
300640, 300639, 2
300638, 300637, 2
300638, 300639, 1
300641, 300642, 2
300641, 300639, 2
300641, 300640, 2
300637, 300638, 1
300642, 300641, 2
300642, 300639, 2
300642, 300640, 2
300639, 300638, 2
300639, 300641, 2
300639, 300642, 2
300639, 300640, 1
