21149, 21151, 2
21149, 21150, 1
21151, 21149, 2
21151, 21150, 2
21151, 21152, 1
21152, 21154, 2
21152, 21151, 2
21152, 21153, 1
21154, 21153, 2
21154, 21152, 2
21153, 21154, 1
21153, 21152, 2
21150, 21149, 2
21150, 21151, 1
