219634, 219632, 2
219634, 219633, 2
219634, 219635, 1
219629, 219628, 2
219629, 219630, 1
219628, 219627, 2
219628, 219625, 2
219628, 219629, 1
219628, 219630, 2
219628, 219626, 2
219626, 219627, 1
219626, 219628, 2
219626, 219625, 2
219627, 219628, 1
219627, 219625, 2
219627, 219633, 2
219627, 219626, 2
219611, 219612, 1
219611, 219610, 2
219612, 219611, 2
219612, 219613, 1
219622, 219620, 2
219622, 219623, 1
219622, 219621, 2
219619, 219620, 1
219619, 219621, 2
219619, 219618, 2
219618, 219621, 2
219618, 219617, 2
219618, 219619, 1
219624, 219623, 2
219624, 219625, 1
219632, 219633, 8
219632, 219634, 1
219632, 219631, 2
219633, 219632, 2
219633, 219627, 2
219633, 219625, 2
219633, 219634, 2
219633, 219630, 2
219633, 219635, 2
219633, 219631, 2
219614, 219615, 1
219614, 219613, 2
219610, 219611, 1
219630, 219628, 2
219630, 219633, 2
219630, 219629, 2
219630, 219631, 1
219621, 219620, 2
219621, 219616, 2
219621, 219622, 2
219621, 219618, 2
219621, 219613, 2
219621, 219619, 2
219637, 219638, 1
219637, 219636, 2
219638, 219637, 2
219636, 219637, 1
219636, 219635, 2
219631, 219632, 1
219631, 219633, 2
219631, 219630, 2
219620, 219621, 8
219620, 219622, 1
219620, 219623, 2
219620, 219619, 2
219623, 219620, 2
219623, 219622, 2
219623, 219625, 2
219623, 219624, 1
219625, 219627, 2
219625, 219623, 2
219625, 219624, 2
219625, 219628, 2
219625, 219633, 2
219625, 219626, 1
219616, 219621, 2
219616, 219615, 2
219616, 219617, 1
219635, 219633, 2
219635, 219634, 2
219635, 219636, 1
219615, 219614, 2
219615, 219616, 1
219615, 219613, 2
219613, 219612, 2
219613, 219614, 1
219613, 219615, 2
219613, 219621, 2
219617, 219618, 1
219617, 219616, 2
