258972, 258974, 1
258972, 258973, 0
258977, 258975, 2
258977, 258974, 2
258977, 258976, 2
258973, 258972, 2
258973, 258974, 2
258975, 258977, 2
258975, 258974, 2
258975, 258976, 2
258974, 258972, 2
258974, 258977, 2
258974, 258973, 2
258974, 258976, 1
258974, 258975, 3
258976, 258975, 2
258976, 258977, 1
258976, 258974, 2
