295338, 295334, 2
295338, 295332, 2
295338, 295333, 2
295338, 295337, 2
295338, 295335, 2
295338, 295336, 2
295335, 295334, 2
295335, 295332, 2
295335, 295333, 2
295335, 295337, 2
295335, 295329, 2
295335, 295336, 2
295335, 295338, 2
295333, 295334, 0
295333, 295331, 2
295333, 295332, 2
295333, 295329, 2
295333, 295335, 3
295333, 295327, 2
295333, 295338, 1
295337, 295338, 2
295337, 295334, 2
295337, 295335, 2
295337, 295336, 2
295329, 295328, 2
295329, 295331, 2
295329, 295330, 2
295329, 295333, 2
295329, 295332, 2
295329, 295326, 2
295329, 295327, 2
295329, 295335, 2
295326, 295329, 2
295326, 295327, 1
295328, 295332, 2
295328, 295329, 2
295328, 295327, 2
295328, 295330, 1
295328, 295331, 2
295334, 295331, 2
295334, 295336, 1
295334, 295333, 2
295334, 295337, 2
295334, 295335, 2
295334, 295338, 2
295331, 295328, 2
295331, 295334, 2
295331, 295330, 2
295331, 295333, 2
295331, 295332, 2
295331, 295329, 2
295330, 295328, 2
295330, 295332, 2
295330, 295329, 2
295330, 295331, 1
295332, 295328, 2
295332, 295331, 2
295332, 295330, 2
295332, 295333, 2
295332, 295329, 2
295332, 295335, 2
295332, 295327, 2
295332, 295338, 2
295327, 295333, 1
295327, 295328, 0
295327, 295329, 3
295327, 295326, 2
295327, 295332, 8
295336, 295337, 1
295336, 295334, 2
295336, 295335, 2
295336, 295338, 2
