298570, 298569, 2
298570, 298572, 1
298570, 298571, 3
298574, 298575, 1
298574, 298572, 2
298574, 298577, 2
298574, 298573, 2
298582, 298581, 2
298582, 298583, 3
298582, 298584, 1
298582, 298585, 2
298583, 298581, 2
298583, 298577, 2
298583, 298578, 2
298583, 298580, 2
298583, 298582, 2
298583, 298584, 2
298583, 298579, 2
298583, 298585, 2
298577, 298574, 2
298577, 298583, 2
298577, 298578, 2
298577, 298573, 2
298577, 298575, 2
298577, 298576, 2
298577, 298572, 2
298577, 298579, 2
298577, 298571, 2
298567, 298566, 2
298567, 298571, 2
298567, 298568, 1
298565, 298566, 1
298565, 298563, 2
298565, 298564, 2
298580, 298583, 2
298580, 298578, 2
298580, 298581, 1
298580, 298579, 2
298560, 298559, 2
298560, 298561, 1
298569, 298570, 1
298569, 298571, 2
298569, 298568, 2
298563, 298562, 2
298563, 298564, 1
298563, 298565, 2
298578, 298579, 8
298578, 298583, 2
298578, 298577, 2
298578, 298576, 2
298578, 298580, 1
298584, 298583, 2
298584, 298582, 2
298584, 298585, 1
298561, 298562, 1
298561, 298564, 2
298561, 298560, 2
298566, 298567, 1
298566, 298565, 2
298571, 298570, 2
298571, 298572, 2
298571, 298577, 2
298571, 298569, 2
298571, 298568, 2
298571, 298567, 2
298571, 298573, 2
298558, 298559, 2
298558, 298557, 2
298573, 298574, 2
298573, 298571, 2
298573, 298577, 2
298573, 298572, 2
298573, 298576, 2
298562, 298563, 1
298562, 298564, 2
298562, 298561, 2
298581, 298583, 2
298581, 298580, 2
298581, 298582, 1
298559, 298558, 2
298559, 298557, 2
298559, 298560, 1
298564, 298562, 2
298564, 298563, 2
298564, 298561, 2
298564, 298565, 1
298572, 298570, 2
298572, 298574, 1
298572, 298571, 2
298572, 298577, 2
298572, 298573, 8
298575, 298574, 2
298575, 298576, 1
298575, 298577, 2
298576, 298575, 2
298576, 298577, 3
298576, 298578, 1
298576, 298573, 2
298568, 298567, 2
298568, 298569, 1
298568, 298571, 2
298557, 298558, 3
298557, 298559, 1
298579, 298583, 2
298579, 298577, 2
298579, 298578, 2
298579, 298580, 2
298585, 298583, 2
298585, 298582, 2
298585, 298584, 2
