219496, 219495, 2
219496, 219493, 2
219496, 219490, 2
219496, 219477, 2
219496, 219494, 2
219496, 219497, 2
219496, 219498, 2
219493, 219496, 2
219493, 219494, 2
219493, 219490, 2
219493, 219489, 2
219493, 219492, 2
219493, 219488, 2
219493, 219498, 2
219493, 219491, 2
219490, 219492, 2
219490, 219496, 2
219490, 219494, 2
219490, 219489, 2
219490, 219493, 2
219490, 219488, 2
219490, 219498, 2
219490, 219491, 2
219489, 219493, 2
219489, 219492, 1
219489, 219490, 6
219489, 219491, 8
219489, 219488, 2
219477, 219472, 2
219477, 219496, 2
219477, 219474, 2
219477, 219488, 2
219477, 219482, 2
219477, 219498, 2
219477, 219473, 2
219477, 219478, 2
219477, 219475, 2
219477, 219476, 2
219477, 219485, 2
219477, 219480, 2
219473, 219472, 2
219473, 219478, 2
219473, 219475, 2
219473, 219474, 2
219473, 219477, 2
219473, 219476, 2
219478, 219472, 2
219478, 219473, 2
219478, 219475, 2
219478, 219476, 2
219478, 219479, 1
219478, 219481, 2
219478, 219477, 2
219478, 219480, 2
219486, 219481, 2
219486, 219487, 2
219486, 219483, 2
219486, 219482, 2
219486, 219484, 2
219486, 219485, 2
219486, 219488, 2
219481, 219486, 2
219481, 219479, 2
219481, 219482, 2
219481, 219480, 2
219481, 219478, 2
219488, 219487, 2
219488, 219493, 2
219488, 219490, 2
219488, 219489, 1
219488, 219486, 2
219488, 219484, 2
219488, 219477, 2
219488, 219485, 2
219488, 219491, 2
219491, 219493, 2
219491, 219492, 2
219491, 219490, 2
219491, 219489, 2
219491, 219488, 2
219492, 219493, 6
219492, 219494, 1
219492, 219490, 2
219492, 219489, 2
219492, 219491, 2
219472, 219473, 0
219472, 219478, 2
219472, 219475, 1
219472, 219474, 3
219472, 219477, 2
219472, 219476, 2
219494, 219495, 1
219494, 219496, 2
219494, 219492, 2
219494, 219490, 2
219494, 219493, 2
219494, 219497, 2
219474, 219472, 2
219474, 219473, 2
219474, 219475, 2
219474, 219477, 2
219474, 219476, 2
219483, 219484, 2
219483, 219482, 2
219483, 219486, 2
219482, 219484, 1
219482, 219480, 2
219482, 219486, 2
219482, 219483, 8
219482, 219479, 2
219482, 219481, 2
219482, 219477, 2
219497, 219495, 2
219497, 219496, 2
219497, 219494, 2
219497, 219498, 2
219498, 219495, 2
219498, 219496, 2
219498, 219490, 2
219498, 219497, 2
219498, 219493, 2
219498, 219477, 2
219495, 219496, 0
219495, 219494, 2
219495, 219497, 3
219495, 219498, 1
219475, 219472, 2
219475, 219473, 2
219475, 219474, 2
219475, 219478, 2
219475, 219477, 2
219475, 219476, 1
219487, 219486, 2
219487, 219484, 2
219487, 219488, 1
219487, 219485, 2
219480, 219478, 2
219480, 219479, 2
219480, 219481, 2
219480, 219477, 2
219480, 219482, 2
219479, 219478, 2
219479, 219482, 1
219479, 219481, 3
219479, 219480, 0
219484, 219487, 1
219484, 219483, 2
219484, 219486, 3
219484, 219482, 2
219484, 219485, 0
219484, 219488, 2
219485, 219486, 2
219485, 219484, 2
219485, 219477, 2
219485, 219488, 2
219485, 219487, 2
219476, 219472, 2
219476, 219478, 1
219476, 219475, 2
219476, 219473, 2
219476, 219474, 2
219476, 219477, 6
