171067, 171066, 2
171067, 171068, 1
171067, 171065, 2
171067, 171069, 2
171065, 171066, 3
171065, 171067, 1
171071, 171070, 2
171071, 171068, 2
171070, 171068, 2
171070, 171069, 2
171070, 171071, 1
171066, 171067, 2
171066, 171065, 2
171068, 171070, 1
171068, 171067, 2
171068, 171069, 8
171068, 171071, 2
171069, 171070, 2
171069, 171067, 2
171069, 171068, 2
