301470, 301469, 2
301470, 301471, 2
301470, 301467, 2
301470, 301468, 2
301470, 301472, 1
301471, 301470, 2
301471, 301469, 2
301471, 301468, 2
301471, 301472, 2
301468, 301470, 1
301468, 301471, 2
301468, 301467, 6
301468, 301472, 2
301468, 301469, 0
301468, 301466, 2
301465, 301467, 2
301465, 301466, 1
301469, 301470, 2
301469, 301471, 2
301469, 301472, 2
301469, 301467, 2
301469, 301468, 2
301472, 301470, 2
301472, 301469, 2
301472, 301471, 6
301472, 301468, 2
301466, 301468, 1
301466, 301467, 2
301466, 301465, 2
301467, 301470, 2
301467, 301469, 2
301467, 301468, 2
301467, 301466, 2
301467, 301465, 2
