65978, 65977, 2
65978, 65980, 2
65978, 65976, 2
65978, 65979, 1
65982, 65981, 2
65982, 65983, 1
65982, 65980, 2
65991, 65993, 2
65991, 65980, 2
65991, 65992, 1
65991, 65990, 2
65986, 65987, 0
65986, 65980, 2
65986, 65985, 2
65986, 65988, 1
65989, 65990, 1
65989, 65988, 2
65988, 65987, 2
65988, 65985, 2
65988, 65986, 2
65988, 65989, 1
65988, 65990, 2
65983, 65982, 2
65983, 65985, 1
65983, 65984, 0
65983, 65980, 2
65973, 65972, 2
65973, 65975, 2
65973, 65974, 2
65973, 65980, 2
65981, 65982, 1
65981, 65977, 2
65981, 65979, 2
65981, 65980, 2
65980, 65978, 2
65980, 65975, 2
65980, 65982, 2
65980, 65972, 2
65980, 65984, 2
65980, 65991, 2
65980, 65986, 2
65980, 65992, 2
65980, 65976, 2
65980, 65983, 2
65980, 65985, 2
65980, 65973, 2
65980, 65981, 2
65980, 65979, 2
65980, 65990, 2
65993, 65991, 2
65993, 65992, 2
65974, 65972, 2
65974, 65973, 2
65974, 65975, 1
65975, 65976, 1
65975, 65974, 2
65975, 65977, 2
65975, 65972, 2
65975, 65973, 2
65975, 65980, 2
65972, 65973, 0
65972, 65975, 2
65972, 65974, 1
65972, 65980, 2
65977, 65978, 2
65977, 65981, 2
65977, 65976, 2
65977, 65975, 2
65985, 65984, 2
65985, 65980, 2
65985, 65986, 1
65985, 65983, 2
65985, 65988, 2
65976, 65978, 1
65976, 65977, 3
65976, 65979, 2
65976, 65975, 2
65976, 65980, 2
65987, 65986, 2
65987, 65988, 2
65992, 65991, 2
65992, 65980, 2
65992, 65993, 1
65984, 65985, 2
65984, 65983, 2
65984, 65980, 2
65979, 65978, 2
65979, 65981, 1
65979, 65976, 2
65979, 65980, 6
65990, 65991, 1
65990, 65989, 2
65990, 65980, 2
65990, 65988, 2
