216952, 216953, 3
216952, 216955, 2
216952, 216954, 1
216957, 216958, 2
216957, 216959, 2
216957, 216964, 2
216957, 216960, 2
216957, 216955, 2
216957, 216956, 2
216957, 216961, 2
216960, 216958, 2
216960, 216959, 2
216960, 216964, 2
216960, 216955, 2
216960, 216956, 2
216960, 216957, 2
216960, 216961, 2
216963, 216962, 2
216963, 216964, 2
216963, 216961, 2
216954, 216952, 2
216954, 216953, 2
216954, 216955, 1
216962, 216964, 1
216962, 216963, 3
216962, 216961, 2
216956, 216958, 8
216956, 216957, 6
216956, 216960, 2
216956, 216955, 2
216956, 216959, 1
216953, 216952, 2
216953, 216955, 2
216953, 216954, 2
216958, 216956, 2
216958, 216959, 2
216958, 216957, 2
216958, 216960, 2
216958, 216955, 2
216959, 216958, 2
216959, 216956, 2
216959, 216957, 2
216959, 216960, 6
216959, 216961, 1
216964, 216962, 2
216964, 216957, 2
216964, 216960, 2
216964, 216963, 2
216964, 216961, 2
216955, 216952, 2
216955, 216958, 2
216955, 216960, 2
216955, 216954, 2
216955, 216956, 1
216955, 216957, 2
216955, 216953, 2
216961, 216957, 2
216961, 216959, 2
216961, 216964, 2
216961, 216960, 2
216961, 216963, 2
216961, 216962, 1
