301727, 301725, 2
301727, 301728, 1
301727, 301724, 2
301727, 301726, 2
301721, 301722, 1
301721, 301723, 2
301725, 301724, 2
301725, 301726, 8
301725, 301727, 1
301723, 301721, 2
301723, 301724, 1
301723, 301722, 2
301724, 301725, 1
301724, 301723, 2
301724, 301727, 2
301724, 301726, 2
301722, 301721, 2
301722, 301723, 1
301728, 301727, 2
301728, 301726, 2
301726, 301725, 2
301726, 301728, 2
301726, 301724, 2
301726, 301727, 2
