221141, 221143, 2
221141, 221142, 1
221145, 221144, 2
221145, 221142, 2
221144, 221145, 1
221144, 221143, 2
221144, 221142, 2
221143, 221141, 2
221143, 221144, 2
221143, 221142, 2
221142, 221141, 2
221142, 221145, 2
221142, 221144, 1
221142, 221143, 8
