299818, 299817, 2
299818, 299816, 2
299814, 299815, 1
299814, 299816, 2
299815, 299814, 2
299815, 299816, 1
299817, 299818, 1
299817, 299816, 2
299816, 299818, 2
299816, 299817, 1
299816, 299815, 2
299816, 299814, 2
