252369, 252366, 2
252369, 252368, 2
252369, 252370, 2
252359, 252360, 2
252359, 252358, 2
252367, 252366, 2
252367, 252368, 1
252367, 252365, 2
252365, 252366, 3
252365, 252367, 1
252365, 252364, 2
252365, 252363, 2
252365, 252368, 2
252363, 252364, 1
252363, 252361, 2
252363, 252360, 2
252363, 252365, 2
252363, 252362, 2
252363, 252368, 2
252366, 252367, 2
252366, 252369, 2
252366, 252365, 2
252366, 252368, 2
252371, 252370, 2
252364, 252365, 1
252364, 252363, 2
252370, 252369, 2
252370, 252371, 1
252370, 252368, 2
252358, 252359, 0
252358, 252360, 1
252361, 252360, 2
252361, 252363, 2
252361, 252362, 2
252360, 252359, 2
252360, 252361, 3
252360, 252363, 2
252360, 252362, 1
252360, 252358, 2
252368, 252366, 2
252368, 252369, 3
252368, 252370, 1
252368, 252367, 2
252368, 252365, 2
252368, 252363, 2
252362, 252361, 2
252362, 252360, 2
252362, 252363, 1
