120783, 120781, 2
120783, 120784, 2
120783, 120782, 2
120781, 120783, 2
120781, 120785, 2
120781, 120782, 1
120792, 120791, 2
120792, 120785, 2
120792, 120793, 1
120796, 120795, 2
120793, 120792, 2
120793, 120785, 2
120793, 120794, 1
120790, 120788, 2
120790, 120791, 1
120790, 120787, 2
120790, 120789, 2
120790, 120785, 2
120789, 120788, 2
120789, 120790, 2
120789, 120791, 2
120789, 120787, 2
120786, 120784, 2
120786, 120785, 6
120786, 120787, 1
120784, 120783, 2
120784, 120787, 2
120784, 120786, 1
120784, 120785, 2
120784, 120782, 2
120785, 120792, 2
120785, 120781, 2
120785, 120786, 2
120785, 120784, 2
120785, 120782, 2
120785, 120790, 2
120785, 120793, 2
120785, 120787, 2
120782, 120783, 3
120782, 120781, 2
120782, 120784, 1
120782, 120785, 2
120788, 120790, 1
120788, 120789, 8
120788, 120787, 2
120794, 120795, 1
120794, 120793, 2
120795, 120794, 2
120795, 120796, 1
120791, 120790, 2
120791, 120789, 2
120791, 120792, 1
120787, 120786, 2
120787, 120784, 2
120787, 120785, 2
120787, 120788, 1
120787, 120790, 2
120787, 120789, 2
