123666, 123671, 2
123666, 123667, 2
123666, 123661, 2
123666, 123659, 2
123666, 123668, 2
123666, 123675, 2
123666, 123658, 2
123666, 123669, 2
123666, 123663, 2
123666, 123660, 2
123666, 123665, 2
123666, 123672, 2
123662, 123661, 2
123662, 123663, 1
123677, 123676, 2
123677, 123678, 1
123677, 123681, 2
123677, 123679, 2
123677, 123680, 2
123676, 123675, 2
123676, 123678, 2
123676, 123679, 2
123676, 123674, 2
123676, 123677, 1
123664, 123665, 1
123664, 123663, 2
123661, 123666, 2
123661, 123658, 2
123661, 123660, 2
123661, 123662, 1
123661, 123659, 2
123667, 123666, 2
123667, 123669, 1
123667, 123665, 2
123667, 123668, 6
123674, 123676, 1
123674, 123675, 0
123674, 123673, 2
123674, 123668, 2
123658, 123666, 2
123658, 123663, 2
123658, 123657, 2
123658, 123656, 2
123658, 123665, 2
123658, 123660, 2
123658, 123659, 2
123658, 123661, 2
123669, 123666, 2
123669, 123670, 1
123669, 123668, 2
123669, 123667, 2
123679, 123678, 2
123679, 123676, 2
123679, 123680, 1
123679, 123675, 2
123679, 123677, 2
123659, 123666, 2
123659, 123658, 2
123659, 123657, 2
123659, 123656, 2
123659, 123660, 6
123659, 123661, 1
123656, 123658, 2
123656, 123657, 1
123656, 123659, 2
123665, 123666, 0
123665, 123658, 2
123665, 123663, 2
123665, 123664, 2
123665, 123660, 2
123665, 123667, 1
123665, 123668, 2
123660, 123666, 2
123660, 123658, 2
123660, 123663, 2
123660, 123657, 2
123660, 123665, 2
123660, 123661, 2
123660, 123659, 2
123672, 123666, 2
123672, 123671, 2
123672, 123675, 2
123672, 123668, 2
123672, 123673, 1
123671, 123666, 2
123671, 123670, 2
123671, 123668, 2
123671, 123672, 1
123678, 123675, 2
123678, 123679, 1
123678, 123680, 2
123678, 123676, 2
123678, 123681, 2
123678, 123677, 2
123680, 123675, 2
123680, 123678, 2
123680, 123681, 0
123680, 123679, 2
123680, 123677, 2
123657, 123658, 0
123657, 123660, 2
123657, 123659, 1
123657, 123656, 2
123668, 123666, 2
123668, 123675, 2
123668, 123669, 2
123668, 123672, 2
123668, 123671, 2
123668, 123665, 2
123668, 123674, 2
123668, 123667, 2
123675, 123666, 2
123675, 123678, 2
123675, 123674, 2
123675, 123679, 2
123675, 123680, 2
123675, 123676, 2
123675, 123681, 2
123675, 123673, 2
123675, 123672, 2
123675, 123668, 2
123670, 123671, 1
123670, 123669, 2
123681, 123675, 2
123681, 123678, 2
123681, 123680, 2
123681, 123677, 2
123673, 123675, 2
123673, 123674, 1
123673, 123672, 2
123663, 123666, 2
123663, 123658, 2
123663, 123662, 2
123663, 123664, 1
123663, 123665, 2
123663, 123660, 2
