120394, 120395, 3
120394, 120396, 0
120394, 120393, 2
120394, 120398, 2
120394, 120397, 1
120394, 120403, 2
120393, 120395, 2
120393, 120394, 1
120393, 120392, 2
120393, 120396, 2
120404, 120399, 2
120404, 120403, 2
120404, 120402, 2
120404, 120401, 2
120404, 120405, 1
120398, 120399, 1
120398, 120394, 2
120398, 120396, 2
120398, 120397, 2
120398, 120395, 2
120398, 120403, 2
120391, 120396, 2
120391, 120390, 2
120391, 120392, 2
120402, 120399, 2
120402, 120404, 2
120402, 120395, 2
120402, 120400, 2
120402, 120405, 2
120402, 120401, 2
120402, 120403, 2
120401, 120404, 1
120401, 120400, 2
120401, 120402, 3
120401, 120405, 2
120401, 120403, 0
120403, 120399, 2
120403, 120394, 2
120403, 120404, 2
120403, 120402, 2
120403, 120398, 2
120403, 120400, 2
120403, 120396, 2
120403, 120401, 2
120403, 120405, 2
120399, 120395, 2
120399, 120404, 2
120399, 120402, 2
120399, 120398, 2
120399, 120400, 1
120399, 120405, 2
120399, 120403, 2
120396, 120395, 2
120396, 120394, 2
120396, 120393, 2
120396, 120398, 2
120396, 120391, 2
120396, 120397, 2
120396, 120392, 2
120396, 120403, 2
120392, 120395, 2
120392, 120396, 2
120392, 120393, 1
120392, 120391, 2
120392, 120390, 2
120392, 120397, 2
120400, 120399, 2
120400, 120403, 2
120400, 120401, 1
120400, 120402, 2
120390, 120391, 0
120390, 120392, 1
120397, 120398, 1
120397, 120394, 2
120397, 120392, 2
120397, 120395, 2
120397, 120396, 2
120395, 120399, 2
120395, 120394, 2
120395, 120393, 2
120395, 120396, 2
120395, 120398, 2
120395, 120402, 2
120395, 120397, 2
120395, 120392, 2
120405, 120399, 2
120405, 120404, 2
120405, 120403, 2
120405, 120401, 2
120405, 120402, 2
