131209, 131208, 2
131209, 131201, 2
131209, 131212, 2
131209, 131206, 2
131209, 131202, 2
131209, 131210, 1
131209, 131207, 2
131213, 131211, 2
131213, 131216, 2
131213, 131217, 2
131213, 131215, 2
131213, 131218, 1
131213, 131212, 2
131213, 131214, 0
131201, 131209, 2
131201, 131204, 2
131201, 131203, 2
131201, 131218, 2
131201, 131224, 2
131201, 131202, 3
131201, 131205, 2
131201, 131185, 2
131201, 131200, 2
131201, 131211, 2
131201, 131233, 2
131201, 131208, 2
131201, 131229, 2
131201, 131206, 2
131201, 131227, 2
131202, 131184, 2
131202, 131209, 2
131202, 131204, 2
131202, 131208, 2
131202, 131201, 2
131202, 131218, 2
131202, 131224, 2
131202, 131205, 2
131202, 131185, 2
131202, 131223, 2
131202, 131211, 2
131202, 131227, 2
131202, 131233, 2
131202, 131203, 2
131202, 131226, 2
131202, 131200, 2
131202, 131229, 2
131202, 131206, 2
131195, 131184, 2
131195, 131199, 2
131195, 131196, 1
131195, 131185, 2
131195, 131194, 2
131200, 131203, 1
131200, 131201, 3
131200, 131212, 2
131200, 131230, 2
131200, 131199, 2
131200, 131202, 2
131200, 131207, 2
131187, 131184, 2
131187, 131189, 2
131187, 131188, 1
131187, 131185, 2
131187, 131186, 2
131228, 131229, 1
131228, 131227, 2
131190, 131184, 2
131190, 131189, 2
131190, 131191, 1
131190, 131185, 2
131190, 131192, 2
131221, 131222, 1
131221, 131220, 2
131223, 131224, 1
131223, 131222, 2
131223, 131202, 2
131223, 131230, 2
131227, 131201, 2
131227, 131228, 1
131227, 131230, 2
131227, 131226, 2
131227, 131202, 2
131227, 131229, 2
131184, 131189, 2
131184, 131187, 2
131184, 131195, 2
131184, 131186, 2
131184, 131198, 2
131184, 131190, 2
131184, 131199, 2
131184, 131202, 2
131184, 131183, 2
131184, 131196, 2
131184, 131185, 3
131217, 131216, 2
131217, 131213, 2
131217, 131219, 2
131217, 131218, 2
131217, 131233, 2
131217, 131230, 2
131217, 131220, 2
131203, 131204, 1
131203, 131202, 2
131203, 131201, 2
131203, 131200, 2
131218, 131211, 2
131218, 131214, 2
131218, 131217, 2
131218, 131213, 2
131218, 131201, 2
131218, 131219, 1
131218, 131212, 2
131218, 131202, 2
131218, 131216, 2
131218, 131215, 2
131189, 131184, 2
131189, 131183, 2
131189, 131190, 1
131189, 131186, 2
131189, 131187, 2
131189, 131188, 2
131189, 131185, 2
131183, 131184, 3
131183, 131189, 2
131183, 131188, 2
131183, 131185, 2
131183, 131186, 1
131197, 131196, 2
131197, 131199, 1
131197, 131198, 3
131231, 131230, 2
131231, 131229, 2
131231, 131232, 1
131231, 131233, 2
131214, 131211, 2
131214, 131213, 2
131214, 131215, 1
131214, 131218, 2
131214, 131212, 2
131215, 131211, 2
131215, 131214, 2
131215, 131213, 2
131215, 131218, 2
131215, 131212, 2
131215, 131230, 2
131215, 131216, 1
131230, 131217, 2
131230, 131199, 2
131230, 131222, 2
131230, 131220, 2
131230, 131223, 2
131230, 131231, 1
131230, 131216, 2
131230, 131215, 2
131230, 131233, 2
131230, 131229, 2
131230, 131200, 2
131230, 131226, 2
131230, 131227, 2
131226, 131230, 2
131226, 131225, 2
131226, 131224, 2
131226, 131202, 2
131226, 131227, 1
131206, 131209, 2
131206, 131208, 1
131206, 131201, 2
131206, 131202, 2
131206, 131205, 2
131206, 131207, 0
131192, 131191, 2
131192, 131190, 2
131192, 131193, 1
131192, 131194, 2
131204, 131203, 2
131204, 131207, 2
131204, 131202, 2
131204, 131205, 1
131204, 131201, 2
131186, 131184, 2
131186, 131189, 2
131186, 131187, 1
131186, 131188, 2
131186, 131183, 2
131186, 131185, 2
131198, 131184, 2
131198, 131199, 2
131198, 131196, 2
131198, 131185, 2
131198, 131197, 2
131222, 131230, 2
131222, 131221, 2
131222, 131220, 2
131222, 131223, 1
131220, 131230, 2
131220, 131221, 1
131220, 131217, 2
131220, 131219, 2
131220, 131222, 2
131205, 131204, 2
131205, 131207, 2
131205, 131202, 2
131205, 131201, 2
131205, 131206, 1
131185, 131184, 2
131185, 131190, 2
131185, 131193, 2
131185, 131186, 2
131185, 131183, 2
131185, 131199, 2
131185, 131188, 2
131185, 131195, 2
131185, 131201, 2
131185, 131189, 2
131185, 131187, 2
131185, 131202, 2
131185, 131198, 2
131185, 131196, 2
131185, 131194, 2
131212, 131211, 2
131212, 131214, 2
131212, 131213, 2
131212, 131215, 2
131212, 131218, 2
131212, 131209, 2
131212, 131200, 2
131212, 131210, 2
131212, 131207, 2
131207, 131209, 2
131207, 131208, 2
131207, 131212, 2
131207, 131204, 2
131207, 131200, 2
131207, 131205, 2
131207, 131211, 2
131207, 131206, 2
131229, 131231, 2
131229, 131201, 2
131229, 131228, 2
131229, 131230, 0
131229, 131233, 1
131229, 131202, 2
131229, 131232, 2
131229, 131227, 2
131210, 131209, 2
131210, 131212, 2
131210, 131211, 1
131194, 131192, 2
131194, 131185, 2
131194, 131193, 2
131194, 131195, 1
131208, 131209, 1
131208, 131207, 2
131208, 131202, 2
131208, 131201, 2
131208, 131206, 2
131196, 131184, 2
131196, 131195, 2
131196, 131199, 2
131196, 131198, 2
131196, 131185, 2
131196, 131197, 1
131193, 131192, 2
131193, 131185, 2
131193, 131194, 1
131219, 131217, 2
131219, 131220, 1
131219, 131218, 2
131199, 131184, 2
131199, 131196, 2
131199, 131185, 2
131199, 131230, 2
131199, 131200, 1
131199, 131198, 2
131199, 131195, 2
131199, 131197, 2
131191, 131192, 1
131191, 131190, 2
131188, 131189, 1
131188, 131183, 2
131188, 131187, 2
131188, 131186, 2
131188, 131185, 2
131232, 131231, 2
131232, 131229, 2
131232, 131233, 2
131211, 131214, 2
131211, 131213, 1
131211, 131201, 2
131211, 131218, 2
131211, 131212, 0
131211, 131207, 2
131211, 131202, 2
131211, 131210, 2
131211, 131215, 2
131216, 131230, 2
131216, 131217, 1
131216, 131213, 2
131216, 131215, 2
131216, 131218, 2
131233, 131231, 2
131233, 131217, 2
131233, 131201, 2
131233, 131230, 2
131233, 131229, 2
131233, 131202, 2
131233, 131232, 2
131224, 131226, 2
131224, 131225, 1
131224, 131202, 2
131224, 131201, 2
131224, 131223, 2
131225, 131226, 1
131225, 131224, 2
