299040, 299039, 2
299040, 299042, 2
299040, 299041, 1
299051, 299043, 2
299051, 299047, 2
299051, 299049, 2
299051, 299052, 2
299051, 299050, 2
299056, 299057, 1
299056, 299054, 2
299056, 299042, 2
299056, 299058, 2
299056, 299055, 2
299056, 299053, 2
299056, 299050, 2
299055, 299056, 2
299055, 299054, 2
299055, 299053, 2
299055, 299057, 2
299055, 299058, 2
299037, 299035, 2
299037, 299042, 2
299037, 299036, 2
299037, 299038, 1
299032, 299033, 2
299032, 299030, 2
299032, 299042, 2
299032, 299034, 2
299032, 299031, 2
299038, 299039, 1
299038, 299037, 2
299038, 299042, 2
299044, 299042, 2
299044, 299052, 2
299044, 299047, 2
299044, 299045, 2
299044, 299049, 2
299044, 299046, 6
299044, 299043, 4
299044, 299048, 1
299044, 299050, 2
299053, 299056, 1
299053, 299054, 3
299053, 299052, 2
299053, 299058, 2
299053, 299055, 8
299053, 299050, 2
299053, 299057, 2
299054, 299047, 2
299054, 299056, 2
299054, 299052, 2
299054, 299058, 2
299054, 299043, 2
299054, 299055, 2
299054, 299053, 2
299054, 299042, 2
299034, 299033, 2
299034, 299031, 2
299034, 299032, 2
299034, 299035, 1
299026, 299027, 1
299026, 299025, 2
299039, 299040, 1
299039, 299038, 2
299029, 299028, 2
299029, 299030, 1
299046, 299050, 2
299046, 299058, 2
299046, 299044, 2
299046, 299049, 2
299046, 299048, 2
299046, 299042, 2
299043, 299051, 2
299043, 299045, 1
299043, 299042, 2
299043, 299047, 2
299043, 299044, 2
299043, 299054, 2
299043, 299049, 2
299043, 299048, 2
299043, 299052, 2
299048, 299045, 2
299048, 299050, 2
299048, 299047, 2
299048, 299044, 2
299048, 299049, 1
299048, 299046, 2
299048, 299043, 2
299042, 299040, 2
299042, 299056, 2
299042, 299037, 2
299042, 299032, 2
299042, 299047, 2
299042, 299045, 2
299042, 299054, 2
299042, 299049, 2
299042, 299041, 2
299042, 299033, 2
299042, 299044, 1
299042, 299035, 2
299042, 299050, 2
299042, 299046, 2
299042, 299043, 2
299042, 299038, 2
299042, 299052, 2
299024, 299025, 1
299024, 299023, 2
299052, 299051, 2
299052, 299050, 2
299052, 299047, 2
299052, 299044, 2
299052, 299049, 2
299052, 299054, 2
299052, 299053, 1
299052, 299043, 2
299052, 299042, 2
299041, 299040, 2
299041, 299042, 1
299027, 299028, 1
299027, 299026, 2
299023, 299024, 1
299049, 299051, 2
299049, 299045, 2
299049, 299052, 1
299049, 299042, 2
299049, 299047, 2
299049, 299044, 2
299049, 299058, 2
299049, 299046, 2
299049, 299043, 2
299049, 299048, 2
299049, 299050, 0
299031, 299033, 8
299031, 299035, 2
299031, 299032, 3
299031, 299034, 1
299031, 299030, 2
299036, 299037, 1
299036, 299035, 2
299035, 299033, 2
299035, 299037, 2
299035, 299034, 2
299035, 299031, 2
299035, 299036, 1
299035, 299042, 2
299047, 299051, 2
299047, 299045, 2
299047, 299052, 2
299047, 299057, 2
299047, 299058, 2
299047, 299044, 2
299047, 299043, 2
299047, 299054, 2
299047, 299049, 2
299047, 299048, 2
299047, 299042, 2
299033, 299042, 2
299033, 299035, 2
299033, 299032, 2
299033, 299034, 2
299033, 299031, 2
299030, 299031, 1
299030, 299029, 2
299030, 299032, 2
299058, 299056, 2
299058, 299054, 2
299058, 299057, 2
299058, 299047, 2
299058, 299046, 2
299058, 299053, 2
299058, 299055, 2
299058, 299049, 2
299058, 299050, 2
299028, 299027, 2
299028, 299029, 1
299050, 299051, 3
299050, 299056, 2
299050, 299052, 2
299050, 299058, 2
299050, 299044, 2
299050, 299053, 2
299050, 299046, 2
299050, 299049, 2
299050, 299048, 2
299050, 299042, 2
299045, 299042, 2
299045, 299047, 1
299045, 299044, 2
299045, 299049, 2
299045, 299043, 2
299045, 299048, 2
299025, 299024, 2
299025, 299026, 1
299057, 299047, 2
299057, 299056, 2
299057, 299055, 2
299057, 299053, 2
299057, 299058, 1
