17499, 17500, 1
17499, 17501, 2
17499, 17498, 2
17499, 17496, 2
17502, 17503, 1
17502, 17501, 2
17502, 17500, 2
17505, 17504, 2
17505, 17506, 3
17505, 17507, 1
17503, 17502, 2
17503, 17504, 1
17497, 17498, 1
17497, 17496, 2
17506, 17505, 2
17506, 17507, 2
17495, 17494, 2
17495, 17496, 1
17508, 17509, 3
17508, 17507, 2
17494, 17495, 1
17498, 17499, 1
17498, 17497, 2
17498, 17496, 2
17507, 17504, 2
17507, 17505, 2
17507, 17506, 2
17507, 17508, 1
17496, 17499, 2
17496, 17497, 1
17496, 17498, 2
17496, 17495, 2
17509, 17508, 2
17500, 17499, 2
17500, 17502, 1
17500, 17501, 8
17504, 17503, 2
17504, 17505, 1
17504, 17507, 2
17501, 17502, 2
17501, 17499, 2
17501, 17500, 2
