125641, 125640, 2
125641, 125642, 3
125641, 125643, 1
125641, 125644, 2
125641, 125645, 2
125646, 125651, 2
125646, 125649, 2
125646, 125650, 2
125646, 125647, 2
125646, 125648, 2
125646, 125645, 2
125647, 125650, 2
125647, 125651, 2
125647, 125649, 2
125647, 125646, 2
125647, 125663, 2
125647, 125648, 2
125647, 125645, 2
125642, 125641, 2
125642, 125643, 2
125642, 125639, 2
125642, 125640, 2
125642, 125644, 2
125642, 125645, 2
125659, 125660, 1
125659, 125658, 2
125644, 125641, 2
125644, 125642, 2
125644, 125643, 2
125644, 125645, 2
125665, 125668, 2
125665, 125666, 2
125665, 125669, 2
125665, 125664, 2
125665, 125670, 2
125643, 125641, 2
125643, 125642, 2
125643, 125644, 3
125643, 125645, 1
125669, 125665, 2
125669, 125664, 2
125669, 125649, 2
125669, 125668, 2
125669, 125670, 1
125657, 125653, 2
125657, 125652, 2
125657, 125654, 2
125657, 125656, 2
125657, 125663, 2
125657, 125655, 2
125657, 125658, 1
125657, 125650, 2
125656, 125655, 2
125656, 125654, 2
125656, 125657, 2
125656, 125660, 2
125656, 125663, 2
125656, 125658, 2
125671, 125670, 2
125668, 125669, 1
125668, 125664, 2
125668, 125665, 2
125668, 125666, 2
125668, 125649, 2
125668, 125667, 2
125645, 125641, 2
125645, 125651, 2
125645, 125643, 2
125645, 125649, 2
125645, 125646, 3
125645, 125642, 2
125645, 125650, 2
125645, 125647, 0
125645, 125648, 1
125645, 125644, 2
125640, 125641, 1
125640, 125639, 2
125640, 125642, 2
125667, 125666, 2
125667, 125668, 1
125664, 125669, 2
125664, 125670, 2
125664, 125665, 1
125664, 125662, 2
125664, 125666, 2
125664, 125663, 2
125664, 125668, 2
125670, 125665, 2
125670, 125669, 2
125670, 125664, 2
125670, 125671, 1
125662, 125666, 1
125662, 125663, 0
125662, 125664, 2
125662, 125661, 2
125649, 125651, 2
125649, 125653, 2
125649, 125669, 2
125649, 125646, 2
125649, 125668, 2
125649, 125666, 2
125649, 125647, 2
125649, 125648, 2
125649, 125645, 2
125648, 125651, 1
125648, 125650, 6
125648, 125646, 2
125648, 125649, 4
125648, 125647, 2
125648, 125645, 2
125661, 125662, 1
125661, 125660, 2
125651, 125653, 2
125651, 125652, 1
125651, 125646, 2
125651, 125648, 2
125651, 125649, 2
125651, 125647, 2
125651, 125655, 2
125651, 125645, 2
125651, 125650, 2
125653, 125651, 2
125653, 125652, 2
125653, 125654, 2
125653, 125658, 2
125653, 125649, 2
125653, 125655, 2
125653, 125657, 2
125652, 125651, 2
125652, 125653, 3
125652, 125655, 2
125652, 125654, 1
125652, 125650, 2
125652, 125657, 2
125654, 125653, 2
125654, 125652, 2
125654, 125656, 2
125654, 125655, 0
125654, 125657, 1
125660, 125658, 2
125660, 125663, 2
125660, 125659, 2
125660, 125656, 2
125660, 125661, 1
125639, 125642, 2
125639, 125640, 1
125663, 125655, 2
125663, 125664, 1
125663, 125656, 2
125663, 125660, 2
125663, 125657, 2
125663, 125662, 2
125663, 125666, 2
125663, 125650, 2
125663, 125647, 2
125663, 125658, 2
125655, 125651, 2
125655, 125653, 2
125655, 125652, 2
125655, 125654, 2
125655, 125656, 1
125655, 125663, 2
125655, 125657, 2
125655, 125650, 2
125666, 125649, 2
125666, 125664, 2
125666, 125665, 2
125666, 125662, 2
125666, 125667, 1
125666, 125668, 2
125666, 125663, 2
125658, 125653, 2
125658, 125660, 2
125658, 125656, 2
125658, 125663, 2
125658, 125659, 1
125658, 125657, 2
125650, 125651, 2
125650, 125652, 2
125650, 125646, 2
125650, 125648, 2
125650, 125663, 2
125650, 125647, 2
125650, 125655, 2
125650, 125657, 2
125650, 125645, 2
