68618, 68616, 2
68618, 68619, 1
68618, 68617, 2
68618, 68615, 2
68616, 68618, 1
68616, 68613, 2
68616, 68614, 2
68616, 68617, 0
68616, 68615, 2
68611, 68610, 2
68611, 68612, 1
68615, 68618, 2
68615, 68616, 2
68615, 68613, 2
68615, 68614, 2
68615, 68612, 2
68610, 68612, 2
68610, 68611, 1
68623, 68624, 1
68623, 68622, 2
68623, 68621, 2
68623, 68625, 2
68630, 68629, 2
68630, 68632, 1
68630, 68628, 2
68630, 68631, 0
68635, 68633, 2
68635, 68632, 2
68635, 68636, 1
68635, 68634, 2
68638, 68642, 2
68638, 68637, 2
68638, 68639, 2
68620, 68622, 2
68620, 68621, 1
68620, 68619, 2
68621, 68620, 2
68621, 68622, 3
68621, 68623, 1
68617, 68618, 2
68617, 68616, 2
68617, 68613, 2
68617, 68614, 2
68617, 68612, 2
68644, 68643, 2
68644, 68642, 2
68622, 68620, 2
68622, 68621, 2
68622, 68623, 2
68613, 68616, 2
68613, 68612, 2
68613, 68614, 1
68613, 68617, 2
68613, 68615, 2
68632, 68633, 1
68632, 68634, 2
68632, 68630, 2
68632, 68635, 2
68632, 68631, 2
68641, 68642, 2
68641, 68637, 2
68641, 68640, 2
68641, 68639, 2
68626, 68625, 2
68626, 68627, 1
68643, 68642, 2
68643, 68644, 1
68629, 68627, 2
68629, 68628, 2
68629, 68630, 1
68629, 68631, 2
68614, 68616, 1
68614, 68613, 2
68614, 68617, 2
68614, 68615, 8
68642, 68643, 1
68642, 68640, 2
68642, 68639, 2
68642, 68644, 2
68642, 68638, 2
68642, 68641, 2
68627, 68626, 2
68627, 68629, 1
68627, 68628, 0
68627, 68631, 2
68628, 68627, 2
68628, 68629, 2
68628, 68630, 2
68628, 68631, 2
68612, 68613, 1
68612, 68610, 2
68612, 68611, 2
68612, 68617, 2
68612, 68615, 2
68633, 68632, 2
68633, 68635, 1
68633, 68634, 0
68625, 68626, 1
68625, 68624, 2
68625, 68623, 2
68637, 68640, 2
68637, 68636, 2
68637, 68641, 2
68637, 68638, 8
68637, 68639, 1
68634, 68633, 2
68634, 68632, 2
68634, 68635, 2
68631, 68627, 2
68631, 68628, 2
68631, 68632, 2
68631, 68630, 2
68631, 68629, 2
68636, 68637, 1
68636, 68635, 2
68640, 68642, 2
68640, 68637, 2
68640, 68641, 2
68640, 68639, 2
68624, 68625, 1
68624, 68623, 2
68619, 68618, 2
68619, 68620, 1
68639, 68642, 1
68639, 68637, 2
68639, 68640, 6
68639, 68638, 2
68639, 68641, 0
