294088, 294086, 2
294088, 294090, 1
294088, 294089, 2
294088, 294087, 2
294090, 294088, 2
294090, 294086, 2
294090, 294089, 6
294090, 294083, 2
294090, 294087, 2
294085, 294084, 2
294085, 294086, 1
294085, 294089, 2
294085, 294083, 2
294085, 294087, 2
294083, 294090, 2
294083, 294085, 2
294083, 294081, 2
294083, 294084, 2
294083, 294082, 2
294083, 294086, 2
294083, 294089, 2
294081, 294084, 2
294081, 294082, 1
294081, 294089, 2
294081, 294083, 2
294084, 294081, 2
294084, 294082, 2
294084, 294085, 1
294084, 294083, 6
294082, 294081, 2
294082, 294084, 1
294082, 294083, 2
294086, 294088, 1
294086, 294090, 2
294086, 294085, 2
294086, 294083, 2
294086, 294089, 2
294086, 294087, 3
294089, 294088, 2
294089, 294090, 2
294089, 294085, 2
294089, 294083, 2
294089, 294081, 2
294089, 294086, 2
294089, 294087, 2
294087, 294088, 2
294087, 294086, 2
294087, 294090, 2
294087, 294089, 2
294087, 294085, 2
