258745, 258747, 2
258745, 258746, 1
258750, 258748, 2
258750, 258747, 2
258750, 258749, 2
258746, 258745, 2
258746, 258747, 1
258748, 258747, 2
258748, 258750, 1
258748, 258749, 8
258747, 258748, 3
258747, 258745, 2
258747, 258750, 2
258747, 258746, 2
258749, 258748, 2
258749, 258750, 2
