17690, 17689, 2
17690, 17688, 2
17678, 17677, 2
17678, 17679, 2
17678, 17676, 2
17678, 17680, 2
17689, 17690, 1
17689, 17688, 2
17689, 17687, 2
17677, 17676, 2
17677, 17678, 8
17677, 17679, 1
17681, 17682, 1
17681, 17680, 2
17686, 17685, 2
17686, 17688, 2
17686, 17687, 1
17674, 17675, 3
17674, 17676, 1
17682, 17684, 1
17682, 17680, 2
17682, 17681, 2
17682, 17683, 3
17675, 17676, 2
17675, 17674, 2
17685, 17684, 2
17685, 17686, 1
17683, 17682, 2
17683, 17684, 2
17683, 17680, 2
17687, 17689, 1
17687, 17688, 8
17687, 17686, 2
17684, 17682, 2
17684, 17680, 2
17684, 17685, 1
17684, 17683, 2
17680, 17682, 2
17680, 17683, 2
17680, 17684, 2
17680, 17678, 2
17680, 17681, 1
17680, 17679, 2
17679, 17677, 2
17679, 17678, 2
17679, 17680, 1
17688, 17689, 2
17688, 17690, 2
17688, 17687, 2
17688, 17686, 2
17676, 17675, 2
17676, 17677, 1
17676, 17678, 2
17676, 17674, 2
