134175, 134173, 2
134175, 134174, 2
134175, 134176, 1
134174, 134175, 2
134174, 134173, 2
134174, 134176, 2
134174, 134172, 2
134171, 134173, 1
134171, 134172, 8
134173, 134175, 1
134173, 134172, 2
134173, 134174, 3
134173, 134171, 2
134172, 134173, 2
134172, 134174, 2
134172, 134171, 2
134176, 134175, 2
134176, 134174, 2
