71095, 71097, 2
71095, 71094, 2
71095, 71096, 2
71097, 71095, 2
71097, 71094, 2
71097, 71096, 2
71097, 71098, 0
71094, 71095, 0
71094, 71097, 2
71094, 71096, 1
71096, 71095, 2
71096, 71097, 1
71096, 71094, 2
71098, 71097, 2
