253467, 253466, 2
253467, 253468, 2
253463, 253458, 2
253463, 253464, 1
253463, 253462, 2
253463, 253461, 2
253468, 253467, 2
253468, 253469, 1
253468, 253466, 2
253459, 253460, 2
253459, 253462, 2
253459, 253458, 2
253459, 253461, 2
253458, 253463, 2
253458, 253460, 1
253458, 253459, 3
253458, 253461, 2
253458, 253456, 2
253458, 253457, 2
253461, 253459, 2
253461, 253463, 1
253461, 253460, 2
253461, 253458, 2
253461, 253462, 3
253470, 253472, 2
253470, 253469, 2
253470, 253471, 2
253469, 253470, 3
253469, 253472, 1
253469, 253468, 2
253466, 253467, 8
253466, 253468, 1
253466, 253464, 2
253466, 253465, 2
253465, 253466, 2
253465, 253464, 2
253457, 253456, 2
253457, 253458, 2
253472, 253470, 2
253472, 253469, 2
253472, 253473, 0
253472, 253471, 2
253460, 253459, 2
253460, 253458, 2
253460, 253461, 1
253471, 253470, 2
253471, 253472, 2
253462, 253463, 2
253462, 253459, 2
253462, 253461, 2
253456, 253457, 0
253456, 253458, 1
253473, 253472, 2
253464, 253463, 2
253464, 253466, 1
253464, 253465, 3
