254420, 254421, 1
254420, 254419, 2
254427, 254429, 1
254427, 254426, 2
254427, 254428, 3
254419, 254420, 1
254419, 254417, 2
254419, 254418, 2
254419, 254421, 2
254426, 254424, 2
254426, 254427, 1
254426, 254428, 2
254426, 254425, 2
254432, 254431, 2
254432, 254434, 2
254432, 254433, 1
254415, 254414, 2
254415, 254416, 2
254431, 254430, 2
254431, 254432, 1
254429, 254427, 2
254429, 254430, 1
254429, 254428, 2
254416, 254417, 1
254416, 254414, 2
254416, 254418, 2
254416, 254415, 2
254425, 254424, 2
254425, 254426, 2
254425, 254422, 2
254423, 254424, 1
254423, 254422, 2
254434, 254433, 2
254434, 254432, 2
254430, 254431, 1
254430, 254429, 2
254428, 254429, 2
254428, 254427, 2
254428, 254426, 2
254421, 254420, 2
254421, 254419, 2
254421, 254422, 1
254424, 254422, 2
254424, 254426, 1
254424, 254425, 0
254424, 254423, 2
254417, 254419, 1
254417, 254418, 3
254417, 254416, 2
254414, 254415, 0
254414, 254416, 1
254418, 254417, 2
254418, 254419, 2
254418, 254416, 2
254422, 254424, 2
254422, 254421, 2
254422, 254425, 2
254422, 254423, 1
254433, 254434, 1
254433, 254432, 2
