259282, 259280, 2
259282, 259279, 2
259282, 259281, 2
259277, 259276, 2
259277, 259278, 1
259276, 259277, 1
259276, 259275, 2
259278, 259280, 2
259278, 259279, 1
259278, 259277, 2
259280, 259282, 2
259280, 259279, 2
259280, 259278, 2
259280, 259281, 2
259281, 259282, 1
259281, 259280, 2
259281, 259279, 2
259279, 259280, 8
259279, 259282, 2
259279, 259281, 1
259279, 259278, 2
259275, 259276, 1
