16137, 16138, 1
16137, 16136, 2
16136, 16137, 1
16136, 16135, 2
16131, 16134, 2
16131, 16133, 1
16131, 16132, 0
16141, 16142, 1
16141, 16140, 2
16141, 16139, 2
16135, 16134, 2
16135, 16136, 1
16140, 16141, 1
16140, 16139, 2
16132, 16131, 2
16132, 16134, 2
16132, 16133, 2
16142, 16141, 2
16134, 16135, 1
16134, 16131, 2
16134, 16133, 2
16134, 16132, 2
16138, 16137, 2
16138, 16139, 1
16133, 16131, 2
16133, 16134, 1
16133, 16132, 2
16139, 16140, 1
16139, 16141, 2
16139, 16138, 2
