256096, 256094, 2
256096, 256092, 2
256096, 256093, 2
256096, 256098, 8
256096, 256095, 2
256096, 256099, 1
256096, 256089, 2
256096, 256097, 3
256096, 256091, 2
256082, 256080, 2
256082, 256084, 2
256082, 256081, 2
256082, 256074, 2
256082, 256079, 2
256082, 256083, 1
256081, 256080, 2
256081, 256082, 2
256081, 256077, 2
256081, 256074, 2
256081, 256079, 2
256081, 256078, 2
256081, 256072, 2
256092, 256095, 2
256092, 256096, 1
256092, 256093, 3
256092, 256091, 2
256093, 256095, 2
256093, 256096, 2
256093, 256094, 1
256093, 256092, 2
256098, 256096, 2
256098, 256100, 2
256098, 256097, 2
256098, 256099, 2
256083, 256087, 1
256083, 256082, 2
256083, 256085, 2
256083, 256084, 3
256083, 256086, 2
256076, 256080, 2
256076, 256077, 2
256076, 256074, 2
256076, 256079, 2
256076, 256075, 2
256076, 256072, 2
256076, 256073, 2
256101, 256103, 2
256101, 256099, 2
256101, 256100, 2
256101, 256104, 2
256101, 256102, 2
256073, 256075, 1
256073, 256076, 2
256073, 256077, 2
256073, 256072, 2
256073, 256074, 2
256104, 256103, 2
256104, 256101, 2
256104, 256100, 2
256104, 256102, 2
256084, 256083, 2
256084, 256087, 2
256084, 256082, 2
256084, 256085, 1
256084, 256086, 2
256079, 256080, 3
256079, 256082, 1
256079, 256081, 0
256079, 256074, 2
256079, 256076, 2
256079, 256078, 2
256079, 256077, 2
256087, 256084, 2
256087, 256086, 2
256087, 256083, 2
256087, 256089, 2
256087, 256085, 2
256087, 256088, 1
256085, 256083, 2
256085, 256087, 2
256085, 256084, 2
256085, 256086, 1
256078, 256080, 2
256078, 256081, 2
256078, 256077, 2
256078, 256079, 1
256091, 256096, 2
256091, 256090, 2
256091, 256092, 1
256091, 256089, 2
256100, 256103, 2
256100, 256101, 2
256100, 256102, 2
256100, 256099, 2
256100, 256098, 2
256100, 256104, 2
256077, 256080, 2
256077, 256081, 2
256077, 256074, 2
256077, 256079, 2
256077, 256076, 2
256077, 256072, 2
256077, 256078, 1
256077, 256073, 2
256102, 256103, 1
256102, 256099, 2
256102, 256100, 2
256102, 256101, 2
256102, 256104, 2
256095, 256096, 2
256095, 256094, 2
256095, 256092, 2
256095, 256093, 2
256099, 256096, 2
256099, 256101, 0
256099, 256102, 1
256099, 256098, 2
256099, 256097, 2
256099, 256100, 3
256089, 256087, 2
256089, 256090, 3
256089, 256091, 1
256089, 256088, 2
256089, 256096, 2
256097, 256096, 2
256097, 256099, 2
256097, 256098, 2
256103, 256100, 2
256103, 256101, 2
256103, 256104, 1
256103, 256102, 2
256080, 256082, 2
256080, 256081, 2
256080, 256079, 2
256080, 256076, 2
256080, 256078, 2
256080, 256077, 2
256094, 256095, 1
256094, 256096, 2
256094, 256093, 2
256086, 256083, 2
256086, 256087, 2
256086, 256084, 2
256086, 256085, 2
256088, 256087, 2
256088, 256089, 1
256075, 256074, 2
256075, 256076, 1
256075, 256072, 2
256075, 256073, 2
256090, 256089, 2
256090, 256091, 2
256072, 256081, 2
256072, 256074, 0
256072, 256075, 2
256072, 256076, 2
256072, 256073, 3
256072, 256077, 1
256074, 256082, 2
256074, 256081, 2
256074, 256075, 2
256074, 256079, 2
256074, 256076, 2
256074, 256077, 2
256074, 256072, 2
256074, 256073, 2
