255418, 255417, 2
255418, 255419, 1
255418, 255433, 2
255425, 255426, 1
255425, 255424, 2
255420, 255421, 1
255420, 255419, 2
255435, 255431, 2
255435, 255427, 2
255435, 255441, 2
255435, 255417, 2
255435, 255438, 2
255435, 255424, 2
255435, 255421, 2
255435, 255442, 2
255435, 255440, 2
255435, 255426, 2
255435, 255434, 2
255435, 255419, 2
255435, 255415, 2
255435, 255432, 2
255435, 255429, 2
255416, 255417, 1
255416, 255415, 2
255424, 255421, 2
255424, 255425, 1
255424, 255423, 2
255424, 255433, 2
255424, 255435, 2
255424, 255426, 2
255421, 255419, 2
255421, 255420, 2
255421, 255423, 1
255421, 255433, 2
255421, 255435, 2
255421, 255424, 2
255421, 255422, 8
255441, 255442, 2
255441, 255434, 2
255441, 255435, 2
255441, 255440, 2
255428, 255427, 2
255428, 255429, 1
255426, 255425, 2
255426, 255433, 2
255426, 255435, 2
255426, 255424, 2
255426, 255427, 1
255434, 255431, 2
255434, 255436, 2
255434, 255441, 2
255434, 255430, 2
255434, 255438, 1
255434, 255437, 2
255434, 255440, 2
255434, 255439, 2
255434, 255433, 4
255434, 255435, 6
255434, 255432, 2
255434, 255429, 2
255439, 255433, 2
255439, 255440, 2
255439, 255436, 2
255439, 255442, 2
255439, 255438, 2
255439, 255434, 2
255439, 255437, 2
255431, 255434, 2
255431, 255436, 2
255431, 255430, 2
255431, 255433, 2
255431, 255435, 2
255431, 255432, 2
255431, 255429, 2
255433, 255431, 2
255433, 255434, 2
255433, 255418, 2
255433, 255436, 1
255433, 255430, 2
255433, 255438, 2
255433, 255424, 2
255433, 255422, 2
255433, 255421, 2
255433, 255419, 2
255433, 255417, 2
255433, 255426, 2
255433, 255427, 2
255433, 255439, 2
255433, 255423, 2
255433, 255432, 2
255433, 255429, 2
255430, 255431, 0
255430, 255433, 2
255430, 255436, 2
255430, 255437, 2
255430, 255434, 1
255430, 255432, 8
255430, 255429, 2
255436, 255431, 2
255436, 255433, 2
255436, 255434, 2
255436, 255430, 2
255436, 255438, 2
255436, 255442, 2
255436, 255439, 2
255436, 255432, 2
255436, 255437, 1
255417, 255435, 2
255417, 255433, 2
255417, 255416, 2
255417, 255418, 1
255438, 255433, 2
255438, 255440, 1
255438, 255436, 2
255438, 255435, 2
255438, 255434, 2
255438, 255439, 3
255438, 255437, 2
255422, 255421, 2
255422, 255423, 2
255422, 255433, 2
255440, 255441, 0
255440, 255435, 2
255440, 255442, 1
255440, 255438, 2
255440, 255434, 2
255440, 255439, 2
255440, 255437, 2
255442, 255441, 2
255442, 255440, 2
255442, 255436, 2
255442, 255435, 2
255442, 255439, 2
255442, 255437, 2
255437, 255430, 2
255437, 255440, 2
255437, 255436, 2
255437, 255442, 2
255437, 255438, 2
255437, 255434, 2
255437, 255439, 2
255437, 255432, 2
255437, 255429, 2
255423, 255421, 2
255423, 255433, 2
255423, 255424, 1
255423, 255422, 2
255427, 255428, 1
255427, 255426, 2
255427, 255433, 2
255427, 255435, 2
255427, 255429, 2
255419, 255420, 1
255419, 255421, 2
255419, 255433, 2
255419, 255435, 2
255419, 255418, 2
255415, 255416, 1
255415, 255435, 2
255432, 255431, 2
255432, 255433, 2
255432, 255429, 2
255432, 255436, 2
255432, 255430, 2
255432, 255434, 2
255432, 255435, 2
255432, 255437, 2
255429, 255431, 2
255429, 255433, 2
255429, 255427, 2
255429, 255428, 2
255429, 255430, 1
255429, 255434, 2
255429, 255435, 2
255429, 255432, 2
255429, 255437, 2
