71768, 71767, 2
71768, 71766, 2
71768, 71769, 1
71770, 71769, 2
71765, 71764, 2
71765, 71766, 1
71764, 71766, 2
71764, 71765, 1
71767, 71768, 2
71767, 71766, 2
71767, 71769, 2
71766, 71764, 2
71766, 71768, 1
71766, 71769, 2
71766, 71765, 2
71766, 71767, 3
71769, 71768, 2
71769, 71766, 2
71769, 71770, 0
71769, 71767, 2
