16707, 16708, 1
16714, 16715, 1
16714, 16712, 2
16714, 16713, 2
16709, 16708, 2
16709, 16710, 8
16709, 16711, 1
16712, 16714, 2
16712, 16713, 1
16712, 16711, 2
16711, 16709, 2
16711, 16710, 2
16711, 16712, 1
16717, 16716, 2
16717, 16718, 1
16716, 16717, 1
16716, 16715, 2
16715, 16714, 2
16715, 16716, 1
16710, 16709, 2
16710, 16711, 2
16718, 16717, 2
16718, 16719, 1
16708, 16707, 2
16708, 16709, 1
16719, 16718, 2
16713, 16714, 1
16713, 16712, 2
