301593, 301594, 3
301593, 301595, 1
301595, 301596, 1
301595, 301593, 2
301595, 301594, 2
301599, 301598, 2
301599, 301597, 2
301598, 301599, 1
301598, 301597, 2
301596, 301595, 2
301596, 301597, 1
301594, 301593, 2
301594, 301595, 2
301597, 301596, 2
301597, 301598, 1
301597, 301599, 2
