16246, 16245, 2
16246, 16243, 2
16246, 16247, 1
16245, 16246, 1
16245, 16244, 2
16245, 16243, 2
16245, 16239, 2
16245, 16242, 2
16243, 16245, 2
16243, 16242, 2
16243, 16250, 2
16243, 16249, 2
16243, 16244, 2
16243, 16246, 2
16243, 16247, 2
16249, 16248, 2
16249, 16243, 2
16249, 16250, 1
16244, 16245, 1
16244, 16242, 2
16244, 16243, 2
16244, 16240, 2
16244, 16239, 2
16247, 16246, 2
16247, 16239, 2
16247, 16248, 1
16247, 16243, 2
16241, 16240, 2
16241, 16242, 2
16239, 16245, 2
16239, 16242, 2
16239, 16248, 2
16239, 16240, 3
16239, 16244, 1
16239, 16247, 2
16242, 16245, 2
16242, 16244, 2
16242, 16243, 3
16242, 16239, 2
16242, 16241, 2
16248, 16249, 1
16248, 16239, 2
16248, 16247, 2
16250, 16249, 2
16250, 16243, 2
16240, 16239, 2
16240, 16244, 2
16240, 16241, 3
