64474, 64480, 2
64474, 64481, 2
64474, 64476, 2
64474, 64472, 2
64474, 64475, 2
64474, 64479, 2
64474, 64470, 2
64474, 64464, 2
64474, 64469, 2
64474, 64477, 2
64474, 64473, 2
64465, 64467, 2
64465, 64466, 2
64465, 64469, 2
64465, 64464, 2
64468, 64467, 2
64468, 64469, 1
64475, 64474, 2
64475, 64476, 1
64475, 64478, 2
64475, 64471, 2
64475, 64473, 2
64470, 64474, 2
64470, 64469, 2
64470, 64471, 3
64470, 64472, 1
64470, 64473, 2
64466, 64467, 1
64466, 64465, 2
64466, 64464, 2
64478, 64475, 2
64478, 64479, 2
64478, 64477, 2
64471, 64475, 2
64471, 64470, 2
64471, 64469, 2
64471, 64472, 2
64473, 64475, 1
64473, 64474, 6
64473, 64470, 2
64473, 64472, 2
64480, 64481, 1
64480, 64479, 2
64480, 64474, 2
64476, 64475, 2
64476, 64474, 2
64476, 64477, 1
64472, 64470, 2
64472, 64471, 2
64472, 64474, 2
64472, 64473, 1
64479, 64480, 1
64479, 64481, 2
64479, 64474, 2
64479, 64478, 2
64479, 64477, 2
64481, 64480, 2
64481, 64479, 2
64481, 64474, 2
64467, 64464, 2
64467, 64466, 2
64467, 64469, 2
64467, 64465, 2
64467, 64468, 1
64469, 64474, 2
64469, 64465, 2
64469, 64468, 2
64469, 64467, 2
64469, 64470, 1
64469, 64471, 2
64477, 64479, 1
64477, 64474, 2
64477, 64478, 3
64477, 64476, 2
64464, 64467, 2
64464, 64474, 2
64464, 64466, 1
64464, 64465, 3
