118521, 118520, 2
118521, 118522, 2
118521, 118519, 2
118516, 118518, 2
118516, 118514, 2
118516, 118515, 2
118516, 118513, 2
118516, 118517, 1
118522, 118521, 2
118522, 118520, 2
118522, 118515, 2
118522, 118519, 2
118513, 118516, 2
118513, 118514, 3
118513, 118515, 0
118513, 118517, 2
118513, 118518, 1
118518, 118516, 2
118518, 118517, 2
118518, 118519, 1
118518, 118520, 2
118518, 118514, 2
118518, 118515, 2
118518, 118513, 2
118519, 118521, 2
118519, 118520, 3
118519, 118522, 1
118519, 118515, 2
118519, 118518, 2
118520, 118521, 1
118520, 118518, 2
118520, 118522, 2
118520, 118517, 2
118520, 118519, 2
118514, 118516, 1
118514, 118513, 2
118514, 118515, 2
118514, 118517, 2
118514, 118518, 2
118515, 118516, 2
118515, 118522, 2
118515, 118517, 2
118515, 118519, 2
118515, 118518, 2
118515, 118514, 2
118515, 118513, 2
118517, 118516, 2
118517, 118513, 2
118517, 118518, 2
118517, 118520, 2
118517, 118514, 2
118517, 118515, 2
