256928, 256926, 2
256928, 256929, 1
256928, 256927, 2
256921, 256923, 2
256921, 256920, 2
256921, 256917, 2
256921, 256918, 2
256921, 256922, 1
256921, 256919, 2
256942, 256945, 2
256942, 256943, 2
256942, 256944, 2
256942, 256940, 2
256942, 256941, 2
256939, 256940, 1
256939, 256938, 2
256923, 256925, 1
256923, 256924, 3
256923, 256921, 2
256923, 256922, 2
256918, 256921, 2
256918, 256919, 1
256918, 256917, 2
256937, 256936, 2
256937, 256938, 1
256937, 256935, 2
256937, 256934, 2
256937, 256933, 2
256927, 256928, 2
256927, 256926, 2
256934, 256933, 2
256934, 256936, 1
256934, 256937, 2
256934, 256938, 2
256934, 256935, 3
256908, 256911, 2
256908, 256909, 1
256908, 256907, 2
256916, 256912, 2
256916, 256915, 2
256916, 256917, 1
256944, 256945, 1
256944, 256943, 2
256944, 256942, 2
256944, 256941, 2
256922, 256923, 1
256922, 256921, 2
256941, 256945, 2
256941, 256943, 1
256941, 256944, 2
256941, 256940, 2
256941, 256942, 3
256926, 256925, 2
256926, 256928, 1
256926, 256927, 3
256909, 256911, 2
256909, 256910, 1
256909, 256907, 2
256909, 256908, 2
256924, 256925, 2
256924, 256923, 2
256930, 256931, 2
256930, 256929, 2
256920, 256921, 2
256920, 256919, 2
256920, 256917, 2
256945, 256943, 2
256945, 256944, 2
256945, 256942, 2
256945, 256941, 2
256929, 256931, 1
256929, 256928, 2
256929, 256930, 3
256914, 256912, 2
256914, 256913, 2
256914, 256915, 1
256917, 256916, 2
256917, 256920, 2
256917, 256912, 2
256917, 256921, 1
256917, 256918, 3
256917, 256919, 2
256910, 256911, 2
256910, 256909, 2
256910, 256907, 2
256913, 256911, 2
256913, 256914, 1
256913, 256912, 2
256933, 256936, 2
256933, 256937, 2
256933, 256934, 1
256933, 256932, 2
256931, 256929, 2
256931, 256930, 2
256931, 256932, 1
256925, 256923, 2
256925, 256924, 2
256925, 256926, 1
256911, 256912, 1
256911, 256910, 2
256911, 256909, 2
256911, 256907, 2
256911, 256913, 2
256911, 256908, 2
256932, 256933, 1
256932, 256931, 2
256912, 256916, 1
256912, 256911, 2
256912, 256915, 2
256912, 256917, 2
256912, 256914, 2
256912, 256913, 3
256915, 256916, 2
256915, 256914, 2
256915, 256912, 2
256935, 256936, 2
256935, 256937, 2
256935, 256934, 2
256935, 256938, 2
256940, 256939, 2
256940, 256942, 2
256940, 256941, 1
256936, 256933, 2
256936, 256937, 1
256936, 256934, 2
256936, 256938, 2
256936, 256935, 2
256907, 256911, 1
256907, 256909, 2
256907, 256910, 2
256907, 256908, 3
256943, 256945, 2
256943, 256944, 1
256943, 256942, 2
256943, 256941, 2
256919, 256920, 1
256919, 256918, 2
256919, 256921, 2
256919, 256917, 2
256938, 256936, 2
256938, 256937, 2
256938, 256935, 2
256938, 256934, 2
256938, 256939, 1
