121890, 121889, 2
121890, 121887, 2
121890, 121891, 2
121890, 121888, 2
121878, 121879, 1
121878, 121876, 2
121878, 121877, 2
121878, 121874, 2
121874, 121878, 2
121874, 121875, 1
121877, 121878, 1
121877, 121876, 2
121882, 121881, 2
121882, 121883, 1
121882, 121884, 2
121881, 121880, 2
121881, 121882, 1
121880, 121879, 2
121880, 121881, 1
121875, 121874, 2
121875, 121876, 1
121883, 121882, 2
121883, 121884, 1
121889, 121890, 3
121889, 121888, 2
121889, 121891, 1
121892, 121893, 1
121892, 121891, 2
121876, 121878, 2
121876, 121877, 1
121876, 121875, 2
121891, 121890, 2
121891, 121889, 2
121891, 121888, 2
121891, 121887, 2
121891, 121892, 1
121884, 121883, 2
121884, 121882, 2
121884, 121885, 1
121887, 121890, 2
121887, 121891, 2
121887, 121888, 2
121887, 121886, 2
121885, 121886, 1
121885, 121884, 2
121893, 121892, 2
121879, 121880, 1
121879, 121878, 2
121886, 121887, 3
121886, 121888, 1
121886, 121885, 2
121888, 121890, 2
121888, 121889, 1
121888, 121891, 2
121888, 121886, 2
121888, 121887, 2
