160925, 160926, 1
160925, 160924, 2
160922, 160923, 1
160922, 160920, 2
160922, 160921, 2
160928, 160929, 1
160928, 160927, 2
160926, 160925, 2
160926, 160927, 1
160929, 160928, 2
160927, 160926, 2
160927, 160928, 1
160920, 160922, 2
160920, 160923, 2
160920, 160921, 1
160923, 160922, 2
160923, 160920, 2
160923, 160924, 1
160924, 160925, 1
160924, 160923, 2
160921, 160922, 1
160921, 160920, 2
