258011, 258013, 2
258011, 258012, 1
258011, 258014, 2
258012, 258011, 2
258012, 258015, 2
258012, 258014, 2
258012, 258013, 1
258015, 258013, 2
258015, 258012, 2
258015, 258014, 2
258014, 258013, 2
258014, 258012, 2
258014, 258011, 2
258014, 258015, 1
258013, 258015, 2
258013, 258012, 2
258013, 258014, 1
258013, 258011, 2
