133406, 133408, 2
133406, 133405, 2
133406, 133370, 2
133406, 133402, 2
133406, 133407, 1
133364, 133366, 2
133364, 133371, 2
133364, 133363, 2
133364, 133362, 2
133372, 133374, 1
133372, 133373, 3
133372, 133371, 2
133372, 133370, 2
133405, 133408, 2
133405, 133406, 1
133405, 133402, 2
133405, 133404, 2
133405, 133370, 2
133405, 133403, 2
133415, 133414, 2
133415, 133397, 2
133415, 133413, 2
133415, 133416, 0
133380, 133367, 2
133380, 133381, 2
133380, 133387, 2
133380, 133384, 2
133380, 133370, 2
133380, 133379, 2
133380, 133382, 2
133380, 133391, 2
133380, 133392, 2
133367, 133368, 2
133367, 133377, 2
133367, 133361, 2
133367, 133371, 2
133367, 133362, 2
133367, 133365, 2
133367, 133370, 2
133367, 133380, 2
133367, 133356, 2
133367, 133369, 2
133388, 133370, 2
133388, 133387, 2
133388, 133391, 1
133386, 133383, 2
133386, 133385, 2
133386, 133387, 1
133386, 133384, 2
133386, 133370, 2
133408, 133406, 2
133408, 133402, 2
133408, 133411, 2
133408, 133412, 2
133408, 133405, 2
133408, 133414, 2
133408, 133409, 2
133408, 133407, 2
133408, 133403, 2
133408, 133370, 2
133411, 133408, 2
133411, 133409, 2
133411, 133370, 2
133411, 133412, 1
133411, 133410, 2
133387, 133383, 2
133387, 133384, 2
133387, 133370, 2
133387, 133380, 2
133387, 133386, 2
133387, 133388, 1
133387, 133392, 2
133400, 133396, 2
133400, 133402, 2
133400, 133370, 2
133400, 133399, 2
133400, 133401, 1
133400, 133392, 2
133414, 133408, 2
133414, 133413, 2
133414, 133402, 2
133414, 133412, 2
133414, 133370, 2
133414, 133415, 1
133414, 133409, 2
133414, 133407, 2
133414, 133362, 2
133414, 133397, 2
133414, 133416, 2
133389, 133357, 2
133389, 133393, 2
133389, 133390, 1
133389, 133363, 2
133389, 133362, 2
133389, 133366, 2
133389, 133370, 2
133389, 133369, 2
133389, 133359, 2
133355, 133356, 1
133392, 133396, 2
133392, 133409, 2
133392, 133412, 2
133392, 133384, 2
133392, 133413, 2
133392, 133380, 2
133392, 133382, 2
133392, 133394, 2
133392, 133399, 2
133392, 133387, 2
133392, 133400, 2
133392, 133407, 2
133392, 133403, 2
133392, 133370, 2
133392, 133391, 2
133358, 133357, 2
133358, 133361, 2
133358, 133362, 2
133358, 133370, 2
133358, 133356, 2
133358, 133359, 2
133363, 133357, 2
133363, 133364, 8
133363, 133389, 2
133363, 133370, 2
133363, 133366, 1
133363, 133362, 2
133363, 133356, 2
133363, 133360, 2
133363, 133359, 2
133382, 133383, 3
133382, 133381, 2
133382, 133384, 1
133382, 133370, 2
133382, 133380, 2
133382, 133392, 2
133379, 133362, 2
133379, 133383, 2
133379, 133381, 1
133379, 133370, 2
133379, 133378, 2
133379, 133380, 0
133356, 133367, 2
133356, 133358, 2
133356, 133371, 2
133356, 133363, 2
133356, 133362, 1
133356, 133366, 2
133356, 133359, 2
133356, 133357, 3
133356, 133355, 2
133356, 133361, 2
133356, 133365, 2
133356, 133360, 2
133368, 133367, 2
133368, 133371, 2
133368, 133370, 2
133368, 133366, 2
133368, 133362, 2
133368, 133369, 1
133394, 133396, 1
133394, 133370, 2
133394, 133391, 2
133394, 133392, 2
133371, 133364, 2
133371, 133372, 1
133371, 133362, 2
133371, 133366, 2
133371, 133374, 2
133371, 133367, 2
133371, 133356, 2
133371, 133368, 2
133371, 133361, 2
133371, 133365, 2
133371, 133370, 2
133371, 133373, 2
133371, 133369, 2
133407, 133408, 3
133407, 133406, 2
133407, 133370, 2
133407, 133414, 2
133407, 133409, 1
133407, 133392, 2
133399, 133396, 2
133399, 133398, 2
133399, 133370, 2
133399, 133400, 1
133399, 133392, 2
133397, 133393, 2
133397, 133370, 2
133397, 133414, 2
133397, 133415, 2
133397, 133395, 2
133397, 133369, 2
133376, 133375, 2
133376, 133377, 1
133376, 133374, 2
133376, 133373, 2
133376, 133370, 2
133416, 133414, 2
133416, 133415, 2
133416, 133413, 2
133416, 133370, 2
133396, 133398, 1
133396, 133400, 2
133396, 133370, 2
133396, 133399, 2
133396, 133392, 2
133396, 133394, 2
133396, 133391, 2
133381, 133383, 2
133381, 133379, 2
133381, 133380, 2
133381, 133382, 1
133381, 133370, 2
133404, 133405, 1
133404, 133403, 2
133404, 133370, 2
133390, 133393, 1
133390, 133389, 2
133390, 133370, 2
133384, 133383, 2
133384, 133387, 2
133384, 133370, 2
133384, 133382, 2
133384, 133380, 2
133384, 133385, 1
133384, 133386, 2
133384, 133392, 2
133378, 133377, 2
133378, 133379, 1
133378, 133370, 2
133409, 133408, 2
133409, 133411, 2
133409, 133412, 2
133409, 133407, 2
133409, 133414, 2
133409, 133410, 1
133409, 133370, 2
133409, 133392, 2
133403, 133408, 2
133403, 133405, 2
133403, 133402, 2
133403, 133404, 1
133403, 133370, 2
133403, 133401, 2
133403, 133392, 2
133374, 133377, 2
133374, 133362, 2
133374, 133371, 2
133374, 133370, 2
133374, 133375, 1
133374, 133372, 2
133374, 133373, 2
133374, 133376, 2
133359, 133357, 2
133359, 133358, 2
133359, 133361, 2
133359, 133363, 2
133359, 133370, 2
133359, 133362, 2
133359, 133389, 2
133359, 133360, 1
133359, 133356, 2
133357, 133389, 2
133357, 133358, 3
133357, 133361, 2
133357, 133363, 2
133357, 133362, 2
133357, 133366, 2
133357, 133370, 2
133357, 133356, 2
133357, 133369, 2
133357, 133359, 2
133402, 133408, 2
133402, 133405, 2
133402, 133400, 2
133402, 133370, 2
133402, 133414, 2
133402, 133403, 2
133402, 133401, 2
133402, 133406, 2
133361, 133357, 2
133361, 133367, 1
133361, 133358, 2
133361, 133371, 2
133361, 133362, 2
133361, 133365, 8
133361, 133356, 2
133361, 133360, 2
133361, 133359, 2
133370, 133406, 2
133370, 133367, 2
133370, 133372, 2
133370, 133405, 2
133370, 133366, 2
133370, 133380, 2
133370, 133388, 2
133370, 133408, 2
133370, 133411, 2
133370, 133387, 2
133370, 133400, 2
133370, 133414, 1
133370, 133389, 4
133370, 133392, 2
133370, 133358, 2
133370, 133363, 2
133370, 133382, 2
133370, 133379, 2
133370, 133386, 2
133370, 133368, 2
133370, 133394, 2
133370, 133371, 6
133370, 133407, 2
133370, 133399, 2
133370, 133397, 2
133370, 133376, 2
133370, 133416, 2
133370, 133396, 2
133370, 133381, 2
133370, 133404, 2
133370, 133390, 2
133370, 133384, 2
133370, 133378, 2
133370, 133409, 2
133370, 133403, 2
133370, 133374, 2
133370, 133359, 2
133370, 133357, 2
133370, 133402, 2
133370, 133401, 2
133370, 133373, 2
133370, 133395, 2
133370, 133377, 2
133370, 133398, 2
133370, 133412, 2
133370, 133362, 2
133370, 133375, 2
133370, 133413, 2
133370, 133385, 2
133370, 133410, 2
133370, 133383, 2
133370, 133393, 2
133370, 133365, 2
133370, 133391, 2
133370, 133369, 2
133401, 133403, 1
133401, 133402, 3
133401, 133400, 2
133401, 133370, 2
133373, 133383, 2
133373, 133377, 2
133373, 133371, 2
133373, 133370, 2
133373, 133372, 2
133373, 133374, 2
133373, 133362, 2
133373, 133376, 2
133395, 133397, 1
133395, 133393, 2
133395, 133370, 2
133360, 133361, 2
133360, 133362, 2
133360, 133356, 2
133360, 133363, 1
133360, 133359, 2
133366, 133368, 1
133366, 133357, 2
133366, 133364, 2
133366, 133371, 2
133366, 133363, 2
133366, 133370, 2
133366, 133362, 2
133366, 133389, 2
133366, 133369, 2
133366, 133356, 2
133377, 133375, 2
133377, 133367, 2
133377, 133373, 2
133377, 133370, 2
133377, 133378, 1
133377, 133374, 2
133377, 133376, 2
133398, 133396, 2
133398, 133399, 1
133398, 133370, 2
133412, 133408, 2
133412, 133411, 2
133412, 133370, 2
133412, 133414, 2
133412, 133409, 2
133412, 133410, 2
133412, 133413, 1
133412, 133392, 2
133362, 133364, 2
133362, 133379, 2
133362, 133358, 2
133362, 133361, 6
133362, 133363, 2
133362, 133383, 2
133362, 133366, 2
133362, 133374, 2
133362, 133356, 2
133362, 133359, 4
133362, 133368, 2
133362, 133357, 2
133362, 133367, 2
133362, 133369, 2
133362, 133371, 2
133362, 133370, 1
133362, 133414, 2
133362, 133365, 2
133362, 133373, 2
133362, 133360, 2
133362, 133389, 2
133375, 133377, 2
133375, 133374, 2
133375, 133376, 1
133375, 133370, 2
133413, 133412, 2
133413, 133370, 2
133413, 133414, 2
133413, 133415, 2
133413, 133392, 2
133413, 133416, 2
133385, 133386, 1
133385, 133384, 2
133385, 133370, 2
133410, 133409, 2
133410, 133411, 1
133410, 133412, 2
133410, 133370, 2
133383, 133373, 2
133383, 133381, 2
133383, 133387, 2
133383, 133384, 2
133383, 133362, 2
133383, 133370, 2
133383, 133379, 2
133383, 133382, 2
133383, 133386, 2
133393, 133390, 2
133393, 133397, 2
133393, 133395, 1
133393, 133389, 2
133393, 133370, 2
133365, 133367, 2
133365, 133371, 2
133365, 133361, 2
133365, 133362, 2
133365, 133370, 2
133365, 133356, 2
133391, 133396, 2
133391, 133394, 1
133391, 133370, 2
133391, 133380, 2
133391, 133388, 2
133391, 133392, 0
133369, 133368, 2
133369, 133357, 2
133369, 133367, 2
133369, 133371, 2
133369, 133370, 2
133369, 133366, 2
133369, 133397, 2
133369, 133362, 2
133369, 133389, 2
