258663, 258661, 2
258663, 258665, 2
258663, 258662, 2
258663, 258664, 1
258665, 258663, 2
258665, 258664, 2
258665, 258662, 2
258662, 258663, 1
258662, 258665, 2
258662, 258664, 2
258662, 258661, 2
258661, 258663, 2
258661, 258664, 2
258661, 258662, 1
258664, 258661, 2
258664, 258663, 2
258664, 258665, 1
258664, 258662, 2
