252270, 252266, 2
252270, 252271, 6
252270, 252269, 2
252270, 252276, 1
252270, 252272, 3
252270, 252267, 2
252270, 252268, 2
252271, 252270, 2
252271, 252277, 2
252271, 252268, 2
252271, 252269, 2
252271, 252265, 2
252271, 252273, 2
252271, 252276, 2
252271, 252272, 2
252271, 252266, 2
252271, 252275, 2
252271, 252267, 2
252273, 252274, 1
252273, 252271, 2
252273, 252272, 2
252273, 252275, 2
252272, 252273, 1
252272, 252270, 2
252272, 252271, 2
252272, 252267, 2
252272, 252269, 2
252266, 252270, 2
252266, 252271, 2
252266, 252276, 2
252266, 252277, 2
252266, 252265, 2
252266, 252268, 2
252266, 252267, 2
252267, 252265, 2
252267, 252271, 2
252267, 252269, 2
252267, 252272, 2
252267, 252266, 2
252267, 252268, 2
252267, 252270, 2
252265, 252266, 6
252265, 252271, 2
252265, 252267, 3
252265, 252268, 1
252268, 252270, 1
252268, 252271, 2
252268, 252269, 8
252268, 252265, 2
252268, 252266, 2
252268, 252267, 2
252269, 252270, 2
252269, 252271, 2
252269, 252272, 2
252269, 252267, 2
252269, 252268, 2
252274, 252273, 2
252274, 252275, 1
252276, 252266, 2
252276, 252271, 2
252276, 252277, 1
252276, 252270, 2
252276, 252275, 2
252277, 252266, 2
252277, 252271, 2
252277, 252276, 2
252277, 252275, 2
252275, 252273, 2
252275, 252271, 2
252275, 252277, 2
252275, 252276, 2
252275, 252274, 2
