216581, 216582, 1
216581, 216585, 2
216581, 216583, 2
216581, 216580, 2
216581, 216579, 2
216578, 216576, 2
216578, 216577, 2
216578, 216579, 1
216578, 216580, 2
216580, 216581, 1
216580, 216578, 2
216580, 216579, 2
216583, 216586, 2
216583, 216584, 2
216583, 216581, 2
216583, 216585, 2
216583, 216582, 2
216584, 216586, 2
216584, 216582, 2
216584, 216585, 2
216584, 216583, 2
216577, 216576, 2
216577, 216578, 1
216576, 216578, 2
216576, 216577, 1
216585, 216581, 2
216585, 216587, 1
216585, 216583, 2
216585, 216582, 2
216585, 216586, 3
216585, 216584, 2
216587, 216586, 2
216587, 216582, 2
216587, 216585, 2
216582, 216584, 8
216582, 216581, 2
216582, 216585, 1
216582, 216587, 2
216582, 216583, 3
216586, 216584, 2
216586, 216585, 2
216586, 216587, 2
216586, 216583, 2
216579, 216581, 2
216579, 216578, 2
216579, 216580, 1
