70135, 70134, 2
70135, 70132, 2
70135, 70133, 2
70131, 70134, 2
70131, 70132, 1
70131, 70133, 2
70134, 70135, 1
70134, 70131, 2
70134, 70132, 2
70134, 70133, 2
70132, 70135, 2
70132, 70131, 2
70132, 70134, 1
70132, 70133, 8
70133, 70134, 2
70133, 70131, 2
70133, 70132, 2
70133, 70135, 2
