301481, 301487, 2
301481, 301484, 2
301481, 301483, 2
301481, 301482, 2
301481, 301485, 2
301484, 301481, 2
301484, 301485, 2
301484, 301483, 2
301484, 301488, 2
301484, 301487, 2
301484, 301482, 2
301484, 301486, 2
301483, 301481, 2
301483, 301484, 2
301483, 301482, 2
301483, 301485, 1
301488, 301485, 2
301488, 301487, 6
301488, 301484, 2
301488, 301486, 2
301487, 301481, 2
301487, 301484, 2
301487, 301485, 2
301487, 301486, 2
301487, 301488, 2
301482, 301481, 6
301482, 301484, 2
301482, 301483, 1
301485, 301481, 2
301485, 301484, 6
301485, 301483, 2
301485, 301488, 2
301485, 301487, 2
301485, 301486, 1
301486, 301485, 2
301486, 301487, 2
301486, 301484, 2
301486, 301488, 1
