300553, 300554, 1
300557, 300556, 2
300557, 300558, 1
300557, 300555, 2
300557, 300554, 2
300555, 300556, 8
300555, 300557, 1
300555, 300558, 2
300555, 300554, 2
300554, 300553, 2
300554, 300556, 2
300554, 300557, 2
300554, 300555, 1
300556, 300557, 2
300556, 300555, 2
300556, 300558, 2
300556, 300554, 2
300558, 300556, 2
300558, 300557, 2
300558, 300555, 2
