132153, 132155, 2
132153, 132150, 2
132153, 132148, 2
132153, 132154, 1
132153, 132151, 2
132153, 132156, 2
132188, 132187, 2
132188, 132185, 2
132188, 132189, 1
132169, 132168, 2
132169, 132167, 2
132169, 132170, 1
132177, 132179, 2
132177, 132178, 1
132177, 132172, 2
132177, 132173, 2
132177, 132152, 2
132177, 132180, 2
132177, 132160, 2
132177, 132175, 2
132177, 132176, 2
132177, 132182, 2
132177, 132184, 2
132191, 132190, 2
132191, 132193, 1
132191, 132192, 8
132146, 132145, 2
132146, 132156, 2
132146, 132144, 2
132146, 132148, 2
132146, 132152, 2
132146, 132149, 2
132146, 132147, 1
132162, 132163, 1
132162, 132160, 2
132162, 132165, 2
132162, 132164, 2
132162, 132161, 2
132158, 132155, 2
132158, 132161, 2
132158, 132157, 2
132158, 132156, 2
132158, 132159, 1
132183, 132187, 2
132183, 132179, 2
132183, 132185, 2
132183, 132181, 2
132183, 132195, 2
132183, 132194, 2
132183, 132190, 2
132183, 132189, 2
132183, 132186, 2
132183, 132184, 2
132174, 132172, 2
132174, 132173, 2
132174, 132175, 1
132193, 132191, 2
132193, 132192, 2
132193, 132190, 2
132193, 132182, 2
132193, 132194, 1
132151, 132153, 1
132151, 132150, 2
132151, 132148, 2
132151, 132144, 2
132157, 132148, 2
132157, 132159, 2
132157, 132144, 2
132157, 132161, 2
132157, 132158, 1
132157, 132156, 2
132157, 132152, 2
132173, 132172, 2
132173, 132174, 1
132173, 132175, 2
132173, 132177, 2
132187, 132183, 2
132187, 132188, 1
132187, 132186, 2
132187, 132189, 2
132155, 132153, 2
132155, 132161, 2
132155, 132148, 2
132155, 132164, 2
132155, 132159, 2
132155, 132160, 2
132155, 132176, 2
132155, 132158, 2
132155, 132156, 2
132155, 132154, 2
132155, 132144, 2
132155, 132165, 2
132155, 132175, 2
132144, 132155, 2
132144, 132150, 2
132144, 132148, 1
132144, 132145, 3
132144, 132152, 2
132144, 132146, 0
132144, 132156, 2
132144, 132151, 2
132144, 132157, 2
132144, 132149, 2
132144, 132147, 2
132159, 132155, 2
132159, 132160, 1
132159, 132161, 2
132159, 132157, 2
132159, 132158, 2
132159, 132156, 2
132160, 132175, 2
132160, 132161, 2
132160, 132170, 2
132160, 132177, 2
132160, 132159, 2
132160, 132162, 2
132160, 132163, 2
132160, 132156, 2
132160, 132155, 2
132160, 132164, 2
132160, 132172, 2
132160, 132171, 2
132163, 132162, 2
132163, 132164, 1
132163, 132160, 2
132196, 132197, 1
132196, 132195, 2
132145, 132150, 2
132145, 132148, 2
132145, 132144, 2
132145, 132146, 2
132145, 132149, 2
132145, 132147, 2
132197, 132196, 2
132197, 132198, 1
132197, 132182, 2
132197, 132195, 2
132194, 132183, 2
132194, 132182, 2
132194, 132195, 1
132194, 132193, 2
132194, 132192, 2
132167, 132166, 2
132167, 132168, 8
132167, 132169, 1
132167, 132170, 2
132171, 132160, 2
132171, 132172, 1
132171, 132170, 2
132198, 132197, 2
132190, 132191, 1
132190, 132183, 2
132190, 132192, 2
132190, 132193, 2
132190, 132189, 2
132149, 132150, 1
132149, 132145, 2
132149, 132144, 2
132149, 132146, 2
132149, 132148, 2
132149, 132147, 2
132189, 132187, 2
132189, 132183, 2
132189, 132188, 2
132189, 132185, 2
132189, 132190, 1
132189, 132186, 2
132166, 132168, 2
132166, 132167, 1
132166, 132165, 2
132166, 132164, 2
132150, 132153, 2
132150, 132148, 2
132150, 132144, 2
132150, 132145, 2
132150, 132151, 1
132150, 132149, 2
132164, 132166, 1
132164, 132155, 2
132164, 132163, 2
132164, 132162, 2
132164, 132165, 3
132164, 132160, 2
132164, 132161, 2
132156, 132155, 2
132156, 132153, 2
132156, 132148, 2
132156, 132159, 2
132156, 132144, 2
132156, 132146, 2
132156, 132160, 2
132156, 132161, 1
132156, 132157, 0
132156, 132158, 2
132156, 132152, 2
132186, 132187, 1
132186, 132183, 2
132186, 132185, 2
132186, 132181, 2
132186, 132175, 2
132186, 132179, 2
132186, 132189, 2
132186, 132182, 2
132186, 132184, 2
132179, 132183, 2
132179, 132178, 2
132179, 132185, 2
132179, 132181, 2
132179, 132175, 2
132179, 132177, 2
132179, 132176, 2
132179, 132180, 4
132179, 132186, 2
132179, 132182, 6
132179, 132184, 1
132185, 132183, 2
132185, 132188, 2
132185, 132175, 2
132185, 132179, 2
132185, 132189, 2
132185, 132186, 2
132185, 132182, 2
132185, 132184, 2
132182, 132185, 2
132182, 132175, 2
132182, 132177, 2
132182, 132176, 2
132182, 132186, 2
132182, 132179, 2
132182, 132178, 2
132182, 132197, 2
132182, 132195, 2
132182, 132194, 2
132182, 132193, 2
132182, 132184, 2
132195, 132183, 2
132195, 132196, 1
132195, 132197, 2
132195, 132182, 2
132195, 132194, 2
132161, 132155, 2
132161, 132164, 2
132161, 132159, 2
132161, 132162, 1
132161, 132157, 2
132161, 132158, 2
132161, 132156, 2
132161, 132160, 2
132184, 132183, 2
132184, 132178, 2
132184, 132185, 0
132184, 132181, 2
132184, 132175, 2
132184, 132177, 2
132184, 132179, 2
132184, 132180, 2
132184, 132186, 1
132184, 132182, 2
132192, 132191, 2
132192, 132190, 2
132192, 132193, 2
132192, 132194, 2
132172, 132174, 2
132172, 132173, 1
132172, 132177, 2
132172, 132160, 2
132172, 132175, 2
132172, 132171, 2
132148, 132153, 2
132148, 132150, 2
132148, 132152, 6
132148, 132146, 2
132148, 132156, 1
132148, 132155, 2
132148, 132145, 2
132148, 132154, 2
132148, 132144, 2
132148, 132151, 2
132148, 132157, 2
132148, 132149, 4
132148, 132147, 2
132175, 132185, 2
132175, 132173, 2
132175, 132177, 0
132175, 132160, 2
132175, 132176, 3
132175, 132186, 2
132175, 132182, 2
132175, 132155, 2
132175, 132179, 1
132175, 132178, 2
132175, 132174, 2
132175, 132172, 2
132175, 132180, 2
132175, 132184, 2
132176, 132155, 2
132176, 132179, 2
132176, 132178, 2
132176, 132181, 2
132176, 132175, 2
132176, 132177, 2
132176, 132180, 2
132176, 132182, 2
132154, 132155, 1
132154, 132153, 2
132154, 132148, 2
132178, 132179, 2
132178, 132175, 2
132178, 132177, 2
132178, 132180, 2
132178, 132176, 2
132178, 132182, 2
132178, 132184, 2
132168, 132166, 2
132168, 132167, 2
132168, 132165, 2
132168, 132169, 2
132168, 132170, 2
132165, 132166, 2
132165, 132155, 2
132165, 132162, 2
132165, 132164, 2
132165, 132168, 2
132181, 132183, 1
132181, 132179, 2
132181, 132180, 2
132181, 132176, 2
132181, 132186, 2
132181, 132184, 2
132152, 132148, 2
132152, 132177, 2
132152, 132144, 2
132152, 132146, 2
132152, 132157, 2
132152, 132156, 2
132152, 132147, 2
132180, 132179, 2
132180, 132178, 2
132180, 132181, 1
132180, 132175, 2
132180, 132177, 2
132180, 132176, 2
132180, 132184, 2
132170, 132168, 2
132170, 132160, 2
132170, 132171, 1
132170, 132169, 2
132170, 132167, 2
132147, 132145, 2
132147, 132144, 2
132147, 132146, 2
132147, 132148, 2
132147, 132149, 2
132147, 132152, 2
