118140, 118139, 2
118140, 118137, 2
118140, 118142, 2
118140, 118141, 2
118140, 118143, 2
118137, 118140, 2
118137, 118139, 2
118137, 118136, 2
118137, 118138, 1
118135, 118136, 1
118135, 118134, 2
118136, 118137, 1
118136, 118135, 2
118134, 118135, 1
118143, 118140, 2
118143, 118142, 2
118141, 118140, 2
118141, 118139, 2
118141, 118142, 1
118139, 118140, 3
118139, 118137, 2
118139, 118138, 2
118139, 118141, 1
118139, 118142, 2
118142, 118140, 2
118142, 118139, 2
118142, 118141, 2
118142, 118143, 3
118138, 118137, 2
118138, 118139, 1
