333160, 333159, 2
333160, 333161, 1
333160, 333158, 2
333168, 333167, 2
333168, 333166, 2
333159, 333160, 2
333159, 333158, 2
333162, 333161, 2
333162, 333164, 1
333162, 333163, 3
333163, 333162, 2
333163, 333164, 2
333167, 333166, 2
333167, 333168, 2
333158, 333160, 1
333158, 333159, 3
333165, 333166, 1
333165, 333164, 2
333161, 333160, 2
333161, 333162, 1
333164, 333165, 1
333164, 333162, 2
333164, 333163, 2
333166, 333167, 0
333166, 333168, 3
333166, 333165, 2
