301003, 301002, 2
301003, 301004, 1
301003, 301001, 2
300999, 301000, 2
300999, 301001, 2
300999, 300998, 2
300998, 301001, 2
300998, 301000, 1
300998, 300999, 8
301002, 301000, 2
301002, 301003, 1
301002, 301001, 2
301000, 301002, 1
301000, 301004, 2
301000, 301001, 8
301000, 300999, 2
301000, 300998, 2
301004, 301000, 2
301004, 301003, 2
301001, 301002, 2
301001, 301000, 2
301001, 301003, 2
301001, 300999, 2
301001, 300998, 2
