339387, 339388, 0
339387, 339385, 2
339387, 339386, 2
339386, 339387, 1
339386, 339385, 2
339389, 339388, 2
339389, 339390, 1
339388, 339387, 2
339388, 339385, 2
339388, 339389, 1
339385, 339388, 2
339385, 339387, 2
339385, 339386, 1
339390, 339389, 2
