120332, 120334, 2
120332, 120337, 2
120332, 120335, 2
120332, 120338, 2
120332, 120331, 2
120332, 120333, 2
120332, 120329, 2
120328, 120327, 2
120328, 120329, 1
120334, 120332, 2
120334, 120331, 2
120334, 120336, 2
120334, 120333, 2
120334, 120335, 1
120327, 120328, 1
120327, 120325, 2
120327, 120329, 2
120327, 120326, 2
120333, 120332, 2
120333, 120334, 1
120333, 120330, 2
120333, 120331, 2
120333, 120329, 2
120333, 120336, 2
120335, 120332, 2
120335, 120331, 2
120335, 120334, 2
120335, 120336, 0
120335, 120337, 1
120324, 120325, 1
120329, 120332, 2
120329, 120328, 2
120329, 120327, 2
120329, 120330, 3
120329, 120333, 1
120329, 120331, 2
120329, 120336, 2
120336, 120334, 2
120336, 120337, 2
120336, 120335, 2
120336, 120338, 2
120336, 120339, 2
120336, 120333, 2
120336, 120329, 2
120325, 120326, 1
120325, 120327, 2
120325, 120324, 2
120337, 120332, 2
120337, 120335, 2
120337, 120338, 1
120337, 120331, 2
120337, 120339, 2
120337, 120336, 2
120330, 120333, 2
120330, 120331, 1
120330, 120329, 2
120338, 120332, 2
120338, 120331, 2
120338, 120339, 0
120338, 120336, 2
120338, 120337, 2
120339, 120338, 2
120339, 120336, 2
120339, 120337, 2
120331, 120332, 3
120331, 120334, 2
120331, 120337, 2
120331, 120330, 2
120331, 120338, 2
120331, 120335, 2
120331, 120333, 2
120331, 120329, 2
120326, 120325, 2
120326, 120327, 1
