71119, 71118, 2
71119, 71121, 2
71119, 71120, 2
71121, 71118, 2
71121, 71119, 2
71121, 71120, 2
71121, 71122, 3
71121, 71123, 0
71118, 71121, 2
71118, 71119, 0
71118, 71120, 1
71118, 71122, 2
71120, 71118, 2
71120, 71119, 2
71120, 71121, 1
71122, 71121, 2
71122, 71118, 2
71122, 71123, 2
71123, 71121, 2
71123, 71122, 2
