22080, 22081, 3
22080, 22079, 2
22075, 22074, 2
22075, 22076, 2
22081, 22080, 2
22074, 22075, 3
22074, 22076, 1
22076, 22075, 2
22076, 22074, 2
22076, 22077, 1
22079, 22080, 1
22079, 22078, 2
22079, 22077, 2
22078, 22077, 2
22078, 22079, 2
22077, 22078, 3
22077, 22076, 2
22077, 22079, 1
