300478, 300479, 3
300478, 300477, 2
300478, 300475, 2
300478, 300476, 2
300479, 300478, 2
300479, 300477, 2
300479, 300476, 2
300477, 300478, 1
300477, 300479, 2
300477, 300475, 2
300477, 300476, 2
300475, 300478, 2
300475, 300477, 1
300475, 300476, 3
300476, 300478, 2
300476, 300479, 2
300476, 300477, 2
300476, 300475, 2
