134942, 134944, 2
134942, 134943, 1
134942, 134941, 2
134948, 134947, 2
134948, 134946, 2
134948, 134944, 2
134943, 134942, 2
134943, 134945, 1
134943, 134944, 3
134943, 134941, 2
134945, 134943, 2
134945, 134946, 1
134945, 134944, 2
134947, 134948, 1
134947, 134946, 2
134947, 134944, 2
134944, 134942, 2
134944, 134943, 2
134944, 134945, 2
134944, 134947, 2
134944, 134948, 2
134944, 134946, 2
134944, 134941, 2
134946, 134945, 2
134946, 134947, 3
134946, 134948, 2
134946, 134944, 2
134941, 134942, 1
134941, 134943, 2
134941, 134944, 2
