73015, 73011, 2
73015, 73013, 2
73015, 73012, 2
73015, 73014, 2
73015, 73010, 2
73015, 73016, 2
73015, 73017, 2
73011, 73015, 2
73011, 73013, 8
73011, 73010, 2
73011, 73012, 0
73011, 73016, 2
73011, 73014, 1
73013, 73015, 2
73013, 73011, 2
73013, 73010, 2
73013, 73017, 2
73013, 73012, 2
73013, 73014, 2
73010, 73015, 2
73010, 73011, 1
73010, 73013, 2
73010, 73012, 2
73010, 73014, 2
73017, 73015, 2
73017, 73013, 2
73017, 73016, 2
73017, 73014, 2
73012, 73015, 2
73012, 73011, 2
73012, 73013, 2
73012, 73010, 2
73012, 73016, 2
73012, 73014, 2
73016, 73015, 2
73016, 73011, 2
73016, 73012, 2
73016, 73017, 2
73016, 73014, 2
73014, 73015, 6
73014, 73011, 2
73014, 73013, 2
73014, 73012, 2
73014, 73010, 2
73014, 73016, 0
73014, 73017, 1
