71312, 71313, 1
71312, 71310, 2
71312, 71311, 2
71311, 71313, 2
71311, 71312, 2
71311, 71310, 2
71313, 71314, 1
71313, 71312, 2
71313, 71310, 2
71313, 71311, 2
71314, 71313, 2
71314, 71315, 0
71315, 71314, 2
71310, 71313, 2
71310, 71312, 1
71310, 71311, 0
