196932, 196929, 2
196932, 196933, 1
196932, 196931, 2
196932, 196930, 2
196929, 196932, 2
196929, 196930, 1
196929, 196931, 2
196930, 196932, 1
196930, 196929, 2
196930, 196933, 2
196930, 196931, 8
196931, 196932, 2
196931, 196929, 2
196931, 196930, 2
196931, 196933, 2
196933, 196932, 2
196933, 196930, 2
196933, 196931, 2
