196915, 196916, 1
196915, 196914, 2
196916, 196915, 2
196916, 196914, 2
196916, 196918, 2
196916, 196917, 1
196914, 196915, 1
196914, 196916, 2
196918, 196917, 2
196918, 196916, 2
196917, 196916, 2
196917, 196918, 1
