72978, 72977, 2
72978, 72979, 1
72975, 72974, 2
72975, 72976, 1
72977, 72978, 1
72977, 72976, 2
72977, 72979, 2
72974, 72975, 1
72981, 72980, 2
72981, 72982, 1
72976, 72975, 2
72976, 72977, 1
72980, 72981, 1
72980, 72979, 2
72982, 72981, 2
72979, 72978, 2
72979, 72980, 1
72979, 72977, 2
