222422, 222423, 1
222422, 222424, 2
222422, 222420, 2
222422, 222426, 2
222422, 222425, 2
222422, 222421, 2
222423, 222422, 2
222423, 222425, 1
222423, 222424, 2
222424, 222422, 2
222424, 222423, 2
222424, 222420, 2
222424, 222426, 2
222424, 222428, 2
222424, 222425, 2
222424, 222427, 2
222420, 222422, 2
222420, 222424, 2
222420, 222421, 1
222426, 222422, 2
222426, 222428, 2
222426, 222424, 2
222426, 222427, 2
222426, 222425, 2
222425, 222422, 2
222425, 222423, 2
222425, 222424, 6
222425, 222427, 1
222425, 222426, 3
222428, 222424, 2
222428, 222427, 2
222428, 222426, 2
222427, 222425, 2
222427, 222428, 3
222427, 222424, 2
222427, 222426, 2
222421, 222422, 1
222421, 222420, 2
