161362, 161363, 1
161362, 161361, 2
161362, 161366, 2
161362, 161364, 2
161365, 161366, 2
161365, 161368, 2
161365, 161364, 2
161361, 161362, 1
161361, 161364, 3
161364, 161362, 2
161364, 161365, 3
161364, 161366, 2
161364, 161361, 2
161364, 161363, 2
161371, 161370, 2
161363, 161362, 2
161363, 161366, 1
161363, 161364, 2
161368, 161365, 2
161368, 161366, 2
161368, 161369, 1
161368, 161367, 2
161366, 161365, 2
161366, 161362, 2
161366, 161364, 2
161366, 161363, 2
161366, 161368, 2
161366, 161367, 1
161367, 161366, 2
161367, 161368, 1
161370, 161369, 2
161370, 161371, 1
161369, 161370, 1
161369, 161368, 2
