66754, 66755, 1
66754, 66753, 2
66746, 66745, 2
66746, 66747, 1
66736, 66738, 1
66736, 66737, 6
66743, 66744, 3
66743, 66742, 2
66743, 66745, 1
66737, 66759, 2
66737, 66757, 2
66737, 66742, 2
66737, 66753, 2
66737, 66738, 2
66737, 66761, 2
66737, 66736, 2
66737, 66745, 2
66737, 66740, 2
66737, 66747, 2
66756, 66755, 2
66756, 66757, 1
66761, 66760, 2
66761, 66737, 2
66742, 66743, 1
66742, 66741, 2
66742, 66745, 2
66742, 66740, 2
66742, 66737, 2
66750, 66751, 2
66750, 66747, 2
66750, 66749, 2
66750, 66748, 2
66749, 66751, 2
66749, 66750, 1
66749, 66747, 2
66749, 66748, 2
66757, 66756, 2
66757, 66758, 1
66757, 66737, 2
66753, 66751, 2
66753, 66747, 2
66753, 66754, 1
66753, 66752, 2
66753, 66737, 2
66748, 66751, 2
66748, 66750, 2
66748, 66749, 1
66748, 66747, 2
66751, 66750, 2
66751, 66747, 2
66751, 66749, 2
66751, 66752, 3
66751, 66753, 1
66751, 66748, 2
66755, 66756, 1
66755, 66754, 2
66738, 66739, 1
66738, 66736, 2
66738, 66737, 2
66752, 66751, 2
66752, 66753, 2
66760, 66761, 1
66760, 66759, 2
66741, 66742, 1
66741, 66740, 2
66740, 66741, 1
66740, 66739, 2
66740, 66742, 2
66740, 66737, 2
66758, 66759, 1
66758, 66757, 2
66759, 66760, 1
66759, 66758, 2
66759, 66737, 2
66744, 66743, 2
66744, 66745, 2
66739, 66738, 2
66739, 66740, 1
66745, 66744, 2
66745, 66737, 2
66745, 66742, 2
66745, 66743, 2
66745, 66746, 1
66747, 66751, 1
66747, 66748, 8
66747, 66746, 2
66747, 66750, 2
66747, 66749, 2
66747, 66753, 2
66747, 66737, 2
