340567, 340566, 2
340567, 340568, 0
340567, 340569, 2
340567, 340570, 2
340563, 340566, 2
340563, 340565, 1
340563, 340564, 0
340565, 340563, 2
340565, 340566, 1
340565, 340564, 2
340569, 340567, 2
340569, 340568, 2
340569, 340570, 1
340570, 340567, 2
340570, 340568, 2
340570, 340569, 2
340568, 340567, 2
340568, 340569, 1
340568, 340570, 2
340566, 340567, 1
340566, 340563, 2
340566, 340565, 2
340566, 340564, 2
340564, 340563, 2
340564, 340565, 2
340564, 340566, 2
