170109, 170111, 1
170109, 170110, 0
170109, 170108, 2
170106, 170107, 1
170107, 170106, 2
170107, 170108, 1
170110, 170111, 2
170110, 170109, 2
170111, 170109, 2
170111, 170110, 2
170108, 170107, 2
170108, 170109, 1
