162258, 162265, 2
162258, 162256, 2
162258, 162259, 1
162258, 162260, 2
162258, 162257, 2
162258, 162262, 2
162258, 162263, 2
162258, 162261, 2
162265, 162258, 2
162265, 162260, 2
162265, 162268, 2
162265, 162256, 2
162265, 162259, 2
162265, 162270, 2
162265, 162267, 2
162265, 162263, 2
162265, 162271, 2
162265, 162261, 2
162265, 162269, 2
162265, 162262, 2
162265, 162264, 2
162265, 162266, 1
162268, 162265, 2
162268, 162271, 1
162268, 162270, 4
162268, 162269, 6
162268, 162267, 2
162268, 162266, 2
162256, 162258, 1
162256, 162265, 2
162256, 162257, 3
162256, 162261, 2
162256, 162260, 2
162259, 162258, 2
162259, 162265, 2
162259, 162261, 6
162259, 162257, 2
162259, 162262, 1
162259, 162260, 4
162260, 162258, 2
162260, 162265, 2
162260, 162256, 2
162260, 162259, 2
162260, 162257, 2
162260, 162262, 2
162260, 162264, 2
162260, 162263, 2
162257, 162258, 2
162257, 162256, 2
162257, 162259, 2
162257, 162261, 2
162257, 162262, 2
162257, 162260, 2
162270, 162265, 2
162270, 162268, 2
162270, 162271, 2
162270, 162267, 2
162270, 162266, 2
162267, 162265, 2
162267, 162271, 2
162267, 162270, 2
162267, 162269, 2
162267, 162268, 2
162267, 162266, 2
162263, 162258, 2
162263, 162265, 2
162263, 162261, 2
162263, 162262, 2
162263, 162264, 1
162263, 162260, 2
162271, 162265, 2
162271, 162270, 2
162271, 162269, 2
162271, 162268, 2
162271, 162267, 2
162271, 162266, 2
162261, 162258, 2
162261, 162265, 2
162261, 162256, 2
162261, 162259, 2
162261, 162257, 2
162261, 162262, 2
162261, 162263, 2
162269, 162265, 2
162269, 162268, 2
162269, 162271, 2
162269, 162267, 2
162269, 162266, 2
162262, 162258, 2
162262, 162265, 2
162262, 162261, 2
162262, 162259, 2
162262, 162257, 2
162262, 162263, 1
162262, 162260, 2
162264, 162265, 1
162264, 162263, 2
162264, 162260, 2
162266, 162265, 2
162266, 162271, 2
162266, 162270, 2
162266, 162269, 2
162266, 162268, 1
162266, 162267, 8
