257497, 257501, 2
257497, 257494, 2
257497, 257500, 2
257497, 257491, 2
257497, 257498, 1
257497, 257505, 2
257497, 257499, 2
257497, 257495, 2
257497, 257504, 2
257497, 257496, 2
257497, 257485, 2
257477, 257480, 2
257477, 257471, 2
257477, 257472, 2
257477, 257499, 2
257477, 257479, 2
257477, 257492, 2
257477, 257473, 2
257477, 257494, 2
257477, 257469, 2
257477, 257481, 2
257477, 257470, 2
257477, 257475, 2
257484, 257480, 2
257484, 257487, 2
257484, 257483, 2
257484, 257486, 1
257488, 257489, 1
257488, 257491, 2
257488, 257487, 2
257479, 257480, 1
257479, 257477, 2
257479, 257482, 2
257479, 257487, 2
257479, 257474, 2
257479, 257475, 2
257479, 257481, 2
257479, 257500, 2
257479, 257491, 2
257479, 257476, 2
257479, 257478, 2
257479, 257483, 2
257479, 257486, 2
257501, 257497, 2
257501, 257504, 2
257501, 257498, 2
257501, 257505, 2
257501, 257499, 2
257501, 257502, 1
257510, 257494, 2
257510, 257513, 2
257510, 257512, 2
257510, 257509, 2
257510, 257503, 2
257510, 257511, 1
257473, 257477, 2
257473, 257472, 2
257473, 257476, 2
257473, 257474, 2
257473, 257475, 1
257473, 257478, 2
257498, 257497, 2
257498, 257494, 2
257498, 257504, 2
257498, 257491, 2
257498, 257505, 1
257498, 257501, 2
257498, 257499, 6
257498, 257503, 2
257498, 257500, 4
257498, 257495, 2
257498, 257502, 2
257493, 257490, 2
257493, 257492, 2
257493, 257495, 1
257493, 257491, 2
257493, 257489, 2
257493, 257496, 2
257492, 257477, 2
257492, 257482, 2
257492, 257487, 2
257492, 257499, 2
257492, 257496, 1
257492, 257490, 2
257492, 257494, 6
257492, 257495, 2
257492, 257491, 4
257492, 257489, 2
257492, 257500, 2
257492, 257493, 2
257492, 257485, 2
257500, 257497, 2
257500, 257492, 2
257500, 257495, 2
257500, 257482, 2
257500, 257487, 2
257500, 257505, 2
257500, 257479, 2
257500, 257503, 3
257500, 257507, 2
257500, 257491, 2
257500, 257498, 2
257500, 257508, 2
257500, 257485, 2
257472, 257471, 2
257472, 257477, 2
257472, 257476, 2
257472, 257474, 2
257472, 257475, 2
257472, 257473, 1
257472, 257478, 2
257487, 257480, 2
257487, 257492, 2
257487, 257500, 2
257487, 257482, 2
257487, 257484, 2
257487, 257488, 1
257487, 257474, 2
257487, 257479, 2
257487, 257494, 2
257487, 257495, 2
257487, 257491, 2
257487, 257489, 2
257487, 257486, 2
257487, 257478, 2
257487, 257483, 2
257487, 257485, 2
257496, 257497, 1
257496, 257492, 2
257496, 257495, 2
257496, 257491, 2
257496, 257499, 2
257496, 257494, 2
257496, 257493, 2
257494, 257497, 2
257494, 257492, 2
257494, 257477, 2
257494, 257513, 2
257494, 257487, 2
257494, 257499, 2
257494, 257496, 2
257494, 257490, 2
257494, 257510, 2
257494, 257498, 2
257494, 257481, 2
257494, 257489, 2
257494, 257514, 2
257494, 257483, 2
257494, 257486, 2
257504, 257497, 2
257504, 257505, 2
257504, 257498, 2
257504, 257501, 2
257504, 257499, 2
257504, 257507, 2
257504, 257502, 2
257471, 257474, 2
257471, 257470, 2
257471, 257477, 2
257471, 257472, 1
257471, 257475, 2
257476, 257480, 2
257476, 257472, 2
257476, 257474, 2
257476, 257479, 2
257476, 257475, 2
257476, 257473, 2
257476, 257478, 1
257470, 257474, 2
257470, 257471, 1
257470, 257477, 2
257470, 257469, 2
257509, 257510, 1
257509, 257508, 2
257478, 257491, 2
257478, 257480, 2
257478, 257472, 2
257478, 257487, 2
257478, 257476, 2
257478, 257474, 2
257478, 257485, 2
257478, 257479, 2
257478, 257482, 2
257478, 257473, 2
257478, 257475, 2
257499, 257497, 2
257499, 257494, 2
257499, 257477, 2
257499, 257498, 2
257499, 257501, 3
257499, 257481, 2
257499, 257492, 2
257499, 257504, 2
257499, 257496, 2
257499, 257486, 2
257502, 257501, 2
257502, 257504, 1
257502, 257498, 2
257502, 257505, 2
257480, 257477, 2
257480, 257482, 4
257480, 257484, 2
257480, 257487, 1
257480, 257474, 2
257480, 257479, 2
257480, 257481, 6
257480, 257476, 2
257480, 257486, 2
257480, 257478, 2
257480, 257483, 2
257480, 257485, 2
257513, 257494, 2
257513, 257510, 2
257513, 257512, 2
257513, 257511, 2
257513, 257514, 1
257474, 257480, 2
257474, 257471, 2
257474, 257472, 2
257474, 257487, 2
257474, 257479, 2
257474, 257475, 2
257474, 257473, 2
257474, 257469, 2
257474, 257476, 1
257474, 257482, 2
257474, 257470, 2
257474, 257478, 2
257503, 257505, 2
257503, 257500, 2
257503, 257510, 2
257503, 257498, 2
257503, 257506, 2
257503, 257495, 2
257503, 257508, 2
257503, 257507, 2
257503, 257514, 2
257475, 257476, 2
257475, 257471, 2
257475, 257477, 6
257475, 257472, 2
257475, 257481, 2
257475, 257474, 4
257475, 257479, 1
257475, 257482, 2
257475, 257473, 2
257475, 257478, 2
257490, 257494, 2
257490, 257495, 2
257490, 257491, 2
257490, 257489, 2
257490, 257492, 1
257490, 257493, 2
257490, 257485, 2
257481, 257480, 2
257481, 257494, 2
257481, 257477, 2
257481, 257499, 2
257481, 257479, 2
257481, 257475, 2
257481, 257483, 3
257481, 257486, 2
257495, 257497, 2
257495, 257492, 2
257495, 257500, 2
257495, 257487, 2
257495, 257505, 2
257495, 257503, 2
257495, 257496, 2
257495, 257490, 2
257495, 257491, 2
257495, 257498, 2
257495, 257489, 2
257495, 257493, 2
257491, 257488, 2
257491, 257492, 2
257491, 257500, 2
257491, 257482, 2
257491, 257487, 2
257491, 257497, 2
257491, 257479, 2
257491, 257496, 2
257491, 257490, 2
257491, 257495, 2
257491, 257498, 2
257491, 257505, 2
257491, 257489, 2
257491, 257478, 2
257491, 257493, 1
257491, 257485, 2
257506, 257505, 2
257506, 257503, 2
257506, 257507, 1
257506, 257508, 2
257489, 257490, 1
257489, 257488, 2
257489, 257494, 2
257489, 257495, 2
257489, 257491, 2
257489, 257487, 2
257489, 257485, 2
257489, 257492, 2
257489, 257493, 2
257489, 257486, 2
257512, 257510, 2
257512, 257513, 1
257512, 257511, 2
257512, 257514, 2
257508, 257505, 2
257508, 257500, 2
257508, 257506, 2
257508, 257503, 2
257508, 257509, 1
257508, 257507, 2
257505, 257497, 2
257505, 257500, 2
257505, 257503, 2
257505, 257507, 2
257505, 257504, 2
257505, 257501, 2
257505, 257495, 2
257505, 257491, 2
257505, 257498, 2
257505, 257506, 1
257505, 257508, 2
257505, 257502, 2
257482, 257480, 2
257482, 257492, 2
257482, 257500, 2
257482, 257491, 2
257482, 257487, 2
257482, 257474, 2
257482, 257479, 2
257482, 257478, 2
257482, 257475, 2
257482, 257485, 3
257507, 257505, 2
257507, 257500, 2
257507, 257506, 2
257507, 257503, 2
257507, 257508, 1
257507, 257504, 2
257514, 257513, 2
257514, 257512, 2
257514, 257503, 2
257514, 257511, 2
257514, 257494, 2
257469, 257474, 2
257469, 257470, 1
257469, 257477, 2
257483, 257480, 2
257483, 257494, 2
257483, 257484, 1
257483, 257487, 2
257483, 257481, 2
257483, 257479, 2
257483, 257486, 2
257486, 257480, 2
257486, 257494, 2
257486, 257484, 2
257486, 257487, 2
257486, 257489, 2
257486, 257481, 2
257486, 257499, 2
257486, 257479, 2
257486, 257483, 2
257511, 257512, 1
257511, 257510, 2
257511, 257513, 2
257511, 257514, 2
257485, 257490, 2
257485, 257480, 2
257485, 257492, 2
257485, 257500, 2
257485, 257491, 2
257485, 257487, 2
257485, 257497, 2
257485, 257489, 2
257485, 257482, 2
257485, 257478, 2
