221957, 221955, 2
221957, 221956, 2
221957, 221958, 1
221955, 221957, 1
221955, 221956, 6
221955, 221959, 2
221955, 221958, 2
221960, 221961, 1
221960, 221956, 2
221960, 221958, 2
221960, 221959, 2
221958, 221957, 2
221958, 221955, 2
221958, 221956, 2
221958, 221960, 1
221958, 221959, 3
221956, 221957, 2
221956, 221961, 2
221956, 221958, 2
221956, 221960, 2
221956, 221955, 2
221961, 221956, 2
221961, 221960, 2
221959, 221955, 2
221959, 221960, 2
221959, 221958, 2
