221061, 221063, 2
221061, 221062, 1
221063, 221064, 2
221063, 221062, 2
221063, 221061, 2
221062, 221061, 2
221062, 221063, 8
221062, 221065, 2
221062, 221064, 1
221065, 221064, 2
221065, 221062, 2
221064, 221063, 2
221064, 221062, 2
221064, 221065, 1
