64221, 64222, 1
64221, 64220, 2
64215, 64214, 2
64215, 64218, 2
64215, 64216, 1
64215, 64217, 2
64215, 64213, 2
64216, 64219, 2
64216, 64215, 2
64216, 64217, 8
64216, 64220, 2
64216, 64218, 1
64220, 64222, 2
64220, 64218, 2
64220, 64219, 2
64220, 64216, 2
64220, 64221, 1
64209, 64212, 2
64209, 64208, 2
64209, 64210, 1
64209, 64211, 2
64209, 64207, 2
64210, 64209, 2
64210, 64213, 2
64210, 64211, 8
64210, 64212, 1
64219, 64216, 2
64219, 64217, 2
64219, 64220, 2
64219, 64218, 2
64218, 64215, 2
64218, 64219, 3
64218, 64216, 2
64218, 64220, 1
64218, 64217, 2
64222, 64223, 1
64222, 64220, 2
64222, 64221, 2
64208, 64209, 2
64208, 64207, 2
64223, 64222, 2
64217, 64215, 2
64217, 64219, 2
64217, 64216, 2
64217, 64218, 2
64214, 64215, 1
64214, 64213, 2
64207, 64209, 1
64207, 64208, 3
64212, 64209, 2
64212, 64210, 2
64212, 64211, 2
64212, 64213, 1
64211, 64212, 2
64211, 64210, 2
64211, 64213, 2
64211, 64209, 2
64213, 64212, 2
64213, 64210, 2
64213, 64215, 2
64213, 64211, 2
64213, 64214, 1
