163984, 163988, 1
163984, 163985, 2
163984, 163982, 2
163984, 163983, 2
163984, 163989, 2
163984, 163986, 3
163984, 163981, 2
163984, 163993, 2
163990, 163988, 2
163990, 164001, 2
163990, 163987, 2
163990, 163992, 2
163990, 163989, 2
163990, 163991, 2
163990, 163993, 2
164001, 163996, 2
164001, 163999, 2
164001, 163982, 2
164001, 163989, 2
164001, 163990, 2
164001, 163993, 2
164001, 163988, 2
164001, 163985, 2
164001, 163997, 2
164001, 164000, 2
164001, 163994, 2
164001, 163992, 2
164001, 163981, 2
164001, 163998, 2
163980, 163977, 2
163980, 163982, 2
163980, 163979, 2
163980, 163981, 2
163980, 163978, 2
163980, 163976, 2
164000, 163985, 2
164000, 163999, 2
164000, 164001, 2
164000, 163996, 2
164000, 163981, 2
164000, 163998, 2
164000, 163993, 2
163985, 163996, 2
163985, 163984, 2
163985, 163999, 2
163985, 163983, 2
163985, 163989, 2
163985, 163991, 2
163985, 163993, 2
163985, 163988, 2
163985, 163998, 2
163985, 164000, 2
163985, 163987, 2
163985, 163995, 2
163985, 163986, 2
163985, 163992, 2
163985, 163981, 2
163985, 163982, 2
163985, 164001, 2
163987, 163988, 2
163987, 163985, 2
163987, 163990, 2
163987, 163983, 2
163987, 163986, 2
163987, 163989, 2
163986, 163988, 2
163986, 163985, 2
163986, 163984, 2
163986, 163983, 2
163986, 163982, 2
163986, 163987, 2
163986, 163981, 2
163986, 163989, 2
163996, 163995, 2
163996, 163983, 2
163996, 163989, 2
163996, 163993, 2
163996, 163985, 2
163996, 163998, 2
163996, 164000, 1
163996, 163994, 2
163996, 163992, 2
163996, 163981, 2
163996, 163997, 3
163996, 164001, 2
163978, 163977, 2
163978, 163976, 2
163978, 163981, 2
163978, 163980, 2
163978, 163979, 1
163997, 163996, 2
163997, 163995, 2
163997, 163998, 1
163997, 164001, 2
163999, 164001, 2
163999, 163985, 2
163999, 163993, 2
163999, 163998, 2
163999, 164000, 2
163995, 163985, 2
163995, 163992, 2
163995, 163994, 2
163995, 163996, 2
163995, 163997, 2
163995, 163993, 2
163983, 163988, 2
163983, 163985, 1
163983, 163984, 2
163983, 163982, 2
163983, 163987, 2
163983, 163989, 2
163983, 163986, 2
163983, 163996, 2
163983, 163981, 2
163983, 163993, 2
163982, 163988, 2
163982, 163985, 2
163982, 163984, 1
163982, 163983, 2
163982, 163989, 2
163982, 163980, 2
163982, 163981, 2
163982, 163986, 2
163982, 164001, 2
163981, 163992, 2
163981, 163984, 2
163981, 163983, 0
163981, 163982, 3
163981, 164001, 1
163981, 163980, 2
163981, 163989, 2
163981, 163993, 2
163981, 163988, 2
163981, 163977, 2
163981, 163985, 2
163981, 164000, 2
163981, 163986, 2
163981, 163996, 2
163981, 163978, 2
163981, 163976, 5
163989, 163996, 2
163989, 163984, 2
163989, 163990, 2
163989, 163983, 2
163989, 163991, 2
163989, 163993, 2
163989, 163988, 2
163989, 163985, 2
163989, 163987, 2
163989, 163986, 2
163989, 163992, 2
163989, 163981, 2
163989, 163982, 2
163989, 164001, 2
163991, 163988, 2
163991, 163985, 2
163991, 163990, 2
163991, 163994, 2
163991, 163992, 2
163991, 163989, 2
163991, 163993, 2
163993, 163996, 2
163993, 163995, 2
163993, 163983, 2
163993, 163990, 2
163993, 164001, 2
163993, 163989, 2
163993, 163991, 2
163993, 163988, 2
163993, 163985, 2
163993, 164000, 2
163993, 163984, 2
163993, 163994, 2
163993, 163992, 2
163993, 163981, 2
163993, 163999, 2
163988, 163984, 2
163988, 163983, 2
163988, 163982, 2
163988, 163989, 6
163988, 163990, 3
163988, 163991, 8
163988, 163993, 2
163988, 163985, 2
163988, 163987, 2
163988, 163986, 2
163988, 163992, 1
163988, 163981, 2
163988, 164001, 2
163977, 163978, 1
163977, 163980, 2
163977, 163981, 2
163977, 163976, 2
163979, 163980, 2
163979, 163978, 2
163979, 163976, 2
163994, 163996, 2
163994, 163995, 2
163994, 164001, 2
163994, 163992, 2
163994, 163991, 2
163994, 163993, 2
163992, 163988, 2
163992, 163985, 2
163992, 163995, 8
163992, 163990, 2
163992, 164001, 2
163992, 163989, 2
163992, 163994, 3
163992, 163996, 1
163992, 163981, 2
163992, 163991, 2
163992, 163993, 6
163998, 163985, 2
163998, 163999, 1
163998, 164000, 2
163998, 163996, 2
163998, 163997, 2
163998, 164001, 2
163976, 163978, 2
163976, 163977, 3
163976, 163981, 2
163976, 163980, 1
163976, 163979, 2
