259442, 259441, 2
259442, 259440, 2
259437, 259436, 2
259437, 259439, 2
259437, 259438, 1
259437, 259435, 2
259441, 259440, 2
259441, 259442, 0
259440, 259439, 2
259440, 259441, 1
259440, 259442, 2
259436, 259437, 2
259436, 259435, 2
259438, 259437, 2
259438, 259439, 1
259439, 259437, 2
259439, 259438, 2
259439, 259440, 1
259435, 259436, 6
259435, 259437, 1
