123195, 123196, 1
123195, 123194, 2
123195, 123197, 2
123213, 123212, 2
123213, 123214, 1
123205, 123202, 2
123205, 123206, 1
123205, 123207, 2
123205, 123204, 2
123204, 123203, 2
123204, 123205, 1
123194, 123195, 1
123216, 123217, 1
123216, 123215, 2
123212, 123213, 1
123212, 123211, 2
123212, 123214, 2
123207, 123206, 2
123207, 123208, 1
123207, 123205, 2
123214, 123213, 2
123214, 123212, 2
123214, 123215, 1
123202, 123203, 2
123202, 123201, 2
123202, 123205, 2
123206, 123207, 1
123206, 123205, 2
123211, 123210, 2
123211, 123212, 1
123198, 123199, 1
123198, 123197, 2
123218, 123217, 2
123208, 123207, 2
123208, 123209, 1
123201, 123202, 3
123201, 123200, 2
123201, 123203, 1
123203, 123202, 2
123203, 123201, 2
123203, 123204, 1
123197, 123196, 2
123197, 123195, 2
123197, 123199, 2
123197, 123198, 1
123200, 123199, 2
123200, 123201, 1
123209, 123210, 1
123209, 123208, 2
123196, 123195, 2
123196, 123197, 1
123217, 123218, 1
123217, 123216, 2
123199, 123200, 1
123199, 123197, 2
123199, 123198, 2
123215, 123214, 2
123215, 123216, 1
123210, 123211, 1
123210, 123209, 2
