70296, 70298, 2
70296, 70297, 1
70296, 70299, 2
70298, 70296, 2
70298, 70297, 2
70298, 70299, 2
70298, 70300, 2
70299, 70296, 2
70299, 70298, 2
70299, 70297, 2
70299, 70300, 1
70297, 70296, 2
70297, 70298, 8
70297, 70299, 1
70297, 70300, 2
70300, 70297, 2
70300, 70298, 2
70300, 70299, 2
