333177, 333179, 1
333177, 333174, 2
333177, 333176, 2
333177, 333175, 2
333177, 333178, 3
333171, 333173, 2
333171, 333169, 2
333171, 333170, 2
333171, 333172, 1
333179, 333177, 2
333179, 333178, 2
333170, 333171, 2
333170, 333169, 2
333173, 333171, 2
333173, 333174, 0
333173, 333176, 1
333173, 333175, 3
333173, 333172, 2
333175, 333177, 2
333175, 333173, 2
333175, 333174, 2
333175, 333176, 2
333174, 333173, 2
333174, 333177, 2
333174, 333176, 2
333174, 333175, 2
333176, 333177, 1
333176, 333173, 2
333176, 333174, 2
333176, 333175, 2
333169, 333171, 1
333169, 333170, 3
333178, 333177, 2
333178, 333179, 2
333172, 333173, 1
333172, 333171, 2
