161359, 161358, 2
161353, 161354, 1
161353, 161349, 2
161353, 161351, 2
161353, 161350, 2
161353, 161352, 2
161355, 161350, 2
161355, 161351, 2
161355, 161349, 2
161355, 161354, 2
161355, 161356, 1
161355, 161357, 2
161355, 161352, 2
161358, 161359, 1
161358, 161356, 2
161358, 161357, 2
161350, 161353, 2
161350, 161355, 2
161350, 161351, 1
161350, 161349, 4
161350, 161357, 2
161350, 161352, 2
161349, 161353, 2
161349, 161355, 2
161349, 161350, 2
161349, 161351, 2
161349, 161354, 2
161349, 161356, 2
161349, 161357, 2
161349, 161352, 2
161354, 161349, 2
161354, 161353, 2
161354, 161355, 2
161354, 161351, 2
161351, 161353, 2
161351, 161355, 1
161351, 161350, 2
161351, 161354, 2
161351, 161349, 2
161351, 161357, 2
161351, 161352, 0
161356, 161349, 2
161356, 161355, 2
161356, 161357, 3
161356, 161358, 1
161357, 161355, 2
161357, 161350, 2
161357, 161358, 2
161357, 161351, 2
161357, 161349, 2
161357, 161356, 2
161352, 161349, 2
161352, 161353, 1
161352, 161355, 2
161352, 161350, 2
161352, 161351, 2
