131657, 131658, 1
131657, 131659, 2
131657, 131656, 2
131687, 131686, 2
131687, 131685, 2
131687, 131688, 1
131687, 131689, 2
131663, 131664, 1
131663, 131662, 2
131663, 131665, 2
131677, 131678, 1
131677, 131679, 2
131677, 131676, 2
131664, 131663, 2
131664, 131665, 1
131694, 131695, 1
131694, 131693, 2
131658, 131659, 1
131658, 131657, 2
131658, 131656, 2
131686, 131685, 2
131686, 131682, 2
131686, 131687, 1
131686, 131684, 2
131686, 131683, 2
131679, 131685, 2
131679, 131678, 2
131679, 131677, 2
131679, 131676, 2
131679, 131680, 1
131681, 131682, 1
131681, 131680, 2
131693, 131692, 2
131693, 131694, 1
131666, 131667, 1
131666, 131665, 2
131703, 131704, 3
131703, 131705, 0
131703, 131702, 2
131703, 131706, 1
131705, 131700, 2
131705, 131703, 2
131705, 131699, 2
131705, 131704, 2
131705, 131696, 2
131705, 131707, 2
131705, 131708, 2
131705, 131706, 2
131705, 131702, 2
131705, 131695, 2
131705, 131689, 2
131697, 131698, 1
131697, 131696, 2
131675, 131674, 2
131675, 131676, 1
131702, 131700, 2
131702, 131703, 1
131702, 131705, 2
131702, 131704, 2
131702, 131701, 2
131702, 131706, 2
131661, 131660, 2
131661, 131662, 1
131669, 131667, 2
131669, 131671, 2
131669, 131670, 1
131669, 131668, 2
131669, 131672, 2
131699, 131700, 1
131699, 131698, 2
131699, 131705, 2
131704, 131703, 2
131704, 131705, 2
131704, 131701, 2
131704, 131702, 2
131704, 131706, 2
131708, 131707, 2
131708, 131705, 2
131676, 131671, 2
131676, 131685, 2
131676, 131668, 2
131676, 131675, 2
131676, 131678, 2
131676, 131679, 2
131676, 131677, 1
131676, 131674, 2
131676, 131684, 2
131662, 131663, 1
131662, 131661, 2
131690, 131692, 2
131690, 131691, 1
131690, 131689, 2
131668, 131669, 2
131668, 131667, 2
131668, 131676, 2
131668, 131671, 2
131668, 131672, 2
131656, 131658, 2
131656, 131659, 2
131656, 131657, 1
131656, 131655, 2
131688, 131687, 2
131688, 131689, 1
131660, 131659, 2
131660, 131661, 1
131701, 131700, 2
131701, 131702, 2
131701, 131704, 2
131701, 131706, 2
131691, 131692, 1
131691, 131690, 2
131691, 131689, 2
131689, 131705, 2
131689, 131687, 2
131689, 131688, 2
131689, 131685, 2
131689, 131692, 2
131689, 131691, 2
131689, 131690, 1
131689, 131684, 2
131707, 131708, 1
131707, 131705, 2
131707, 131706, 2
131671, 131669, 2
131671, 131676, 2
131671, 131670, 2
131671, 131668, 2
131671, 131672, 2
131685, 131682, 2
131685, 131687, 2
131685, 131686, 2
131685, 131676, 2
131685, 131679, 2
131685, 131683, 2
131685, 131684, 2
131685, 131689, 2
131670, 131669, 2
131670, 131671, 3
131670, 131672, 1
131674, 131676, 2
131674, 131673, 2
131674, 131675, 1
131700, 131705, 2
131700, 131699, 2
131700, 131701, 3
131700, 131702, 1
131683, 131686, 1
131683, 131682, 2
131683, 131685, 0
131683, 131684, 3
131684, 131682, 2
131684, 131685, 2
131684, 131686, 2
131684, 131683, 2
131684, 131689, 2
131684, 131676, 2
131682, 131683, 1
131682, 131686, 2
131682, 131685, 2
131682, 131681, 2
131682, 131684, 2
131665, 131663, 2
131665, 131664, 2
131665, 131666, 1
131695, 131696, 1
131695, 131705, 2
131695, 131694, 2
131667, 131669, 1
131667, 131668, 3
131667, 131666, 2
131692, 131691, 2
131692, 131690, 2
131692, 131693, 1
131692, 131689, 2
131678, 131676, 2
131678, 131679, 1
131678, 131677, 2
131696, 131698, 2
131696, 131695, 2
131696, 131705, 2
131696, 131697, 1
131680, 131679, 2
131680, 131681, 1
131698, 131696, 2
131698, 131699, 1
131698, 131697, 2
131659, 131658, 2
131659, 131660, 1
131659, 131657, 2
131659, 131656, 2
131673, 131674, 1
131673, 131672, 2
131706, 131703, 2
131706, 131705, 2
131706, 131704, 2
131706, 131707, 1
131706, 131701, 2
131706, 131702, 2
131672, 131669, 2
131672, 131671, 2
131672, 131670, 2
131672, 131668, 2
131672, 131673, 1
131655, 131656, 1
