301107, 301108, 2
301107, 301104, 2
301107, 301109, 2
301107, 301106, 2
301107, 301103, 2
301107, 301105, 2
301108, 301107, 2
301108, 301104, 2
301108, 301109, 3
301108, 301106, 2
301108, 301103, 2
301108, 301105, 2
301104, 301107, 2
301104, 301108, 2
301104, 301105, 2
301104, 301106, 2
301104, 301103, 2
301104, 301109, 2
301109, 301107, 2
301109, 301108, 2
301109, 301105, 2
301109, 301104, 2
301106, 301107, 1
301106, 301108, 2
301106, 301105, 2
301106, 301103, 2
301106, 301104, 2
301103, 301107, 2
301103, 301108, 1
301103, 301106, 2
301103, 301104, 3
301103, 301105, 8
301105, 301107, 2
301105, 301108, 2
301105, 301104, 2
301105, 301106, 1
301105, 301103, 2
301105, 301109, 2
