221440, 221441, 1
221440, 221439, 6
221444, 221443, 2
221444, 221439, 2
221441, 221442, 1
221441, 221440, 2
221441, 221443, 2
221441, 221439, 2
221439, 221441, 2
221439, 221443, 2
221439, 221444, 2
221439, 221442, 2
221439, 221440, 2
221443, 221441, 2
221443, 221444, 1
221443, 221442, 2
221443, 221439, 2
221442, 221441, 2
221442, 221443, 1
221442, 221439, 2
