122508, 122510, 1
122508, 122502, 2
122516, 122514, 2
122516, 122502, 2
122516, 122512, 2
122505, 122506, 2
122505, 122517, 2
122505, 122503, 2
122505, 122502, 2
122505, 122507, 2
122505, 122504, 2
122503, 122505, 2
122503, 122506, 2
122503, 122502, 2
122503, 122504, 1
122520, 122519, 2
122520, 122521, 1
122520, 122502, 2
122522, 122517, 2
122522, 122502, 2
122522, 122521, 2
122502, 122508, 4
122502, 122516, 2
122502, 122505, 2
122502, 122510, 2
122502, 122520, 2
122502, 122522, 2
122502, 122512, 2
122502, 122509, 2
122502, 122506, 2
122502, 122511, 2
122502, 122515, 2
122502, 122507, 2
122502, 122513, 2
122502, 122514, 2
122502, 122519, 2
122502, 122517, 2
122502, 122504, 2
122502, 122503, 6
122502, 122518, 2
122502, 122521, 2
122512, 122514, 1
122512, 122510, 2
122512, 122502, 2
122512, 122516, 2
122509, 122511, 1
122509, 122502, 2
122509, 122507, 2
122514, 122516, 1
122514, 122512, 2
122514, 122502, 2
122511, 122509, 2
122511, 122513, 1
122511, 122517, 2
122511, 122502, 2
122515, 122513, 2
122515, 122517, 3
122515, 122502, 2
122515, 122518, 1
122507, 122506, 2
122507, 122509, 1
122507, 122505, 2
122507, 122502, 2
122519, 122517, 2
122519, 122520, 1
122519, 122518, 2
122519, 122502, 2
122506, 122505, 2
122506, 122503, 2
122506, 122502, 2
122506, 122507, 1
122506, 122504, 2
122513, 122511, 2
122513, 122515, 1
122513, 122517, 2
122513, 122502, 2
122517, 122511, 2
122517, 122515, 2
122517, 122513, 2
122517, 122505, 2
122517, 122519, 2
122517, 122522, 2
122517, 122502, 2
122517, 122518, 2
122504, 122505, 3
122504, 122506, 1
122504, 122503, 2
122504, 122502, 2
122510, 122508, 2
122510, 122502, 2
122510, 122512, 1
122518, 122519, 1
122518, 122517, 2
122518, 122515, 2
122518, 122502, 2
122521, 122522, 1
122521, 122520, 2
122521, 122502, 2
