72782, 72783, 1
72782, 72785, 2
72782, 72780, 2
72782, 72781, 2
72782, 72779, 2
72781, 72782, 1
72781, 72779, 2
72781, 72780, 2
72783, 72785, 2
72783, 72782, 2
72783, 72784, 1
72783, 72780, 2
72785, 72783, 2
72785, 72782, 2
72785, 72784, 2
72785, 72779, 2
72779, 72785, 2
72779, 72782, 2
72779, 72781, 1
72779, 72780, 3
72784, 72783, 2
72784, 72785, 6
72780, 72783, 2
72780, 72782, 2
72780, 72781, 2
72780, 72779, 2
