187021, 187023, 2
187021, 187020, 2
187021, 187022, 1
187020, 187019, 2
187020, 187021, 1
187024, 187023, 2
187024, 187025, 1
187024, 187022, 2
187019, 187020, 1
187023, 187021, 2
187023, 187022, 2
187023, 187025, 2
187023, 187024, 2
187025, 187023, 2
187025, 187022, 2
187025, 187024, 2
187022, 187023, 8
187022, 187021, 2
187022, 187025, 2
187022, 187024, 1
