167900, 167903, 2
167900, 167906, 2
167900, 167905, 2
167900, 167907, 2
167900, 167904, 2
167900, 167916, 2
167900, 167895, 2
167900, 167902, 2
167900, 167910, 2
167900, 167893, 2
167900, 167901, 2
167900, 167909, 2
167900, 167899, 2
167903, 167900, 2
167903, 167902, 2
167903, 167904, 1
167903, 167907, 2
167903, 167901, 2
167904, 167900, 2
167904, 167903, 2
167904, 167905, 1
167904, 167899, 2
167904, 167907, 2
167904, 167901, 2
167907, 167900, 2
167907, 167902, 2
167907, 167903, 2
167907, 167906, 2
167907, 167905, 2
167907, 167908, 2
167907, 167904, 2
167907, 167895, 2
167907, 167909, 2
167907, 167899, 2
167901, 167900, 2
167901, 167902, 2
167901, 167903, 2
167901, 167897, 2
167901, 167906, 2
167901, 167893, 2
167901, 167905, 2
167901, 167911, 2
167901, 167908, 2
167901, 167904, 2
167901, 167909, 2
167931, 167929, 2
167931, 167928, 2
167931, 167930, 2
167931, 167926, 2
167931, 167933, 2
167931, 167934, 2
167931, 167932, 1
167931, 167927, 2
167922, 167924, 1
167922, 167915, 2
167922, 167912, 2
167922, 167919, 2
167922, 167917, 2
167922, 167927, 2
167916, 167900, 2
167916, 167910, 2
167916, 167914, 2
167916, 167918, 2
167916, 167915, 2
167916, 167912, 2
167916, 167917, 2
167916, 167909, 2
167916, 167899, 2
167893, 167900, 2
167893, 167902, 1
167893, 167897, 4
167893, 167896, 2
167893, 167894, 6
167893, 167891, 2
167893, 167892, 2
167893, 167901, 2
167893, 167898, 2
167893, 167895, 2
167893, 167899, 2
167932, 167931, 2
167932, 167934, 2
167932, 167929, 2
167932, 167933, 1
167909, 167897, 2
167909, 167900, 2
167909, 167914, 2
167909, 167918, 2
167909, 167906, 2
167909, 167912, 1
167909, 167907, 2
167909, 167916, 2
167909, 167927, 2
167909, 167901, 2
167909, 167919, 2
167909, 167913, 2
167909, 167910, 2
167909, 167915, 2
167909, 167911, 2
167909, 167908, 2
167909, 167917, 2
167909, 167899, 2
167914, 167916, 1
167914, 167910, 2
167914, 167918, 2
167914, 167912, 2
167914, 167919, 2
167914, 167917, 2
167914, 167909, 2
167918, 167916, 2
167918, 167910, 2
167918, 167914, 2
167918, 167915, 2
167918, 167912, 2
167918, 167920, 1
167918, 167917, 2
167918, 167913, 2
167918, 167909, 2
167906, 167900, 2
167906, 167899, 2
167906, 167905, 2
167906, 167908, 1
167906, 167907, 6
167906, 167909, 2
167906, 167901, 2
167895, 167900, 2
167895, 167902, 2
167895, 167898, 2
167895, 167896, 4
167895, 167893, 2
167895, 167891, 2
167895, 167892, 2
167895, 167894, 2
167895, 167907, 2
167895, 167899, 1
167927, 167934, 1
167927, 167933, 2
167927, 167923, 2
167927, 167912, 2
167927, 167917, 2
167927, 167921, 2
167927, 167920, 2
167927, 167924, 2
167927, 167929, 3
167927, 167928, 0
167927, 167930, 2
167927, 167931, 2
167927, 167926, 2
167927, 167919, 2
167927, 167911, 2
167927, 167922, 2
167927, 167909, 2
167911, 167913, 1
167911, 167910, 2
167911, 167909, 2
167911, 167915, 2
167911, 167912, 2
167911, 167919, 2
167911, 167917, 2
167911, 167927, 2
167911, 167901, 2
167908, 167907, 2
167908, 167906, 2
167908, 167909, 1
167908, 167901, 2
167933, 167931, 2
167933, 167934, 2
167933, 167926, 2
167933, 167929, 2
167933, 167935, 2
167933, 167936, 2
167933, 167932, 2
167933, 167927, 2
167923, 167926, 2
167923, 167921, 2
167923, 167917, 2
167923, 167925, 1
167923, 167927, 2
167894, 167891, 2
167894, 167892, 2
167894, 167895, 1
167894, 167893, 2
167896, 167898, 1
167896, 167895, 2
167896, 167893, 2
167912, 167915, 2
167912, 167914, 2
167912, 167918, 2
167912, 167925, 2
167912, 167928, 2
167912, 167920, 2
167912, 167924, 2
167912, 167927, 2
167912, 167929, 2
167912, 167922, 2
167912, 167913, 2
167912, 167916, 2
167912, 167926, 2
167912, 167910, 6
167912, 167919, 2
167912, 167911, 4
167912, 167917, 1
167912, 167909, 2
167935, 167934, 2
167935, 167929, 2
167935, 167933, 2
167935, 167936, 0
167899, 167900, 0
167899, 167906, 2
167899, 167905, 2
167899, 167907, 2
167899, 167892, 2
167899, 167904, 2
167899, 167916, 2
167899, 167895, 2
167899, 167902, 2
167899, 167910, 2
167899, 167893, 2
167899, 167891, 2
167899, 167898, 2
167899, 167909, 2
167934, 167931, 2
167934, 167928, 2
167934, 167924, 2
167934, 167929, 2
167934, 167933, 2
167934, 167935, 1
167934, 167936, 2
167934, 167932, 2
167934, 167927, 2
167928, 167931, 2
167928, 167934, 2
167928, 167930, 1
167928, 167926, 2
167928, 167929, 2
167928, 167912, 2
167928, 167917, 2
167928, 167927, 2
167924, 167934, 2
167924, 167922, 2
167924, 167929, 2
167924, 167912, 2
167924, 167917, 2
167924, 167927, 2
167910, 167900, 2
167910, 167916, 2
167910, 167914, 1
167910, 167918, 2
167910, 167912, 2
167910, 167919, 2
167910, 167911, 2
167910, 167917, 2
167910, 167909, 2
167910, 167899, 2
167926, 167931, 2
167926, 167928, 2
167926, 167930, 2
167926, 167925, 2
167926, 167923, 2
167926, 167912, 2
167926, 167917, 2
167926, 167933, 2
167926, 167927, 2
167926, 167936, 2
167919, 167922, 1
167919, 167910, 2
167919, 167914, 2
167919, 167909, 2
167919, 167915, 2
167919, 167912, 2
167919, 167911, 2
167919, 167917, 2
167919, 167927, 2
167891, 167902, 2
167891, 167897, 2
167891, 167893, 2
167891, 167892, 1
167891, 167899, 2
167891, 167895, 2
167891, 167894, 2
167917, 167925, 2
167917, 167914, 2
167917, 167915, 2
167917, 167923, 2
167917, 167912, 2
167917, 167922, 2
167917, 167921, 2
167917, 167920, 2
167917, 167916, 2
167917, 167927, 1
167917, 167929, 2
167917, 167928, 2
167917, 167913, 2
167917, 167910, 2
167917, 167926, 2
167917, 167919, 4
167917, 167911, 2
167917, 167924, 2
167917, 167909, 2
167917, 167918, 6
167936, 167934, 2
167936, 167929, 2
167936, 167935, 2
167936, 167926, 2
167936, 167933, 2
167897, 167902, 2
167897, 167893, 2
167897, 167891, 2
167897, 167892, 2
167897, 167909, 2
167897, 167901, 2
167925, 167917, 2
167925, 167926, 1
167925, 167923, 2
167925, 167912, 2
167915, 167922, 2
167915, 167916, 2
167915, 167918, 2
167915, 167912, 2
167915, 167919, 2
167915, 167911, 2
167915, 167917, 2
167915, 167913, 2
167915, 167909, 2
167905, 167900, 2
167905, 167906, 1
167905, 167907, 2
167905, 167899, 2
167905, 167904, 2
167905, 167901, 2
167892, 167902, 2
167892, 167897, 2
167892, 167893, 1
167892, 167891, 2
167892, 167899, 2
167892, 167898, 2
167892, 167895, 2
167892, 167894, 2
167921, 167920, 2
167921, 167917, 2
167921, 167923, 1
167921, 167927, 2
167920, 167913, 2
167920, 167918, 2
167920, 167912, 2
167920, 167921, 1
167920, 167917, 2
167920, 167927, 2
167902, 167900, 2
167902, 167903, 1
167902, 167897, 2
167902, 167893, 2
167902, 167891, 2
167902, 167892, 2
167902, 167899, 2
167902, 167907, 2
167902, 167895, 2
167902, 167901, 4
167929, 167934, 2
167929, 167933, 2
167929, 167912, 2
167929, 167935, 2
167929, 167930, 2
167929, 167927, 2
167929, 167931, 2
167929, 167928, 2
167929, 167924, 2
167929, 167917, 2
167929, 167932, 2
167929, 167936, 2
167930, 167931, 1
167930, 167928, 2
167930, 167926, 2
167930, 167929, 2
167930, 167927, 2
167898, 167892, 2
167898, 167899, 2
167898, 167896, 2
167898, 167893, 2
167898, 167895, 2
167913, 167920, 2
167913, 167918, 2
167913, 167915, 1
167913, 167912, 2
167913, 167911, 2
167913, 167917, 2
167913, 167909, 2
