302269, 302268, 2
302269, 302272, 2
302269, 302270, 2
302269, 302267, 2
302273, 302272, 2
302273, 302274, 1
302273, 302271, 2
302267, 302269, 3
302267, 302268, 6
302267, 302270, 1
302272, 302273, 2
302272, 302269, 2
302272, 302270, 2
302272, 302274, 2
302272, 302271, 2
302268, 302269, 2
302268, 302274, 2
302268, 302275, 2
302268, 302270, 2
302268, 302267, 2
302268, 302271, 2
302275, 302268, 2
302275, 302274, 2
302275, 302271, 2
302270, 302269, 2
302270, 302268, 2
302270, 302272, 2
302270, 302267, 2
302270, 302271, 1
302274, 302273, 2
302274, 302268, 2
302274, 302271, 2
302274, 302272, 2
302274, 302275, 0
302271, 302273, 1
302271, 302272, 3
302271, 302275, 2
302271, 302268, 2
302271, 302274, 2
302271, 302270, 2
