219514, 219515, 3
219514, 219517, 1
219514, 219513, 2
219514, 219516, 8
219514, 219519, 2
219524, 219523, 2
219524, 219525, 1
219522, 219523, 1
219522, 219521, 2
219516, 219514, 2
219516, 219515, 2
219516, 219517, 2
219516, 219518, 2
219502, 219501, 2
219502, 219504, 2
219502, 219505, 2
219502, 219503, 2
219502, 219500, 2
219501, 219506, 2
219501, 219504, 1
219501, 219502, 3
219501, 219503, 8
219501, 219500, 2
219523, 219524, 1
219523, 219522, 2
219523, 219521, 2
219523, 219525, 2
219510, 219509, 2
219510, 219511, 1
219510, 219508, 2
219515, 219514, 2
219515, 219517, 2
219515, 219516, 2
219515, 219513, 2
219515, 219518, 2
219520, 219521, 1
219520, 219519, 2
219518, 219515, 2
219518, 219517, 2
219518, 219516, 2
219518, 219519, 2
219508, 219509, 1
219508, 219510, 2
219508, 219506, 2
219508, 219507, 2
219504, 219506, 1
219504, 219502, 2
219504, 219501, 2
219504, 219505, 3
219504, 219503, 2
219504, 219500, 2
219519, 219514, 2
219519, 219517, 2
219519, 219520, 1
219519, 219518, 2
219519, 219521, 2
219513, 219514, 1
219513, 219515, 2
219513, 219517, 2
219513, 219512, 2
219503, 219501, 2
219503, 219505, 2
219503, 219502, 2
219503, 219504, 2
219521, 219523, 2
219521, 219522, 1
219521, 219520, 2
219521, 219519, 2
219499, 219500, 1
219507, 219506, 2
219507, 219508, 1
219512, 219513, 1
219512, 219511, 2
219505, 219506, 2
219505, 219502, 2
219505, 219503, 2
219505, 219504, 2
219511, 219510, 2
219511, 219512, 1
219500, 219501, 1
219500, 219499, 2
219500, 219502, 2
219500, 219504, 2
219509, 219510, 1
219509, 219508, 2
219506, 219501, 2
219506, 219505, 2
219506, 219507, 1
219506, 219508, 2
219506, 219504, 2
219517, 219514, 2
219517, 219515, 2
219517, 219516, 2
219517, 219518, 3
219517, 219513, 2
219517, 219519, 1
219525, 219524, 2
219525, 219523, 2
