162126, 162133, 2
162126, 162125, 2
162126, 162132, 2
162126, 162128, 2
162126, 162127, 2
162126, 162131, 2
162126, 162129, 2
162137, 162138, 3
162137, 162139, 1
162137, 162135, 2
162137, 162136, 2
162139, 162138, 2
162139, 162137, 2
162135, 162138, 2
162135, 162134, 2
162135, 162137, 2
162135, 162136, 1
162132, 162138, 2
162132, 162126, 2
162132, 162133, 2
162132, 162128, 2
162132, 162130, 2
162132, 162131, 2
162132, 162134, 2
162133, 162126, 2
162133, 162132, 2
162133, 162128, 2
162133, 162134, 1
162133, 162131, 2
162133, 162130, 2
162133, 162129, 2
162134, 162138, 2
162134, 162135, 1
162134, 162132, 2
162134, 162133, 2
162134, 162130, 2
162134, 162129, 2
162129, 162126, 2
162129, 162127, 2
162129, 162133, 2
162129, 162128, 2
162129, 162130, 2
162129, 162131, 3
162129, 162134, 2
162138, 162137, 2
162138, 162139, 2
162138, 162135, 2
162138, 162132, 2
162138, 162136, 2
162138, 162134, 2
162125, 162126, 3
162125, 162127, 1
162136, 162138, 2
162136, 162137, 1
162136, 162135, 2
162128, 162126, 2
162128, 162132, 2
162128, 162133, 1
162128, 162127, 2
162128, 162130, 0
162128, 162131, 2
162128, 162129, 3
162127, 162128, 1
162127, 162126, 2
162127, 162125, 2
162127, 162129, 2
162130, 162128, 2
162130, 162132, 2
162130, 162133, 2
162130, 162134, 2
162130, 162131, 2
162130, 162129, 2
162131, 162126, 2
162131, 162132, 3
162131, 162133, 2
162131, 162128, 2
162131, 162130, 2
162131, 162129, 2
