300788, 300787, 2
300788, 300790, 2
300788, 300789, 2
300787, 300788, 3
300787, 300790, 1
300790, 300788, 2
300790, 300787, 2
300790, 300791, 3
300790, 300789, 2
300791, 300790, 2
300791, 300789, 2
300789, 300788, 2
300789, 300791, 2
300789, 300790, 2
