162455, 162450, 2
162455, 162458, 2
162455, 162449, 2
162455, 162456, 1
162455, 162454, 2
162455, 162457, 2
162463, 162464, 2
162463, 162460, 2
162463, 162465, 2
162463, 162466, 2
162463, 162461, 2
162463, 162462, 2
162465, 162466, 2
162465, 162463, 2
162465, 162462, 2
162465, 162464, 2
162449, 162450, 3
162449, 162455, 2
162449, 162451, 0
162449, 162452, 2
162449, 162453, 1
162464, 162466, 2
162464, 162463, 2
162464, 162452, 2
162464, 162465, 1
162464, 162462, 2
162456, 162455, 2
162456, 162458, 2
162456, 162460, 2
162456, 162459, 2
162456, 162454, 2
162456, 162457, 2
162459, 162456, 2
162459, 162458, 2
162459, 162460, 1
162459, 162461, 2
162461, 162458, 2
162461, 162463, 2
162461, 162459, 2
162461, 162466, 2
162461, 162452, 2
162461, 162454, 2
162461, 162460, 2
162461, 162462, 1
162454, 162450, 2
162454, 162458, 2
162454, 162461, 2
162454, 162456, 2
162454, 162452, 2
162454, 162455, 3
162454, 162453, 2
162454, 162457, 1
162453, 162450, 2
162453, 162452, 2
162453, 162454, 1
162453, 162449, 2
162462, 162464, 0
162462, 162463, 3
162462, 162461, 2
162462, 162465, 2
162462, 162466, 1
162450, 162455, 2
162450, 162449, 2
162450, 162451, 2
162450, 162452, 2
162450, 162454, 2
162450, 162453, 2
162458, 162455, 2
162458, 162460, 2
162458, 162452, 2
162458, 162459, 3
162458, 162456, 2
162458, 162461, 1
162458, 162454, 2
162458, 162457, 2
162460, 162456, 2
162460, 162458, 2
162460, 162463, 2
162460, 162461, 2
162460, 162459, 2
162466, 162464, 2
162466, 162463, 2
162466, 162461, 2
162466, 162465, 2
162466, 162462, 2
162451, 162450, 2
162451, 162452, 1
162451, 162449, 2
162452, 162450, 2
162452, 162458, 2
162452, 162449, 2
162452, 162464, 2
162452, 162451, 2
162452, 162461, 2
162452, 162454, 2
162452, 162453, 2
162452, 162457, 2
162457, 162456, 2
162457, 162458, 1
162457, 162452, 2
162457, 162454, 2
162457, 162455, 2
