195799, 195800, 1
195799, 195797, 2
195799, 195798, 2
195800, 195799, 2
195800, 195796, 2
195800, 195797, 2
195800, 195803, 2
195800, 195801, 1
195803, 195805, 2
195803, 195804, 1
195803, 195800, 2
195803, 195802, 2
195803, 195801, 2
195805, 195804, 2
195805, 195803, 2
195801, 195800, 2
195801, 195797, 2
195801, 195803, 1
195801, 195802, 3
195796, 195800, 2
195796, 195797, 3
195796, 195798, 1
195797, 195799, 2
195797, 195800, 2
195797, 195801, 2
195797, 195796, 2
195797, 195802, 2
195797, 195798, 2
195804, 195805, 1
195804, 195803, 2
195802, 195801, 2
195802, 195797, 2
195802, 195803, 2
195798, 195799, 1
195798, 195797, 2
195798, 195796, 2
