300484, 300485, 3
300484, 300483, 2
300484, 300482, 2
300484, 300481, 2
300482, 300484, 2
300482, 300485, 2
300482, 300483, 2
300482, 300481, 2
300483, 300484, 1
300483, 300482, 2
300483, 300485, 2
300483, 300481, 2
300485, 300484, 2
300485, 300482, 2
300485, 300483, 2
300481, 300484, 2
300481, 300482, 3
300481, 300483, 1
