65448, 65446, 2
65448, 65449, 1
65448, 65447, 2
65446, 65448, 2
65446, 65452, 2
65446, 65443, 2
65446, 65438, 2
65446, 65445, 2
65446, 65447, 2
65446, 65450, 2
65446, 65449, 2
65446, 65444, 2
65446, 65435, 2
65446, 65451, 2
65443, 65446, 2
65443, 65444, 8
65443, 65442, 2
65443, 65439, 2
65443, 65440, 2
65443, 65441, 2
65443, 65445, 1
65454, 65452, 2
65454, 65453, 2
65439, 65438, 2
65439, 65440, 8
65439, 65443, 2
65439, 65441, 1
65439, 65442, 2
65437, 65438, 2
65437, 65435, 2
65437, 65436, 2
65441, 65438, 2
65441, 65440, 2
65441, 65443, 1
65441, 65442, 6
65441, 65439, 2
65445, 65446, 6
65445, 65443, 2
65445, 65444, 2
65445, 65447, 1
65447, 65448, 1
65447, 65446, 2
65447, 65445, 2
65453, 65452, 2
65453, 65454, 2
65438, 65446, 2
65438, 65442, 2
65438, 65439, 1
65438, 65437, 2
65438, 65440, 2
65438, 65441, 2
65438, 65435, 2
65438, 65436, 2
65452, 65446, 2
65452, 65450, 2
65452, 65453, 2
65452, 65454, 2
65452, 65451, 2
65444, 65446, 2
65444, 65443, 2
65444, 65445, 2
65450, 65452, 2
65450, 65446, 2
65450, 65449, 2
65450, 65451, 1
65440, 65438, 2
65440, 65443, 2
65440, 65441, 2
65440, 65442, 2
65440, 65439, 2
65436, 65437, 3
65436, 65438, 1
65436, 65435, 2
65449, 65448, 2
65449, 65446, 2
65449, 65450, 1
65442, 65438, 2
65442, 65440, 2
65442, 65443, 2
65442, 65441, 2
65442, 65439, 2
65435, 65437, 2
65435, 65446, 2
65435, 65438, 2
65435, 65436, 1
65451, 65452, 2
65451, 65446, 2
65451, 65450, 2
