134557, 134547, 2
134557, 134554, 2
134557, 134555, 2
134557, 134559, 1
134533, 134545, 2
134533, 134532, 2
134533, 134534, 2
134533, 134544, 2
134533, 134530, 2
134533, 134529, 2
134533, 134531, 2
134587, 134586, 2
134587, 134543, 2
134587, 134590, 2
134587, 134584, 2
134587, 134575, 2
134587, 134589, 2
134587, 134576, 2
134587, 134588, 1
134587, 134581, 2
134587, 134585, 2
134587, 134554, 2
134587, 134570, 2
134587, 134572, 2
134587, 134583, 2
134587, 134580, 2
134584, 134586, 2
134584, 134580, 2
134584, 134585, 1
134584, 134587, 2
134584, 134570, 2
134584, 134582, 2
134584, 134572, 2
134529, 134543, 2
134529, 134545, 2
134529, 134533, 2
134529, 134532, 2
134529, 134541, 2
134529, 134547, 2
134529, 134531, 2
134529, 134542, 2
134529, 134535, 2
134529, 134527, 2
134529, 134555, 2
134529, 134537, 2
134529, 134534, 2
134529, 134528, 2
134529, 134530, 1
134529, 134554, 2
134529, 134525, 2
134529, 134526, 2
134531, 134530, 2
134531, 134532, 1
134531, 134529, 2
134531, 134533, 2
134566, 134586, 2
134566, 134563, 2
134566, 134565, 2
134566, 134564, 2
134566, 134547, 2
134566, 134567, 1
134578, 134572, 2
134578, 134576, 2
134578, 134582, 1
134578, 134580, 8
134517, 134519, 2
134517, 134520, 2
134517, 134521, 2
134517, 134516, 2
134517, 134518, 1
134527, 134525, 2
134527, 134529, 2
134527, 134524, 2
134527, 134526, 2
134527, 134528, 1
134552, 134551, 2
134552, 134550, 2
134552, 134547, 2
134552, 134556, 2
134552, 134553, 2
134537, 134555, 2
134537, 134554, 2
134537, 134530, 2
134537, 134539, 1
134537, 134529, 2
134537, 134535, 2
134560, 134586, 2
134560, 134561, 3
134560, 134563, 1
134560, 134546, 2
134560, 134558, 2
134560, 134547, 2
134560, 134556, 2
134532, 134543, 2
134532, 134534, 1
134532, 134530, 2
134532, 134529, 2
134532, 134531, 2
134532, 134533, 3
134570, 134547, 2
134570, 134587, 2
134570, 134584, 2
134570, 134573, 2
134570, 134575, 2
134570, 134568, 2
134570, 134576, 2
134570, 134554, 2
134570, 134585, 2
134570, 134571, 0
134570, 134569, 2
134570, 134577, 2
134570, 134572, 1
134525, 134527, 0
134525, 134529, 1
134525, 134524, 2
134525, 134526, 3
134525, 134528, 2
134556, 134552, 2
134556, 134546, 2
134556, 134560, 1
134556, 134558, 8
134556, 134547, 2
134556, 134553, 2
134522, 134521, 2
134522, 134524, 2
134522, 134523, 2
134546, 134545, 2
134546, 134543, 2
134546, 134547, 1
134546, 134539, 2
134546, 134535, 2
134546, 134542, 2
134546, 134561, 2
134546, 134550, 2
134546, 134555, 2
134546, 134554, 2
134546, 134560, 2
134546, 134548, 2
134546, 134569, 2
134546, 134549, 2
134546, 134556, 2
134551, 134550, 2
134551, 134552, 8
134551, 134547, 2
134551, 134553, 1
134538, 134541, 2
134538, 134534, 2
134538, 134544, 2
134538, 134530, 2
134538, 134536, 2
134538, 134540, 2
134564, 134563, 2
134564, 134565, 8
134564, 134566, 1
134564, 134569, 2
134564, 134547, 2
134564, 134567, 2
134590, 134587, 2
134590, 134588, 2
134590, 134591, 1
134590, 134589, 2
134549, 134543, 2
134549, 134548, 2
134549, 134550, 1
134549, 134547, 2
134549, 134546, 2
134536, 134530, 2
134536, 134538, 8
134536, 134541, 2
134536, 134540, 1
134536, 134534, 2
134561, 134569, 2
134561, 134563, 2
134561, 134547, 2
134561, 134546, 2
134561, 134560, 2
134555, 134545, 2
134555, 134557, 1
134555, 134554, 2
134555, 134546, 2
134555, 134529, 2
134555, 134537, 2
134555, 134547, 2
134555, 134539, 2
134555, 134535, 2
134588, 134587, 2
134588, 134589, 1
134588, 134590, 2
134524, 134527, 2
134524, 134522, 2
134524, 134526, 2
134524, 134525, 1
134524, 134521, 2
134524, 134523, 2
134528, 134527, 2
134528, 134525, 2
134528, 134526, 2
134528, 134529, 2
134571, 134568, 2
134571, 134570, 2
134571, 134573, 2
134571, 134572, 2
134571, 134547, 2
134571, 134575, 2
134569, 134563, 2
134569, 134565, 2
134569, 134564, 2
134569, 134546, 2
134569, 134547, 2
134569, 134562, 2
134569, 134575, 2
134569, 134568, 2
134569, 134561, 2
134569, 134554, 2
134569, 134570, 1
134569, 134577, 2
134569, 134567, 2
134558, 134547, 2
134558, 134556, 2
134558, 134560, 2
134520, 134519, 2
134520, 134517, 2
134520, 134521, 1
134520, 134518, 2
134518, 134519, 1
134518, 134517, 2
134518, 134521, 2
134518, 134520, 2
134518, 134516, 2
134572, 134586, 2
134572, 134587, 1
134572, 134584, 2
134572, 134573, 6
134572, 134575, 4
134572, 134578, 2
134572, 134579, 2
134572, 134554, 2
134572, 134583, 2
134572, 134585, 2
134572, 134576, 2
134572, 134571, 2
134572, 134581, 2
134572, 134570, 2
134572, 134577, 2
134572, 134582, 2
134572, 134574, 2
134572, 134580, 2
134516, 134519, 2
134516, 134517, 1
134516, 134518, 2
134516, 134515, 2
134515, 134516, 1
134543, 134545, 2
134543, 134586, 2
134543, 134546, 2
134543, 134544, 2
134543, 134541, 2
134543, 134587, 2
134543, 134529, 2
134543, 134542, 2
134543, 134548, 2
134543, 134532, 2
134543, 134534, 2
134543, 134530, 2
134543, 134549, 2
134543, 134540, 2
134585, 134586, 0
134585, 134587, 2
134585, 134584, 2
134585, 134570, 2
134585, 134572, 2
134562, 134559, 2
134562, 134554, 2
134562, 134569, 2
134562, 134547, 2
134562, 134577, 2
134562, 134575, 2
134573, 134571, 2
134573, 134568, 2
134573, 134570, 2
134573, 134572, 2
134573, 134574, 1
134521, 134522, 3
134521, 134517, 2
134521, 134524, 1
134521, 134520, 2
134521, 134518, 2
134521, 134523, 0
134526, 134527, 2
134526, 134525, 2
134526, 134524, 2
134526, 134529, 2
134526, 134528, 2
134542, 134543, 0
134542, 134530, 2
134542, 134546, 2
134542, 134544, 2
134542, 134541, 2
134542, 134545, 2
134542, 134547, 2
134542, 134529, 2
134542, 134548, 2
134568, 134586, 2
134568, 134547, 2
134568, 134571, 2
134568, 134569, 2
134568, 134570, 2
134568, 134573, 2
134568, 134567, 2
134548, 134543, 2
134548, 134545, 2
134548, 134546, 2
134548, 134530, 2
134548, 134547, 2
134548, 134549, 1
134548, 134542, 2
134550, 134551, 1
134550, 134552, 2
134550, 134546, 2
134550, 134547, 2
134550, 134549, 2
134550, 134553, 2
134559, 134557, 2
134559, 134554, 2
134559, 134577, 2
134559, 134547, 2
134559, 134562, 1
134559, 134575, 2
134582, 134586, 2
134582, 134576, 2
134582, 134584, 1
134582, 134580, 2
134582, 134572, 2
134582, 134578, 2
134583, 134587, 2
134583, 134575, 2
134583, 134581, 2
134583, 134572, 2
134519, 134517, 2
134519, 134520, 1
134519, 134518, 2
134519, 134516, 2
134592, 134591, 2
134577, 134579, 1
134577, 134554, 2
134577, 134569, 2
134577, 134570, 2
134577, 134562, 2
134577, 134575, 2
134577, 134559, 2
134577, 134572, 2
134540, 134543, 2
134540, 134538, 2
134540, 134534, 2
134540, 134541, 1
134540, 134536, 2
134540, 134530, 2
134523, 134521, 2
134523, 134524, 2
134523, 134522, 2
134580, 134576, 2
134580, 134587, 2
134580, 134584, 2
134580, 134578, 2
134580, 134572, 2
134580, 134582, 2
134545, 134543, 2
134545, 134546, 1
134545, 134544, 2
134545, 134541, 2
134545, 134529, 2
134545, 134539, 2
134545, 134535, 2
134545, 134542, 2
134545, 134530, 2
134545, 134555, 2
134545, 134554, 2
134545, 134534, 2
134545, 134548, 2
134545, 134533, 2
134563, 134561, 2
134563, 134565, 2
134563, 134566, 2
134563, 134560, 2
134563, 134569, 2
134563, 134547, 2
134563, 134564, 1
134565, 134563, 2
134565, 134564, 2
134565, 134566, 2
134565, 134569, 2
134565, 134547, 2
134565, 134567, 2
134591, 134592, 1
134591, 134590, 2
134544, 134543, 2
134544, 134545, 1
134544, 134534, 2
134544, 134538, 2
134544, 134541, 2
134544, 134533, 2
134544, 134539, 2
134544, 134530, 2
134544, 134542, 2
134544, 134535, 2
134541, 134543, 2
134541, 134538, 2
134541, 134529, 2
134541, 134544, 2
134541, 134530, 2
134541, 134545, 2
134541, 134536, 2
134541, 134540, 2
134541, 134542, 1
134547, 134557, 2
134547, 134566, 2
134547, 134562, 2
134547, 134529, 2
134547, 134542, 2
134547, 134575, 2
134547, 134568, 2
134547, 134571, 2
134547, 134550, 2
134547, 134565, 2
134547, 134552, 2
134547, 134560, 2
134547, 134570, 2
134547, 134549, 2
134547, 134556, 2
134547, 134546, 2
134547, 134551, 2
134547, 134563, 2
134547, 134564, 2
134547, 134539, 2
134547, 134535, 2
134547, 134553, 2
134547, 134561, 2
134547, 134555, 2
134547, 134554, 4
134547, 134548, 6
134547, 134569, 1
134547, 134558, 2
134547, 134559, 2
134547, 134567, 2
134539, 134545, 2
134539, 134555, 2
134539, 134537, 2
134539, 134546, 2
134539, 134544, 2
134539, 134530, 2
134539, 134554, 2
134539, 134547, 2
134539, 134535, 2
134575, 134559, 2
134575, 134587, 2
134575, 134547, 2
134575, 134562, 2
134575, 134579, 2
134575, 134554, 2
134575, 134581, 2
134575, 134571, 2
134575, 134569, 2
134575, 134570, 2
134575, 134577, 0
134575, 134572, 2
134575, 134583, 2
134589, 134587, 2
134589, 134588, 2
134589, 134590, 1
134553, 134551, 2
134553, 134550, 2
134553, 134552, 2
134553, 134556, 1
134553, 134547, 2
134586, 134543, 2
134586, 134560, 2
134586, 134587, 2
134586, 134584, 2
134586, 134566, 2
134586, 134572, 2
134586, 134568, 2
134586, 134576, 2
134586, 134585, 2
134586, 134582, 2
134586, 134574, 2
134586, 134567, 2
134579, 134577, 2
134579, 134575, 2
134579, 134581, 1
134579, 134572, 2
134554, 134545, 2
134554, 134557, 2
134554, 134546, 2
134554, 134529, 2
134554, 134547, 2
134554, 134539, 2
134554, 134575, 2
134554, 134535, 2
134554, 134555, 0
134554, 134537, 2
134554, 134562, 2
134554, 134587, 2
134554, 134530, 2
134554, 134569, 2
134554, 134570, 2
134554, 134577, 2
134554, 134572, 2
134554, 134559, 2
134534, 134543, 2
134534, 134538, 2
134534, 134532, 2
134534, 134533, 2
134534, 134529, 2
134534, 134544, 2
134534, 134530, 2
134534, 134545, 2
134534, 134536, 1
134534, 134540, 2
134576, 134586, 2
134576, 134582, 2
134576, 134578, 1
134576, 134587, 2
134576, 134570, 2
134576, 134572, 2
134576, 134574, 2
134576, 134580, 2
134530, 134543, 2
134530, 134538, 2
134530, 134554, 2
134530, 134533, 2
134530, 134544, 1
134530, 134541, 2
134530, 134536, 2
134530, 134539, 2
134530, 134531, 6
134530, 134542, 2
134530, 134535, 4
134530, 134537, 2
134530, 134534, 2
134530, 134529, 2
134530, 134545, 2
134530, 134548, 2
134530, 134532, 2
134530, 134540, 2
134535, 134545, 2
134535, 134539, 2
134535, 134555, 2
134535, 134537, 0
134535, 134546, 2
134535, 134544, 2
134535, 134530, 2
134535, 134554, 2
134535, 134547, 2
134535, 134529, 2
134581, 134587, 2
134581, 134579, 2
134581, 134575, 2
134581, 134583, 1
134581, 134572, 2
134574, 134586, 2
134574, 134573, 2
134574, 134572, 2
134574, 134576, 1
134567, 134568, 1
134567, 134586, 2
134567, 134565, 2
134567, 134564, 2
134567, 134566, 2
134567, 134569, 2
134567, 134547, 2
