341086, 341085, 2
341086, 341087, 1
341090, 341089, 2
341090, 341091, 1
341085, 341086, 1
341085, 341083, 2
341085, 341084, 2
341087, 341086, 2
341087, 341088, 1
341084, 341085, 1
341084, 341083, 2
341089, 341090, 1
341089, 341088, 2
341091, 341090, 2
341083, 341085, 2
341083, 341084, 1
341088, 341089, 1
341088, 341087, 2
