334340, 334339, 2
334340, 334341, 2
334351, 334350, 2
334351, 334349, 2
334351, 334352, 1
334351, 334348, 2
334352, 334350, 2
334352, 334349, 2
334352, 334351, 2
334350, 334348, 2
334350, 334349, 2
334350, 334351, 1
334350, 334352, 2
334345, 334346, 1
334345, 334344, 2
334345, 334343, 2
334339, 334340, 3
334339, 334341, 1
334341, 334342, 1
334341, 334340, 2
334341, 334339, 2
334344, 334343, 2
334344, 334345, 1
334343, 334342, 2
334343, 334344, 1
334343, 334345, 2
334347, 334346, 2
334347, 334348, 1
334346, 334345, 2
334346, 334347, 1
334342, 334343, 1
334342, 334341, 2
334349, 334350, 1
334349, 334352, 2
334349, 334351, 2
334349, 334348, 2
334348, 334350, 2
334348, 334347, 2
334348, 334351, 2
334348, 334349, 1
