71144, 71146, 2
71144, 71145, 1
71144, 71143, 2
71144, 71142, 2
71145, 71144, 2
71145, 71146, 3
71145, 71143, 2
71143, 71144, 2
71143, 71145, 2
71143, 71142, 2
71143, 71146, 2
71142, 71144, 1
71142, 71143, 3
71146, 71144, 2
71146, 71145, 2
71146, 71143, 2
