221826, 221828, 2
221826, 221825, 2
221826, 221827, 1
221823, 221822, 2
221823, 221824, 1
221828, 221826, 2
221828, 221827, 2
221825, 221824, 2
221825, 221826, 1
221824, 221823, 2
221824, 221825, 1
221822, 221823, 1
221827, 221828, 1
221827, 221826, 2
