301877, 301879, 2
301877, 301875, 2
301877, 301878, 1
301877, 301876, 6
301877, 301880, 2
301877, 301874, 2
301873, 301875, 1
301873, 301876, 2
301873, 301874, 6
301879, 301877, 2
301879, 301878, 2
301879, 301876, 2
301879, 301880, 2
301875, 301877, 1
301875, 301876, 2
301875, 301873, 2
301875, 301874, 2
301878, 301877, 2
301878, 301876, 2
301878, 301880, 1
301878, 301879, 2
301876, 301877, 2
301876, 301873, 2
301876, 301879, 2
301876, 301875, 2
301876, 301878, 2
301876, 301880, 2
301876, 301874, 2
301880, 301877, 2
301880, 301878, 2
301880, 301876, 2
301880, 301879, 6
301874, 301875, 2
301874, 301877, 2
301874, 301876, 2
301874, 301873, 2
