302036, 302033, 2
302036, 302034, 2
302036, 302035, 2
302036, 302038, 2
302036, 302037, 2
302039, 302040, 0
302039, 302035, 2
302039, 302038, 2
302038, 302036, 2
302038, 302039, 1
302038, 302037, 2
302035, 302036, 8
302035, 302039, 2
302035, 302033, 2
302035, 302037, 1
302035, 302040, 2
302035, 302034, 2
302033, 302034, 8
302033, 302035, 1
302033, 302036, 2
302037, 302036, 2
302037, 302035, 2
302037, 302038, 1
302040, 302039, 2
302040, 302035, 2
302034, 302036, 2
302034, 302035, 2
302034, 302033, 2
