341310, 341311, 1
341310, 341308, 2
341310, 341309, 2
341311, 341310, 2
341311, 341313, 2
341311, 341312, 1
341311, 341308, 2
341311, 341309, 2
341308, 341310, 1
341308, 341311, 2
341308, 341309, 0
341312, 341311, 2
341312, 341309, 2
341312, 341313, 1
341312, 341314, 2
341309, 341310, 2
341309, 341311, 2
341309, 341308, 2
341309, 341312, 2
341309, 341314, 2
341313, 341311, 2
341313, 341312, 2
341313, 341314, 1
341315, 341316, 1
341315, 341314, 2
341316, 341315, 2
341314, 341313, 2
341314, 341312, 2
341314, 341315, 1
341314, 341309, 2
