68052, 68053, 2
68052, 68049, 2
68052, 68051, 2
68051, 68052, 3
68051, 68050, 2
68051, 68053, 1
68051, 68049, 2
68044, 68041, 2
68044, 68043, 2
68044, 68042, 2
68044, 68045, 2
68044, 68040, 2
68054, 68056, 1
68054, 68053, 2
68054, 68055, 8
68060, 68061, 0
68060, 68057, 2
68060, 68058, 2
68060, 68062, 1
68060, 68059, 2
68065, 68066, 3
68065, 68063, 2
68065, 68064, 2
68045, 68047, 1
68045, 68041, 2
68045, 68044, 2
68045, 68046, 8
68045, 68043, 2
68045, 68042, 2
68049, 68047, 2
68049, 68052, 2
68049, 68050, 1
68049, 68051, 2
68049, 68048, 2
68050, 68051, 1
68050, 68049, 2
68043, 68044, 6
68043, 68041, 2
68043, 68040, 2
68043, 68045, 1
68043, 68042, 2
68053, 68052, 2
68053, 68054, 1
68053, 68056, 2
68053, 68051, 2
68053, 68055, 2
68036, 68038, 3
68036, 68037, 6
68036, 68039, 1
68048, 68047, 2
68048, 68049, 2
68047, 68046, 2
68047, 68049, 1
68047, 68045, 2
68047, 68048, 0
68062, 68061, 2
68062, 68063, 1
68062, 68060, 2
68038, 68037, 2
68038, 68039, 2
68038, 68036, 2
68039, 68038, 2
68039, 68037, 2
68039, 68040, 1
68039, 68036, 2
68042, 68045, 2
68042, 68041, 2
68042, 68043, 2
68042, 68040, 2
68042, 68044, 2
68061, 68060, 2
68061, 68062, 2
68037, 68038, 2
68037, 68039, 2
68037, 68036, 2
68058, 68057, 2
68058, 68060, 2
68058, 68059, 2
68041, 68045, 2
68041, 68043, 1
68041, 68042, 8
68041, 68044, 2
68041, 68040, 2
68059, 68057, 2
68059, 68058, 2
68059, 68060, 2
68057, 68056, 2
68057, 68058, 0
68057, 68060, 1
68057, 68059, 8
68046, 68047, 2
68046, 68045, 2
68056, 68057, 1
68056, 68054, 2
68056, 68053, 2
68056, 68055, 2
68066, 68063, 2
68066, 68065, 2
68063, 68066, 2
68063, 68064, 1
68063, 68065, 2
68063, 68062, 2
68064, 68063, 2
68064, 68065, 1
68040, 68039, 2
68040, 68043, 2
68040, 68042, 2
68040, 68044, 2
68040, 68041, 1
68055, 68054, 2
68055, 68056, 2
68055, 68053, 2
