296216, 296215, 2
296216, 296218, 2
296216, 296220, 2
296216, 296217, 2
296225, 296230, 2
296225, 296228, 2
296225, 296229, 2
296225, 296227, 2
296225, 296224, 2
296225, 296226, 0
296230, 296229, 2
296230, 296225, 2
296223, 296221, 2
296223, 296219, 2
296223, 296222, 2
296223, 296224, 1
296219, 296228, 2
296219, 296223, 2
296219, 296224, 2
296219, 296215, 2
296219, 296218, 2
296219, 296220, 2
296219, 296222, 2
296219, 296217, 2
296219, 296226, 2
296227, 296225, 2
296227, 296228, 1
296227, 296226, 2
296228, 296229, 1
296228, 296225, 2
296228, 296219, 2
296228, 296227, 2
296228, 296226, 2
296220, 296216, 2
296220, 296221, 1
296220, 296215, 2
296220, 296218, 2
296220, 296219, 2
296220, 296222, 2
296220, 296226, 2
296222, 296219, 2
296222, 296221, 2
296222, 296220, 2
296222, 296223, 1
296222, 296224, 2
296229, 296225, 2
296229, 296230, 1
296229, 296228, 2
296221, 296224, 2
296221, 296220, 2
296221, 296222, 1
296221, 296223, 2
296224, 296225, 1
296224, 296221, 2
296224, 296223, 2
296224, 296219, 2
296224, 296222, 2
296224, 296226, 2
296215, 296216, 3
296215, 296220, 2
296215, 296219, 2
296215, 296217, 1
296218, 296216, 2
296218, 296220, 1
296218, 296219, 0
296218, 296217, 2
296217, 296215, 2
296217, 296216, 2
296217, 296218, 1
296217, 296219, 2
296226, 296225, 2
296226, 296228, 2
296226, 296220, 2
296226, 296227, 1
296226, 296224, 2
296226, 296219, 2
