187103, 187097, 2
187103, 187100, 2
187103, 187101, 2
187103, 187102, 2
187101, 187103, 2
187101, 187100, 2
187101, 187102, 1
187097, 187103, 2
187097, 187100, 1
187097, 187096, 2
187097, 187098, 3
187097, 187099, 8
187100, 187103, 1
187100, 187098, 2
187100, 187101, 3
187100, 187097, 2
187100, 187099, 2
187096, 187098, 2
187096, 187097, 1
187102, 187103, 2
187102, 187101, 2
187098, 187100, 2
187098, 187096, 2
187098, 187097, 2
187098, 187099, 2
187099, 187100, 2
187099, 187097, 2
187099, 187098, 2
