301371, 301369, 2
301371, 301372, 2
301371, 301370, 2
301371, 301373, 1
301374, 301373, 2
301374, 301376, 1
301374, 301375, 2
301374, 301372, 2
301376, 301369, 2
301376, 301375, 6
301376, 301374, 2
301376, 301372, 2
301376, 301373, 2
301373, 301371, 2
301373, 301374, 1
301373, 301376, 2
301373, 301369, 2
301373, 301372, 6
301373, 301370, 2
301373, 301375, 2
301369, 301373, 2
301369, 301371, 2
301369, 301376, 2
301369, 301370, 2
301369, 301372, 2
301372, 301371, 2
301372, 301374, 2
301372, 301376, 2
301372, 301373, 2
301372, 301369, 2
301372, 301375, 2
301372, 301370, 2
301370, 301369, 6
301370, 301371, 1
301370, 301372, 2
301370, 301373, 2
301370, 301375, 2
301375, 301373, 2
301375, 301376, 2
301375, 301374, 2
301375, 301370, 2
301375, 301372, 2
