160713, 160712, 2
160713, 160714, 1
160713, 160711, 2
160713, 160718, 2
160711, 160712, 2
160711, 160713, 2
160711, 160710, 2
160711, 160718, 2
160718, 160711, 2
160718, 160717, 2
160718, 160713, 2
160718, 160715, 2
160718, 160714, 2
160718, 160716, 2
160717, 160718, 3
160717, 160716, 2
160712, 160713, 1
160712, 160714, 2
160712, 160710, 2
160712, 160711, 2
160715, 160714, 2
160715, 160718, 2
160715, 160716, 1
160710, 160712, 1
160710, 160711, 3
160714, 160712, 2
160714, 160713, 2
160714, 160718, 2
160714, 160715, 1
160716, 160715, 2
160716, 160718, 2
160716, 160717, 1
