163741, 163745, 2
163741, 163740, 2
163741, 163742, 2
163741, 163739, 2
163741, 163735, 2
163741, 163738, 2
163741, 163743, 2
163726, 163733, 2
163726, 163728, 2
163726, 163729, 2
163726, 163725, 2
163726, 163731, 2
163726, 163727, 1
163726, 163736, 2
163726, 163732, 2
163744, 163745, 2
163744, 163734, 2
163744, 163740, 2
163744, 163729, 2
163744, 163733, 2
163744, 163739, 2
163744, 163743, 2
163744, 163742, 2
163745, 163744, 2
163745, 163734, 2
163745, 163741, 2
163745, 163740, 2
163745, 163733, 2
163745, 163735, 2
163745, 163743, 2
163737, 163735, 2
163737, 163734, 2
163737, 163736, 2
163737, 163738, 1
163728, 163726, 2
163728, 163729, 1
163728, 163725, 2
163728, 163724, 2
163728, 163727, 2
163728, 163722, 2
163728, 163723, 2
163725, 163728, 2
163725, 163726, 1
163725, 163727, 2
163725, 163724, 2
163725, 163731, 2
163725, 163736, 2
163739, 163744, 2
163739, 163741, 3
163739, 163740, 0
163739, 163738, 2
163739, 163742, 1
163739, 163743, 2
163727, 163730, 2
163727, 163734, 2
163727, 163728, 6
163727, 163729, 2
163727, 163726, 2
163727, 163733, 2
163727, 163735, 2
163727, 163731, 4
163727, 163736, 1
163727, 163725, 2
163727, 163732, 2
163743, 163745, 1
163743, 163734, 2
163743, 163741, 2
163743, 163740, 2
163743, 163744, 0
163743, 163742, 2
163743, 163735, 2
163743, 163739, 2
163723, 163724, 1
163723, 163731, 2
163723, 163728, 2
163723, 163722, 2
163730, 163727, 2
163730, 163729, 2
163730, 163732, 1
163735, 163745, 2
163735, 163737, 2
163735, 163741, 2
163735, 163738, 2
163735, 163743, 2
163735, 163727, 2
163735, 163736, 2
163735, 163731, 2
163735, 163734, 2
163724, 163731, 2
163724, 163728, 2
163724, 163725, 1
163724, 163723, 2
163732, 163727, 2
163732, 163733, 2
163732, 163729, 2
163732, 163726, 2
163732, 163730, 2
163733, 163744, 2
163733, 163734, 0
163733, 163740, 2
163733, 163729, 2
163733, 163726, 2
163733, 163738, 2
163733, 163727, 2
163733, 163736, 2
163733, 163745, 2
163733, 163732, 2
163734, 163744, 2
163734, 163737, 2
163734, 163740, 2
163734, 163729, 2
163734, 163745, 2
163734, 163738, 2
163734, 163735, 2
163734, 163727, 2
163734, 163736, 2
163734, 163743, 2
163734, 163733, 2
163740, 163744, 2
163740, 163734, 2
163740, 163741, 2
163740, 163729, 2
163740, 163743, 2
163740, 163745, 2
163740, 163739, 2
163740, 163738, 2
163740, 163742, 2
163740, 163733, 2
163729, 163730, 4
163729, 163734, 2
163729, 163728, 2
163729, 163726, 2
163729, 163733, 1
163729, 163727, 2
163729, 163744, 2
163729, 163736, 2
163729, 163740, 2
163729, 163732, 2
163722, 163728, 2
163722, 163723, 1
163738, 163735, 2
163738, 163737, 2
163738, 163741, 2
163738, 163740, 2
163738, 163733, 2
163738, 163739, 1
163738, 163734, 2
163742, 163739, 2
163742, 163744, 2
163742, 163743, 1
163742, 163741, 2
163742, 163740, 2
163731, 163735, 2
163731, 163726, 2
163731, 163725, 2
163731, 163724, 2
163731, 163727, 2
163731, 163736, 2
163731, 163723, 2
163736, 163733, 2
163736, 163737, 1
163736, 163729, 2
163736, 163726, 2
163736, 163735, 4
163736, 163725, 2
163736, 163727, 2
163736, 163731, 2
163736, 163734, 2
