259114, 259113, 2
259114, 259112, 2
259114, 259115, 1
259113, 259114, 1
259113, 259115, 2
259113, 259112, 2
259116, 259117, 1
259116, 259115, 2
259116, 259118, 2
259117, 259118, 1
259117, 259115, 2
259117, 259116, 2
259115, 259117, 2
259115, 259113, 2
259115, 259114, 2
259115, 259116, 1
259112, 259114, 2
259112, 259113, 1
259118, 259117, 2
259118, 259116, 2
