126561, 126562, 0
126561, 126559, 2
126561, 126568, 2
126561, 126566, 2
126561, 126567, 1
126561, 126564, 2
126561, 126560, 2
126561, 126565, 2
126561, 126563, 2
126561, 126572, 2
126548, 126547, 2
126548, 126549, 1
126542, 126541, 2
126542, 126543, 2
126542, 126540, 2
126572, 126561, 2
126572, 126571, 2
126572, 126565, 2
126572, 126569, 2
126572, 126573, 2
126572, 126570, 2
126572, 126568, 2
126572, 126566, 2
126564, 126561, 2
126564, 126565, 1
126564, 126563, 2
126564, 126567, 2
126570, 126571, 1
126570, 126572, 2
126570, 126566, 2
126570, 126569, 2
126550, 126552, 2
126550, 126556, 2
126550, 126553, 2
126550, 126551, 1
126550, 126554, 2
126550, 126549, 2
126547, 126548, 1
126547, 126546, 2
126547, 126553, 2
126551, 126557, 2
126551, 126552, 0
126551, 126556, 1
126551, 126555, 2
126551, 126553, 2
126551, 126550, 2
126551, 126554, 2
126551, 126560, 2
126557, 126555, 2
126557, 126558, 1
126557, 126556, 2
126557, 126560, 2
126557, 126551, 2
126571, 126573, 1
126571, 126570, 2
126571, 126572, 0
126571, 126566, 2
126543, 126541, 2
126543, 126544, 1
126543, 126542, 2
126543, 126540, 2
126544, 126545, 1
126544, 126543, 2
126555, 126557, 2
126555, 126560, 2
126555, 126556, 2
126555, 126554, 2
126555, 126551, 2
126573, 126571, 2
126573, 126572, 2
126560, 126561, 2
126560, 126562, 2
126560, 126559, 2
126560, 126563, 2
126560, 126567, 2
126560, 126555, 2
126560, 126558, 2
126560, 126554, 2
126560, 126553, 2
126560, 126557, 2
126560, 126551, 2
126563, 126561, 2
126563, 126562, 2
126563, 126559, 2
126563, 126567, 2
126563, 126564, 1
126563, 126560, 2
126541, 126543, 2
126541, 126542, 1
126541, 126540, 2
126541, 126539, 2
126562, 126561, 2
126562, 126560, 2
126562, 126559, 2
126562, 126563, 1
126538, 126540, 2
126538, 126539, 1
126540, 126541, 3
126540, 126538, 2
126540, 126543, 1
126540, 126542, 2
126540, 126539, 2
126556, 126557, 1
126556, 126555, 2
126556, 126553, 2
126556, 126550, 2
126556, 126554, 2
126556, 126551, 2
126545, 126546, 1
126545, 126544, 2
126553, 126552, 2
126553, 126556, 2
126553, 126547, 2
126553, 126560, 2
126553, 126550, 2
126553, 126554, 1
126553, 126551, 2
126567, 126561, 2
126567, 126559, 2
126567, 126568, 1
126567, 126563, 2
126567, 126564, 2
126567, 126560, 2
126567, 126565, 2
126567, 126566, 2
126554, 126556, 2
126554, 126555, 1
126554, 126560, 2
126554, 126550, 2
126554, 126553, 2
126554, 126551, 2
126559, 126561, 1
126559, 126562, 2
126559, 126567, 2
126559, 126560, 0
126559, 126558, 2
126559, 126563, 2
126566, 126561, 2
126566, 126571, 2
126566, 126565, 2
126566, 126572, 2
126566, 126567, 2
126566, 126570, 2
126566, 126568, 2
126539, 126541, 2
126539, 126538, 2
126539, 126540, 1
126569, 126570, 1
126569, 126568, 2
126569, 126572, 2
126546, 126545, 2
126546, 126547, 1
126565, 126561, 2
126565, 126564, 2
126565, 126572, 2
126565, 126566, 1
126565, 126567, 2
126552, 126553, 1
126552, 126550, 2
126552, 126551, 2
126558, 126557, 2
126558, 126560, 2
126558, 126559, 1
126568, 126561, 2
126568, 126567, 2
126568, 126572, 2
126568, 126566, 2
126568, 126569, 1
126549, 126548, 2
126549, 126550, 1
