124282, 124281, 2
124282, 124283, 1
124276, 124277, 1
124276, 124275, 2
124263, 124261, 2
124263, 124264, 1
124263, 124262, 2
124263, 124271, 2
124265, 124264, 2
124265, 124268, 2
124265, 124266, 8
124265, 124267, 1
124286, 124287, 1
124286, 124285, 2
124261, 124263, 2
124261, 124271, 2
124261, 124262, 1
124272, 124270, 2
124272, 124273, 1
124272, 124271, 2
124264, 124263, 2
124264, 124265, 1
124264, 124271, 2
124264, 124266, 2
124264, 124267, 2
124274, 124284, 2
124274, 124275, 2
124274, 124285, 2
124274, 124278, 2
124274, 124270, 2
124274, 124273, 2
124274, 124271, 2
124274, 124277, 2
124266, 124265, 2
124266, 124264, 2
124266, 124267, 2
124267, 124265, 2
124267, 124264, 2
124267, 124268, 1
124267, 124266, 2
124270, 124272, 1
124270, 124271, 0
124270, 124274, 2
124270, 124269, 2
124270, 124273, 2
124273, 124270, 2
124273, 124272, 2
124273, 124271, 2
124273, 124274, 0
124273, 124275, 1
124285, 124284, 2
124285, 124286, 1
124285, 124274, 2
124285, 124283, 2
124280, 124279, 2
124280, 124281, 1
124280, 124278, 2
124289, 124288, 2
124288, 124287, 2
124288, 124289, 1
124269, 124270, 1
124269, 124271, 2
124269, 124268, 2
124275, 124274, 2
124275, 124279, 2
124275, 124276, 1
124275, 124277, 2
124275, 124273, 2
124284, 124283, 2
124284, 124274, 2
124284, 124285, 1
124278, 124279, 8
124278, 124274, 2
124278, 124277, 2
124278, 124280, 1
124268, 124265, 2
124268, 124271, 2
124268, 124269, 1
124268, 124267, 2
124277, 124274, 2
124277, 124275, 2
124277, 124276, 2
124277, 124278, 1
124279, 124278, 2
124279, 124280, 2
124279, 124275, 2
124283, 124284, 1
124283, 124281, 2
124283, 124282, 2
124283, 124285, 2
124262, 124263, 1
124262, 124261, 2
124287, 124286, 2
124287, 124288, 1
124281, 124282, 1
124281, 124283, 2
124281, 124280, 2
124271, 124261, 2
124271, 124272, 2
124271, 124264, 2
124271, 124274, 2
124271, 124269, 2
124271, 124263, 2
124271, 124273, 2
124271, 124270, 2
124271, 124268, 2
