72469, 72470, 1
72469, 72467, 2
72469, 72468, 2
72471, 72472, 0
72471, 72473, 1
72471, 72470, 2
72473, 72471, 2
72473, 72472, 2
72473, 72470, 2
72467, 72469, 2
72467, 72468, 1
72467, 72470, 2
72472, 72471, 2
72472, 72473, 2
72472, 72470, 2
72470, 72471, 1
72470, 72473, 2
72470, 72467, 2
72470, 72472, 2
72470, 72469, 2
72470, 72468, 2
72468, 72469, 1
72468, 72467, 2
72468, 72470, 2
