134973, 134972, 2
134973, 134974, 2
134973, 134975, 2
134970, 134971, 3
134970, 134976, 2
134970, 134975, 1
134970, 134969, 6
134970, 134968, 2
134971, 134969, 2
134971, 134970, 2
134971, 134975, 2
134971, 134972, 1
134971, 134968, 2
134969, 134970, 2
134969, 134975, 2
134969, 134971, 2
134969, 134976, 2
134969, 134972, 2
134969, 134974, 2
134969, 134968, 2
134974, 134973, 2
134974, 134972, 2
134974, 134969, 2
134974, 134975, 2
134975, 134973, 2
134975, 134970, 2
134975, 134971, 2
134975, 134969, 2
134975, 134974, 2
134975, 134976, 0
134975, 134972, 2
134975, 134968, 2
134976, 134972, 2
134976, 134970, 2
134976, 134975, 2
134976, 134969, 2
134976, 134968, 2
134972, 134973, 8
134972, 134971, 2
134972, 134969, 2
134972, 134976, 2
134972, 134974, 1
134972, 134975, 2
134968, 134976, 2
134968, 134970, 1
134968, 134971, 2
134968, 134969, 2
134968, 134975, 2
