221043, 221041, 2
221043, 221045, 2
221043, 221044, 2
221043, 221042, 2
221042, 221043, 2
221042, 221045, 2
221042, 221044, 2
221042, 221041, 2
221045, 221043, 2
221045, 221044, 2
221045, 221042, 2
221044, 221043, 2
221044, 221042, 2
221044, 221045, 3
221044, 221041, 2
221041, 221043, 8
221041, 221044, 1
221041, 221042, 3
