119485, 119484, 2
119485, 119483, 2
119484, 119485, 3
119484, 119480, 2
119484, 119479, 2
119484, 119483, 2
119484, 119481, 2
119472, 119474, 2
119472, 119473, 1
119474, 119480, 2
119474, 119472, 2
119474, 119473, 2
119474, 119475, 1
119478, 119479, 1
119478, 119477, 2
119481, 119484, 2
119481, 119479, 2
119481, 119483, 2
119481, 119480, 2
119481, 119482, 1
119480, 119479, 2
119480, 119483, 2
119480, 119474, 2
119480, 119481, 2
119480, 119484, 2
119480, 119482, 2
119477, 119479, 2
119477, 119476, 2
119477, 119478, 1
119475, 119476, 1
119475, 119474, 2
119482, 119481, 2
119482, 119480, 2
119482, 119483, 1
119482, 119479, 2
119479, 119481, 3
119479, 119483, 2
119479, 119484, 1
119479, 119480, 0
119479, 119477, 2
119479, 119478, 2
119479, 119482, 2
119483, 119485, 2
119483, 119481, 2
119483, 119479, 2
119483, 119484, 2
119483, 119480, 2
119483, 119482, 2
119476, 119477, 1
119476, 119475, 2
119473, 119472, 2
119473, 119474, 1
