196924, 196925, 3
196924, 196926, 1
196924, 196927, 2
196925, 196924, 2
196925, 196926, 2
196925, 196928, 2
196926, 196924, 2
196926, 196925, 2
196926, 196927, 1
196927, 196924, 2
196927, 196926, 2
196927, 196928, 3
196928, 196925, 2
196928, 196927, 2
