17714, 17716, 2
17714, 17717, 2
17714, 17715, 1
17714, 17713, 2
17725, 17724, 2
17715, 17714, 2
17715, 17716, 1
17715, 17717, 2
17719, 17718, 2
17719, 17717, 2
17719, 17720, 0
17719, 17721, 1
17711, 17710, 2
17711, 17712, 3
17711, 17709, 2
17711, 17713, 1
17710, 17709, 2
17710, 17711, 1
17718, 17717, 2
17718, 17720, 2
17718, 17719, 1
17724, 17725, 1
17724, 17723, 2
17720, 17718, 2
17720, 17717, 2
17720, 17719, 2
17720, 17721, 2
17716, 17714, 2
17716, 17717, 1
17716, 17715, 2
17716, 17713, 2
17709, 17710, 1
17709, 17711, 2
17722, 17721, 2
17722, 17723, 2
17721, 17723, 1
17721, 17720, 2
17721, 17722, 3
17721, 17719, 2
17712, 17711, 2
17712, 17713, 2
17723, 17721, 2
17723, 17724, 1
17723, 17722, 2
17717, 17714, 2
17717, 17716, 2
17717, 17719, 2
17717, 17718, 1
17717, 17715, 2
17717, 17720, 2
17713, 17714, 1
17713, 17712, 2
17713, 17716, 2
17713, 17711, 2
