16039, 16041, 2
16039, 16040, 2
16039, 16038, 2
16041, 16039, 2
16041, 16045, 2
16041, 16040, 2
16041, 16042, 2
16041, 16043, 2
16045, 16041, 2
16045, 16043, 2
16045, 16037, 2
16045, 16036, 2
16045, 16044, 2
16045, 16040, 2
16045, 16046, 2
16043, 16041, 2
16043, 16045, 0
16043, 16044, 3
16043, 16046, 1
16043, 16040, 2
16043, 16042, 2
16037, 16045, 2
16037, 16040, 1
16037, 16036, 2
16037, 16038, 3
16036, 16045, 2
16036, 16040, 2
16036, 16037, 1
16036, 16038, 2
16046, 16045, 2
16046, 16043, 2
16046, 16044, 2
16038, 16039, 2
16038, 16040, 2
16038, 16037, 2
16038, 16036, 2
16044, 16046, 2
16044, 16045, 2
16044, 16043, 2
16044, 16042, 2
16040, 16039, 2
16040, 16041, 3
16040, 16045, 2
16040, 16037, 2
16040, 16036, 2
16040, 16038, 2
16040, 16043, 1
16042, 16041, 2
16042, 16043, 2
16042, 16044, 2
