71405, 71402, 2
71405, 71404, 2
71405, 71403, 2
71404, 71401, 2
71404, 71405, 1
71404, 71403, 2
71404, 71402, 2
71403, 71405, 2
71403, 71401, 2
71403, 71404, 2
71403, 71402, 2
71401, 71402, 1
71401, 71403, 2
71401, 71404, 2
71401, 71400, 2
71402, 71405, 2
71402, 71401, 2
71402, 71404, 1
71402, 71403, 8
71400, 71401, 1
