125012, 125011, 2
125012, 125013, 1
125012, 125010, 2
125029, 125033, 2
125029, 125030, 1
125029, 125021, 2
125029, 125027, 2
125029, 125026, 2
125029, 125028, 2
125022, 125019, 2
125022, 125023, 1
125022, 125021, 2
125022, 125020, 2
125037, 125033, 2
125037, 125036, 2
125037, 125034, 2
125037, 125035, 2
125017, 125018, 1
125017, 125011, 2
125017, 125015, 2
125017, 125016, 2
125017, 125020, 2
125013, 125012, 2
125013, 125011, 2
125013, 125015, 2
125013, 125014, 2
125030, 125029, 2
125030, 125031, 1
125030, 125033, 2
125027, 125029, 2
125027, 125020, 2
125027, 125019, 2
125027, 125023, 2
125027, 125025, 2
125027, 125028, 1
125027, 125021, 2
125027, 125026, 2
125027, 125024, 2
125009, 125010, 1
125018, 125019, 1
125018, 125020, 2
125018, 125017, 2
125031, 125033, 2
125031, 125032, 1
125031, 125030, 2
125032, 125031, 2
125032, 125033, 0
125032, 125034, 1
125015, 125016, 2
125015, 125010, 2
125015, 125013, 2
125015, 125014, 2
125015, 125017, 2
125036, 125033, 2
125036, 125037, 0
125036, 125035, 2
125011, 125012, 3
125011, 125010, 2
125011, 125017, 2
125011, 125016, 2
125011, 125020, 2
125011, 125013, 2
125011, 125014, 1
125035, 125033, 2
125035, 125037, 2
125035, 125036, 1
125035, 125034, 2
125010, 125012, 2
125010, 125009, 2
125010, 125011, 1
125010, 125020, 2
125010, 125015, 2
125010, 125014, 2
125020, 125018, 2
125020, 125011, 2
125020, 125010, 2
125020, 125017, 2
125020, 125019, 2
125020, 125023, 2
125020, 125021, 2
125020, 125022, 2
125020, 125027, 2
125023, 125022, 2
125023, 125020, 2
125023, 125019, 2
125023, 125021, 2
125023, 125027, 2
125023, 125024, 1
125016, 125011, 2
125016, 125015, 2
125016, 125014, 2
125016, 125017, 1
125028, 125029, 1
125028, 125027, 2
125028, 125026, 2
125033, 125029, 2
125033, 125030, 2
125033, 125037, 2
125033, 125035, 2
125033, 125034, 2
125033, 125031, 2
125033, 125025, 2
125033, 125032, 2
125033, 125021, 2
125033, 125026, 2
125033, 125036, 2
125014, 125011, 2
125014, 125015, 3
125014, 125016, 1
125014, 125010, 2
125014, 125013, 2
125034, 125037, 2
125034, 125033, 2
125034, 125035, 1
125034, 125032, 2
125019, 125018, 2
125019, 125022, 2
125019, 125020, 0
125019, 125023, 2
125019, 125021, 1
125019, 125027, 2
125025, 125021, 2
125025, 125033, 2
125025, 125027, 2
125025, 125026, 1
125025, 125024, 2
125021, 125029, 2
125021, 125022, 0
125021, 125033, 2
125021, 125020, 2
125021, 125019, 2
125021, 125023, 2
125021, 125025, 2
125021, 125027, 1
125021, 125026, 2
125021, 125024, 2
125026, 125029, 2
125026, 125033, 2
125026, 125021, 2
125026, 125025, 2
125026, 125027, 2
125026, 125028, 2
125024, 125023, 2
125024, 125025, 1
125024, 125027, 2
125024, 125021, 2
