197361, 197360, 2
197361, 197363, 2
197361, 197362, 1
197360, 197361, 0
197360, 197363, 1
197360, 197362, 2
197363, 197361, 2
197363, 197360, 2
197363, 197362, 2
197363, 197364, 1
197363, 197365, 2
197364, 197363, 2
197364, 197365, 1
197366, 197365, 2
197362, 197361, 2
197362, 197360, 2
197362, 197363, 2
197365, 197363, 2
197365, 197366, 1
197365, 197364, 2
