301866, 301867, 1
301866, 301865, 2
301865, 301866, 1
301872, 301869, 2
301872, 301871, 2
301867, 301866, 2
301867, 301868, 1
301870, 301869, 2
301870, 301871, 2
301870, 301868, 2
301869, 301872, 2
301869, 301870, 8
301869, 301871, 1
301869, 301868, 2
301871, 301870, 2
301871, 301869, 2
301871, 301872, 1
301868, 301867, 2
301868, 301870, 2
301868, 301869, 1
