339479, 339480, 1
339479, 339478, 2
339480, 339479, 2
339480, 339478, 2
339478, 339479, 1
339478, 339480, 2
339478, 339477, 2
339477, 339476, 2
339477, 339478, 1
339475, 339476, 1
339476, 339475, 2
339476, 339477, 1
