222552, 222548, 2
222552, 222554, 2
222552, 222551, 2
222552, 222553, 2
222553, 222554, 2
222553, 222552, 2
222553, 222551, 2
222553, 222550, 2
222546, 222550, 2
222546, 222547, 1
222546, 222551, 2
222546, 222549, 2
222554, 222548, 2
222554, 222552, 2
222554, 222553, 2
222554, 222551, 2
222548, 222552, 2
222548, 222554, 2
222548, 222550, 2
222548, 222549, 2
222548, 222547, 2
222548, 222551, 2
222550, 222547, 2
222550, 222553, 2
222550, 222546, 2
222550, 222548, 2
222550, 222551, 2
222550, 222549, 2
222551, 222552, 0
222551, 222553, 3
222551, 222546, 2
222551, 222554, 1
222551, 222548, 2
222551, 222550, 2
222551, 222547, 2
222551, 222549, 2
222547, 222548, 0
222547, 222550, 8
222547, 222551, 1
222547, 222546, 2
222547, 222549, 3
222549, 222548, 2
222549, 222550, 2
222549, 222547, 2
222549, 222551, 2
222549, 222546, 2
