258007, 258009, 2
258007, 258008, 1
258007, 258006, 2
258009, 258007, 2
258009, 258006, 2
258009, 258010, 1
258009, 258008, 2
258006, 258007, 1
258006, 258009, 2
258006, 258008, 2
258010, 258009, 2
258010, 258008, 2
258008, 258007, 2
258008, 258009, 1
258008, 258006, 2
258008, 258010, 2
