121895, 121897, 2
121895, 121896, 1
121895, 121910, 2
121895, 121894, 2
121910, 121895, 2
121910, 121900, 2
121910, 121911, 2
121910, 121898, 2
121910, 121912, 2
121910, 121908, 2
121910, 121905, 2
121910, 121909, 2
121910, 121894, 2
121910, 121913, 2
121910, 121899, 2
121910, 121901, 2
121910, 121904, 2
121910, 121907, 2
121900, 121899, 2
121900, 121910, 2
121900, 121901, 1
121911, 121910, 2
121911, 121909, 2
121911, 121908, 2
121911, 121906, 2
121911, 121912, 1
121911, 121907, 2
121898, 121899, 1
121898, 121897, 2
121898, 121910, 2
121905, 121910, 2
121905, 121904, 2
121905, 121906, 3
121905, 121907, 1
121912, 121910, 2
121912, 121911, 2
121912, 121913, 1
121903, 121904, 1
121903, 121902, 2
121903, 121901, 2
121897, 121895, 2
121897, 121898, 1
121897, 121896, 2
121897, 121894, 2
121896, 121895, 2
121896, 121897, 1
121896, 121894, 2
121902, 121901, 2
121902, 121903, 1
121907, 121910, 2
121907, 121905, 2
121907, 121909, 2
121907, 121908, 1
121907, 121906, 2
121907, 121911, 2
121913, 121910, 2
121913, 121912, 2
121899, 121900, 1
121899, 121910, 2
121899, 121898, 2
121908, 121910, 0
121908, 121911, 1
121908, 121909, 3
121908, 121907, 2
121901, 121900, 2
121901, 121910, 2
121901, 121902, 1
121901, 121903, 2
121904, 121910, 2
121904, 121905, 1
121904, 121903, 2
121906, 121905, 2
121906, 121911, 2
121906, 121909, 2
121906, 121907, 2
121894, 121895, 1
121894, 121897, 2
121894, 121910, 2
121894, 121896, 2
121909, 121908, 2
121909, 121910, 2
121909, 121911, 2
121909, 121906, 2
121909, 121907, 2
