61547, 61549, 2
61547, 61548, 1
61547, 61546, 2
61554, 61555, 0
61554, 61553, 2
61554, 61549, 2
61554, 61552, 2
61550, 61552, 2
61550, 61548, 2
61550, 61549, 2
61550, 61551, 2
61546, 61547, 1
61546, 61548, 2
61546, 61549, 2
61555, 61554, 2
61555, 61552, 2
61555, 61549, 2
61548, 61549, 6
61548, 61547, 2
61548, 61546, 2
61548, 61550, 0
61548, 61551, 1
61549, 61554, 2
61549, 61547, 2
61549, 61550, 2
61549, 61555, 2
61549, 61548, 2
61549, 61546, 2
61549, 61552, 2
61553, 61554, 1
61553, 61552, 2
61551, 61548, 2
61551, 61552, 1
61551, 61550, 2
61552, 61554, 2
61552, 61550, 2
61552, 61555, 2
61552, 61553, 1
61552, 61549, 2
61552, 61551, 2
