65476, 65475, 2
65476, 65477, 1
65475, 65476, 1
65485, 65486, 2
65485, 65484, 2
65485, 65483, 2
65486, 65487, 1
65486, 65485, 2
65486, 65484, 2
65486, 65483, 2
65487, 65486, 2
65487, 65488, 1
65494, 65493, 2
65494, 65495, 1
65481, 65480, 2
65481, 65482, 1
65480, 65481, 1
65480, 65482, 2
65480, 65479, 2
65480, 65478, 2
65484, 65486, 1
65484, 65485, 8
65484, 65483, 2
65489, 65490, 1
65489, 65488, 2
65479, 65480, 2
65479, 65478, 2
65490, 65489, 2
65490, 65491, 1
65488, 65487, 2
65488, 65489, 1
65478, 65479, 3
65478, 65480, 1
65478, 65477, 2
65495, 65494, 2
65491, 65492, 1
65491, 65490, 2
65492, 65491, 2
65492, 65493, 1
65493, 65492, 2
65493, 65494, 1
65482, 65481, 2
65482, 65480, 2
65482, 65483, 1
65477, 65476, 2
65477, 65478, 1
65483, 65486, 2
65483, 65485, 2
65483, 65482, 2
65483, 65484, 1
