121340, 121355, 2
121340, 121342, 2
121340, 121347, 2
121340, 121339, 2
121340, 121354, 2
121340, 121343, 2
121340, 121338, 2
121340, 121349, 2
121340, 121345, 2
121340, 121350, 2
121340, 121341, 2
121340, 121344, 2
121340, 121348, 2
121355, 121340, 2
121355, 121354, 2
121342, 121340, 2
121342, 121341, 2
121342, 121343, 1
121342, 121344, 2
121342, 121339, 2
121347, 121340, 2
121347, 121349, 2
121347, 121345, 2
121347, 121346, 2
121347, 121348, 2
121339, 121340, 3
121339, 121349, 2
121339, 121342, 2
121339, 121338, 2
121339, 121350, 2
121339, 121341, 2
121339, 121345, 2
121339, 121344, 2
121354, 121340, 2
121354, 121355, 1
121354, 121353, 2
121354, 121352, 2
121343, 121340, 2
121343, 121342, 2
121343, 121338, 2
121343, 121344, 1
121352, 121351, 2
121352, 121353, 1
121352, 121354, 2
121352, 121350, 2
121353, 121354, 1
121353, 121352, 2
121338, 121340, 2
121338, 121339, 3
121338, 121341, 1
121338, 121343, 2
121338, 121344, 2
121338, 121337, 2
121351, 121352, 1
121351, 121350, 2
121345, 121340, 2
121345, 121346, 1
121345, 121339, 2
121345, 121347, 2
121345, 121344, 2
121345, 121348, 2
121348, 121340, 2
121348, 121349, 1
121348, 121345, 2
121348, 121347, 2
121348, 121346, 2
121349, 121340, 2
121349, 121347, 2
121349, 121339, 2
121349, 121348, 2
121349, 121350, 1
121341, 121340, 2
121341, 121342, 1
121341, 121338, 2
121341, 121344, 2
121341, 121339, 2
121346, 121345, 2
121346, 121347, 8
121346, 121348, 1
121344, 121340, 2
121344, 121342, 2
121344, 121345, 1
121344, 121339, 2
121344, 121341, 2
121344, 121343, 2
121344, 121338, 2
121337, 121338, 1
121350, 121340, 2
121350, 121351, 1
121350, 121352, 2
121350, 121339, 2
121350, 121349, 2
