133977, 133976, 2
133977, 133975, 2
133977, 133979, 1
133977, 133978, 3
133976, 133975, 2
133976, 133977, 1
133975, 133976, 1
133975, 133978, 2
133975, 133977, 2
133979, 133978, 2
133979, 133977, 2
133979, 133980, 1
133981, 133980, 2
133978, 133975, 2
133978, 133979, 2
133978, 133977, 2
133980, 133979, 2
133980, 133981, 1
