65399, 65398, 2
65399, 65402, 2
65399, 65400, 0
65399, 65401, 1
65400, 65398, 2
65400, 65402, 2
65400, 65399, 2
65400, 65401, 2
65403, 65402, 2
65403, 65404, 2
65403, 65405, 2
65398, 65395, 2
65398, 65399, 1
65398, 65400, 2
65398, 65397, 2
65398, 65396, 2
65398, 65401, 2
65397, 65398, 1
65397, 65395, 2
65397, 65396, 2
65408, 65410, 1
65408, 65405, 2
65408, 65409, 0
65408, 65407, 2
65408, 65406, 2
65396, 65398, 2
65396, 65395, 2
65396, 65397, 2
65413, 65412, 2
65401, 65398, 2
65401, 65402, 1
65401, 65399, 2
65401, 65400, 2
65402, 65399, 2
65402, 65400, 2
65402, 65403, 0
65402, 65404, 1
65402, 65405, 2
65402, 65401, 2
65395, 65398, 2
65395, 65397, 1
65395, 65396, 3
65405, 65402, 2
65405, 65403, 2
65405, 65406, 1
65405, 65409, 2
65405, 65404, 2
65405, 65408, 2
65405, 65407, 2
65407, 65410, 2
65407, 65405, 2
65407, 65408, 2
65407, 65406, 2
65411, 65410, 2
65411, 65412, 1
65406, 65409, 2
65406, 65405, 2
65406, 65408, 1
65406, 65407, 8
65410, 65409, 2
65410, 65408, 2
65410, 65407, 2
65410, 65411, 1
65404, 65402, 2
65404, 65405, 1
65404, 65403, 2
65409, 65410, 2
65409, 65405, 2
65409, 65408, 2
65409, 65406, 2
65412, 65413, 1
65412, 65411, 2
