163967, 163973, 2
163967, 163968, 2
163967, 163965, 2
163967, 163971, 2
163967, 163970, 2
163967, 163969, 2
163967, 163966, 2
163967, 163972, 2
163974, 163973, 2
163974, 163971, 2
163974, 163975, 1
163974, 163972, 2
163970, 163967, 2
163970, 163968, 2
163970, 163971, 1
163970, 163969, 2
163970, 163965, 2
163970, 163966, 2
163970, 163972, 2
163970, 163964, 2
163975, 163973, 2
163975, 163971, 2
163975, 163974, 2
163975, 163972, 2
163950, 163951, 1
163954, 163952, 2
163954, 163957, 2
163954, 163955, 2
163954, 163956, 1
163954, 163958, 2
163954, 163953, 2
163964, 163969, 2
163964, 163968, 2
163964, 163966, 0
163964, 163970, 1
163964, 163963, 2
163964, 163962, 2
163964, 163972, 2
163964, 163965, 3
163958, 163952, 2
163958, 163957, 2
163958, 163955, 2
163958, 163960, 2
163958, 163959, 1
163958, 163953, 2
163958, 163954, 2
163958, 163956, 2
163965, 163967, 3
163965, 163972, 2
163965, 163968, 2
163965, 163969, 2
163965, 163971, 2
163965, 163970, 2
163965, 163961, 2
163965, 163963, 2
163965, 163966, 2
163965, 163962, 2
163965, 163964, 2
163962, 163965, 2
163962, 163959, 2
163962, 163960, 2
163962, 163961, 2
163962, 163963, 1
163962, 163964, 2
163953, 163952, 2
163953, 163951, 2
163953, 163958, 2
163953, 163955, 3
163953, 163954, 2
163953, 163960, 2
163953, 163959, 2
163953, 163957, 2
163953, 163956, 2
163955, 163957, 2
163955, 163954, 2
163955, 163960, 2
163955, 163959, 2
163955, 163961, 2
163955, 163953, 2
163955, 163958, 2
163955, 163956, 2
163973, 163967, 2
163973, 163975, 2
163973, 163974, 2
163973, 163972, 2
163959, 163958, 2
163959, 163955, 2
163959, 163960, 3
163959, 163962, 1
163959, 163957, 2
163959, 163953, 2
163963, 163961, 2
163963, 163964, 1
163963, 163962, 2
163963, 163965, 2
163969, 163967, 2
163969, 163968, 2
163969, 163971, 2
163969, 163970, 2
163969, 163965, 2
163969, 163966, 2
163969, 163964, 2
163952, 163951, 2
163952, 163958, 1
163952, 163960, 2
163952, 163953, 3
163952, 163957, 2
163952, 163954, 0
163952, 163956, 2
163951, 163952, 1
163951, 163956, 2
163951, 163950, 2
163951, 163953, 2
163957, 163952, 2
163957, 163958, 2
163957, 163955, 2
163957, 163959, 2
163957, 163956, 2
163957, 163954, 2
163957, 163953, 2
163968, 163967, 2
163968, 163969, 1
163968, 163970, 2
163968, 163964, 2
163968, 163966, 2
163968, 163965, 2
163971, 163967, 2
163971, 163974, 1
163971, 163970, 2
163971, 163975, 2
163971, 163972, 3
163971, 163969, 2
163971, 163965, 2
163960, 163952, 2
163960, 163958, 2
163960, 163955, 2
163960, 163959, 2
163960, 163961, 3
163960, 163962, 2
163960, 163953, 2
163961, 163965, 2
163961, 163960, 2
163961, 163955, 2
163961, 163962, 2
163961, 163963, 2
163972, 163967, 2
163972, 163974, 2
163972, 163970, 2
163972, 163973, 3
163972, 163971, 2
163972, 163975, 2
163972, 163965, 2
163972, 163964, 2
163966, 163967, 2
163966, 163968, 1
163966, 163965, 2
163966, 163970, 2
163966, 163964, 2
163966, 163969, 2
163956, 163952, 2
163956, 163951, 2
163956, 163957, 1
163956, 163955, 2
163956, 163958, 2
163956, 163954, 2
163956, 163953, 2
