217045, 217043, 2
217045, 217046, 2
217045, 217044, 2
217053, 217052, 2
217053, 217054, 1
217050, 217051, 2
217050, 217049, 2
217052, 217051, 2
217052, 217053, 1
217054, 217055, 1
217054, 217053, 2
217046, 217045, 2
217046, 217047, 1
217046, 217048, 2
217046, 217049, 2
217046, 217044, 2
217049, 217051, 1
217049, 217046, 2
217049, 217048, 2
217049, 217050, 3
217051, 217050, 2
217051, 217048, 2
217051, 217052, 1
217051, 217049, 2
217047, 217046, 2
217047, 217048, 1
217044, 217045, 3
217044, 217046, 1
217044, 217043, 2
217048, 217051, 2
217048, 217047, 2
217048, 217046, 2
217048, 217049, 1
217055, 217054, 2
217043, 217045, 2
217043, 217044, 1
