255020, 255018, 2
255020, 255023, 2
255020, 255021, 1
255020, 255019, 2
255007, 255006, 2
255007, 255004, 2
255007, 255008, 2
255011, 255010, 2
255011, 255012, 1
255011, 255009, 2
255018, 255020, 2
255018, 255017, 2
255018, 255019, 1
255018, 255014, 2
255018, 255016, 2
255018, 255015, 2
255013, 255009, 2
255013, 255012, 2
255013, 255014, 1
255027, 255028, 1
255027, 255026, 2
255027, 255025, 2
255027, 255024, 2
255021, 255020, 2
255021, 255022, 3
255021, 255023, 1
255012, 255013, 2
255012, 255009, 2
255012, 255011, 2
255016, 255018, 2
255016, 255015, 2
255016, 255017, 1
255016, 255014, 2
255006, 255007, 1
255006, 255004, 2
255006, 255008, 2
255006, 255005, 2
255024, 255026, 1
255024, 255028, 2
255024, 255027, 2
255024, 255023, 2
255024, 255025, 3
255022, 255023, 2
255022, 255021, 2
255017, 255018, 2
255017, 255014, 2
255017, 255016, 2
255005, 255006, 1
255005, 255004, 2
255005, 255008, 2
255028, 255026, 2
255028, 255027, 2
255028, 255024, 2
255028, 255025, 2
255025, 255026, 2
255025, 255028, 2
255025, 255027, 2
255025, 255024, 2
255025, 255023, 2
255023, 255024, 1
255023, 255022, 2
255023, 255025, 2
255023, 255021, 2
255023, 255020, 2
255009, 255010, 3
255009, 255013, 1
255009, 255011, 2
255009, 255008, 2
255009, 255014, 2
255009, 255012, 2
255003, 255004, 1
255019, 255018, 2
255019, 255020, 1
255004, 255003, 2
255004, 255007, 2
255004, 255008, 1
255004, 255006, 2
255004, 255005, 3
255026, 255028, 2
255026, 255027, 1
255026, 255024, 2
255026, 255025, 2
255010, 255009, 2
255010, 255011, 1
255015, 255018, 2
255015, 255014, 2
255015, 255016, 1
255008, 255007, 2
255008, 255009, 1
255008, 255004, 2
255008, 255006, 2
255008, 255005, 2
255014, 255016, 2
255014, 255009, 2
255014, 255018, 1
255014, 255013, 2
255014, 255017, 2
255014, 255015, 3
