64171, 64170, 2
64171, 64169, 2
64165, 64164, 2
64165, 64166, 1
64165, 64167, 2
64161, 64162, 2
64161, 64164, 2
64161, 64160, 2
64158, 64156, 2
64158, 64157, 2
64158, 64159, 1
64169, 64171, 2
64169, 64170, 1
64169, 64168, 2
64170, 64171, 1
64170, 64169, 2
64156, 64155, 2
64156, 64157, 1
64156, 64158, 2
64155, 64156, 1
64157, 64156, 2
64157, 64158, 1
64160, 64162, 1
64160, 64161, 8
64160, 64164, 2
64160, 64163, 2
64160, 64159, 2
64162, 64161, 2
64162, 64164, 1
64162, 64163, 6
64162, 64160, 2
64164, 64162, 2
64164, 64165, 1
64164, 64161, 2
64164, 64163, 2
64164, 64160, 2
64159, 64158, 2
64159, 64160, 1
64166, 64165, 2
64166, 64168, 1
64166, 64167, 3
64168, 64167, 2
64168, 64166, 2
64168, 64169, 1
64163, 64162, 2
64163, 64164, 2
64163, 64160, 2
64167, 64165, 2
64167, 64168, 2
64167, 64166, 2
