161381, 161374, 2
161381, 161382, 2
161381, 161373, 2
161381, 161377, 2
161381, 161379, 2
161381, 161380, 2
161381, 161383, 2
161374, 161381, 2
161374, 161382, 1
161374, 161373, 2
161374, 161377, 2
161374, 161383, 2
161374, 161379, 2
161374, 161376, 2
161374, 161380, 2
161374, 161378, 4
161374, 161375, 6
161382, 161381, 2
161382, 161374, 2
161382, 161373, 2
161382, 161377, 2
161382, 161379, 2
161382, 161376, 2
161382, 161383, 1
161382, 161378, 2
161373, 161374, 1
161373, 161375, 2
161373, 161382, 2
161373, 161381, 2
161373, 161376, 2
161373, 161380, 2
161373, 161378, 2
161377, 161374, 2
161377, 161382, 2
161377, 161381, 2
161377, 161379, 1
161377, 161376, 2
161377, 161380, 2
161383, 161381, 2
161383, 161374, 2
161383, 161382, 2
161383, 161378, 2
161379, 161377, 2
161379, 161381, 2
161379, 161374, 2
161379, 161380, 1
161379, 161382, 2
161376, 161374, 2
161376, 161382, 2
161376, 161373, 2
161376, 161377, 1
161376, 161380, 2
161376, 161375, 2
161380, 161381, 1
161380, 161374, 2
161380, 161373, 2
161380, 161377, 2
161380, 161379, 2
161380, 161376, 2
161378, 161374, 2
161378, 161382, 2
161378, 161373, 2
161378, 161383, 2
161375, 161374, 2
161375, 161376, 1
161375, 161373, 2
