296177, 296176, 2
296177, 296178, 1
296177, 296175, 2
296177, 296174, 2
296178, 296179, 1
296178, 296177, 2
296170, 296169, 2
296170, 296172, 2
296170, 296168, 2
296170, 296167, 2
296170, 296171, 1
296170, 296173, 2
296168, 296167, 2
296168, 296169, 3
296168, 296170, 1
296167, 296165, 2
296167, 296168, 1
296167, 296169, 2
296167, 296166, 2
296167, 296170, 2
296172, 296174, 1
296172, 296171, 2
296172, 296169, 2
296172, 296173, 3
296172, 296170, 2
296175, 296177, 1
296175, 296176, 3
296175, 296174, 2
296166, 296167, 2
296166, 296165, 2
296166, 296169, 2
296179, 296178, 2
296176, 296177, 2
296176, 296175, 2
296176, 296174, 2
296176, 296173, 2
296174, 296177, 2
296174, 296172, 2
296174, 296171, 2
296174, 296175, 1
296174, 296176, 2
296174, 296173, 2
296165, 296167, 1
296165, 296166, 3
296171, 296174, 2
296171, 296172, 1
296171, 296169, 2
296171, 296173, 2
296171, 296170, 2
296173, 296176, 2
296173, 296174, 2
296173, 296172, 2
296173, 296170, 2
296173, 296171, 2
296173, 296169, 2
296169, 296172, 2
296169, 296171, 2
296169, 296167, 2
296169, 296170, 2
296169, 296168, 2
296169, 296173, 2
296169, 296166, 2
