72860, 72859, 2
72860, 72862, 2
72860, 72865, 2
72860, 72863, 2
72860, 72861, 2
72865, 72860, 2
72865, 72863, 2
72865, 72864, 2
72864, 72859, 2
72864, 72862, 2
72864, 72865, 2
72864, 72863, 2
72864, 72861, 2
72861, 72859, 2
72861, 72860, 2
72861, 72862, 2
72861, 72864, 2
72861, 72863, 2
72859, 72860, 3
72859, 72862, 1
72859, 72864, 2
72859, 72861, 0
72862, 72859, 2
72862, 72860, 2
72862, 72863, 1
72862, 72864, 2
72862, 72861, 2
72863, 72860, 2
72863, 72865, 3
72863, 72864, 0
72863, 72862, 2
72863, 72861, 2
