70890, 70891, 3
70890, 70893, 2
70890, 70892, 1
70891, 70890, 2
70891, 70894, 2
70891, 70893, 2
70891, 70892, 2
70894, 70891, 2
70894, 70893, 2
70893, 70890, 2
70893, 70891, 2
70893, 70894, 3
70893, 70892, 2
70892, 70890, 2
70892, 70891, 2
70892, 70893, 1
