71356, 71357, 1
71356, 71355, 2
71354, 71353, 2
71354, 71352, 2
71354, 71355, 1
71352, 71353, 3
71352, 71355, 2
71352, 71354, 1
71353, 71354, 2
71353, 71352, 2
71353, 71355, 2
71355, 71353, 2
71355, 71352, 2
71355, 71356, 1
71355, 71357, 2
71355, 71354, 2
71357, 71355, 2
71357, 71356, 2
