301186, 301182, 2
301186, 301185, 2
301186, 301183, 2
301186, 301184, 2
301183, 301186, 2
301183, 301185, 2
301183, 301180, 2
301183, 301181, 2
301183, 301182, 2
301183, 301184, 2
301185, 301186, 3
301185, 301183, 2
301185, 301182, 2
301185, 301184, 2
301180, 301181, 1
301180, 301183, 2
301180, 301182, 2
301181, 301182, 1
301181, 301183, 2
301181, 301180, 2
301182, 301183, 3
301182, 301185, 2
301182, 301180, 2
301182, 301181, 2
301182, 301186, 2
301182, 301184, 1
301184, 301186, 2
301184, 301185, 1
301184, 301182, 2
301184, 301183, 2
