252240, 252241, 2
252240, 252239, 2
252249, 252248, 2
252249, 252250, 1
252241, 252245, 2
252241, 252240, 2
252241, 252242, 1
252241, 252239, 2
252244, 252245, 1
252244, 252242, 2
252244, 252243, 2
252243, 252245, 2
252243, 252242, 2
252243, 252244, 2
252247, 252245, 2
252247, 252248, 1
252247, 252250, 2
252247, 252246, 2
252245, 252247, 2
252245, 252246, 1
252245, 252241, 2
252245, 252244, 2
252245, 252243, 2
252245, 252242, 2
252242, 252245, 2
252242, 252241, 2
252242, 252243, 3
252242, 252244, 1
252239, 252240, 3
252239, 252241, 1
252248, 252247, 2
252248, 252249, 1
252248, 252250, 2
252250, 252248, 2
252250, 252247, 2
252250, 252249, 2
252246, 252245, 2
252246, 252247, 1
