340155, 340154, 2
340155, 340156, 1
340154, 340155, 1
340154, 340153, 2
340154, 340152, 2
340158, 340157, 2
340153, 340154, 2
340153, 340152, 2
340152, 340154, 1
340152, 340153, 0
340157, 340158, 1
340157, 340156, 2
340156, 340155, 2
340156, 340157, 1
