294107, 294109, 2
294107, 294110, 2
294107, 294103, 2
294107, 294105, 2
294107, 294106, 2
294107, 294104, 2
294107, 294108, 1
294109, 294107, 2
294109, 294105, 2
294109, 294110, 3
294109, 294104, 2
294109, 294108, 2
294110, 294107, 2
294110, 294109, 2
294110, 294108, 2
294110, 294105, 2
294110, 294104, 2
294110, 294103, 2
294103, 294107, 2
294103, 294110, 2
294103, 294101, 2
294103, 294102, 2
294103, 294106, 1
294103, 294104, 3
294101, 294102, 1
294101, 294103, 2
294101, 294104, 2
294102, 294105, 2
294102, 294103, 1
294102, 294104, 2
294102, 294101, 2
294105, 294107, 2
294105, 294109, 2
294105, 294110, 2
294105, 294108, 2
294105, 294102, 2
294105, 294106, 2
294105, 294104, 2
294106, 294107, 1
294106, 294105, 2
294106, 294103, 2
294106, 294104, 2
294104, 294107, 2
294104, 294109, 2
294104, 294110, 2
294104, 294103, 2
294104, 294101, 2
294104, 294102, 2
294104, 294105, 3
294104, 294106, 2
294104, 294108, 2
294108, 294107, 2
294108, 294105, 2
294108, 294110, 2
294108, 294104, 2
294108, 294109, 1
