299914, 299916, 2
299914, 299915, 1
299918, 299916, 2
299918, 299917, 2
299916, 299914, 2
299916, 299918, 2
299916, 299915, 2
299916, 299917, 1
299915, 299914, 2
299915, 299916, 1
299917, 299918, 1
299917, 299916, 2
