222011, 222009, 2
222011, 222012, 1
222011, 222010, 2
222013, 222012, 2
222013, 222014, 1
222007, 222009, 2
222007, 222008, 1
222009, 222007, 2
222009, 222011, 2
222009, 222008, 2
222009, 222010, 1
222009, 222012, 2
222008, 222007, 2
222008, 222009, 1
222010, 222011, 1
222010, 222009, 2
222010, 222012, 2
222012, 222011, 2
222012, 222009, 2
222012, 222013, 1
222012, 222010, 2
222014, 222013, 2
