122729, 122732, 2
122729, 122736, 2
122729, 122745, 2
122729, 122740, 2
122729, 122742, 2
122729, 122744, 2
122729, 122726, 2
122729, 122733, 2
122729, 122731, 2
122729, 122725, 2
122729, 122741, 2
122729, 122728, 2
122729, 122734, 2
122729, 122727, 2
122729, 122738, 2
122729, 122730, 2
122729, 122735, 2
122729, 122737, 2
122739, 122741, 2
122739, 122745, 2
122739, 122736, 2
122739, 122740, 2
122739, 122734, 2
122739, 122742, 2
122739, 122730, 2
122739, 122744, 2
122739, 122726, 2
122739, 122737, 2
122739, 122738, 2
122741, 122729, 2
122741, 122739, 2
122741, 122740, 2
122741, 122727, 2
122741, 122742, 1
122741, 122738, 2
122743, 122744, 1
122743, 122742, 2
122744, 122727, 2
122744, 122743, 2
122744, 122745, 1
122744, 122729, 2
122744, 122739, 2
122731, 122732, 1
122731, 122728, 2
122731, 122729, 2
122731, 122730, 2
122745, 122727, 2
122745, 122744, 2
122745, 122729, 2
122745, 122739, 2
122734, 122727, 2
122734, 122735, 1
122734, 122739, 2
122734, 122729, 2
122734, 122733, 2
122724, 122727, 2
122724, 122726, 1
122724, 122725, 2
122738, 122740, 1
122738, 122729, 2
122738, 122739, 6
122738, 122741, 2
122738, 122736, 2
122738, 122742, 2
122738, 122737, 2
122732, 122727, 2
122732, 122728, 2
122732, 122729, 2
122732, 122733, 1
122732, 122731, 2
122736, 122729, 2
122736, 122739, 2
122736, 122727, 2
122736, 122738, 1
122736, 122735, 2
122736, 122737, 8
122740, 122741, 1
122740, 122738, 2
122740, 122729, 2
122740, 122739, 2
122735, 122736, 1
122735, 122734, 2
122735, 122729, 2
122735, 122727, 2
122726, 122728, 2
122726, 122729, 2
122726, 122739, 2
122726, 122724, 2
122726, 122727, 2
122726, 122730, 1
122726, 122725, 4
122733, 122732, 2
122733, 122734, 1
122733, 122728, 2
122733, 122729, 2
122733, 122727, 2
122725, 122726, 2
122725, 122728, 1
122725, 122729, 2
122725, 122727, 0
122725, 122724, 2
122728, 122732, 2
122728, 122729, 1
122728, 122727, 2
122728, 122730, 2
122728, 122726, 2
122728, 122733, 2
122728, 122731, 2
122728, 122725, 2
122727, 122732, 2
122727, 122736, 2
122727, 122741, 2
122727, 122728, 2
122727, 122744, 2
122727, 122726, 2
122727, 122733, 2
122727, 122725, 2
122727, 122745, 2
122727, 122734, 2
122727, 122724, 2
122727, 122729, 2
122727, 122742, 2
122727, 122730, 2
122727, 122735, 2
122730, 122728, 2
122730, 122729, 2
122730, 122739, 2
122730, 122727, 2
122730, 122726, 2
122730, 122731, 1
122742, 122729, 2
122742, 122739, 2
122742, 122727, 2
122742, 122741, 2
122742, 122738, 2
122742, 122743, 1
122742, 122737, 2
122737, 122736, 2
122737, 122742, 2
122737, 122738, 2
122737, 122739, 2
122737, 122729, 2
