119558, 119556, 2
119558, 119560, 1
119558, 119557, 2
119558, 119559, 8
119560, 119562, 1
119560, 119558, 2
119560, 119559, 2
119560, 119561, 8
119563, 119562, 2
119563, 119564, 2
119563, 119567, 2
119563, 119561, 2
119564, 119562, 2
119564, 119563, 2
119564, 119567, 2
119564, 119565, 1
119565, 119567, 2
119565, 119564, 2
119565, 119566, 1
119561, 119562, 2
119561, 119563, 2
119561, 119567, 2
119561, 119559, 2
119561, 119560, 2
119556, 119558, 2
119556, 119559, 2
119556, 119557, 1
119562, 119563, 8
119562, 119564, 1
119562, 119566, 2
119562, 119560, 2
119562, 119561, 2
119557, 119556, 2
119557, 119558, 1
119567, 119564, 2
119567, 119563, 2
119567, 119568, 0
119567, 119565, 2
119567, 119566, 2
119567, 119559, 2
119567, 119561, 2
119568, 119567, 2
119568, 119566, 2
119566, 119562, 2
119566, 119567, 3
119566, 119565, 2
119566, 119568, 2
119559, 119567, 2
119559, 119556, 2
119559, 119558, 2
119559, 119560, 2
119559, 119561, 2
