338270, 338259, 2
338270, 338268, 2
338270, 338267, 2
338270, 338269, 2
338270, 338266, 2
338242, 338247, 2
338242, 338239, 2
338242, 338241, 2
338242, 338243, 1
338242, 338240, 2
338247, 338246, 2
338247, 338245, 2
338247, 338242, 2
338247, 338243, 2
338247, 338248, 0
338247, 338244, 2
338247, 338251, 2
338247, 338241, 2
338247, 338252, 1
338239, 338242, 1
338239, 338238, 2
338239, 338237, 2
338239, 338240, 0
338269, 338270, 1
338269, 338268, 2
338269, 338267, 2
338269, 338266, 2
338262, 338261, 2
338262, 338265, 2
338262, 338260, 2
338262, 338263, 1
338262, 338259, 2
338236, 338234, 2
338236, 338237, 1
338236, 338235, 2
338248, 338253, 2
338248, 338247, 2
338248, 338251, 2
338248, 338241, 2
338248, 338252, 2
338248, 338249, 0
338232, 338233, 1
338258, 338260, 2
338258, 338257, 2
338258, 338259, 1
338250, 338251, 1
338250, 338252, 2
338250, 338249, 2
338265, 338267, 2
338265, 338263, 2
338265, 338262, 2
338265, 338259, 2
338265, 338266, 1
338265, 338264, 2
338245, 338246, 1
338245, 338247, 2
338245, 338244, 2
338245, 338243, 2
338255, 338256, 1
338255, 338253, 2
338255, 338254, 2
338255, 338252, 2
338263, 338265, 1
338263, 338264, 3
338263, 338262, 2
338254, 338253, 2
338254, 338257, 2
338254, 338255, 2
338254, 338256, 2
338254, 338251, 2
338254, 338252, 2
338254, 338259, 2
338264, 338265, 2
338264, 338263, 2
338264, 338266, 2
338256, 338253, 2
338256, 338257, 0
338256, 338252, 2
338256, 338254, 2
338256, 338260, 2
338256, 338255, 2
338256, 338259, 2
338268, 338270, 2
338268, 338266, 2
338268, 338267, 2
338268, 338269, 1
338268, 338259, 2
338241, 338242, 2
338241, 338249, 2
338241, 338243, 2
338241, 338248, 2
338241, 338247, 2
338241, 338251, 2
338241, 338240, 2
338249, 338253, 2
338249, 338250, 1
338249, 338248, 2
338249, 338251, 2
338249, 338241, 2
338249, 338252, 2
338249, 338240, 2
338246, 338244, 2
338246, 338245, 2
338246, 338247, 2
338246, 338252, 2
338246, 338243, 2
338240, 338251, 2
338240, 338242, 2
338240, 338239, 2
338240, 338241, 0
338240, 338249, 2
338235, 338236, 2
338235, 338234, 2
338235, 338233, 2
338260, 338253, 2
338260, 338258, 2
338260, 338262, 2
338260, 338261, 1
338260, 338257, 2
338260, 338256, 2
338260, 338252, 2
338260, 338259, 2
338238, 338237, 2
338238, 338239, 1
338233, 338234, 1
338233, 338235, 2
338233, 338232, 2
338234, 338236, 1
338234, 338235, 8
338234, 338237, 2
338234, 338233, 2
338251, 338253, 2
338251, 338254, 2
338251, 338250, 2
338251, 338248, 2
338251, 338247, 2
338251, 338240, 2
338251, 338241, 2
338251, 338252, 2
338251, 338249, 2
338257, 338258, 1
338257, 338256, 2
338257, 338254, 2
338257, 338260, 2
338257, 338259, 2
338252, 338246, 2
338252, 338247, 2
338252, 338253, 0
338252, 338255, 2
338252, 338251, 2
338252, 338248, 2
338252, 338254, 2
338252, 338256, 2
338252, 338260, 1
338252, 338250, 2
338252, 338249, 2
338261, 338260, 2
338261, 338259, 2
338261, 338262, 1
338237, 338236, 2
338237, 338238, 1
338237, 338239, 2
338237, 338234, 2
338253, 338256, 2
338253, 338254, 0
338253, 338255, 1
338253, 338248, 2
338253, 338260, 2
338253, 338251, 2
338253, 338252, 2
338253, 338249, 2
338266, 338265, 2
338266, 338270, 2
338266, 338267, 0
338266, 338269, 2
338266, 338268, 2
338266, 338264, 2
338267, 338265, 2
338267, 338270, 2
338267, 338269, 2
338267, 338259, 2
338267, 338268, 0
338267, 338266, 2
338243, 338246, 2
338243, 338245, 2
338243, 338242, 2
338243, 338247, 1
338243, 338244, 3
338243, 338241, 2
338244, 338246, 2
338244, 338245, 1
338244, 338247, 2
338244, 338243, 2
338259, 338265, 2
338259, 338270, 2
338259, 338260, 2
338259, 338257, 2
338259, 338267, 2
338259, 338262, 2
338259, 338261, 2
338259, 338258, 2
338259, 338256, 2
338259, 338268, 2
338259, 338254, 2
