167680, 167682, 2
167680, 167681, 2
167680, 167679, 2
167680, 167689, 2
167680, 167692, 2
167680, 167678, 2
167680, 167673, 2
167699, 167701, 2
167699, 167697, 2
167699, 167687, 2
167699, 167694, 2
167699, 167704, 2
167699, 167696, 2
167699, 167698, 2
167699, 167688, 2
167699, 167695, 2
167699, 167689, 2
167699, 167700, 1
167699, 167673, 2
167675, 167674, 2
167675, 167676, 1
167675, 167673, 2
167696, 167701, 2
167696, 167688, 2
167696, 167694, 2
167696, 167704, 2
167696, 167698, 3
167696, 167706, 2
167696, 167699, 2
167696, 167692, 2
167696, 167697, 6
167696, 167705, 2
167696, 167709, 2
167702, 167701, 2
167702, 167698, 2
167702, 167704, 4
167702, 167700, 2
167702, 167703, 1
167668, 167670, 1
167668, 167667, 2
167668, 167671, 2
167668, 167669, 8
167668, 167673, 2
167677, 167690, 2
167677, 167676, 2
167677, 167678, 2
167677, 167673, 2
167685, 167684, 2
167685, 167686, 1
167685, 167687, 2
167706, 167698, 2
167706, 167705, 2
167706, 167704, 2
167706, 167695, 2
167706, 167696, 2
167706, 167708, 2
167706, 167709, 2
167706, 167707, 1
167679, 167680, 8
167679, 167690, 2
167679, 167681, 1
167679, 167678, 2
167690, 167682, 2
167690, 167687, 2
167690, 167684, 2
167690, 167693, 0
167690, 167688, 2
167690, 167681, 2
167690, 167695, 1
167690, 167683, 2
167690, 167679, 2
167690, 167677, 2
167690, 167678, 2
167690, 167673, 2
167667, 167669, 2
167667, 167666, 2
167667, 167668, 1
167691, 167692, 3
167691, 167689, 2
167691, 167688, 2
167691, 167694, 1
167670, 167671, 1
167670, 167669, 2
167670, 167668, 2
167697, 167688, 2
167697, 167694, 2
167697, 167704, 2
167697, 167698, 2
167697, 167699, 2
167697, 167696, 2
167704, 167701, 2
167704, 167697, 2
167704, 167694, 2
167704, 167703, 2
167704, 167699, 2
167704, 167696, 2
167704, 167702, 2
167704, 167709, 2
167704, 167688, 2
167704, 167705, 2
167704, 167698, 2
167704, 167706, 2
167704, 167708, 2
167704, 167700, 2
167704, 167707, 2
167709, 167701, 2
167709, 167698, 2
167709, 167708, 2
167709, 167704, 2
167709, 167695, 2
167709, 167706, 2
167709, 167696, 2
167709, 167700, 2
167709, 167707, 2
167686, 167685, 2
167686, 167689, 2
167686, 167687, 2
167686, 167688, 2
167698, 167701, 2
167698, 167697, 2
167698, 167694, 2
167698, 167704, 2
167698, 167699, 2
167698, 167703, 2
167698, 167696, 2
167698, 167702, 2
167698, 167709, 2
167698, 167688, 2
167698, 167705, 2
167698, 167706, 2
167698, 167692, 2
167698, 167700, 2
167683, 167682, 2
167683, 167684, 1
167683, 167690, 2
167683, 167687, 2
167674, 167675, 1
167674, 167676, 2
167674, 167673, 2
167707, 167706, 2
167707, 167708, 1
167707, 167709, 2
167707, 167704, 2
167682, 167680, 2
167682, 167683, 1
167682, 167690, 2
167682, 167681, 2
167687, 167685, 2
167687, 167694, 2
167687, 167683, 2
167687, 167695, 2
167687, 167684, 2
167687, 167699, 2
167687, 167689, 2
167687, 167690, 2
167687, 167688, 1
167687, 167686, 2
167672, 167671, 2
167672, 167673, 1
167684, 167683, 2
167684, 167685, 3
167684, 167687, 1
167684, 167690, 2
167671, 167670, 2
167671, 167672, 1
167671, 167668, 2
167671, 167673, 2
167676, 167674, 2
167676, 167675, 2
167676, 167677, 0
167676, 167678, 1
167676, 167673, 2
167695, 167688, 2
167695, 167687, 2
167695, 167705, 2
167695, 167690, 2
167695, 167693, 2
167695, 167706, 2
167695, 167699, 2
167695, 167708, 2
167695, 167709, 2
167695, 167700, 2
167669, 167670, 2
167669, 167667, 2
167669, 167668, 2
167705, 167701, 2
167705, 167698, 2
167705, 167704, 2
167705, 167695, 2
167705, 167706, 1
167705, 167703, 2
167705, 167696, 2
167681, 167680, 2
167681, 167682, 1
167681, 167679, 2
167681, 167690, 2
167693, 167695, 2
167693, 167688, 2
167693, 167690, 2
167692, 167698, 2
167692, 167688, 2
167692, 167694, 2
167692, 167680, 2
167692, 167689, 2
167692, 167696, 2
167692, 167691, 2
167692, 167673, 2
167700, 167701, 8
167700, 167698, 2
167700, 167704, 2
167700, 167695, 2
167700, 167699, 2
167700, 167702, 1
167700, 167709, 2
167678, 167680, 2
167678, 167679, 1
167678, 167673, 2
167678, 167690, 2
167678, 167676, 2
167678, 167677, 2
167701, 167702, 2
167701, 167705, 2
167701, 167704, 2
167701, 167698, 2
167701, 167699, 2
167701, 167703, 2
167701, 167696, 2
167701, 167700, 2
167701, 167709, 2
167694, 167697, 2
167694, 167687, 2
167694, 167704, 2
167694, 167698, 2
167694, 167699, 2
167694, 167689, 2
167694, 167696, 1
167694, 167688, 2
167694, 167692, 2
167694, 167691, 2
167703, 167698, 2
167703, 167701, 2
167703, 167702, 2
167703, 167705, 1
167703, 167704, 2
167688, 167697, 2
167688, 167687, 2
167688, 167694, 2
167688, 167704, 2
167688, 167699, 1
167688, 167696, 2
167688, 167698, 2
167688, 167686, 2
167688, 167693, 2
167688, 167692, 2
167688, 167689, 4
167688, 167690, 6
167688, 167691, 2
167688, 167695, 2
167666, 167667, 1
167689, 167686, 2
167689, 167687, 2
167689, 167694, 2
167689, 167680, 2
167689, 167699, 2
167689, 167688, 2
167689, 167692, 2
167689, 167691, 1
167689, 167673, 2
167708, 167695, 2
167708, 167706, 2
167708, 167707, 2
167708, 167709, 1
167708, 167704, 2
167673, 167672, 2
167673, 167680, 2
167673, 167671, 2
167673, 167675, 2
167673, 167676, 2
167673, 167668, 2
167673, 167677, 2
167673, 167674, 1
167673, 167692, 2
167673, 167689, 2
167673, 167690, 2
167673, 167699, 2
167673, 167678, 2
