221631, 221629, 2
221631, 221630, 2
221631, 221632, 1
221629, 221631, 2
221629, 221630, 1
221629, 221628, 2
221632, 221631, 2
221628, 221627, 2
221628, 221629, 1
221627, 221626, 2
221627, 221628, 1
221626, 221627, 1
221630, 221631, 1
221630, 221629, 2
