221989, 221988, 2
221989, 221987, 2
221989, 221990, 1
221988, 221989, 2
221988, 221990, 2
221988, 221987, 2
221988, 221986, 2
221984, 221983, 6
221984, 221985, 1
221990, 221989, 2
221990, 221988, 2
221990, 221983, 2
221983, 221990, 2
221983, 221984, 2
221983, 221986, 2
221983, 221985, 2
221987, 221989, 1
221987, 221988, 8
221987, 221986, 2
221985, 221983, 2
221985, 221984, 2
221985, 221986, 1
221986, 221988, 2
221986, 221987, 1
221986, 221985, 2
221986, 221983, 2
