186441, 186442, 1
186441, 186440, 2
186441, 186439, 2
186442, 186441, 2
186442, 186443, 1
186442, 186439, 2
186443, 186442, 2
186439, 186441, 1
186439, 186442, 2
186439, 186440, 8
186440, 186441, 2
186440, 186439, 2
