297793, 297795, 2
297793, 297790, 2
297793, 297791, 2
297793, 297794, 2
297793, 297796, 2
297793, 297792, 2
297798, 297800, 1
297798, 297795, 2
297798, 297791, 2
297798, 297799, 3
297798, 297797, 2
297798, 297796, 2
297786, 297791, 2
297786, 297795, 2
297786, 297787, 1
297786, 297783, 2
297786, 297788, 2
297786, 297785, 2
297802, 297799, 2
297802, 297801, 2
297802, 297803, 2
297802, 297800, 2
297794, 297791, 2
297794, 297793, 2
297794, 297796, 1
297794, 297795, 6
297794, 297792, 2
297796, 297793, 2
297796, 297798, 2
297796, 297795, 2
297796, 297794, 2
297796, 297797, 1
297796, 297799, 2
297796, 297792, 2
297800, 297799, 2
297800, 297801, 1
297800, 297798, 2
297800, 297802, 2
297788, 297787, 2
297788, 297786, 2
297788, 297789, 1
297803, 297801, 2
297803, 297795, 2
297803, 297802, 2
297801, 297800, 2
297801, 297795, 2
297801, 297802, 3
297801, 297791, 2
297801, 297803, 1
297801, 297799, 2
297782, 297783, 1
297782, 297781, 2
297789, 297791, 2
297789, 297788, 2
297789, 297795, 2
297789, 297790, 1
297787, 297788, 1
297787, 297786, 2
297780, 297791, 2
297780, 297781, 1
297784, 297783, 2
297784, 297785, 1
297795, 297793, 2
297795, 297798, 2
297795, 297786, 2
297795, 297789, 2
297795, 297790, 2
297795, 297791, 2
297795, 297794, 2
297795, 297801, 2
297795, 297803, 2
297795, 297796, 2
297795, 297792, 2
297790, 297791, 2
297790, 297793, 2
297790, 297795, 2
297790, 297789, 2
297790, 297792, 1
297791, 297793, 2
297791, 297798, 2
297791, 297789, 2
297791, 297786, 2
297791, 297794, 2
297791, 297780, 2
297791, 297795, 2
297791, 297790, 2
297791, 297783, 2
297791, 297801, 2
297791, 297792, 2
297791, 297781, 2
297783, 297791, 2
297783, 297784, 1
297783, 297782, 2
297783, 297786, 2
297797, 297796, 2
297797, 297798, 1
297797, 297799, 2
297799, 297800, 2
297799, 297802, 2
297799, 297798, 2
297799, 297801, 2
297799, 297797, 2
297799, 297796, 2
297792, 297793, 8
297792, 297795, 2
297792, 297790, 2
297792, 297791, 6
297792, 297794, 1
297792, 297796, 2
297785, 297784, 2
297785, 297786, 1
297781, 297780, 2
297781, 297791, 2
297781, 297782, 1
