196034, 196035, 1
196034, 196033, 2
196034, 196036, 2
196037, 196036, 2
196037, 196038, 1
196032, 196033, 1
196032, 196031, 2
196028, 196030, 2
196028, 196029, 1
196035, 196036, 1
196035, 196034, 2
196033, 196032, 2
196033, 196034, 1
196036, 196035, 2
196036, 196037, 1
196036, 196034, 2
196030, 196031, 1
196030, 196028, 2
196030, 196029, 2
196038, 196037, 2
196031, 196032, 1
196031, 196030, 2
196029, 196028, 2
196029, 196030, 1
