119189, 119191, 1
119189, 119193, 2
119189, 119188, 2
119189, 119190, 3
119189, 119187, 2
119189, 119186, 2
119189, 119185, 2
119192, 119191, 2
119192, 119193, 0
119192, 119194, 1
119190, 119189, 2
119190, 119191, 2
119190, 119186, 2
119190, 119185, 2
119194, 119192, 2
119194, 119193, 2
119186, 119189, 2
119186, 119184, 2
119186, 119190, 2
119186, 119183, 2
119186, 119188, 2
119186, 119187, 2
119186, 119185, 2
119185, 119184, 2
119185, 119189, 2
119185, 119190, 2
119185, 119183, 2
119185, 119188, 1
119185, 119187, 0
119185, 119186, 3
119185, 119193, 2
119184, 119183, 2
119184, 119186, 2
119184, 119185, 1
119183, 119184, 1
119183, 119187, 2
119183, 119186, 2
119183, 119185, 2
119191, 119189, 2
119191, 119190, 2
119191, 119187, 2
119191, 119192, 1
119191, 119193, 2
119188, 119189, 1
119188, 119187, 2
119188, 119186, 2
119188, 119185, 2
119187, 119189, 2
119187, 119191, 2
119187, 119193, 2
119187, 119183, 2
119187, 119188, 2
119187, 119186, 2
119187, 119185, 2
119193, 119189, 2
119193, 119191, 2
119193, 119194, 2
119193, 119192, 2
119193, 119187, 2
119193, 119185, 2
