70048, 70046, 2
70048, 70049, 1
70048, 70047, 2
70046, 70048, 1
70046, 70049, 2
70046, 70047, 0
70049, 70048, 2
70049, 70046, 2
70049, 70050, 0
70049, 70047, 2
70050, 70049, 2
70050, 70047, 2
70047, 70048, 2
70047, 70046, 2
70047, 70049, 2
70047, 70050, 2
