222026, 222023, 2
222026, 222024, 2
222026, 222029, 2
222026, 222027, 1
222026, 222028, 2
222026, 222025, 2
222023, 222026, 2
222023, 222024, 1
222023, 222025, 2
222024, 222026, 2
222024, 222023, 2
222024, 222025, 1
222030, 222029, 2
222029, 222030, 1
222029, 222026, 2
222029, 222028, 2
222029, 222027, 2
222027, 222026, 2
222027, 222028, 8
222027, 222029, 1
222028, 222029, 2
222028, 222027, 2
222028, 222026, 2
222025, 222026, 1
222025, 222023, 2
222025, 222024, 2
