171859, 171860, 1
171859, 171861, 2
171865, 171867, 2
171865, 171863, 2
171865, 171864, 2
171865, 171866, 2
171866, 171867, 1
171866, 171865, 2
171866, 171864, 2
171860, 171859, 2
171860, 171861, 1
171867, 171865, 2
171867, 171866, 2
171863, 171862, 2
171863, 171865, 2
171863, 171864, 1
171863, 171861, 2
171862, 171863, 2
171862, 171861, 2
171864, 171863, 2
171864, 171865, 8
171864, 171866, 1
171861, 171860, 2
171861, 171859, 2
171861, 171863, 1
171861, 171862, 0
