66296, 66295, 2
66296, 66297, 1
66296, 66298, 2
66288, 66284, 2
66288, 66290, 2
66288, 66289, 1
66288, 66286, 2
66288, 66291, 2
66288, 66287, 2
66282, 66280, 2
66282, 66281, 2
66282, 66283, 1
66282, 66287, 2
66282, 66279, 2
66295, 66294, 2
66295, 66296, 1
66291, 66293, 2
66291, 66288, 2
66291, 66290, 2
66291, 66286, 2
66291, 66289, 2
66291, 66292, 2
66291, 66285, 2
66291, 66284, 2
66281, 66280, 2
66281, 66284, 2
66281, 66279, 2
66281, 66283, 2
66281, 66282, 2
66279, 66278, 2
66279, 66277, 2
66279, 66282, 2
66279, 66280, 1
66279, 66281, 2
66279, 66276, 2
66279, 66287, 2
66283, 66284, 0
66283, 66285, 1
66283, 66282, 2
66283, 66280, 2
66283, 66281, 2
66283, 66287, 2
66286, 66291, 2
66286, 66285, 2
66286, 66284, 2
66286, 66288, 1
66286, 66287, 3
66298, 66284, 2
66298, 66296, 2
66298, 66297, 2
66276, 66278, 1
66276, 66277, 3
66276, 66279, 2
66277, 66278, 2
66277, 66276, 2
66277, 66279, 2
66293, 66291, 2
66293, 66290, 2
66293, 66294, 1
66293, 66289, 2
66293, 66292, 2
66284, 66288, 2
66284, 66285, 2
66284, 66283, 2
66284, 66289, 2
66284, 66286, 2
66284, 66291, 2
66284, 66281, 2
66284, 66298, 2
66290, 66293, 2
66290, 66288, 2
66290, 66289, 2
66290, 66292, 2
66290, 66291, 2
66290, 66287, 2
66280, 66279, 2
66280, 66281, 0
66280, 66283, 2
66280, 66282, 1
66297, 66296, 2
66297, 66298, 1
66287, 66288, 2
66287, 66290, 2
66287, 66283, 2
66287, 66289, 2
66287, 66286, 2
66287, 66282, 2
66287, 66285, 2
66287, 66279, 2
66278, 66277, 2
66278, 66276, 2
66278, 66279, 1
66294, 66295, 1
66294, 66293, 2
66294, 66292, 2
66289, 66293, 1
66289, 66288, 2
66289, 66290, 3
66289, 66291, 0
66289, 66284, 2
66289, 66287, 2
66292, 66293, 2
66292, 66291, 2
66292, 66290, 2
66292, 66294, 2
66285, 66291, 2
66285, 66283, 2
66285, 66284, 2
66285, 66286, 1
66285, 66287, 2
