124518, 124517, 2
124518, 124516, 2
124518, 124515, 2
124518, 124510, 2
124518, 124519, 1
124518, 124502, 2
124509, 124511, 1
124509, 124510, 2
124509, 124515, 2
124509, 124508, 2
124509, 124507, 2
124509, 124512, 2
124509, 124502, 2
124495, 124496, 2
124495, 124499, 2
124495, 124493, 2
124495, 124494, 2
124497, 124500, 2
124497, 124496, 2
124497, 124499, 2
124497, 124506, 2
124497, 124498, 2
124497, 124501, 2
124497, 124503, 2
124497, 124502, 2
124501, 124504, 2
124501, 124500, 2
124501, 124499, 2
124501, 124497, 2
124501, 124498, 2
124501, 124503, 1
124501, 124502, 2
124513, 124517, 2
124513, 124510, 2
124513, 124514, 2
124513, 124512, 2
124512, 124509, 2
124512, 124511, 2
124512, 124510, 2
124512, 124514, 2
124512, 124513, 1
124494, 124493, 2
124494, 124496, 1
124494, 124495, 3
124494, 124515, 2
124494, 124502, 2
124498, 124501, 1
124498, 124502, 2
124498, 124496, 2
124498, 124499, 3
124498, 124497, 6
124516, 124517, 3
124516, 124514, 2
124516, 124510, 2
124516, 124515, 6
124516, 124518, 1
124511, 124510, 6
124511, 124509, 2
124511, 124512, 3
124511, 124514, 1
124511, 124515, 2
124496, 124498, 1
124496, 124494, 2
124496, 124497, 2
124496, 124495, 2
124496, 124502, 2
124521, 124520, 2
124506, 124505, 2
124506, 124507, 1
124506, 124502, 2
124506, 124515, 2
124506, 124497, 2
124505, 124504, 2
124505, 124502, 2
124505, 124503, 2
124505, 124506, 1
124507, 124508, 1
124507, 124509, 2
124507, 124506, 2
124502, 124504, 2
124502, 124509, 2
124502, 124515, 2
124502, 124497, 2
124502, 124501, 2
124502, 124494, 2
124502, 124498, 2
124502, 124518, 2
124502, 124496, 2
124502, 124493, 2
124502, 124506, 2
124502, 124505, 2
124502, 124508, 2
124502, 124503, 2
124504, 124505, 2
124504, 124501, 2
124504, 124503, 2
124504, 124500, 2
124504, 124502, 2
124499, 124498, 2
124499, 124501, 2
124499, 124500, 1
124499, 124495, 2
124499, 124497, 2
124515, 124509, 2
124515, 124520, 2
124515, 124494, 2
124515, 124517, 2
124515, 124516, 2
124515, 124518, 2
124515, 124493, 2
124515, 124506, 2
124515, 124511, 2
124515, 124514, 2
124515, 124510, 2
124515, 124502, 2
124520, 124515, 2
124520, 124521, 1
124520, 124519, 2
124517, 124516, 2
124517, 124518, 2
124517, 124514, 2
124517, 124515, 2
124517, 124513, 2
124500, 124501, 2
124500, 124504, 2
124500, 124499, 2
124500, 124497, 2
124493, 124502, 2
124493, 124495, 2
124493, 124515, 2
124493, 124494, 1
124508, 124507, 2
124508, 124509, 1
124508, 124502, 2
124503, 124505, 1
124503, 124501, 2
124503, 124504, 3
124503, 124502, 6
124503, 124497, 2
124514, 124517, 2
124514, 124516, 1
124514, 124511, 2
124514, 124515, 2
124514, 124510, 2
124514, 124513, 2
124514, 124512, 2
124510, 124509, 2
124510, 124516, 2
124510, 124518, 2
124510, 124515, 2
124510, 124511, 2
124510, 124513, 2
124510, 124512, 2
124510, 124514, 2
124519, 124518, 2
124519, 124520, 1
