63573, 63571, 2
63573, 63572, 2
63573, 63574, 1
63574, 63571, 2
63574, 63573, 2
63574, 63572, 2
63574, 63576, 2
63574, 63569, 2
63574, 63575, 1
63579, 63578, 2
63579, 63581, 2
63579, 63580, 1
63577, 63578, 1
63577, 63576, 2
63577, 63569, 2
63577, 63575, 2
63570, 63571, 1
63570, 63568, 2
63570, 63569, 2
63570, 63572, 2
63581, 63578, 2
63581, 63580, 2
63581, 63579, 2
63571, 63573, 1
63571, 63572, 3
63571, 63568, 2
63571, 63569, 2
63571, 63570, 2
63571, 63574, 2
63578, 63580, 2
63578, 63579, 1
63578, 63569, 2
63578, 63577, 2
63578, 63581, 2
63572, 63571, 2
63572, 63573, 2
63572, 63570, 2
63572, 63574, 2
63580, 63578, 2
63580, 63581, 3
63580, 63579, 2
63576, 63577, 1
63576, 63575, 2
63576, 63574, 2
63568, 63571, 2
63568, 63569, 6
63568, 63570, 1
63569, 63571, 2
63569, 63578, 2
63569, 63568, 2
63569, 63577, 2
63569, 63570, 2
63569, 63574, 2
63575, 63576, 1
63575, 63577, 2
63575, 63574, 2
