295824, 295822, 2
295824, 295823, 2
295824, 295826, 2
295824, 295825, 1
295833, 295834, 1
295833, 295828, 2
295833, 295835, 2
295833, 295832, 2
295833, 295831, 2
295833, 295826, 2
295827, 295831, 2
295827, 295829, 1
295827, 295826, 2
295827, 295825, 2
295827, 295828, 8
295828, 295833, 2
295828, 295827, 2
295828, 295835, 2
295828, 295830, 2
295828, 295829, 2
295835, 295834, 2
295835, 295833, 2
295835, 295828, 2
295832, 295833, 1
295832, 295830, 2
295832, 295831, 6
295832, 295826, 2
295831, 295834, 2
295831, 295833, 2
295831, 295830, 2
295831, 295832, 2
295831, 295822, 2
295831, 295827, 2
295831, 295826, 2
295831, 295825, 2
295831, 295829, 2
295823, 295824, 2
295823, 295822, 2
295834, 295833, 2
295834, 295831, 2
295834, 295835, 3
295830, 295832, 1
295830, 295831, 2
295830, 295829, 2
295830, 295828, 2
295830, 295826, 2
295822, 295824, 1
295822, 295831, 2
295822, 295823, 3
295822, 295826, 2
295826, 295824, 2
295826, 295833, 2
295826, 295830, 2
295826, 295832, 2
295826, 295831, 2
295826, 295822, 2
295826, 295827, 2
295826, 295825, 2
295826, 295829, 2
295825, 295824, 2
295825, 295831, 2
295825, 295827, 1
295825, 295826, 6
295829, 295828, 2
295829, 295831, 2
295829, 295827, 2
295829, 295826, 2
295829, 295830, 1
