340739, 340740, 1
340743, 340742, 2
340743, 340745, 2
340743, 340744, 1
340744, 340743, 2
340744, 340745, 1
340744, 340746, 2
340742, 340743, 1
340742, 340740, 2
340742, 340741, 2
340745, 340744, 2
340745, 340743, 2
340745, 340746, 1
340740, 340739, 2
340740, 340741, 0
340740, 340742, 1
340741, 340742, 2
340741, 340740, 2
340746, 340744, 2
340746, 340745, 2
