184878, 184879, 1
184878, 184880, 2
184884, 184883, 2
184884, 184885, 1
184884, 184882, 2
184881, 184880, 2
184881, 184882, 1
184887, 184885, 2
184887, 184886, 2
184887, 184888, 1
184888, 184887, 2
184879, 184880, 1
184879, 184878, 2
184886, 184885, 2
184886, 184887, 1
184883, 184884, 1
184883, 184882, 2
184885, 184886, 1
184885, 184882, 2
184885, 184884, 2
184885, 184887, 2
184882, 184883, 1
184882, 184885, 2
184882, 184884, 2
184882, 184880, 2
184882, 184881, 2
184880, 184879, 2
184880, 184878, 2
184880, 184881, 1
184880, 184882, 2
