222263, 222265, 1
222263, 222264, 3
222270, 222268, 2
222270, 222267, 2
222270, 222269, 2
222267, 222266, 2
222267, 222265, 2
222267, 222270, 2
222267, 222264, 2
222267, 222268, 2
222269, 222270, 3
222269, 222268, 2
222266, 222265, 2
222266, 222267, 3
222266, 222268, 1
222264, 222263, 2
222264, 222267, 2
222264, 222265, 2
222265, 222266, 1
222265, 222263, 2
222265, 222264, 2
222265, 222267, 2
222268, 222266, 2
222268, 222270, 2
222268, 222267, 2
222268, 222269, 1
