258572, 258571, 2
258572, 258575, 2
258572, 258573, 1
258571, 258572, 1
258575, 258572, 2
258575, 258574, 2
258575, 258573, 2
258574, 258575, 1
258574, 258573, 2
258573, 258572, 2
258573, 258574, 1
258573, 258575, 2
