299772, 299770, 2
299772, 299774, 2
299772, 299773, 2
299772, 299771, 2
299773, 299772, 2
299773, 299774, 3
299773, 299775, 1
299773, 299771, 2
299778, 299779, 3
299778, 299777, 2
299778, 299780, 1
299778, 299776, 2
299786, 299788, 2
299786, 299785, 2
299786, 299784, 2
299786, 299787, 2
299798, 299797, 2
299798, 299799, 2
299791, 299792, 2
299791, 299790, 2
299791, 299789, 2
299774, 299772, 2
299774, 299773, 2
299774, 299775, 2
299787, 299786, 2
299787, 299785, 2
299787, 299788, 3
299787, 299789, 1
299804, 299803, 2
299804, 299806, 1
299804, 299805, 3
299804, 299802, 2
299796, 299794, 2
299796, 299797, 2
299796, 299795, 2
299775, 299774, 2
299775, 299776, 1
299775, 299773, 2
299775, 299777, 2
299800, 299801, 1
299800, 299799, 2
299783, 299781, 2
299783, 299784, 2
299783, 299782, 2
299795, 299796, 3
299795, 299794, 2
299795, 299797, 1
299795, 299799, 2
299811, 299810, 2
299811, 299812, 1
299811, 299809, 2
299770, 299772, 2
299770, 299771, 1
299808, 299807, 2
299808, 299809, 2
299808, 299806, 2
299794, 299796, 2
299794, 299792, 2
299794, 299793, 2
299794, 299795, 1
299803, 299802, 2
299803, 299804, 2
299812, 299810, 2
299812, 299809, 2
299812, 299811, 2
299807, 299806, 2
299807, 299809, 1
299807, 299808, 3
299781, 299780, 2
299781, 299783, 2
299781, 299782, 1
299788, 299786, 2
299788, 299787, 2
299788, 299789, 2
299780, 299778, 2
299780, 299779, 2
299780, 299781, 1
299780, 299776, 2
299809, 299807, 2
299809, 299810, 3
299809, 299808, 2
299809, 299812, 2
299809, 299811, 1
299789, 299791, 2
299789, 299788, 2
299789, 299790, 1
299789, 299787, 2
299784, 299786, 2
299784, 299785, 1
299784, 299783, 2
299784, 299782, 2
299792, 299793, 3
299792, 299791, 2
299792, 299794, 1
299792, 299790, 2
299785, 299786, 3
299785, 299784, 2
299785, 299787, 1
299782, 299784, 1
299782, 299781, 2
299782, 299783, 3
299805, 299806, 2
299805, 299804, 2
299801, 299800, 2
299801, 299802, 1
299797, 299796, 2
299797, 299798, 3
299797, 299795, 2
299797, 299799, 1
299776, 299778, 1
299776, 299775, 2
299776, 299777, 3
299776, 299780, 2
299810, 299809, 2
299810, 299812, 2
299810, 299811, 2
299799, 299797, 2
299799, 299800, 1
299799, 299795, 2
299799, 299798, 2
299779, 299778, 2
299779, 299780, 2
299793, 299792, 2
299793, 299794, 2
299777, 299778, 2
299777, 299775, 2
299777, 299776, 2
299806, 299807, 1
299806, 299808, 2
299806, 299805, 2
299806, 299804, 2
299802, 299801, 2
299802, 299804, 1
299802, 299803, 3
299790, 299792, 1
299790, 299791, 3
299790, 299789, 2
299771, 299770, 2
299771, 299772, 3
299771, 299773, 1
