126268, 126267, 2
126268, 126270, 1
126268, 126269, 0
126257, 126259, 2
126257, 126258, 1
126257, 126262, 2
126257, 126255, 2
126257, 126256, 2
126260, 126259, 2
126260, 126261, 1
126260, 126262, 2
126286, 126283, 2
126286, 126282, 2
126286, 126287, 1
126286, 126285, 2
126286, 126284, 2
126266, 126265, 2
126266, 126267, 1
126284, 126283, 2
126284, 126287, 2
126284, 126285, 1
126284, 126286, 2
126284, 126288, 2
126280, 126279, 2
126280, 126283, 1
126280, 126281, 3
126280, 126282, 2
126280, 126269, 2
126263, 126259, 2
126263, 126261, 2
126263, 126262, 2
126263, 126264, 1
126263, 126269, 2
126262, 126259, 2
126262, 126257, 2
126262, 126261, 2
126262, 126265, 2
126262, 126267, 2
126262, 126256, 2
126262, 126260, 2
126262, 126263, 2
126262, 126269, 2
126283, 126281, 2
126283, 126282, 2
126283, 126286, 2
126283, 126285, 2
126283, 126284, 1
126283, 126280, 2
126283, 126269, 2
126283, 126288, 2
126281, 126283, 2
126281, 126279, 2
126281, 126278, 2
126281, 126282, 1
126281, 126280, 2
126261, 126259, 2
126261, 126263, 1
126261, 126260, 2
126261, 126262, 0
126270, 126268, 2
126270, 126267, 2
126270, 126288, 2
126270, 126271, 1
126270, 126269, 2
126277, 126276, 2
126277, 126278, 1
126277, 126274, 2
126277, 126275, 2
126264, 126265, 1
126264, 126263, 2
126259, 126257, 2
126259, 126261, 2
126259, 126262, 2
126259, 126258, 2
126259, 126260, 1
126259, 126263, 2
126259, 126256, 2
126278, 126279, 1
126278, 126281, 2
126278, 126275, 2
126278, 126277, 2
126278, 126276, 2
126278, 126269, 2
126285, 126283, 2
126285, 126284, 2
126285, 126287, 2
126285, 126286, 1
126285, 126288, 2
126269, 126268, 2
126269, 126263, 2
126269, 126274, 2
126269, 126272, 2
126269, 126265, 2
126269, 126280, 2
126269, 126262, 2
126269, 126267, 2
126269, 126270, 2
126269, 126283, 2
126269, 126278, 2
126269, 126288, 2
126288, 126272, 2
126288, 126270, 2
126288, 126274, 2
126288, 126283, 2
126288, 126287, 2
126288, 126285, 2
126288, 126284, 2
126288, 126269, 2
126272, 126274, 2
126272, 126273, 1
126272, 126271, 2
126272, 126269, 2
126272, 126288, 2
126274, 126272, 2
126274, 126275, 1
126274, 126276, 2
126274, 126277, 2
126274, 126273, 2
126274, 126269, 2
126274, 126288, 2
126255, 126257, 1
126255, 126256, 0
126265, 126266, 1
126265, 126267, 2
126265, 126262, 2
126265, 126264, 2
126265, 126269, 2
126258, 126259, 1
126258, 126257, 2
126273, 126272, 2
126273, 126274, 1
126256, 126259, 2
126256, 126257, 2
126256, 126262, 2
126256, 126255, 2
126279, 126281, 2
126279, 126278, 2
126279, 126280, 1
126276, 126275, 2
126276, 126277, 1
126276, 126278, 2
126276, 126274, 2
126267, 126268, 1
126267, 126270, 2
126267, 126265, 2
126267, 126266, 2
126267, 126262, 2
126267, 126269, 2
126275, 126277, 2
126275, 126278, 2
126275, 126274, 2
126275, 126276, 1
126282, 126283, 2
126282, 126281, 2
126282, 126280, 2
126282, 126286, 2
126287, 126284, 2
126287, 126285, 2
126287, 126286, 2
126287, 126288, 0
126271, 126272, 1
126271, 126270, 2
