185270, 185267, 2
185270, 185271, 1
185270, 185272, 2
185270, 185269, 2
185261, 185262, 2
185261, 185260, 2
185264, 185265, 3
185264, 185263, 2
185264, 185262, 2
185264, 185266, 1
185271, 185270, 2
185271, 185272, 1
185262, 185263, 1
185262, 185264, 2
185262, 185261, 2
185262, 185260, 2
185260, 185259, 2
185260, 185262, 1
185260, 185263, 2
185260, 185266, 2
185260, 185261, 3
185272, 185270, 2
185272, 185271, 2
185265, 185266, 2
185265, 185264, 2
185259, 185260, 1
185269, 185270, 1
185269, 185267, 2
185269, 185268, 2
185269, 185266, 2
185263, 185262, 2
185263, 185260, 2
185263, 185266, 2
185263, 185264, 1
185267, 185270, 2
185267, 185268, 8
185267, 185266, 2
185267, 185269, 1
185266, 185265, 2
185266, 185268, 2
185266, 185264, 2
185266, 185263, 2
185266, 185269, 2
185266, 185267, 1
185266, 185260, 2
185268, 185267, 2
185268, 185266, 2
185268, 185269, 2
