253074, 253075, 2
253074, 253073, 2
253074, 253072, 2
253074, 253071, 2
253068, 253070, 2
253068, 253069, 1
253068, 253067, 2
253068, 253072, 2
253068, 253071, 2
253080, 253081, 1
253080, 253079, 2
253080, 253078, 2
253075, 253074, 2
253075, 253071, 2
253075, 253073, 2
253075, 253072, 2
253075, 253076, 1
253067, 253070, 2
253067, 253068, 1
253072, 253074, 2
253072, 253075, 2
253072, 253071, 2
253072, 253068, 2
253072, 253073, 1
253073, 253074, 1
253073, 253075, 2
253073, 253071, 2
253073, 253072, 2
253081, 253079, 2
253081, 253078, 2
253081, 253080, 2
253069, 253070, 1
253069, 253068, 2
253069, 253071, 2
253079, 253081, 2
253079, 253077, 2
253079, 253078, 2
253079, 253080, 2
253070, 253069, 2
253070, 253071, 1
253070, 253068, 2
253070, 253067, 2
253077, 253079, 2
253077, 253078, 1
253077, 253076, 2
253076, 253077, 1
253076, 253075, 2
253071, 253074, 2
253071, 253069, 2
253071, 253070, 2
253071, 253075, 1
253071, 253068, 2
253071, 253072, 0
253071, 253073, 2
253078, 253081, 2
253078, 253077, 2
253078, 253079, 8
253078, 253080, 1
