64200, 64202, 2
64200, 64201, 1
64200, 64199, 2
64200, 64198, 2
64200, 64203, 2
64204, 64202, 2
64204, 64205, 2
64204, 64203, 2
64197, 64195, 2
64197, 64199, 2
64197, 64193, 2
64197, 64198, 1
64197, 64196, 2
64197, 64201, 2
64197, 64203, 2
64191, 64190, 2
64191, 64192, 1
64191, 64193, 2
64191, 64194, 2
64191, 64189, 2
64206, 64205, 2
64190, 64191, 1
64190, 64189, 2
64202, 64201, 2
64202, 64204, 2
64202, 64199, 2
64202, 64203, 2
64202, 64200, 2
64201, 64205, 2
64201, 64199, 2
64201, 64197, 2
64201, 64202, 1
64201, 64198, 2
64201, 64203, 2
64201, 64200, 2
64195, 64194, 2
64195, 64196, 1
64195, 64193, 2
64195, 64197, 2
64203, 64205, 1
64203, 64204, 3
64203, 64199, 2
64203, 64197, 2
64203, 64202, 2
64203, 64201, 2
64203, 64198, 2
64203, 64200, 2
64189, 64190, 1
64189, 64191, 2
64192, 64194, 1
64192, 64191, 2
64192, 64193, 3
64205, 64201, 2
64205, 64204, 2
64205, 64198, 2
64205, 64203, 2
64205, 64206, 1
64199, 64197, 2
64199, 64202, 2
64199, 64201, 2
64199, 64198, 2
64199, 64203, 2
64199, 64200, 2
64194, 64195, 1
64194, 64193, 2
64194, 64191, 2
64194, 64192, 2
64196, 64195, 2
64196, 64197, 1
64198, 64205, 2
64198, 64199, 3
64198, 64197, 2
64198, 64201, 2
64198, 64203, 1
64198, 64200, 8
64193, 64194, 2
64193, 64195, 2
64193, 64192, 2
64193, 64191, 2
64193, 64197, 2
