118349, 118351, 2
118349, 118353, 2
118349, 118348, 2
118349, 118345, 2
118349, 118346, 2
118349, 118350, 2
118349, 118347, 2
118349, 118344, 2
118349, 118352, 2
118351, 118349, 2
118351, 118353, 1
118351, 118352, 3
118351, 118350, 2
118348, 118349, 3
118348, 118347, 2
118348, 118352, 2
118348, 118346, 2
118348, 118350, 1
118345, 118349, 2
118345, 118347, 2
118345, 118346, 1
118345, 118344, 2
118346, 118349, 2
118346, 118347, 8
118346, 118348, 1
118346, 118345, 2
118344, 118349, 2
118344, 118347, 2
118344, 118345, 1
118347, 118349, 2
118347, 118348, 2
118347, 118345, 2
118347, 118346, 2
118347, 118344, 2
118350, 118349, 2
118350, 118351, 1
118350, 118348, 2
118350, 118352, 2
118353, 118349, 2
118353, 118351, 2
118353, 118352, 2
118352, 118349, 2
118352, 118351, 2
118352, 118348, 2
118352, 118353, 2
118352, 118350, 2
