217026, 217027, 1
217026, 217025, 2
217024, 217023, 2
217024, 217025, 1
217028, 217027, 2
217028, 217029, 1
217029, 217027, 2
217029, 217028, 2
217018, 217020, 2
217018, 217019, 1
217018, 217021, 2
217018, 217017, 2
217019, 217022, 2
217019, 217023, 2
217019, 217020, 8
217019, 217021, 1
217019, 217018, 2
217025, 217026, 1
217025, 217023, 2
217025, 217024, 2
217017, 217018, 1
217023, 217022, 2
217023, 217019, 2
217023, 217024, 1
217023, 217021, 2
217023, 217025, 2
217020, 217022, 2
217020, 217018, 2
217020, 217019, 2
217020, 217021, 2
217022, 217020, 2
217022, 217023, 2
217022, 217019, 2
217022, 217021, 2
217027, 217026, 2
217027, 217029, 2
217027, 217028, 1
217021, 217022, 3
217021, 217020, 2
217021, 217023, 1
217021, 217019, 2
217021, 217018, 2
