255947, 255946, 2
255947, 255949, 2
255947, 255944, 2
255947, 255948, 2
255948, 255947, 2
255948, 255946, 2
255948, 255949, 2
255948, 255945, 2
255944, 255947, 2
255944, 255946, 3
255944, 255949, 1
255944, 255945, 6
255952, 255951, 2
255952, 255955, 2
255952, 255958, 2
255952, 255956, 2
255952, 255953, 1
255952, 255954, 2
255974, 255971, 2
255974, 255975, 1
255974, 255973, 2
255974, 255953, 2
255949, 255947, 2
255949, 255948, 2
255949, 255944, 2
255949, 255945, 2
255949, 255946, 2
255949, 255951, 2
255949, 255950, 1
255956, 255959, 2
255956, 255952, 2
255956, 255957, 2
255956, 255955, 2
255956, 255953, 2
255956, 255954, 2
255972, 255967, 2
255972, 255970, 2
255972, 255953, 2
255972, 255968, 2
255953, 255971, 2
255953, 255974, 2
255953, 255957, 2
255953, 255958, 4
255953, 255956, 2
255953, 255968, 2
255953, 255972, 2
255953, 255967, 2
255953, 255969, 2
255953, 255959, 2
255953, 255954, 6
255953, 255965, 2
255953, 255973, 2
255953, 255962, 2
255953, 255955, 2
255953, 255975, 2
255953, 255960, 2
255953, 255961, 2
255953, 255964, 2
255953, 255966, 2
255953, 255951, 2
255953, 255970, 2
255953, 255952, 2
255953, 255963, 2
255968, 255967, 2
255968, 255970, 1
255968, 255972, 2
255968, 255953, 2
255951, 255952, 1
255951, 255958, 2
255951, 255949, 2
255951, 255950, 2
255951, 255953, 2
255951, 255954, 2
255969, 255971, 0
255969, 255966, 2
255969, 255953, 2
255959, 255957, 2
255959, 255955, 2
255959, 255956, 2
255959, 255953, 2
255959, 255954, 2
255959, 255961, 1
255954, 255951, 2
255954, 255959, 1
255954, 255952, 2
255954, 255957, 2
255954, 255955, 3
255954, 255956, 2
255954, 255953, 2
255965, 255953, 2
255965, 255966, 1
255965, 255963, 2
255965, 255961, 2
255973, 255971, 2
255973, 255974, 1
255973, 255975, 2
255973, 255953, 2
255971, 255974, 2
255971, 255975, 2
255971, 255969, 2
255971, 255953, 2
255971, 255973, 1
255946, 255947, 8
255946, 255948, 1
255946, 255949, 2
255946, 255944, 2
255946, 255945, 2
255975, 255971, 2
255975, 255974, 2
255975, 255973, 2
255975, 255953, 2
255960, 255962, 1
255960, 255958, 2
255960, 255953, 2
255962, 255964, 1
255962, 255960, 2
255962, 255953, 2
255961, 255963, 0
255961, 255965, 1
255961, 255953, 2
255961, 255959, 2
255964, 255962, 2
255964, 255967, 1
255964, 255953, 2
255966, 255965, 2
255966, 255969, 1
255966, 255953, 2
255967, 255972, 2
255967, 255964, 2
255967, 255970, 2
255967, 255953, 2
255967, 255968, 0
255970, 255967, 2
255970, 255972, 1
255970, 255968, 2
255970, 255953, 2
255957, 255955, 2
255957, 255956, 2
255957, 255959, 2
255957, 255954, 2
255957, 255953, 2
255955, 255959, 2
255955, 255952, 2
255955, 255957, 1
255955, 255956, 8
255955, 255953, 2
255955, 255954, 2
255963, 255965, 2
255963, 255953, 2
255963, 255961, 2
255950, 255949, 2
255950, 255951, 1
255958, 255951, 2
255958, 255960, 1
255958, 255953, 2
255958, 255952, 2
255945, 255948, 2
255945, 255949, 2
255945, 255944, 2
255945, 255946, 2
