221769, 221770, 0
221769, 221767, 2
221769, 221768, 2
221769, 221771, 1
221768, 221769, 1
221768, 221767, 2
221768, 221766, 2
221766, 221767, 0
221766, 221768, 1
221772, 221770, 2
221772, 221771, 2
221770, 221772, 2
221770, 221769, 2
221770, 221771, 2
221767, 221769, 2
221767, 221768, 2
221767, 221766, 2
221771, 221772, 1
221771, 221770, 2
221771, 221769, 2
