71857, 71858, 6
71857, 71855, 2
71857, 71860, 1
71857, 71859, 0
71857, 71856, 2
71855, 71858, 2
71855, 71857, 1
71855, 71860, 2
71855, 71856, 3
71860, 71858, 2
71860, 71857, 2
71860, 71855, 2
71860, 71859, 2
71860, 71856, 2
71859, 71858, 2
71859, 71857, 2
71859, 71860, 2
71856, 71858, 2
71856, 71857, 2
71856, 71855, 2
71856, 71860, 2
71858, 71857, 2
71858, 71855, 2
71858, 71860, 2
71858, 71859, 2
71858, 71856, 2
