197404, 197406, 1
197404, 197402, 2
197404, 197403, 2
197404, 197405, 8
197400, 197405, 2
197400, 197401, 2
197400, 197402, 2
197400, 197399, 2
197401, 197400, 2
197401, 197402, 2
197401, 197399, 2
197406, 197404, 2
197406, 197405, 2
197399, 197400, 3
197399, 197402, 1
197399, 197401, 8
197405, 197404, 2
197405, 197406, 2
197405, 197402, 2
197405, 197400, 2
197405, 197403, 2
197402, 197404, 2
197402, 197400, 2
197402, 197403, 1
197402, 197399, 2
197402, 197405, 2
197402, 197401, 2
197403, 197404, 1
197403, 197402, 2
197403, 197405, 2
