218679, 218680, 1
218679, 218681, 2
218697, 218691, 2
218697, 218695, 2
218697, 218696, 2
218697, 218698, 1
218690, 218691, 2
218690, 218692, 1
218690, 218689, 2
218690, 218694, 2
218694, 218691, 2
218694, 218693, 2
218694, 218690, 2
218694, 218692, 2
218694, 218695, 2
218682, 218691, 2
218682, 218683, 1
218682, 218681, 2
218691, 218697, 2
218691, 218683, 2
218691, 218694, 2
218691, 218682, 2
218691, 218695, 2
218691, 218698, 2
218691, 218686, 2
218691, 218687, 2
218691, 218681, 2
218691, 218685, 2
218691, 218692, 2
218691, 218684, 2
218691, 218693, 2
218691, 218690, 2
218691, 218689, 2
218695, 218691, 2
218695, 218693, 2
218695, 218697, 2
218695, 218696, 1
218695, 218694, 2
218696, 218695, 2
218696, 218697, 1
218698, 218691, 2
218698, 218697, 2
218686, 218691, 2
218686, 218685, 2
218686, 218687, 1
218687, 218691, 2
218687, 218686, 2
218687, 218688, 1
218681, 218691, 2
218681, 218679, 2
218681, 218680, 2
218681, 218682, 1
218685, 218691, 2
218685, 218686, 1
218685, 218684, 2
218692, 218691, 6
218692, 218693, 1
218692, 218690, 2
218692, 218694, 2
218684, 218691, 2
218684, 218685, 1
218684, 218683, 2
218693, 218691, 2
218693, 218695, 1
218693, 218694, 8
218693, 218692, 2
218683, 218691, 2
218683, 218684, 1
218683, 218682, 2
218689, 218691, 2
218689, 218690, 1
218689, 218688, 2
218680, 218679, 2
218680, 218681, 1
218688, 218687, 2
218688, 218689, 1
