21181, 21183, 2
21181, 21180, 2
21181, 21182, 2
21183, 21181, 2
21183, 21182, 2
21180, 21181, 1
21180, 21182, 2
21180, 21179, 2
21182, 21181, 2
21182, 21180, 2
21182, 21183, 1
21182, 21179, 2
21179, 21180, 0
21179, 21182, 1
