335881, 335880, 2
335881, 335879, 2
335881, 335878, 2
335881, 335882, 1
335889, 335890, 1
335889, 335888, 2
335889, 335887, 2
335889, 335883, 2
335879, 335881, 2
335879, 335880, 2
335879, 335878, 2
335882, 335881, 2
335882, 335883, 1
335882, 335886, 2
335882, 335884, 2
335884, 335885, 2
335884, 335883, 2
335884, 335882, 2
335884, 335886, 2
335892, 335890, 2
335892, 335893, 1
335892, 335891, 2
335896, 335895, 2
335896, 335894, 2
335888, 335889, 2
335888, 335887, 2
335878, 335881, 2
335878, 335880, 1
335878, 335879, 3
335894, 335896, 2
335894, 335895, 1
335894, 335893, 2
335883, 335884, 3
335883, 335890, 2
335883, 335889, 2
335883, 335882, 2
335883, 335886, 1
335895, 335896, 1
335895, 335894, 2
335887, 335885, 2
335887, 335889, 1
335887, 335888, 3
335887, 335886, 2
335886, 335885, 2
335886, 335884, 2
335886, 335887, 1
335886, 335882, 2
335886, 335883, 2
335885, 335884, 2
335885, 335887, 2
335885, 335886, 2
335880, 335881, 1
335880, 335879, 2
335880, 335878, 2
335890, 335892, 2
335890, 335889, 2
335890, 335891, 1
335890, 335883, 2
335893, 335892, 2
335893, 335894, 1
335891, 335892, 1
335891, 335890, 2
