15163, 15162, 2
15163, 15159, 2
15163, 15158, 2
15163, 15164, 1
15160, 15158, 2
15160, 15161, 1
15160, 15159, 2
15165, 15166, 1
15165, 15164, 2
15162, 15163, 1
15162, 15161, 2
15162, 15159, 2
15161, 15160, 2
15161, 15162, 1
15161, 15159, 2
15161, 15158, 2
15164, 15163, 2
15164, 15165, 1
15164, 15166, 2
15164, 15159, 2
15167, 15166, 2
15166, 15165, 2
15166, 15167, 1
15166, 15164, 2
15159, 15163, 2
15159, 15160, 2
15159, 15162, 2
15159, 15161, 2
15159, 15164, 2
15159, 15158, 2
15158, 15163, 2
15158, 15160, 1
15158, 15161, 2
15158, 15159, 0
