15593, 15594, 2
15593, 15591, 2
15593, 15595, 2
15593, 15592, 2
15594, 15593, 2
15594, 15597, 2
15594, 15595, 2
15594, 15596, 2
15595, 15593, 2
15595, 15597, 1
15595, 15594, 2
15595, 15592, 2
15595, 15596, 3
15588, 15589, 1
15588, 15590, 2
15588, 15592, 2
15596, 15597, 2
15596, 15594, 2
15596, 15595, 2
15597, 15596, 2
15597, 15594, 2
15597, 15592, 2
15597, 15595, 2
15589, 15588, 2
15589, 15590, 3
15589, 15592, 1
15591, 15593, 2
15591, 15590, 2
15591, 15592, 2
15590, 15588, 2
15590, 15589, 2
15590, 15591, 2
15590, 15592, 2
15592, 15593, 3
15592, 15595, 1
15592, 15588, 2
15592, 15591, 2
15592, 15597, 2
15592, 15589, 2
15592, 15590, 2
