296525, 296526, 1
296525, 296521, 2
296525, 296524, 2
296525, 296527, 2
296511, 296512, 3
296511, 296513, 1
296511, 296515, 2
296511, 296514, 2
296511, 296517, 2
296523, 296521, 2
296523, 296527, 2
296523, 296524, 1
296523, 296522, 2
296524, 296525, 1
296524, 296523, 2
296524, 296516, 2
296524, 296522, 2
296524, 296521, 2
296524, 296519, 2
296524, 296527, 2
296516, 296515, 2
296516, 296518, 2
296516, 296524, 2
296516, 296522, 2
296516, 296521, 2
296516, 296520, 1
296516, 296517, 0
296516, 296519, 2
296528, 296527, 2
296521, 296526, 2
296521, 296525, 2
296521, 296523, 2
296521, 296516, 2
296521, 296524, 2
296521, 296522, 0
296521, 296520, 2
296521, 296519, 2
296521, 296527, 1
296520, 296515, 2
296520, 296518, 2
296520, 296516, 2
296520, 296522, 2
296520, 296521, 1
296520, 296517, 2
296520, 296519, 2
296517, 296513, 2
296517, 296515, 2
296517, 296518, 1
296517, 296516, 2
296517, 296520, 2
296517, 296519, 2
296517, 296511, 2
296526, 296525, 2
296526, 296527, 2
296526, 296521, 2
296513, 296512, 2
296513, 296511, 2
296513, 296517, 2
296513, 296514, 1
296515, 296511, 2
296515, 296517, 2
296515, 296516, 1
296515, 296522, 2
296515, 296512, 2
296515, 296520, 2
296515, 296514, 2
296518, 296520, 2
296518, 296517, 2
296518, 296519, 1
296518, 296516, 2
296522, 296515, 2
296522, 296523, 1
296522, 296516, 2
296522, 296524, 2
296522, 296521, 2
296522, 296520, 2
296522, 296519, 2
296522, 296527, 2
296512, 296513, 2
296512, 296511, 2
296512, 296514, 2
296512, 296515, 2
296514, 296512, 2
296514, 296513, 2
296514, 296511, 2
296514, 296515, 1
296519, 296527, 2
296519, 296518, 2
296519, 296516, 2
296519, 296522, 2
296519, 296521, 2
296519, 296520, 2
296519, 296517, 2
296519, 296524, 2
296527, 296526, 2
296527, 296525, 2
296527, 296523, 2
296527, 296524, 2
296527, 296528, 1
296527, 296521, 2
296527, 296522, 2
296527, 296519, 2
