222508, 222509, 1
222508, 222507, 2
222505, 222504, 2
222505, 222507, 2
222505, 222503, 2
222505, 222506, 1
222506, 222505, 2
222506, 222507, 1
222502, 222504, 1
222502, 222503, 8
222502, 222501, 2
222507, 222508, 1
222507, 222506, 2
222507, 222505, 2
222507, 222503, 2
222504, 222501, 2
222504, 222505, 1
222504, 222502, 2
222504, 222503, 2
222509, 222508, 2
222501, 222504, 2
222501, 222503, 2
222501, 222502, 1
222503, 222501, 2
222503, 222504, 2
222503, 222502, 2
222503, 222505, 2
222503, 222507, 2
