341013, 341014, 1
341013, 341012, 2
341012, 341013, 1
341012, 341011, 2
341016, 341017, 1
341016, 341014, 2
341016, 341015, 2
341019, 341018, 2
341017, 341016, 2
341017, 341018, 1
341014, 341013, 2
341014, 341015, 1
341014, 341016, 2
341015, 341014, 2
341015, 341016, 1
341018, 341017, 2
341018, 341019, 0
341011, 341012, 1
