259558, 259557, 2
259558, 259560, 2
259558, 259559, 2
259558, 259561, 2
259564, 259561, 2
259564, 259560, 2
259564, 259563, 2
259563, 259561, 2
259563, 259562, 2
259563, 259564, 1
259562, 259560, 2
259562, 259561, 2
259562, 259563, 1
259562, 259557, 2
259560, 259558, 2
259560, 259562, 0
259560, 259564, 2
259560, 259557, 2
259560, 259561, 3
259560, 259559, 2
259561, 259560, 2
259561, 259558, 2
259561, 259563, 2
259561, 259564, 2
259561, 259562, 2
259559, 259560, 1
259559, 259558, 2
259559, 259557, 2
259557, 259560, 2
259557, 259558, 3
259557, 259559, 1
259557, 259562, 2
