341365, 341367, 2
341365, 341362, 2
341365, 341366, 1
341365, 341364, 2
341365, 341368, 2
341369, 341368, 2
341369, 341370, 1
341366, 341365, 2
341366, 341367, 8
341366, 341368, 1
341363, 341362, 2
341363, 341364, 1
341367, 341365, 2
341367, 341368, 2
341367, 341366, 2
341367, 341370, 2
341362, 341365, 2
341362, 341364, 2
341362, 341363, 1
341368, 341367, 2
341368, 341369, 1
341368, 341365, 2
341368, 341366, 2
341368, 341370, 2
341364, 341365, 1
341364, 341362, 2
341364, 341363, 2
341370, 341367, 2
341370, 341369, 2
341370, 341368, 2
