72136, 72137, 1
72136, 72138, 2
72136, 72135, 2
72139, 72138, 2
72139, 72137, 2
72139, 72140, 1
72135, 72136, 1
72137, 72136, 2
72137, 72139, 1
72137, 72138, 3
72138, 72136, 2
72138, 72139, 2
72138, 72137, 2
72140, 72139, 2
