339664, 339663, 2
339664, 339665, 1
339666, 339665, 2
339662, 339663, 1
339662, 339661, 2
339663, 339662, 2
339663, 339664, 1
339663, 339665, 2
339665, 339663, 2
339665, 339664, 2
339665, 339666, 3
339661, 339662, 1
