162048, 162049, 1
162048, 162045, 2
162048, 162047, 2
162052, 162050, 2
162052, 162056, 2
162052, 162053, 1
162052, 162054, 2
162052, 162057, 2
162052, 162049, 2
162052, 162055, 2
162052, 162051, 2
162052, 162058, 2
162054, 162056, 1
162054, 162052, 2
162054, 162046, 2
162054, 162053, 2
162054, 162057, 2
162054, 162049, 2
162054, 162047, 2
162054, 162058, 2
162055, 162045, 2
162055, 162051, 2
162055, 162052, 2
162055, 162053, 2
162055, 162058, 2
162049, 162050, 3
162049, 162048, 2
162049, 162052, 1
162049, 162054, 2
162049, 162045, 2
162049, 162051, 2
162049, 162047, 2
162047, 162049, 2
162047, 162045, 2
162047, 162048, 1
162047, 162046, 2
162047, 162054, 2
162050, 162049, 2
162050, 162045, 2
162050, 162051, 3
162050, 162052, 2
162056, 162052, 2
162056, 162053, 2
162056, 162054, 2
162056, 162057, 3
162056, 162059, 2
162056, 162058, 2
162046, 162045, 4
162046, 162047, 1
162046, 162054, 2
162053, 162056, 2
162053, 162052, 2
162053, 162055, 4
162053, 162054, 6
162053, 162057, 2
162053, 162051, 2
162053, 162058, 1
162057, 162056, 2
162057, 162052, 2
162057, 162053, 2
162057, 162054, 2
162057, 162059, 2
162057, 162058, 2
162045, 162050, 2
162045, 162048, 2
162045, 162046, 2
162045, 162055, 2
162045, 162049, 2
162045, 162051, 2
162045, 162047, 2
162051, 162049, 2
162051, 162050, 2
162051, 162052, 2
162051, 162053, 2
162051, 162055, 2
162051, 162045, 2
162059, 162058, 2
162059, 162056, 2
162059, 162057, 2
162058, 162054, 2
162058, 162056, 2
162058, 162052, 2
162058, 162053, 2
162058, 162055, 2
162058, 162057, 2
162058, 162059, 1
