222386, 222387, 1
222386, 222385, 2
222387, 222386, 2
222387, 222388, 1
222392, 222390, 2
222392, 222391, 2
222385, 222386, 1
222385, 222384, 2
222384, 222385, 1
222390, 222392, 2
222390, 222389, 2
222390, 222388, 2
222390, 222391, 2
222391, 222390, 2
222391, 222392, 1
222391, 222389, 2
222389, 222390, 8
222389, 222388, 2
222389, 222391, 1
222388, 222387, 2
222388, 222390, 2
222388, 222389, 1
