295875, 295871, 2
295875, 295874, 2
295875, 295879, 2
295875, 295877, 1
295875, 295876, 3
295873, 295872, 2
295873, 295874, 1
295873, 295876, 2
295873, 295879, 2
295881, 295878, 2
295881, 295880, 2
295881, 295879, 2
295881, 295877, 2
295867, 295869, 1
295867, 295868, 3
295867, 295879, 2
295867, 295871, 2
295870, 295872, 1
295870, 295869, 2
295870, 295879, 2
295870, 295871, 6
295872, 295873, 1
295872, 295871, 2
295872, 295870, 2
295872, 295874, 2
295872, 295876, 2
295872, 295879, 2
295874, 295875, 1
295874, 295873, 2
295874, 295871, 2
295874, 295872, 2
295874, 295876, 2
295874, 295879, 2
295879, 295875, 2
295879, 295873, 2
295879, 295880, 2
295879, 295867, 2
295879, 295877, 2
295879, 295870, 2
295879, 295872, 2
295879, 295881, 2
295879, 295878, 2
295879, 295871, 2
295879, 295874, 2
295868, 295869, 2
295868, 295876, 2
295868, 295867, 2
295877, 295875, 2
295877, 295871, 2
295877, 295881, 2
295877, 295878, 1
295877, 295880, 2
295877, 295876, 2
295877, 295879, 2
295871, 295875, 2
295871, 295869, 2
295871, 295877, 2
295871, 295867, 2
295871, 295870, 2
295871, 295872, 2
295871, 295878, 2
295871, 295874, 2
295871, 295879, 2
295869, 295871, 2
295869, 295868, 2
295869, 295876, 2
295869, 295867, 2
295869, 295870, 1
295878, 295881, 1
295878, 295880, 3
295878, 295879, 6
295878, 295877, 2
295878, 295871, 2
295880, 295881, 2
295880, 295878, 2
295880, 295879, 2
295880, 295877, 2
295880, 295876, 2
295876, 295875, 2
295876, 295873, 2
295876, 295869, 2
295876, 295877, 2
295876, 295872, 2
295876, 295880, 2
295876, 295874, 2
295876, 295868, 2
