125978, 125982, 2
125978, 125977, 2
125978, 125980, 6
125978, 125983, 2
125978, 125984, 1
125978, 125981, 2
125978, 125979, 4
125983, 125982, 2
125983, 125984, 2
125983, 125978, 2
125983, 125977, 2
125999, 125997, 2
125999, 125998, 2
125999, 126000, 2
125999, 126001, 2
125991, 125990, 2
125991, 125985, 2
125991, 125992, 2
125991, 125986, 2
125991, 125989, 2
125991, 125993, 2
126003, 126002, 2
126003, 126009, 2
126003, 126004, 1
125996, 125984, 2
125996, 125985, 2
125996, 126009, 2
125996, 125997, 2
125996, 125995, 2
125996, 125986, 2
125989, 125990, 1
125989, 125985, 2
125989, 126008, 2
125989, 125992, 2
125989, 125991, 2
125989, 125988, 2
125989, 125986, 2
126006, 126010, 2
126006, 126005, 2
126006, 126008, 2
126006, 126009, 2
126006, 126007, 1
125990, 125991, 8
125990, 125992, 1
125990, 125989, 2
125990, 125993, 2
125977, 125978, 1
125977, 125980, 2
125977, 125983, 2
125977, 125984, 2
125977, 125981, 2
125977, 125979, 2
125980, 125984, 2
125980, 125978, 2
125980, 125977, 2
126007, 126008, 6
126007, 126002, 2
126007, 126009, 4
126007, 126010, 2
126007, 126005, 2
126007, 126006, 2
126004, 126005, 1
126004, 126008, 2
126004, 126002, 2
126004, 126009, 2
126004, 126003, 2
126000, 125997, 2
126000, 126001, 1
126000, 126008, 2
126000, 125999, 2
126000, 125998, 2
125995, 125985, 2
125995, 125997, 1
125995, 126008, 2
125995, 125996, 3
125995, 125993, 2
125995, 125994, 2
125995, 125986, 2
126002, 125985, 2
126002, 126008, 2
126002, 126009, 2
126002, 126003, 1
126002, 126001, 2
126002, 126004, 2
126002, 125986, 2
126002, 126007, 2
125982, 125981, 2
125982, 125978, 2
125982, 125983, 1
126005, 126008, 2
126005, 126009, 2
126005, 126004, 2
126005, 126010, 2
126005, 126006, 1
126005, 126007, 2
125985, 126002, 2
125985, 126009, 2
125985, 125984, 2
125985, 125991, 2
125985, 125988, 2
125985, 125993, 2
125985, 125989, 2
125985, 125996, 2
125985, 125987, 2
125985, 125992, 2
125985, 125986, 3
125985, 125995, 2
126009, 125985, 2
126009, 126002, 2
126009, 125984, 2
126009, 126001, 2
126009, 126004, 2
126009, 126006, 2
126009, 126007, 2
126009, 125996, 2
126009, 126003, 2
126009, 125997, 2
126009, 126005, 2
126009, 125986, 2
125984, 125980, 2
125984, 125978, 2
125984, 125985, 3
125984, 125983, 2
125984, 126009, 2
125984, 125981, 2
125984, 125996, 2
125984, 125977, 2
125984, 125987, 1
125984, 125992, 2
125984, 126008, 2
125984, 125979, 2
125984, 125986, 2
126001, 125999, 2
126001, 126000, 2
126001, 126002, 1
126001, 126009, 2
126001, 125998, 2
126001, 126008, 2
126001, 125986, 2
125988, 126008, 2
125988, 125985, 2
125988, 125987, 2
125988, 125986, 2
125988, 125989, 1
125993, 125990, 2
125993, 125985, 2
125993, 125992, 2
125993, 125991, 2
125993, 125995, 1
125993, 125994, 8
125993, 125986, 2
125986, 125985, 2
125986, 126002, 2
125986, 126009, 2
125986, 125984, 2
125986, 125991, 2
125986, 125988, 2
125986, 125996, 2
125986, 125989, 2
125986, 125993, 2
125986, 125987, 2
125986, 125992, 2
125986, 126001, 2
125986, 125995, 2
126008, 126000, 2
126008, 126002, 2
126008, 125984, 2
126008, 126001, 2
126008, 125988, 2
126008, 126006, 2
126008, 126007, 2
126008, 125992, 2
126008, 126004, 2
126008, 125997, 2
126008, 126010, 1
126008, 126005, 2
126008, 125989, 2
126008, 125995, 2
125992, 125990, 2
125992, 125985, 2
125992, 126008, 2
125992, 125984, 2
125992, 125991, 2
125992, 125993, 1
125992, 125989, 2
125992, 125986, 2
125981, 125982, 1
125981, 125984, 2
125981, 125978, 2
125981, 125977, 2
125981, 125979, 2
125997, 126008, 2
125997, 125999, 2
125997, 126009, 2
125997, 125996, 2
125997, 125998, 1
125997, 125995, 2
125997, 126000, 2
125998, 125997, 2
125998, 126001, 2
125998, 126000, 1
125998, 125999, 8
126010, 126005, 2
126010, 126008, 2
126010, 126006, 2
126010, 126007, 2
125979, 125984, 2
125979, 125981, 1
125979, 125978, 2
125979, 125977, 2
125987, 125984, 2
125987, 125988, 1
125987, 125985, 2
125987, 125986, 2
125994, 125995, 2
125994, 125993, 2
