170691, 170684, 2
170691, 170694, 2
170691, 170692, 2
170691, 170695, 2
170691, 170681, 2
170691, 170683, 2
170691, 170688, 2
170691, 170699, 2
170691, 170687, 2
170691, 170697, 2
170691, 170701, 2
170691, 170698, 2
170691, 170696, 2
170691, 170689, 2
170691, 170690, 2
170691, 170685, 2
170691, 170693, 2
170661, 170660, 2
170661, 170663, 1
170661, 170658, 2
170716, 170719, 2
170716, 170717, 1
170716, 170715, 2
170716, 170712, 2
170716, 170721, 2
170716, 170718, 2
170695, 170691, 2
170695, 170699, 2
170695, 170697, 2
170695, 170694, 2
170695, 170687, 2
170695, 170698, 2
170695, 170696, 2
170695, 170688, 2
170695, 170689, 2
170695, 170700, 2
170695, 170693, 2
170686, 170682, 2
170686, 170684, 2
170686, 170693, 2
170686, 170688, 1
170686, 170681, 2
170686, 170689, 2
170686, 170690, 2
170700, 170699, 2
170700, 170702, 2
170700, 170698, 2
170700, 170707, 2
170700, 170701, 2
170700, 170706, 2
170700, 170704, 1
170700, 170695, 2
170700, 170696, 2
170700, 170688, 2
170699, 170691, 2
170699, 170695, 2
170699, 170698, 2
170699, 170690, 2
170699, 170705, 2
170699, 170687, 2
170699, 170703, 2
170699, 170700, 2
170699, 170688, 2
170699, 170702, 1
170699, 170697, 2
170699, 170701, 2
170699, 170706, 2
170699, 170696, 2
170699, 170704, 2
170674, 170673, 2
170674, 170668, 2
170674, 170672, 2
170674, 170678, 2
170674, 170675, 1
170719, 170715, 2
170719, 170717, 2
170719, 170720, 0
170719, 170716, 2
170719, 170721, 1
170719, 170718, 2
170704, 170699, 2
170704, 170706, 1
170704, 170707, 2
170704, 170700, 2
170704, 170702, 2
170660, 170659, 2
170660, 170664, 1
170660, 170665, 2
170660, 170657, 2
170660, 170663, 2
170660, 170668, 2
170660, 170658, 2
170660, 170666, 2
170660, 170661, 4
170707, 170702, 2
170707, 170703, 2
170707, 170701, 2
170707, 170705, 2
170707, 170709, 2
170707, 170706, 2
170707, 170704, 2
170707, 170710, 2
170707, 170708, 2
170707, 170700, 2
170682, 170684, 2
170682, 170664, 2
170682, 170690, 2
170682, 170692, 2
170682, 170679, 2
170682, 170686, 1
170682, 170683, 2
170682, 170678, 2
170682, 170688, 2
170682, 170668, 2
170682, 170681, 2
170682, 170689, 2
170682, 170693, 2
170705, 170699, 2
170705, 170702, 2
170705, 170707, 2
170705, 170701, 2
170705, 170706, 2
170705, 170703, 2
170717, 170715, 2
170717, 170716, 2
170717, 170719, 2
170717, 170721, 2
170717, 170718, 1
170680, 170679, 2
170680, 170681, 1
170692, 170691, 2
170692, 170682, 2
170692, 170693, 1
170692, 170687, 2
170692, 170689, 2
170692, 170690, 2
170692, 170688, 2
170703, 170699, 2
170703, 170702, 2
170703, 170705, 1
170703, 170707, 2
170703, 170701, 2
170669, 170666, 2
170669, 170668, 2
170669, 170667, 2
170669, 170670, 1
170669, 170672, 2
170683, 170691, 2
170683, 170682, 2
170683, 170672, 2
170683, 170687, 2
170683, 170684, 2
170683, 170679, 2
170683, 170681, 2
170683, 170689, 2
170683, 170685, 1
170688, 170682, 2
170688, 170684, 2
170688, 170698, 2
170688, 170664, 2
170688, 170692, 2
170688, 170695, 2
170688, 170681, 2
170688, 170700, 2
170688, 170689, 2
170688, 170699, 2
170688, 170687, 2
170688, 170686, 2
170688, 170706, 2
170688, 170691, 2
170688, 170668, 2
170688, 170690, 2
170688, 170693, 2
170721, 170718, 2
170721, 170719, 2
170721, 170722, 1
170721, 170717, 2
170721, 170720, 2
170721, 170716, 2
170721, 170715, 2
170702, 170699, 2
170702, 170705, 2
170702, 170707, 2
170702, 170701, 4
170702, 170706, 2
170702, 170704, 2
170702, 170703, 2
170702, 170700, 6
170657, 170659, 2
170657, 170664, 2
170657, 170663, 2
170657, 170662, 2
170657, 170660, 2
170657, 170666, 2
170657, 170658, 1
170676, 170677, 1
170676, 170675, 2
170676, 170678, 2
170676, 170672, 2
170714, 170713, 2
170714, 170710, 2
170714, 170712, 2
170714, 170711, 2
170714, 170715, 1
170709, 170708, 2
170709, 170707, 2
170709, 170710, 2
170696, 170691, 2
170696, 170694, 2
170696, 170695, 2
170696, 170700, 2
170696, 170690, 2
170696, 170699, 2
170696, 170687, 2
170696, 170697, 1
170696, 170701, 2
170696, 170698, 2
170696, 170689, 2
170696, 170693, 2
170677, 170668, 2
170677, 170672, 2
170677, 170667, 2
170677, 170679, 1
170677, 170675, 2
170677, 170678, 6
170677, 170676, 2
170658, 170659, 6
170658, 170664, 2
170658, 170661, 2
170658, 170663, 2
170658, 170667, 2
170658, 170666, 1
170658, 170665, 2
170658, 170672, 2
170658, 170668, 2
170658, 170662, 4
170658, 170660, 2
170658, 170657, 2
170684, 170691, 2
170684, 170682, 6
170684, 170690, 2
170684, 170687, 2
170684, 170681, 2
170684, 170689, 1
170684, 170686, 2
170684, 170683, 4
170684, 170685, 2
170684, 170688, 2
170698, 170691, 2
170698, 170699, 2
170698, 170697, 2
170698, 170696, 2
170698, 170695, 2
170698, 170700, 2
170698, 170688, 2
170667, 170671, 2
170667, 170662, 2
170667, 170679, 2
170667, 170669, 2
170667, 170666, 2
170667, 170658, 2
170667, 170665, 2
170667, 170673, 2
170667, 170672, 2
170667, 170670, 2
170667, 170677, 2
170667, 170675, 2
170663, 170658, 2
170663, 170664, 2
170663, 170657, 2
170663, 170661, 2
170663, 170660, 2
170679, 170682, 2
170679, 170664, 2
170679, 170667, 2
170679, 170680, 1
170679, 170677, 2
170679, 170672, 2
170679, 170681, 2
170679, 170683, 2
170679, 170678, 2
170679, 170668, 2
170681, 170691, 2
170681, 170682, 2
170681, 170664, 2
170681, 170680, 2
170681, 170679, 2
170681, 170686, 2
170681, 170683, 2
170681, 170678, 2
170681, 170688, 2
170681, 170687, 2
170681, 170672, 2
170681, 170684, 1
170681, 170668, 2
170681, 170662, 2
170681, 170690, 2
170681, 170685, 2
170681, 170693, 2
170666, 170665, 2
170666, 170664, 2
170666, 170657, 2
170666, 170670, 2
170666, 170660, 2
170666, 170662, 2
170666, 170672, 2
170666, 170669, 1
170666, 170658, 2
170666, 170667, 4
170666, 170668, 6
170715, 170719, 1
170715, 170714, 2
170715, 170717, 2
170715, 170712, 2
170715, 170713, 2
170715, 170720, 2
170715, 170716, 0
170715, 170721, 2
170715, 170718, 2
170722, 170721, 2
170697, 170691, 2
170697, 170699, 1
170697, 170698, 0
170697, 170701, 2
170697, 170687, 2
170697, 170696, 2
170697, 170695, 2
170678, 170682, 2
170678, 170665, 2
170678, 170673, 2
170678, 170674, 2
170678, 170676, 2
170678, 170664, 2
170678, 170681, 2
170678, 170679, 2
170678, 170677, 2
170678, 170675, 2
170678, 170668, 2
170701, 170691, 2
170701, 170707, 2
170701, 170705, 2
170701, 170687, 2
170701, 170703, 1
170701, 170700, 2
170701, 170699, 2
170701, 170702, 2
170701, 170697, 2
170701, 170696, 2
170701, 170690, 2
170701, 170693, 2
170718, 170719, 2
170718, 170717, 2
170718, 170720, 2
170718, 170716, 2
170718, 170721, 2
170718, 170715, 2
170662, 170673, 2
170662, 170672, 2
170662, 170667, 2
170662, 170681, 2
170662, 170658, 2
170662, 170666, 2
170662, 170657, 2
170690, 170691, 2
170690, 170682, 2
170690, 170684, 2
170690, 170692, 1
170690, 170681, 2
170690, 170688, 2
170690, 170699, 2
170690, 170687, 2
170690, 170701, 2
170690, 170686, 2
170690, 170696, 2
170690, 170689, 2
170690, 170693, 2
170671, 170673, 1
170671, 170667, 2
170671, 170670, 2
170671, 170672, 2
170659, 170660, 1
170659, 170657, 2
170659, 170658, 2
170664, 170682, 2
170664, 170657, 2
170664, 170663, 2
170664, 170679, 2
170664, 170681, 2
170664, 170678, 2
170664, 170688, 2
170664, 170665, 0
170664, 170673, 2
170664, 170666, 2
170664, 170660, 2
170664, 170658, 2
170664, 170668, 2
170694, 170691, 2
170694, 170696, 2
170694, 170695, 1
170694, 170693, 2
170710, 170711, 2
170710, 170707, 2
170710, 170714, 2
170710, 170709, 2
170710, 170713, 2
170710, 170708, 2
170713, 170711, 2
170713, 170710, 2
170713, 170712, 2
170713, 170714, 1
170713, 170715, 2
170720, 170715, 2
170720, 170719, 2
170720, 170721, 2
170720, 170718, 2
170708, 170706, 2
170708, 170710, 2
170708, 170707, 2
170708, 170709, 2
170711, 170713, 2
170711, 170712, 1
170711, 170714, 2
170711, 170710, 2
170675, 170674, 2
170675, 170672, 2
170675, 170678, 2
170675, 170668, 2
170675, 170677, 2
170675, 170667, 2
170675, 170676, 1
170665, 170664, 2
170665, 170673, 2
170665, 170667, 2
170665, 170670, 2
170665, 170668, 2
170665, 170678, 2
170665, 170660, 2
170665, 170666, 2
170665, 170658, 2
170687, 170691, 2
170687, 170684, 2
170687, 170690, 2
170687, 170692, 2
170687, 170695, 2
170687, 170681, 2
170687, 170683, 2
170687, 170688, 2
170687, 170699, 2
170687, 170697, 2
170687, 170701, 2
170687, 170696, 2
170687, 170689, 2
170687, 170685, 2
170673, 170665, 2
170673, 170664, 2
170673, 170674, 1
170673, 170667, 2
170673, 170670, 2
170673, 170671, 2
170673, 170668, 2
170673, 170662, 2
170673, 170678, 2
170673, 170672, 4
170670, 170665, 2
170670, 170673, 2
170670, 170667, 2
170670, 170671, 1
170670, 170668, 2
170670, 170669, 2
170670, 170666, 2
170670, 170672, 2
170706, 170699, 2
170706, 170702, 2
170706, 170707, 2
170706, 170705, 2
170706, 170704, 2
170706, 170708, 2
170706, 170700, 2
170706, 170688, 2
170672, 170671, 2
170672, 170681, 2
170672, 170679, 2
170672, 170669, 2
170672, 170683, 2
170672, 170666, 2
170672, 170658, 2
170672, 170673, 2
170672, 170677, 2
170672, 170674, 2
170672, 170676, 2
170672, 170670, 2
170672, 170662, 2
170672, 170675, 2
170672, 170667, 2
170668, 170682, 2
170668, 170664, 2
170668, 170681, 2
170668, 170679, 2
170668, 170669, 2
170668, 170666, 2
170668, 170660, 2
170668, 170665, 2
170668, 170673, 2
170668, 170674, 2
170668, 170678, 2
170668, 170670, 2
170668, 170658, 2
170668, 170688, 2
170668, 170677, 2
170668, 170675, 2
170712, 170713, 1
170712, 170716, 2
170712, 170711, 2
170712, 170714, 2
170712, 170715, 2
170689, 170691, 3
170689, 170682, 2
170689, 170684, 2
170689, 170692, 2
170689, 170695, 2
170689, 170686, 2
170689, 170683, 2
170689, 170688, 2
170689, 170687, 2
170689, 170696, 1
170689, 170690, 0
170689, 170685, 2
170689, 170693, 2
170685, 170691, 2
170685, 170684, 2
170685, 170687, 1
170685, 170681, 2
170685, 170683, 2
170685, 170689, 2
170693, 170691, 2
170693, 170682, 2
170693, 170694, 1
170693, 170692, 2
170693, 170695, 2
170693, 170681, 2
170693, 170688, 2
170693, 170701, 2
170693, 170686, 2
170693, 170696, 2
170693, 170689, 2
170693, 170690, 2
