61629, 61630, 1
61629, 61628, 2
61629, 61631, 2
61626, 61627, 1
61627, 61626, 2
61627, 61628, 1
61631, 61630, 2
61631, 61629, 2
61631, 61632, 1
61631, 61633, 2
61630, 61629, 2
61630, 61631, 1
61633, 61634, 0
61633, 61632, 2
61633, 61631, 2
61628, 61629, 1
61628, 61627, 2
61634, 61633, 2
61632, 61633, 1
61632, 61631, 2
