335873, 335874, 2
335873, 335870, 2
335873, 335875, 2
335873, 335871, 2
335873, 335872, 2
335868, 335869, 1
335868, 335872, 2
335868, 335867, 2
335868, 335870, 2
335861, 335859, 2
335861, 335860, 2
335861, 335862, 1
335860, 335859, 2
335860, 335861, 2
335860, 335863, 2
335860, 335862, 2
335860, 335864, 2
335865, 335864, 2
335865, 335867, 2
335865, 335866, 1
335875, 335874, 2
335875, 335876, 1
335875, 335873, 2
335875, 335871, 2
335859, 335861, 1
335859, 335860, 3
335876, 335875, 2
335876, 335877, 1
335870, 335869, 2
335870, 335873, 2
335870, 335868, 2
335870, 335871, 1
335870, 335872, 2
335869, 335868, 2
335869, 335870, 1
335862, 335861, 2
335862, 335863, 1
335862, 335860, 2
335871, 335874, 1
335871, 335872, 0
335871, 335873, 2
335871, 335875, 2
335871, 335870, 2
335872, 335874, 2
335872, 335868, 2
335872, 335873, 1
335872, 335871, 2
335872, 335870, 2
335874, 335875, 1
335874, 335873, 2
335874, 335871, 2
335874, 335872, 2
335877, 335876, 2
335863, 335860, 2
335863, 335862, 2
335863, 335864, 1
335866, 335865, 2
335866, 335867, 1
335867, 335865, 2
335867, 335868, 1
335867, 335866, 2
335864, 335865, 1
335864, 335863, 2
335864, 335860, 2
