118326, 118324, 2
118326, 118325, 2
118326, 118327, 1
118333, 118332, 2
118333, 118331, 2
118325, 118326, 1
118325, 118324, 2
118325, 118327, 2
118332, 118333, 1
118332, 118331, 2
118327, 118326, 2
118327, 118324, 2
118327, 118325, 2
118327, 118331, 2
118327, 118328, 1
118324, 118326, 2
118324, 118325, 1
118324, 118327, 2
118330, 118329, 2
118330, 118331, 1
118329, 118330, 1
118329, 118331, 2
118329, 118328, 2
118331, 118329, 2
118331, 118333, 2
118331, 118327, 2
118331, 118332, 1
118331, 118330, 2
118328, 118329, 1
118328, 118327, 2
