118434, 118431, 2
118434, 118432, 2
118434, 118433, 2
118434, 118430, 2
118431, 118434, 2
118431, 118432, 2
118431, 118426, 2
118431, 118428, 2
118431, 118433, 2
118431, 118430, 2
118425, 118426, 1
118429, 118428, 2
118429, 118430, 1
118432, 118431, 2
118432, 118434, 2
118432, 118433, 1
118432, 118430, 2
118426, 118431, 2
118426, 118425, 2
118426, 118427, 1
118426, 118428, 2
118428, 118431, 2
118428, 118430, 2
118428, 118427, 2
118428, 118429, 1
118428, 118426, 2
118427, 118428, 1
118427, 118426, 2
118433, 118431, 2
118433, 118432, 2
118433, 118434, 0
118433, 118430, 2
118430, 118434, 2
118430, 118431, 0
118430, 118429, 2
118430, 118432, 1
118430, 118428, 2
118430, 118433, 2
