120643, 120644, 1
120643, 120641, 2
120643, 120640, 2
120643, 120635, 2
120643, 120637, 2
120643, 120639, 2
120643, 120638, 2
120643, 120636, 2
120643, 120642, 2
120644, 120643, 2
120644, 120642, 2
120641, 120643, 2
120641, 120642, 2
120641, 120640, 2
120641, 120636, 2
120640, 120643, 2
120640, 120641, 1
120640, 120642, 2
120640, 120636, 2
120640, 120639, 2
120630, 120628, 2
120630, 120632, 2
120630, 120629, 2
120630, 120637, 2
120630, 120631, 1
120636, 120643, 1
120636, 120641, 2
120636, 120640, 2
120636, 120635, 2
120636, 120637, 0
120636, 120639, 2
120636, 120638, 2
120636, 120642, 8
120638, 120643, 2
120638, 120639, 1
120638, 120642, 2
120638, 120637, 2
120638, 120636, 2
120633, 120634, 1
120633, 120632, 2
120634, 120632, 2
120634, 120633, 2
120634, 120635, 1
120632, 120634, 2
120632, 120637, 2
120632, 120633, 1
120632, 120630, 2
120632, 120631, 2
120637, 120643, 2
120637, 120632, 2
120637, 120635, 2
120637, 120636, 2
120637, 120638, 1
120637, 120628, 2
120637, 120642, 2
120637, 120630, 2
120639, 120643, 2
120639, 120638, 2
120639, 120642, 2
120639, 120640, 1
120639, 120636, 2
120628, 120629, 1
120628, 120630, 2
120628, 120637, 2
120642, 120643, 2
120642, 120644, 2
120642, 120641, 2
120642, 120640, 2
120642, 120635, 2
120642, 120637, 2
120642, 120639, 2
120642, 120638, 2
120642, 120636, 2
120629, 120628, 2
120629, 120630, 1
120631, 120632, 1
120631, 120630, 2
120635, 120643, 2
120635, 120634, 2
120635, 120642, 2
120635, 120637, 2
120635, 120636, 1
