21696, 21695, 2
21696, 21697, 1
21695, 21696, 1
21695, 21694, 2
21692, 21691, 2
21692, 21693, 1
21692, 21690, 2
21693, 21692, 2
21693, 21694, 1
21697, 21696, 2
21690, 21691, 1
21690, 21692, 2
21690, 21694, 2
21691, 21692, 1
21691, 21690, 2
21694, 21695, 1
21694, 21693, 2
21694, 21690, 2
