252481, 252480, 2
252481, 252482, 1
252473, 252474, 1
252473, 252472, 2
252472, 252473, 1
252472, 252471, 2
252472, 252470, 2
252480, 252481, 0
252480, 252479, 2
252480, 252477, 2
252480, 252482, 2
252483, 252482, 2
252479, 252477, 2
252479, 252480, 1
252479, 252476, 2
252479, 252478, 2
252476, 252478, 2
252476, 252479, 2
252476, 252477, 1
252476, 252475, 2
252482, 252481, 2
252482, 252480, 2
252482, 252483, 1
252475, 252474, 2
252475, 252476, 1
252474, 252473, 2
252474, 252475, 1
252471, 252472, 2
252471, 252470, 2
252477, 252479, 2
252477, 252480, 2
252477, 252476, 2
252477, 252478, 1
252470, 252472, 1
252470, 252471, 6
252478, 252479, 1
252478, 252477, 2
252478, 252476, 2
