124167, 124168, 1
124167, 124166, 2
124167, 124159, 2
124167, 124155, 2
124167, 124151, 2
124167, 124162, 2
124167, 124164, 2
124167, 124165, 2
124167, 124169, 2
124167, 124157, 2
124154, 124151, 2
124154, 124159, 2
124154, 124155, 2
124154, 124156, 2
124154, 124153, 2
124154, 124150, 2
124154, 124161, 2
124154, 124162, 2
124154, 124158, 2
124154, 124157, 1
124154, 124152, 2
124176, 124174, 2
124176, 124163, 2
124176, 124153, 2
124176, 124175, 2
124174, 124176, 2
124174, 124173, 2
124174, 124172, 2
124174, 124170, 2
124174, 124175, 2
124172, 124168, 2
124172, 124151, 2
124172, 124170, 2
124172, 124171, 2
124172, 124175, 2
124172, 124174, 1
124172, 124173, 8
124172, 124165, 2
124150, 124154, 1
124150, 124152, 0
124150, 124161, 2
124150, 124165, 2
124150, 124159, 2
124150, 124151, 3
124150, 124149, 2
124150, 124153, 2
124150, 124162, 2
124150, 124158, 2
124150, 124157, 2
124150, 124155, 2
124161, 124166, 2
124161, 124154, 2
124161, 124163, 2
124161, 124150, 2
124161, 124153, 2
124161, 124158, 2
124161, 124157, 2
124161, 124170, 2
124169, 124168, 2
124169, 124166, 2
124169, 124167, 2
124169, 124170, 1
124169, 124163, 2
124151, 124168, 2
124151, 124167, 2
124151, 124154, 2
124151, 124152, 2
124151, 124172, 2
124151, 124150, 2
124151, 124165, 2
124151, 124159, 2
124151, 124153, 2
124151, 124162, 2
124151, 124157, 2
124151, 124155, 2
124160, 124159, 2
124160, 124162, 2
124160, 124157, 2
124155, 124166, 2
124155, 124151, 2
124155, 124167, 2
124155, 124154, 2
124155, 124152, 2
124155, 124156, 1
124155, 124150, 2
124155, 124159, 2
124155, 124157, 2
124171, 124168, 2
124171, 124165, 2
124171, 124172, 1
124171, 124170, 2
124171, 124175, 2
124158, 124154, 2
124158, 124163, 1
124158, 124150, 2
124158, 124161, 8
124158, 124153, 2
124158, 124157, 2
124158, 124152, 2
124153, 124151, 2
124153, 124176, 2
124153, 124154, 2
124153, 124152, 2
124153, 124175, 2
124153, 124150, 2
124153, 124161, 2
124153, 124158, 2
124153, 124157, 2
124153, 124170, 2
124168, 124166, 2
124168, 124151, 2
124168, 124167, 2
124168, 124170, 2
124168, 124171, 2
124168, 124172, 2
124168, 124165, 2
124168, 124169, 2
124168, 124157, 2
124152, 124151, 2
124152, 124149, 2
124152, 124154, 2
124152, 124155, 2
124152, 124157, 2
124152, 124150, 2
124152, 124158, 2
124152, 124153, 1
124175, 124176, 1
124175, 124170, 2
124175, 124171, 2
124175, 124174, 2
124175, 124172, 2
124175, 124153, 2
124175, 124163, 2
124164, 124166, 2
124164, 124165, 1
124164, 124167, 2
124164, 124162, 2
124164, 124157, 2
124173, 124174, 2
124173, 124172, 2
124165, 124168, 2
124165, 124167, 2
124165, 124150, 2
124165, 124172, 2
124165, 124166, 2
124165, 124151, 2
124165, 124163, 2
124165, 124171, 2
124165, 124162, 2
124165, 124164, 2
124165, 124157, 2
124165, 124170, 2
124149, 124150, 1
124149, 124152, 2
124166, 124168, 2
124166, 124167, 3
124166, 124164, 2
124166, 124161, 2
124166, 124165, 2
124166, 124169, 1
124166, 124159, 2
124166, 124155, 2
124166, 124163, 2
124166, 124162, 2
124166, 124157, 2
124166, 124170, 2
124159, 124166, 2
124159, 124151, 2
124159, 124167, 2
124159, 124160, 8
124159, 124155, 2
124159, 124156, 2
124159, 124154, 2
124159, 124150, 2
124159, 124162, 1
124159, 124157, 2
124163, 124166, 2
124163, 124169, 2
124163, 124170, 2
124163, 124175, 2
124163, 124161, 2
124163, 124165, 2
124163, 124176, 2
124163, 124157, 2
124163, 124158, 2
124156, 124159, 1
124156, 124154, 2
124156, 124155, 2
124156, 124157, 2
124162, 124166, 2
124162, 124151, 2
124162, 124167, 2
124162, 124160, 2
124162, 124154, 2
124162, 124150, 2
124162, 124165, 2
124162, 124164, 1
124162, 124157, 2
124162, 124159, 2
124157, 124168, 2
124157, 124167, 2
124157, 124154, 2
124157, 124152, 2
124157, 124164, 2
124157, 124161, 2
124157, 124165, 2
124157, 124158, 6
124157, 124166, 1
124157, 124151, 2
124157, 124159, 2
124157, 124160, 2
124157, 124155, 4
124157, 124156, 2
124157, 124162, 2
124157, 124150, 2
124157, 124153, 2
124157, 124163, 2
124170, 124168, 2
124170, 124166, 2
124170, 124169, 2
124170, 124163, 2
124170, 124171, 3
124170, 124175, 1
124170, 124174, 2
124170, 124165, 2
124170, 124161, 2
124170, 124172, 2
124170, 124153, 2
