17360, 17361, 1
17360, 17359, 2
17351, 17350, 2
17351, 17352, 1
17357, 17355, 2
17357, 17356, 2
17357, 17358, 1
17362, 17361, 2
17362, 17363, 1
17362, 17364, 2
17365, 17364, 2
17350, 17355, 2
17350, 17351, 1
17350, 17352, 2
17355, 17357, 2
17355, 17356, 1
17355, 17350, 2
17355, 17354, 2
17363, 17362, 2
17363, 17364, 1
17356, 17357, 1
17356, 17355, 2
17364, 17362, 2
17364, 17363, 2
17364, 17365, 1
17354, 17353, 2
17354, 17355, 1
17359, 17360, 1
17359, 17358, 2
17361, 17360, 2
17361, 17362, 1
17353, 17354, 1
17353, 17352, 2
17358, 17357, 2
17358, 17359, 1
17352, 17350, 2
17352, 17351, 2
17352, 17353, 1
