197051, 197052, 2
197051, 197053, 1
197051, 197050, 2
197051, 197049, 2
197051, 197054, 2
197054, 197052, 2
197054, 197051, 2
197054, 197053, 2
197052, 197053, 2
197052, 197051, 2
197052, 197050, 2
197052, 197049, 2
197052, 197054, 2
197049, 197052, 2
197049, 197050, 1
197049, 197051, 2
197050, 197052, 2
197050, 197051, 1
197050, 197049, 2
197053, 197052, 4
197053, 197051, 2
197053, 197054, 1
