132969, 132971, 2
132969, 132966, 2
132969, 132968, 2
132969, 132967, 2
132971, 132970, 2
132971, 132966, 2
132971, 132968, 2
132971, 132969, 2
132971, 132967, 2
132966, 132971, 2
132966, 132970, 2
132966, 132969, 2
132966, 132967, 1
132970, 132971, 2
132970, 132966, 2
132970, 132968, 2
132970, 132967, 2
132968, 132971, 1
132968, 132970, 6
132968, 132969, 4
132968, 132967, 2
132967, 132968, 1
132967, 132971, 2
132967, 132966, 2
132967, 132970, 2
132967, 132969, 2
