160901, 160906, 2
160901, 160903, 2
160901, 160904, 2
160901, 160902, 2
160901, 160900, 2
160907, 160905, 2
160907, 160906, 2
160907, 160903, 2
160907, 160908, 1
160903, 160904, 8
160903, 160901, 2
160903, 160907, 2
160903, 160902, 2
160903, 160905, 1
160903, 160906, 2
160903, 160900, 2
160903, 160908, 2
160904, 160901, 2
160904, 160906, 2
160904, 160903, 2
160904, 160902, 2
160904, 160905, 2
160905, 160906, 3
160905, 160907, 1
160905, 160903, 2
160905, 160908, 2
160905, 160904, 2
160906, 160901, 2
160906, 160907, 2
160906, 160903, 2
160906, 160908, 2
160906, 160905, 2
160906, 160904, 2
160902, 160901, 2
160902, 160903, 1
160902, 160904, 2
160902, 160900, 2
160900, 160901, 3
160900, 160903, 2
160900, 160902, 1
160908, 160905, 2
160908, 160906, 2
160908, 160907, 2
160908, 160903, 2
