195990, 195986, 2
195990, 195991, 2
195990, 195984, 2
195990, 195985, 2
195990, 195989, 2
195990, 195988, 2
195992, 195993, 1
195992, 195991, 2
195992, 195987, 2
195992, 195989, 2
195992, 195988, 2
195991, 195990, 2
195991, 195992, 1
195991, 195987, 2
195991, 195989, 2
195991, 195988, 2
195984, 195990, 2
195984, 195986, 1
195984, 195989, 2
195984, 195985, 2
195984, 195988, 2
195985, 195990, 2
195985, 195986, 2
195985, 195984, 4
195985, 195987, 6
195985, 195989, 1
195985, 195988, 2
195994, 195993, 2
195994, 195987, 2
195994, 195988, 2
195993, 195992, 2
195993, 195994, 1
195993, 195988, 2
195987, 195992, 2
195987, 195991, 2
195987, 195989, 2
195987, 195985, 2
195987, 195994, 2
195986, 195990, 2
195986, 195989, 2
195986, 195984, 2
195986, 195985, 2
195986, 195988, 1
195989, 195990, 3
195989, 195992, 2
195989, 195991, 1
195989, 195984, 2
195989, 195985, 2
195989, 195987, 2
195989, 195986, 2
195989, 195988, 2
195988, 195990, 2
195988, 195992, 2
195988, 195991, 2
195988, 195984, 2
195988, 195985, 2
195988, 195994, 2
195988, 195993, 2
195988, 195986, 2
195988, 195989, 2
