120799, 120798, 2
120799, 120806, 2
120799, 120800, 1
120799, 120804, 2
120801, 120800, 2
120801, 120804, 2
120801, 120802, 1
120801, 120805, 2
120801, 120803, 2
120801, 120806, 2
120801, 120807, 2
120800, 120799, 2
120800, 120801, 1
120800, 120804, 2
120807, 120801, 2
120807, 120811, 2
120807, 120804, 2
120807, 120814, 2
120807, 120805, 2
120807, 120809, 2
120807, 120813, 2
120807, 120808, 2
120807, 120803, 2
120807, 120810, 2
120802, 120801, 2
120802, 120803, 1
120802, 120806, 2
120802, 120804, 2
120802, 120805, 2
120813, 120806, 2
120813, 120814, 1
120813, 120807, 2
120813, 120812, 2
120814, 120813, 2
120814, 120806, 2
120814, 120807, 2
120809, 120811, 1
120809, 120804, 2
120809, 120808, 2
120809, 120810, 3
120809, 120806, 2
120809, 120807, 2
120811, 120809, 2
120811, 120810, 2
120811, 120806, 2
120811, 120812, 1
120811, 120807, 2
120804, 120799, 2
120804, 120801, 2
120804, 120800, 2
120804, 120802, 2
120804, 120805, 1
120804, 120809, 2
120804, 120808, 2
120804, 120803, 2
120804, 120798, 2
120804, 120807, 2
120804, 120810, 2
120812, 120813, 1
120812, 120811, 2
120805, 120801, 2
120805, 120810, 2
120805, 120804, 2
120805, 120802, 2
120805, 120808, 2
120805, 120803, 2
120805, 120807, 1
120798, 120799, 1
120798, 120806, 2
120798, 120804, 2
120808, 120810, 2
120808, 120804, 2
120808, 120805, 2
120808, 120809, 1
120808, 120803, 2
120808, 120806, 2
120808, 120807, 2
120803, 120801, 2
120803, 120804, 4
120803, 120802, 2
120803, 120805, 2
120803, 120808, 1
120803, 120810, 2
120803, 120806, 6
120803, 120807, 2
120806, 120799, 2
120806, 120801, 2
120806, 120811, 2
120806, 120814, 2
120806, 120802, 2
120806, 120809, 2
120806, 120813, 2
120806, 120808, 2
120806, 120803, 2
120806, 120798, 2
120810, 120811, 2
120810, 120804, 2
120810, 120805, 2
120810, 120809, 2
120810, 120808, 2
120810, 120803, 2
120810, 120807, 2
