217167, 217165, 2
217167, 217168, 1
217167, 217166, 2
217167, 217173, 2
217170, 217173, 2
217170, 217169, 2
217170, 217171, 1
217170, 217172, 2
217178, 217177, 2
217174, 217175, 1
217174, 217173, 2
217174, 217172, 2
217173, 217175, 2
217173, 217167, 2
217173, 217170, 2
217173, 217174, 2
217173, 217165, 2
217173, 217169, 2
217173, 217176, 2
217173, 217177, 2
217173, 217171, 2
217173, 217172, 2
217169, 217173, 2
217169, 217170, 1
217169, 217168, 2
217176, 217175, 2
217176, 217173, 2
217176, 217177, 1
217168, 217167, 2
217168, 217169, 1
217166, 217167, 1
217166, 217165, 2
217172, 217174, 1
217172, 217173, 6
217172, 217170, 2
217172, 217171, 2
217172, 217175, 2
217175, 217174, 2
217175, 217173, 2
217175, 217176, 1
217175, 217172, 2
217165, 217167, 2
217165, 217173, 2
217165, 217166, 1
217171, 217173, 2
217171, 217170, 2
217171, 217172, 1
217177, 217173, 2
217177, 217178, 1
217177, 217176, 2
