72210, 72209, 2
72210, 72211, 1
72208, 72205, 2
72208, 72207, 2
72208, 72206, 2
72208, 72209, 2
72211, 72210, 2
72205, 72206, 3
72205, 72208, 2
72205, 72209, 1
72206, 72205, 2
72206, 72207, 8
72206, 72208, 1
72206, 72209, 2
72207, 72206, 2
72207, 72208, 2
72207, 72209, 2
72209, 72205, 2
72209, 72210, 1
72209, 72207, 2
72209, 72206, 2
72209, 72208, 2
