17820, 17819, 2
17820, 17822, 0
17820, 17818, 2
17820, 17817, 2
17820, 17821, 6
17820, 17823, 1
17819, 17817, 2
17819, 17820, 1
17819, 17821, 2
17819, 17818, 2
17818, 17820, 2
17818, 17819, 2
17818, 17822, 2
17818, 17826, 2
17818, 17817, 2
17818, 17821, 2
17833, 17832, 2
17830, 17831, 2
17830, 17821, 2
17830, 17829, 2
17830, 17832, 2
17823, 17820, 2
17823, 17822, 2
17823, 17824, 1
17824, 17821, 2
17824, 17825, 1
17824, 17822, 2
17824, 17823, 2
17824, 17826, 2
17831, 17829, 2
17831, 17832, 1
17831, 17830, 2
17829, 17831, 1
17829, 17827, 2
17829, 17821, 2
17829, 17828, 2
17829, 17830, 0
17822, 17820, 2
17822, 17823, 2
17822, 17821, 2
17822, 17818, 2
17822, 17824, 2
17828, 17827, 2
17828, 17829, 1
17828, 17826, 2
17826, 17818, 2
17826, 17828, 1
17826, 17827, 0
17826, 17821, 2
17826, 17825, 2
17826, 17824, 2
17817, 17820, 2
17817, 17819, 1
17817, 17821, 2
17817, 17818, 6
17827, 17829, 2
17827, 17828, 2
17827, 17826, 2
17821, 17830, 2
17821, 17820, 2
17821, 17819, 2
17821, 17822, 2
17821, 17818, 2
17821, 17826, 2
17821, 17817, 2
17821, 17829, 2
17821, 17824, 2
17825, 17826, 1
17825, 17824, 2
17832, 17831, 2
17832, 17830, 2
17832, 17833, 0
