18739, 18740, 1
18739, 18737, 2
18739, 18738, 2
18738, 18739, 2
18738, 18740, 2
18738, 18737, 2
18738, 18735, 2
18747, 18746, 2
18747, 18748, 2
18747, 18750, 2
18747, 18749, 2
18740, 18739, 2
18740, 18741, 0
18740, 18737, 2
18740, 18742, 1
18740, 18738, 2
18743, 18744, 3
18743, 18742, 2
18743, 18745, 1
18733, 18734, 1
18733, 18731, 2
18733, 18730, 2
18733, 18732, 2
18734, 18733, 2
18734, 18737, 2
18734, 18735, 0
18734, 18736, 1
18737, 18739, 1
18737, 18734, 2
18737, 18738, 0
18737, 18735, 2
18737, 18736, 2
18737, 18740, 2
18746, 18749, 2
18746, 18748, 1
18746, 18745, 2
18746, 18747, 0
18748, 18746, 2
18748, 18749, 1
18748, 18747, 2
18730, 18733, 2
18730, 18731, 2
18730, 18735, 2
18730, 18729, 2
18730, 18732, 2
18750, 18749, 2
18750, 18747, 2
18744, 18742, 2
18744, 18743, 2
18744, 18745, 2
18742, 18741, 2
18742, 18740, 2
18742, 18744, 2
18742, 18745, 2
18742, 18743, 1
18745, 18746, 1
18745, 18744, 2
18745, 18742, 2
18745, 18743, 2
18735, 18730, 2
18735, 18734, 2
18735, 18737, 2
18735, 18738, 2
18735, 18736, 2
18749, 18746, 2
18749, 18748, 2
18749, 18750, 0
18749, 18747, 2
18729, 18731, 1
18729, 18730, 0
18729, 18732, 2
18732, 18733, 1
18732, 18731, 2
18732, 18730, 2
18732, 18729, 2
18741, 18740, 2
18741, 18742, 2
18736, 18734, 2
18736, 18737, 1
18736, 18735, 2
18731, 18733, 2
18731, 18730, 2
18731, 18729, 2
18731, 18732, 1
