197189, 197187, 2
197189, 197190, 2
197189, 197188, 2
197187, 197190, 1
197187, 197188, 0
197187, 197189, 2
197190, 197187, 2
197190, 197191, 1
197190, 197188, 2
197190, 197189, 2
197188, 197187, 2
197188, 197190, 2
197188, 197189, 1
197192, 197191, 2
197191, 197190, 2
197191, 197192, 1
