258091, 258093, 1
258091, 258094, 2
258091, 258092, 0
258095, 258094, 2
258095, 258092, 2
258094, 258091, 2
258094, 258095, 0
258094, 258092, 2
258094, 258093, 2
258093, 258091, 2
258093, 258094, 1
258093, 258092, 2
258092, 258091, 2
258092, 258095, 2
258092, 258094, 2
258092, 258093, 2
