120357, 120361, 2
120357, 120358, 2
120357, 120360, 2
120357, 120356, 2
120357, 120359, 2
120364, 120371, 2
120364, 120365, 1
120364, 120362, 2
120364, 120366, 2
120364, 120363, 2
120361, 120362, 1
120361, 120360, 2
120361, 120357, 2
120361, 120359, 2
120368, 120371, 2
120368, 120367, 2
120368, 120365, 2
120368, 120369, 1
120362, 120360, 2
120362, 120361, 2
120362, 120364, 1
120362, 120359, 2
120362, 120366, 2
120362, 120363, 3
120371, 120370, 2
120371, 120365, 2
120371, 120369, 2
120371, 120367, 2
120371, 120364, 2
120371, 120368, 2
120371, 120366, 2
120371, 120363, 2
120359, 120358, 2
120359, 120360, 3
120359, 120356, 2
120359, 120361, 1
120359, 120357, 2
120359, 120362, 2
120359, 120366, 2
120359, 120363, 2
120358, 120360, 2
120358, 120357, 2
120358, 120359, 1
120358, 120356, 2
120370, 120371, 2
120370, 120369, 2
120356, 120358, 1
120356, 120357, 3
120356, 120366, 2
120356, 120359, 2
120369, 120371, 2
120369, 120370, 1
120369, 120368, 2
120369, 120365, 2
120367, 120371, 2
120367, 120368, 1
120367, 120366, 2
120367, 120365, 2
120360, 120358, 2
120360, 120357, 2
120360, 120361, 2
120360, 120362, 2
120360, 120359, 2
120360, 120363, 2
120363, 120371, 2
120363, 120362, 2
120363, 120364, 2
120363, 120360, 2
120363, 120359, 2
120366, 120367, 1
120366, 120364, 2
120366, 120365, 2
120366, 120371, 2
120366, 120362, 2
120366, 120359, 2
120366, 120356, 2
120365, 120367, 2
120365, 120364, 2
120365, 120369, 2
120365, 120371, 1
120365, 120368, 2
120365, 120366, 0
