164803, 164811, 1
164803, 164802, 2
164803, 164809, 2
164803, 164804, 6
164803, 164815, 2
164803, 164807, 4
164803, 164810, 2
164803, 164817, 2
164803, 164813, 2
164803, 164808, 2
164803, 164812, 2
164803, 164806, 2
164803, 164805, 2
164832, 164830, 2
164832, 164831, 2
164832, 164829, 2
164832, 164827, 2
164820, 164821, 3
164820, 164822, 1
164820, 164813, 2
164820, 164818, 2
164820, 164814, 2
164820, 164819, 2
164820, 164816, 2
164822, 164821, 2
164822, 164813, 2
164822, 164823, 1
164822, 164820, 2
164822, 164829, 2
164822, 164831, 2
164822, 164824, 2
164807, 164803, 2
164807, 164811, 2
164807, 164802, 2
164807, 164812, 2
164807, 164815, 2
164810, 164813, 2
164810, 164811, 2
164810, 164809, 2
164810, 164803, 2
164810, 164815, 2
164810, 164805, 2
164810, 164812, 2
164812, 164803, 2
164812, 164811, 2
164812, 164802, 2
164812, 164809, 2
164812, 164805, 2
164812, 164815, 2
164812, 164807, 2
164812, 164816, 2
164812, 164814, 1
164812, 164810, 2
164821, 164822, 2
164821, 164820, 2
164821, 164829, 2
164821, 164831, 2
164821, 164816, 2
164821, 164814, 2
164813, 164803, 2
164813, 164811, 2
164813, 164809, 2
164813, 164820, 2
164813, 164822, 2
164813, 164815, 2
164813, 164816, 2
164813, 164810, 2
164813, 164817, 2
164813, 164824, 2
164813, 164827, 2
164813, 164805, 2
164826, 164825, 2
164826, 164823, 2
164826, 164827, 1
164826, 164824, 2
164829, 164821, 2
164829, 164822, 2
164829, 164830, 0
164829, 164823, 2
164829, 164832, 1
164829, 164831, 3
164829, 164828, 2
164829, 164816, 2
164829, 164824, 2
164829, 164827, 2
164825, 164823, 2
164825, 164826, 1
164825, 164824, 2
164805, 164803, 2
164805, 164808, 2
164805, 164802, 2
164805, 164809, 1
164805, 164804, 2
164805, 164813, 2
164805, 164815, 2
164805, 164806, 4
164805, 164811, 2
164805, 164812, 2
164805, 164810, 2
164828, 164830, 2
164828, 164827, 2
164828, 164829, 2
164818, 164819, 1
164818, 164816, 2
164818, 164817, 2
164818, 164820, 2
164811, 164803, 2
164811, 164809, 2
164811, 164814, 2
164811, 164813, 6
164811, 164815, 1
164811, 164807, 2
164811, 164816, 2
164811, 164805, 2
164811, 164812, 4
164811, 164810, 2
164802, 164817, 2
164802, 164803, 1
164802, 164808, 2
164802, 164809, 2
164802, 164804, 2
164802, 164815, 2
164802, 164807, 2
164802, 164805, 2
164802, 164812, 2
164809, 164803, 2
164809, 164811, 2
164809, 164802, 2
164809, 164813, 2
164809, 164815, 2
164809, 164805, 2
164809, 164808, 2
164809, 164812, 2
164809, 164810, 0
164804, 164803, 2
164804, 164805, 1
164804, 164802, 2
164815, 164803, 2
164815, 164811, 2
164815, 164802, 2
164815, 164809, 2
164815, 164814, 2
164815, 164816, 2
164815, 164810, 2
164815, 164817, 1
164815, 164813, 2
164815, 164812, 2
164815, 164805, 2
164815, 164807, 2
164831, 164821, 2
164831, 164822, 2
164831, 164830, 2
164831, 164823, 2
164831, 164832, 2
164831, 164829, 2
164831, 164814, 2
164831, 164816, 2
164831, 164824, 2
164816, 164818, 2
164816, 164811, 2
164816, 164820, 2
164816, 164815, 2
164816, 164831, 2
164816, 164817, 2
164816, 164821, 2
164816, 164813, 2
164816, 164812, 2
164816, 164829, 2
164816, 164819, 2
164816, 164814, 2
164824, 164813, 2
164824, 164823, 2
164824, 164826, 2
164824, 164829, 2
164824, 164822, 2
164824, 164825, 1
164824, 164831, 2
164824, 164827, 2
164817, 164803, 2
164817, 164802, 2
164817, 164813, 2
164817, 164815, 2
164817, 164814, 2
164817, 164818, 1
164817, 164816, 4
164808, 164803, 2
164808, 164805, 2
164808, 164802, 2
164808, 164809, 2
164808, 164806, 2
164823, 164822, 2
164823, 164826, 2
164823, 164829, 1
164823, 164825, 2
164823, 164831, 2
164823, 164824, 0
164823, 164827, 2
164830, 164831, 2
164830, 164828, 2
164830, 164832, 2
164830, 164829, 2
164830, 164827, 2
164806, 164803, 2
164806, 164808, 1
164806, 164805, 2
164819, 164818, 2
164819, 164816, 2
164819, 164820, 1
164814, 164821, 2
164814, 164811, 2
164814, 164817, 2
164814, 164820, 2
164814, 164815, 2
164814, 164831, 2
164814, 164816, 2
164814, 164812, 2
164827, 164813, 2
164827, 164830, 2
164827, 164823, 2
164827, 164832, 2
164827, 164829, 2
164827, 164828, 3
164827, 164824, 2
164827, 164826, 2
