222865, 222863, 2
222865, 222866, 6
222865, 222867, 3
222865, 222864, 2
222865, 222868, 1
222865, 222862, 2
222865, 222869, 2
222863, 222865, 2
222863, 222861, 2
222863, 222867, 2
222863, 222864, 2
222863, 222862, 2
222861, 222863, 3
222861, 222866, 2
222861, 222864, 1
222861, 222862, 6
222867, 222865, 2
222867, 222863, 2
222867, 222866, 2
222867, 222868, 2
222867, 222869, 2
222864, 222865, 1
222864, 222866, 2
222864, 222863, 2
222864, 222861, 2
222864, 222862, 2
222866, 222865, 2
222866, 222861, 2
222866, 222867, 2
222866, 222864, 2
222866, 222868, 2
222866, 222862, 2
222866, 222869, 2
222868, 222865, 2
222868, 222866, 2
222868, 222867, 2
222868, 222869, 1
222868, 222862, 2
222862, 222865, 2
222862, 222861, 2
222862, 222863, 2
222862, 222866, 2
222862, 222864, 2
222862, 222868, 2
222862, 222869, 2
222869, 222865, 2
222869, 222866, 2
222869, 222867, 2
222869, 222868, 2
222869, 222862, 2
