220402, 220401, 2
220402, 220403, 1
220399, 220396, 2
220399, 220397, 2
220399, 220400, 1
220399, 220398, 2
220415, 220414, 2
220415, 220412, 2
220415, 220416, 1
220415, 220413, 2
220398, 220399, 2
220398, 220397, 2
220400, 220399, 2
220400, 220401, 1
220424, 220425, 2
220424, 220423, 2
220412, 220411, 2
220412, 220413, 1
220412, 220415, 2
220412, 220410, 2
220420, 220425, 2
220420, 220419, 2
220420, 220421, 1
220388, 220390, 2
220388, 220389, 1
220390, 220389, 2
220390, 220391, 1
220390, 220388, 2
220403, 220404, 1
220403, 220402, 2
220394, 220395, 1
220394, 220393, 2
220419, 220418, 2
220419, 220420, 1
220407, 220408, 3
220407, 220406, 2
220407, 220409, 1
220418, 220419, 1
220418, 220417, 2
220401, 220400, 2
220401, 220402, 1
220406, 220409, 2
220406, 220405, 2
220406, 220408, 2
220406, 220407, 1
220421, 220422, 3
220421, 220425, 1
220421, 220423, 2
220421, 220420, 2
220389, 220390, 1
220389, 220388, 2
220397, 220399, 1
220397, 220398, 3
220397, 220396, 2
220396, 220399, 2
220396, 220395, 2
220396, 220397, 1
220411, 220412, 2
220411, 220410, 2
220392, 220391, 2
220392, 220393, 1
220416, 220415, 2
220416, 220417, 1
220404, 220403, 2
220404, 220405, 1
220425, 220421, 2
220425, 220422, 2
220425, 220420, 2
220425, 220423, 2
220425, 220424, 2
220395, 220394, 2
220395, 220396, 1
220391, 220392, 1
220391, 220390, 2
220409, 220408, 2
220409, 220406, 2
220409, 220407, 2
220409, 220410, 1
220393, 220392, 2
220393, 220394, 1
220413, 220414, 3
220413, 220415, 1
220413, 220412, 2
220422, 220425, 2
220422, 220423, 1
220422, 220421, 2
220423, 220421, 2
220423, 220425, 2
220423, 220422, 2
220423, 220424, 1
220414, 220413, 2
220414, 220415, 2
220408, 220409, 2
220408, 220406, 2
220408, 220407, 2
220417, 220418, 1
220417, 220416, 2
220405, 220404, 2
220405, 220406, 1
220410, 220411, 8
220410, 220409, 2
220410, 220412, 1
