221700, 221696, 2
221700, 221701, 6
221700, 221699, 2
221700, 221698, 2
221700, 221702, 3
221700, 221697, 2
221696, 221700, 1
221696, 221699, 8
221696, 221701, 2
221696, 221697, 6
221696, 221698, 3
221702, 221700, 2
221702, 221698, 2
221702, 221701, 2
221702, 221699, 2
221699, 221700, 2
221699, 221696, 2
221699, 221698, 2
221699, 221701, 2
221699, 221702, 2
221699, 221697, 2
221698, 221700, 2
221698, 221696, 2
221698, 221699, 2
221698, 221701, 2
221698, 221702, 2
221698, 221697, 2
221701, 221700, 2
221701, 221696, 2
221701, 221699, 2
221701, 221698, 2
221701, 221702, 2
221701, 221697, 2
221697, 221700, 2
221697, 221698, 2
221697, 221696, 2
221697, 221701, 2
221697, 221699, 2
