222522, 222527, 2
222522, 222525, 2
222522, 222524, 2
222522, 222526, 2
222522, 222521, 2
222522, 222519, 2
222522, 222523, 2
222525, 222526, 1
222525, 222527, 2
222525, 222523, 2
222525, 222522, 2
222525, 222524, 2
222520, 222521, 1
222520, 222519, 2
222526, 222527, 3
222526, 222525, 2
222526, 222524, 2
222526, 222522, 2
222526, 222521, 2
222526, 222523, 2
222521, 222522, 8
222521, 222520, 2
222521, 222524, 1
222521, 222526, 2
222521, 222519, 2
222521, 222523, 2
222519, 222522, 2
222519, 222521, 2
222519, 222520, 1
222524, 222522, 2
222524, 222525, 1
222524, 222527, 2
222524, 222526, 2
222524, 222521, 2
222524, 222523, 6
222527, 222526, 2
222527, 222522, 2
222527, 222525, 2
222527, 222524, 2
222523, 222526, 2
222523, 222522, 2
222523, 222524, 2
222523, 222525, 2
222523, 222521, 2
