295845, 295847, 2
295845, 295846, 1
295845, 295843, 2
295845, 295844, 2
295843, 295842, 2
295843, 295846, 2
295843, 295845, 1
295843, 295844, 3
295838, 295839, 1
295838, 295841, 2
295838, 295840, 2
295838, 295837, 2
295849, 295848, 2
295849, 295850, 3
295849, 295846, 2
295849, 295847, 2
295846, 295847, 3
295846, 295845, 2
295846, 295843, 2
295846, 295844, 2
295846, 295848, 1
295846, 295850, 2
295846, 295849, 2
295837, 295838, 1
295837, 295841, 2
295837, 295840, 2
295848, 295850, 2
295848, 295846, 2
295848, 295849, 1
295848, 295847, 2
295847, 295845, 2
295847, 295844, 2
295847, 295848, 2
295847, 295850, 2
295847, 295846, 2
295847, 295849, 2
295840, 295838, 2
295840, 295839, 2
295840, 295837, 2
295840, 295841, 2
295840, 295842, 2
295842, 295840, 2
295842, 295839, 2
295842, 295843, 1
295842, 295841, 2
295842, 295844, 2
295850, 295848, 2
295850, 295847, 2
295850, 295846, 2
295850, 295849, 2
295839, 295838, 2
295839, 295841, 1
295839, 295840, 2
295839, 295842, 2
295844, 295847, 2
295844, 295846, 2
295844, 295845, 2
295844, 295843, 2
295844, 295842, 2
295841, 295838, 2
295841, 295839, 2
295841, 295837, 2
295841, 295840, 6
295841, 295842, 1
