63730, 63728, 2
63730, 63729, 2
63730, 63731, 1
63721, 63720, 2
63721, 63719, 2
63721, 63722, 1
63721, 63718, 2
63724, 63725, 1
63724, 63722, 2
63724, 63723, 2
63718, 63719, 1
63718, 63720, 2
63718, 63721, 2
63731, 63730, 2
63731, 63729, 2
63729, 63730, 1
63729, 63731, 2
63729, 63728, 2
63726, 63728, 1
63726, 63727, 0
63726, 63725, 2
63719, 63720, 0
63719, 63721, 1
63719, 63718, 2
63719, 63722, 2
63725, 63724, 2
63725, 63722, 2
63725, 63723, 2
63725, 63728, 2
63725, 63727, 2
63725, 63726, 1
63723, 63720, 2
63723, 63724, 2
63723, 63725, 2
63723, 63722, 2
63720, 63719, 2
63720, 63721, 2
63720, 63718, 2
63720, 63723, 2
63720, 63722, 2
63728, 63730, 2
63728, 63729, 1
63728, 63727, 2
63728, 63725, 2
63728, 63726, 2
63727, 63728, 2
63727, 63725, 2
63727, 63726, 2
63722, 63719, 2
63722, 63721, 2
63722, 63724, 1
63722, 63725, 2
63722, 63723, 0
63722, 63720, 2
