255172, 255175, 2
255172, 255166, 2
255172, 255178, 1
255172, 255176, 2
255172, 255173, 0
255172, 255171, 2
255172, 255167, 2
255172, 255181, 2
255179, 255177, 2
255179, 255180, 0
255179, 255167, 2
255179, 255182, 2
255179, 255174, 2
255190, 255186, 2
255190, 255188, 2
255190, 255167, 2
255190, 255189, 2
255190, 255191, 1
255181, 255178, 2
255181, 255172, 2
255181, 255186, 2
255181, 255176, 2
255181, 255184, 1
255181, 255167, 2
255166, 255168, 2
255166, 255172, 2
255166, 255165, 2
255166, 255171, 2
255166, 255167, 1
255166, 255174, 2
255180, 255167, 2
255180, 255179, 2
255180, 255182, 1
255173, 255186, 2
255173, 255172, 2
255173, 255175, 1
255173, 255178, 2
255173, 255176, 2
255173, 255167, 2
255170, 255169, 2
255170, 255171, 1
255170, 255167, 2
255177, 255167, 2
255177, 255179, 2
255177, 255174, 2
255165, 255166, 1
255165, 255168, 2
255165, 255167, 2
255165, 255174, 2
255178, 255176, 2
255178, 255172, 2
255178, 255173, 2
255178, 255181, 1
255178, 255167, 2
255188, 255186, 2
255188, 255189, 8
255188, 255167, 2
255188, 255190, 1
255188, 255187, 2
255185, 255186, 6
255185, 255184, 2
255185, 255167, 2
255185, 255187, 1
255168, 255165, 2
255168, 255166, 2
255168, 255169, 1
255168, 255171, 2
255168, 255167, 2
255171, 255169, 2
255171, 255172, 1
255171, 255170, 2
255171, 255166, 2
255171, 255167, 2
255171, 255168, 2
255191, 255186, 2
255191, 255167, 2
255191, 255190, 2
255191, 255189, 2
255183, 255167, 2
255183, 255182, 2
255169, 255170, 1
255169, 255168, 2
255169, 255171, 2
255169, 255167, 2
255187, 255186, 2
255187, 255185, 2
255187, 255188, 1
255187, 255167, 2
255187, 255189, 2
255175, 255176, 1
255175, 255172, 2
255175, 255173, 2
255175, 255167, 2
255186, 255185, 2
255186, 255181, 2
255186, 255190, 2
255186, 255191, 2
255186, 255184, 2
255186, 255176, 2
255186, 255188, 2
255186, 255173, 2
255186, 255167, 2
255186, 255187, 2
255176, 255186, 2
255176, 255172, 2
255176, 255181, 2
255176, 255178, 2
255176, 255167, 2
255176, 255173, 2
255176, 255175, 2
255184, 255186, 2
255184, 255185, 1
255184, 255167, 2
255184, 255181, 2
255167, 255172, 2
255167, 255179, 2
255167, 255190, 2
255167, 255181, 2
255167, 255166, 2
255167, 255180, 2
255167, 255173, 2
255167, 255170, 2
255167, 255177, 2
255167, 255165, 2
255167, 255178, 2
255167, 255188, 2
255167, 255185, 2
255167, 255168, 6
255167, 255171, 2
255167, 255191, 2
255167, 255183, 2
255167, 255169, 2
255167, 255187, 2
255167, 255175, 2
255167, 255186, 2
255167, 255176, 2
255167, 255184, 2
255167, 255189, 2
255167, 255174, 4
255167, 255182, 2
255189, 255191, 2
255189, 255188, 2
255189, 255167, 2
255189, 255190, 2
255189, 255187, 2
255174, 255177, 0
255174, 255166, 2
255174, 255179, 1
255174, 255167, 2
255174, 255165, 2
255182, 255179, 2
255182, 255180, 2
255182, 255167, 2
255182, 255183, 1
