120744, 120739, 2
120744, 120732, 2
120744, 120743, 2
120744, 120746, 2
120744, 120736, 2
120744, 120740, 2
120744, 120745, 1
120744, 120741, 2
120744, 120738, 2
120744, 120734, 2
120743, 120744, 2
120743, 120736, 2
120743, 120740, 2
120743, 120742, 2
120743, 120745, 2
120743, 120734, 2
120730, 120732, 2
120730, 120736, 2
120730, 120735, 2
120730, 120731, 2
120730, 120734, 2
120730, 120733, 1
120730, 120738, 2
120736, 120744, 1
120736, 120743, 2
120736, 120730, 2
120736, 120740, 2
120736, 120742, 2
120736, 120735, 2
120736, 120737, 6
120736, 120741, 2
120736, 120739, 2
120736, 120732, 2
120736, 120734, 2
120736, 120746, 2
120736, 120745, 2
120736, 120738, 4
120736, 120733, 2
120740, 120744, 2
120740, 120743, 2
120740, 120736, 2
120740, 120742, 1
120740, 120737, 2
120740, 120734, 2
120742, 120740, 2
120742, 120743, 1
120742, 120736, 2
120735, 120739, 2
120735, 120732, 2
120735, 120730, 2
120735, 120736, 2
120735, 120731, 2
120735, 120737, 2
120735, 120738, 2
120735, 120733, 2
120735, 120734, 2
120737, 120732, 2
120737, 120736, 2
120737, 120740, 1
120737, 120735, 2
120737, 120731, 2
120737, 120734, 2
120734, 120744, 2
120734, 120743, 2
120734, 120730, 2
120734, 120736, 1
120734, 120740, 2
120734, 120735, 2
120734, 120737, 2
120734, 120738, 2
120734, 120739, 2
120734, 120732, 2
120734, 120745, 2
120734, 120741, 2
120734, 120733, 2
120739, 120744, 2
120739, 120732, 2
120739, 120736, 2
120739, 120734, 2
120739, 120735, 2
120739, 120731, 2
120739, 120738, 2
120739, 120741, 1
120732, 120744, 2
120732, 120739, 2
120732, 120730, 2
120732, 120736, 2
120732, 120731, 2
120732, 120735, 2
120732, 120737, 2
120732, 120734, 1
120732, 120733, 2
120738, 120744, 2
120738, 120739, 0
120738, 120730, 2
120738, 120736, 2
120738, 120746, 2
120738, 120735, 2
120738, 120745, 2
120738, 120734, 2
120738, 120741, 2
120746, 120744, 2
120746, 120745, 2
120746, 120738, 2
120746, 120736, 2
120746, 120741, 2
120745, 120744, 2
120745, 120743, 2
120745, 120746, 3
120745, 120736, 2
120745, 120734, 2
120745, 120738, 2
120745, 120741, 2
120731, 120739, 2
120731, 120732, 1
120731, 120730, 4
120731, 120735, 2
120731, 120737, 2
120731, 120733, 2
120741, 120744, 2
120741, 120739, 2
120741, 120746, 2
120741, 120736, 2
120741, 120745, 2
120741, 120734, 2
120741, 120738, 2
120733, 120732, 2
120733, 120730, 2
120733, 120736, 2
120733, 120735, 1
120733, 120731, 2
120733, 120734, 2
