195886, 195889, 2
195886, 195888, 1
195886, 195887, 3
195894, 195895, 2
195894, 195892, 2
195894, 195893, 2
195895, 195894, 2
195895, 195893, 2
195887, 195886, 2
195887, 195889, 2
195887, 195888, 2
195889, 195886, 2
195889, 195887, 2
195889, 195890, 0
195889, 195892, 1
195889, 195891, 2
195889, 195888, 2
195892, 195894, 2
195892, 195889, 2
195892, 195890, 2
195892, 195891, 2
195892, 195893, 1
195890, 195889, 2
195890, 195891, 1
195890, 195892, 2
195893, 195894, 3
195893, 195895, 1
195893, 195892, 2
195891, 195889, 2
195891, 195890, 2
195891, 195892, 2
195888, 195886, 2
195888, 195889, 1
195888, 195887, 2
