161154, 161155, 1
161154, 161153, 2
161158, 161159, 2
161158, 161157, 2
161156, 161155, 2
161156, 161153, 2
161156, 161157, 1
161157, 161156, 2
161157, 161159, 1
161157, 161158, 3
161150, 161151, 1
161150, 161149, 2
161155, 161154, 2
161155, 161153, 2
161155, 161156, 1
161153, 161152, 2
161153, 161154, 1
161153, 161156, 2
161153, 161151, 2
161153, 161155, 2
161149, 161150, 1
161151, 161153, 1
161151, 161150, 2
161151, 161152, 3
161159, 161158, 2
161159, 161157, 2
161152, 161153, 2
161152, 161151, 2
