185811, 185812, 3
185811, 185813, 8
185811, 185810, 2
185811, 185814, 1
185811, 185816, 2
185794, 185793, 2
185794, 185795, 2
185794, 185796, 2
185813, 185811, 2
185813, 185812, 2
185813, 185814, 2
185793, 185794, 3
185793, 185795, 0
185793, 185796, 1
185807, 185808, 1
185807, 185810, 2
185807, 185806, 2
185812, 185811, 2
185812, 185813, 2
185812, 185810, 2
185812, 185814, 2
185797, 185795, 2
185797, 185799, 2
185797, 185800, 2
185797, 185798, 1
185797, 185796, 2
185796, 185793, 2
185796, 185795, 2
185796, 185797, 1
185796, 185794, 2
185814, 185811, 2
185814, 185810, 2
185814, 185816, 1
185814, 185812, 2
185814, 185813, 2
185814, 185815, 3
185799, 185797, 2
185799, 185800, 2
185799, 185798, 2
185801, 185800, 2
185801, 185802, 2
185804, 185805, 2
185804, 185803, 2
185803, 185805, 1
185803, 185802, 2
185803, 185804, 3
185795, 185793, 2
185795, 185797, 2
185795, 185794, 2
185795, 185796, 2
185816, 185811, 2
185816, 185814, 2
185816, 185815, 2
185809, 185808, 2
185809, 185810, 2
185798, 185799, 3
185798, 185797, 2
185798, 185800, 1
185802, 185805, 2
185802, 185800, 2
185802, 185801, 2
185802, 185803, 1
185805, 185810, 2
185805, 185806, 1
185805, 185802, 2
185805, 185803, 2
185805, 185804, 2
185810, 185811, 1
185810, 185807, 2
185810, 185805, 2
185810, 185812, 2
185810, 185808, 2
185810, 185814, 2
185810, 185809, 2
185808, 185807, 2
185808, 185809, 3
185808, 185810, 1
185808, 185806, 2
185815, 185814, 2
185815, 185816, 2
185806, 185807, 1
185806, 185805, 2
185806, 185808, 2
185800, 185799, 2
185800, 185797, 2
185800, 185801, 8
185800, 185798, 2
185800, 185802, 1
