72703, 72704, 1
72703, 72701, 2
72703, 72702, 2
72703, 72700, 2
72699, 72700, 1
72705, 72704, 2
72705, 72706, 1
72704, 72703, 2
72704, 72706, 2
72704, 72705, 1
72704, 72702, 2
72704, 72701, 2
72700, 72703, 2
72700, 72699, 2
72700, 72701, 1
72700, 72702, 2
72706, 72704, 2
72706, 72705, 2
72701, 72703, 1
72701, 72700, 2
72701, 72702, 8
72701, 72704, 2
72702, 72703, 2
72702, 72700, 2
72702, 72701, 2
72702, 72704, 2
