254230, 254232, 2
254230, 254240, 2
254230, 254235, 2
254230, 254229, 2
254230, 254231, 2
254234, 254241, 2
254234, 254232, 2
254234, 254235, 6
254234, 254238, 2
254234, 254236, 1
254234, 254239, 2
254234, 254240, 2
254234, 254237, 2
254234, 254233, 2
254226, 254228, 1
254226, 254240, 2
254226, 254229, 2
254226, 254227, 3
254231, 254232, 1
254231, 254230, 2
254231, 254229, 2
254231, 254237, 2
254236, 254235, 2
254236, 254240, 2
254236, 254237, 2
254236, 254239, 2
254236, 254234, 2
254236, 254238, 1
254237, 254234, 2
254237, 254231, 2
254237, 254236, 2
254237, 254229, 2
254237, 254233, 2
254237, 254238, 2
254237, 254242, 2
254237, 254243, 2
254237, 254245, 2
254237, 254227, 2
254237, 254232, 2
254237, 254239, 1
254229, 254230, 0
254229, 254240, 2
254229, 254226, 2
254229, 254231, 1
254229, 254227, 2
254229, 254232, 2
254229, 254228, 2
254229, 254237, 2
254244, 254241, 2
254244, 254240, 2
254244, 254242, 2
254244, 254243, 2
254244, 254245, 3
254238, 254241, 2
254238, 254242, 1
254238, 254235, 2
254238, 254243, 2
254238, 254245, 2
254238, 254237, 4
254238, 254236, 2
254238, 254239, 2
254238, 254240, 6
254238, 254233, 2
254238, 254234, 2
254233, 254241, 2
254233, 254235, 2
254233, 254237, 2
254233, 254232, 2
254233, 254239, 2
254233, 254238, 2
254233, 254234, 2
254241, 254244, 2
254241, 254242, 2
254241, 254243, 2
254241, 254245, 2
254241, 254238, 2
254241, 254239, 2
254241, 254233, 2
254241, 254234, 2
254242, 254241, 2
254242, 254244, 2
254242, 254238, 2
254242, 254243, 3
254242, 254237, 2
254242, 254239, 2
254242, 254240, 2
254235, 254232, 2
254235, 254230, 2
254235, 254234, 2
254235, 254238, 2
254235, 254236, 2
254235, 254240, 2
254235, 254233, 2
254243, 254241, 2
254243, 254244, 1
254243, 254242, 2
254243, 254238, 2
254243, 254239, 2
254243, 254237, 2
254245, 254241, 2
254245, 254244, 2
254245, 254238, 2
254245, 254237, 2
254227, 254228, 2
254227, 254229, 2
254227, 254226, 2
254227, 254237, 2
254232, 254230, 2
254232, 254235, 2
254232, 254231, 2
254232, 254237, 2
254232, 254240, 2
254232, 254229, 2
254232, 254233, 3
254232, 254234, 1
254228, 254229, 1
254228, 254226, 2
254228, 254227, 2
254240, 254242, 2
254240, 254230, 2
254240, 254235, 2
254240, 254226, 2
254240, 254238, 2
254240, 254236, 2
254240, 254232, 2
254240, 254229, 2
254240, 254244, 2
254240, 254234, 2
254239, 254241, 1
254239, 254242, 2
254239, 254243, 2
254239, 254238, 2
254239, 254236, 2
254239, 254237, 2
254239, 254233, 2
254239, 254234, 2
