300431, 300432, 1
300431, 300430, 2
300431, 300427, 2
300428, 300429, 1
300428, 300427, 2
300430, 300431, 2
300430, 300432, 2
300430, 300427, 2
300430, 300429, 2
300429, 300428, 2
300429, 300430, 1
300429, 300427, 2
300432, 300431, 2
300432, 300427, 2
300432, 300430, 2
300427, 300431, 1
300427, 300428, 3
300427, 300430, 2
300427, 300429, 2
300427, 300432, 2
