169900, 169899, 2
169900, 169901, 1
169897, 169898, 1
169897, 169896, 2
169899, 169898, 2
169899, 169900, 1
169899, 169901, 2
169898, 169899, 1
169898, 169897, 2
169901, 169899, 2
169901, 169900, 2
169896, 169897, 1
