71275, 71274, 2
71275, 71276, 2
71275, 71277, 2
71275, 71278, 2
71274, 71275, 0
71274, 71276, 1
71276, 71275, 2
71276, 71274, 2
71276, 71277, 1
71277, 71275, 2
71277, 71276, 2
71277, 71278, 0
71278, 71275, 2
71278, 71277, 2
