338516, 338517, 1
338516, 338514, 2
338516, 338515, 2
338517, 338516, 2
338517, 338514, 2
338517, 338515, 2
338514, 338516, 1
338514, 338517, 2
338514, 338515, 3
338515, 338516, 2
338515, 338514, 2
338515, 338517, 2
