22490, 22491, 1
22490, 22489, 2
22490, 22488, 2
22487, 22488, 1
22489, 22490, 1
22489, 22488, 2
22488, 22490, 2
22488, 22487, 2
22488, 22489, 1
22488, 22493, 2
22495, 22494, 2
22491, 22490, 2
22491, 22493, 2
22491, 22492, 1
22494, 22493, 2
22494, 22495, 1
22493, 22491, 2
22493, 22494, 1
22493, 22488, 2
22493, 22492, 2
22492, 22491, 2
22492, 22493, 1
