294358, 294359, 3
294358, 294360, 1
294359, 294358, 2
294359, 294360, 2
294359, 294362, 2
294359, 294361, 2
294365, 294366, 1
294365, 294364, 2
294365, 294367, 2
294365, 294363, 2
294365, 294362, 2
294363, 294364, 1
294363, 294365, 2
294363, 294362, 2
294363, 294361, 2
294362, 294359, 2
294362, 294365, 2
294362, 294363, 2
294362, 294367, 2
294362, 294364, 2
294362, 294360, 2
294362, 294361, 2
294366, 294367, 3
294366, 294365, 2
294367, 294366, 2
294367, 294365, 2
294367, 294362, 2
294364, 294365, 1
294364, 294363, 2
294364, 294362, 2
294364, 294361, 2
294360, 294358, 2
294360, 294359, 2
294360, 294362, 2
294360, 294361, 1
294361, 294359, 2
294361, 294364, 2
294361, 294363, 1
294361, 294362, 3
294361, 294360, 2
