72719, 72715, 2
72719, 72722, 2
72719, 72717, 2
72719, 72720, 2
72719, 72716, 2
72719, 72718, 2
72716, 72719, 2
72716, 72718, 2
72716, 72717, 2
72716, 72715, 2
72721, 72720, 2
72721, 72722, 1
72718, 72720, 1
72718, 72719, 6
72718, 72715, 2
72718, 72716, 2
72718, 72717, 2
72720, 72719, 2
72720, 72721, 1
72720, 72718, 2
72722, 72719, 2
72722, 72721, 2
72717, 72719, 2
72717, 72715, 2
72717, 72716, 2
72717, 72718, 1
72715, 72719, 2
72715, 72718, 2
72715, 72716, 0
72715, 72717, 1
