258129, 258135, 2
258129, 258123, 2
258129, 258130, 1
258129, 258132, 2
258129, 258128, 2
258129, 258131, 2
258159, 258151, 2
258159, 258161, 1
258159, 258160, 0
258159, 258158, 2
258139, 258135, 2
258139, 258140, 1
258139, 258138, 2
258139, 258136, 2
258139, 258144, 2
258143, 258135, 2
258143, 258140, 2
258143, 258144, 2
258143, 258142, 2
258143, 258141, 2
258160, 258159, 2
258160, 258151, 2
258160, 258161, 2
258121, 258135, 2
258121, 258124, 2
258121, 258123, 2
258121, 258120, 2
258121, 258122, 1
258147, 258148, 1
258147, 258146, 2
258145, 258148, 2
258145, 258135, 2
258145, 258151, 2
258145, 258144, 2
258145, 258146, 2
258137, 258134, 2
258137, 258135, 2
258137, 258138, 1
258137, 258136, 2
258137, 258133, 2
258119, 258120, 1
258119, 258117, 2
258119, 258116, 2
258119, 258118, 2
258126, 258127, 1
258126, 258125, 2
258131, 258135, 2
258131, 258127, 2
258131, 258129, 2
258131, 258130, 2
258131, 258132, 2
258131, 258128, 2
258148, 258147, 2
258148, 258149, 1
258148, 258145, 2
258148, 258151, 2
258148, 258146, 2
258158, 258159, 1
258158, 258151, 2
258158, 258157, 2
258151, 258148, 2
258151, 258145, 2
258151, 258162, 2
258151, 258159, 2
258151, 258152, 2
258151, 258155, 2
258151, 258153, 2
258151, 258146, 2
258151, 258135, 2
258151, 258150, 2
258151, 258156, 2
258151, 258149, 2
258151, 258160, 2
258151, 258158, 2
258128, 258127, 2
258128, 258129, 0
258128, 258130, 2
258128, 258132, 1
258128, 258131, 2
258128, 258136, 2
258136, 258134, 2
258136, 258137, 2
258136, 258156, 2
258136, 258132, 2
258136, 258120, 2
258136, 258138, 2
258136, 258146, 2
258136, 258127, 2
258136, 258150, 2
258136, 258116, 2
258136, 258139, 2
258136, 258152, 2
258136, 258133, 2
258136, 258128, 2
258124, 258120, 2
258124, 258125, 1
258124, 258123, 2
258124, 258121, 2
258144, 258142, 2
258144, 258139, 2
258144, 258143, 2
258144, 258140, 2
258144, 258146, 1
258144, 258145, 0
258144, 258141, 2
258118, 258117, 2
258118, 258119, 1
258133, 258135, 2
258133, 258134, 1
258133, 258137, 2
258133, 258136, 2
258133, 258132, 2
258157, 258158, 1
258157, 258156, 2
258154, 258152, 2
258154, 258155, 2
258154, 258153, 2
258154, 258156, 2
258142, 258140, 2
258142, 258141, 2
258142, 258144, 2
258142, 258143, 1
258146, 258147, 1
258146, 258148, 2
258146, 258145, 2
258146, 258136, 2
258146, 258151, 2
258146, 258140, 2
258146, 258144, 2
258135, 258134, 2
258135, 258145, 2
258135, 258137, 2
258135, 258129, 2
258135, 258131, 2
258135, 258132, 2
258135, 258140, 2
258135, 258141, 2
258135, 258139, 2
258135, 258123, 2
258135, 258121, 2
258135, 258143, 2
258135, 258151, 2
258135, 258138, 2
258135, 258133, 2
258163, 258161, 2
258163, 258162, 2
258163, 258164, 1
258150, 258152, 1
258150, 258149, 2
258150, 258136, 2
258150, 258151, 6
258149, 258148, 2
258149, 258151, 2
258149, 258150, 1
258161, 258159, 2
258161, 258163, 2
258161, 258160, 2
258161, 258162, 0
258116, 258117, 1
258116, 258119, 2
258116, 258136, 2
258134, 258135, 6
258134, 258133, 2
258134, 258137, 1
258134, 258136, 4
258123, 258135, 2
258123, 258120, 2
258123, 258125, 2
258123, 258122, 2
258123, 258121, 2
258123, 258124, 2
258123, 258129, 2
258162, 258151, 2
258162, 258161, 2
258162, 258163, 1
258164, 258163, 2
258132, 258135, 2
258132, 258127, 2
258132, 258136, 2
258132, 258130, 2
258132, 258131, 2
258132, 258133, 1
258132, 258128, 2
258132, 258129, 2
258152, 258151, 2
258152, 258154, 2
258152, 258150, 2
258152, 258136, 2
258152, 258153, 1
258140, 258135, 2
258140, 258142, 2
258140, 258144, 1
258140, 258139, 2
258140, 258143, 2
258140, 258146, 2
258140, 258141, 0
258120, 258127, 2
258120, 258123, 2
258120, 258119, 2
258120, 258122, 2
258120, 258121, 0
258120, 258125, 2
258120, 258117, 2
258120, 258124, 1
258120, 258136, 2
258155, 258151, 2
258155, 258154, 2
258155, 258153, 2
258155, 258156, 1
258153, 258151, 2
258153, 258154, 8
258153, 258155, 1
258153, 258152, 2
258141, 258135, 2
258141, 258140, 2
258141, 258144, 2
258141, 258142, 1
258141, 258143, 2
258127, 258136, 2
258127, 258128, 1
258127, 258130, 2
258127, 258132, 2
258127, 258120, 2
258127, 258126, 2
258127, 258131, 2
258117, 258120, 2
258117, 258119, 2
258117, 258116, 2
258117, 258118, 1
258125, 258124, 2
258125, 258123, 2
258125, 258120, 2
258125, 258126, 1
258122, 258120, 2
258122, 258123, 1
258122, 258121, 2
258156, 258151, 2
258156, 258157, 1
258156, 258154, 2
258156, 258155, 2
258156, 258136, 2
258130, 258132, 2
258130, 258127, 2
258130, 258129, 2
258130, 258128, 2
258130, 258131, 1
258138, 258135, 2
258138, 258137, 2
258138, 258136, 2
258138, 258139, 1
