300815, 300814, 2
300815, 300811, 2
300815, 300816, 2
300815, 300812, 2
300814, 300813, 2
300814, 300815, 2
300814, 300811, 2
300814, 300816, 1
300814, 300812, 2
300813, 300814, 2
300813, 300811, 2
300813, 300816, 2
300813, 300812, 2
300816, 300815, 6
300816, 300812, 2
300816, 300814, 2
300816, 300811, 2
300816, 300813, 2
300812, 300815, 2
300812, 300814, 1
300812, 300813, 3
300812, 300816, 2
300812, 300811, 6
300811, 300815, 2
300811, 300814, 2
300811, 300813, 2
300811, 300816, 2
300811, 300812, 2
