222404, 222405, 1
222404, 222410, 2
222404, 222406, 2
222404, 222402, 2
222404, 222408, 2
222404, 222403, 2
222405, 222404, 2
222405, 222410, 2
222405, 222408, 2
222405, 222406, 1
222405, 222403, 2
222410, 222404, 2
222410, 222405, 2
222410, 222408, 2
222410, 222409, 2
222410, 222403, 2
222406, 222404, 2
222406, 222405, 2
222406, 222407, 2
222406, 222409, 2
222406, 222402, 2
222406, 222408, 2
222406, 222403, 2
222409, 222410, 2
222409, 222406, 2
222409, 222407, 2
222409, 222408, 2
222402, 222404, 2
222402, 222408, 2
222402, 222406, 2
222402, 222403, 1
222407, 222409, 2
222407, 222406, 2
222407, 222408, 2
222408, 222404, 2
222408, 222405, 2
222408, 222410, 1
222408, 222407, 2
222408, 222409, 3
222408, 222402, 2
222408, 222406, 2
222408, 222403, 2
222403, 222404, 3
222403, 222405, 2
222403, 222410, 2
222403, 222406, 2
222403, 222402, 2
222403, 222408, 1
