340028, 340027, 2
340028, 340030, 2
340028, 340029, 1
340028, 340031, 2
340028, 340026, 2
340030, 340028, 2
340030, 340029, 2
340030, 340031, 2
340029, 340028, 2
340029, 340030, 8
340029, 340032, 2
340029, 340031, 1
340026, 340028, 2
340026, 340027, 1
340027, 340028, 1
340027, 340026, 2
340032, 340029, 2
340032, 340031, 2
340031, 340028, 2
340031, 340030, 2
340031, 340032, 1
340031, 340029, 2
