125967, 125959, 2
125967, 125958, 2
125967, 125965, 2
125967, 125970, 2
125967, 125975, 2
125967, 125971, 2
125967, 125969, 2
125967, 125968, 2
125949, 125946, 2
125949, 125951, 1
125949, 125953, 2
125949, 125955, 2
125949, 125948, 2
125949, 125944, 2
125949, 125943, 2
125954, 125956, 2
125954, 125958, 2
125954, 125955, 2
125954, 125952, 2
125954, 125950, 2
125954, 125946, 2
125954, 125943, 2
125947, 125944, 2
125947, 125943, 2
125947, 125945, 2
125947, 125946, 2
125947, 125950, 1
125971, 125967, 2
125971, 125972, 1
125971, 125961, 2
125971, 125970, 2
125971, 125975, 2
125971, 125966, 2
125971, 125969, 2
125964, 125966, 1
125964, 125961, 2
125964, 125959, 2
125964, 125962, 2
125965, 125967, 1
125965, 125959, 2
125965, 125963, 2
125970, 125967, 2
125970, 125972, 2
125970, 125974, 2
125970, 125971, 2
125970, 125959, 2
125970, 125975, 2
125970, 125969, 2
125970, 125968, 2
125966, 125972, 2
125966, 125959, 2
125966, 125961, 2
125966, 125958, 2
125966, 125964, 2
125966, 125962, 2
125966, 125975, 2
125966, 125971, 2
125966, 125969, 2
125966, 125968, 2
125960, 125959, 2
125960, 125958, 2
125960, 125963, 1
125952, 125954, 1
125952, 125946, 2
125952, 125950, 2
125945, 125948, 2
125945, 125947, 2
125945, 125944, 2
125945, 125946, 2
125945, 125943, 2
125943, 125949, 2
125943, 125954, 2
125943, 125947, 2
125943, 125946, 1
125943, 125953, 2
125943, 125955, 2
125943, 125948, 2
125943, 125944, 3
125943, 125945, 0
125943, 125950, 2
125951, 125949, 2
125951, 125953, 1
125951, 125946, 2
125951, 125948, 2
125957, 125956, 2
125957, 125948, 2
125957, 125958, 2
125957, 125955, 2
125957, 125953, 2
125955, 125956, 1
125955, 125949, 2
125955, 125954, 2
125955, 125958, 2
125955, 125957, 2
125955, 125953, 2
125955, 125950, 2
125955, 125946, 2
125955, 125943, 2
125972, 125961, 2
125972, 125971, 2
125972, 125974, 2
125972, 125970, 2
125972, 125975, 2
125972, 125966, 2
125972, 125973, 1
125973, 125972, 2
125973, 125975, 2
125973, 125974, 1
125969, 125967, 2
125969, 125971, 1
125969, 125970, 0
125969, 125975, 2
125969, 125966, 2
125969, 125968, 2
125946, 125949, 2
125946, 125954, 2
125946, 125947, 6
125946, 125952, 2
125946, 125951, 2
125946, 125943, 2
125946, 125958, 2
125946, 125945, 2
125946, 125953, 2
125946, 125955, 1
125946, 125948, 4
125946, 125944, 2
125946, 125950, 2
125956, 125955, 2
125956, 125954, 2
125956, 125958, 1
125956, 125957, 3
125962, 125959, 2
125962, 125961, 2
125962, 125958, 2
125962, 125964, 1
125962, 125966, 2
125962, 125968, 2
125974, 125975, 1
125974, 125972, 2
125974, 125973, 2
125974, 125961, 2
125974, 125970, 2
125963, 125959, 2
125963, 125960, 2
125963, 125958, 2
125963, 125965, 1
125963, 125968, 2
125975, 125967, 2
125975, 125959, 2
125975, 125961, 2
125975, 125971, 2
125975, 125974, 2
125975, 125970, 2
125975, 125966, 2
125975, 125973, 2
125975, 125969, 2
125975, 125972, 2
125959, 125967, 2
125959, 125962, 2
125959, 125964, 2
125959, 125965, 2
125959, 125970, 2
125959, 125975, 2
125959, 125966, 2
125959, 125960, 6
125959, 125963, 2
125959, 125961, 4
125959, 125958, 2
125959, 125968, 1
125961, 125972, 2
125961, 125959, 2
125961, 125974, 2
125961, 125958, 2
125961, 125964, 2
125961, 125971, 2
125961, 125962, 0
125961, 125975, 2
125961, 125966, 2
125958, 125956, 2
125958, 125962, 2
125958, 125954, 2
125958, 125963, 2
125958, 125966, 2
125958, 125960, 2
125958, 125953, 2
125958, 125967, 2
125958, 125959, 1
125958, 125961, 2
125958, 125957, 2
125958, 125955, 2
125958, 125948, 2
125958, 125946, 2
125958, 125968, 2
125944, 125949, 2
125944, 125947, 2
125944, 125946, 2
125944, 125948, 2
125944, 125945, 2
125944, 125943, 2
125953, 125949, 2
125953, 125958, 2
125953, 125946, 2
125953, 125957, 2
125953, 125955, 2
125953, 125948, 2
125953, 125951, 2
125953, 125943, 2
125948, 125949, 0
125948, 125958, 2
125948, 125946, 2
125948, 125951, 2
125948, 125953, 2
125948, 125944, 2
125948, 125957, 2
125948, 125945, 2
125948, 125943, 2
125968, 125967, 2
125968, 125962, 2
125968, 125958, 2
125968, 125963, 2
125968, 125959, 2
125968, 125966, 2
125968, 125970, 2
125968, 125969, 1
125950, 125954, 2
125950, 125947, 2
125950, 125955, 2
125950, 125952, 1
125950, 125946, 2
125950, 125943, 2
