125307, 125297, 2
125307, 125303, 2
125307, 125308, 1
125307, 125293, 2
125307, 125305, 2
125307, 125299, 2
125307, 125289, 2
125307, 125296, 2
125307, 125301, 2
125303, 125307, 2
125303, 125301, 2
125303, 125293, 2
125303, 125296, 2
125303, 125294, 2
125303, 125309, 2
125303, 125299, 2
125303, 125305, 1
125293, 125307, 2
125293, 125303, 2
125293, 125304, 2
125293, 125294, 4
125293, 125291, 2
125293, 125297, 2
125293, 125292, 2
125293, 125308, 2
125293, 125296, 2
125293, 125302, 2
125293, 125310, 2
125293, 125306, 2
125293, 125305, 2
125293, 125298, 6
125293, 125309, 2
125293, 125295, 2
125293, 125311, 1
125293, 125301, 2
125293, 125290, 2
125293, 125300, 2
125293, 125289, 2
125293, 125299, 2
125304, 125311, 2
125304, 125306, 0
125304, 125293, 2
125304, 125298, 2
125304, 125300, 2
125304, 125289, 2
125304, 125302, 2
125313, 125314, 1
125313, 125311, 2
125313, 125312, 2
125313, 125309, 2
125313, 125306, 2
125291, 125298, 2
125291, 125292, 1
125291, 125293, 2
125291, 125290, 2
125291, 125287, 2
125291, 125300, 2
125291, 125289, 2
125291, 125294, 2
125291, 125295, 2
125286, 125285, 2
125286, 125288, 1
125286, 125289, 2
125294, 125297, 2
125294, 125303, 2
125294, 125292, 2
125294, 125301, 2
125294, 125293, 2
125294, 125290, 2
125294, 125291, 2
125294, 125289, 2
125294, 125296, 2
125294, 125295, 1
125297, 125307, 2
125297, 125301, 2
125297, 125293, 2
125297, 125296, 2
125297, 125294, 2
125297, 125289, 2
125297, 125299, 1
125297, 125295, 2
125310, 125311, 2
125310, 125314, 2
125310, 125308, 2
125310, 125293, 2
125310, 125289, 2
125310, 125312, 2
125310, 125309, 2
125308, 125307, 2
125308, 125311, 2
125308, 125310, 2
125308, 125293, 2
125308, 125305, 2
125308, 125309, 2
125287, 125285, 2
125287, 125289, 2
125287, 125291, 2
125312, 125311, 2
125312, 125313, 1
125312, 125310, 2
125312, 125309, 2
125312, 125314, 2
125288, 125285, 2
125288, 125289, 2
125288, 125286, 2
125296, 125307, 2
125296, 125297, 0
125296, 125303, 2
125296, 125301, 1
125296, 125293, 2
125296, 125299, 2
125296, 125294, 2
125296, 125295, 2
125302, 125306, 2
125302, 125293, 2
125302, 125304, 1
125302, 125298, 2
125302, 125300, 2
125302, 125289, 2
125314, 125311, 2
125314, 125310, 2
125314, 125306, 2
125314, 125309, 2
125314, 125312, 2
125314, 125300, 2
125314, 125313, 2
125292, 125298, 2
125292, 125295, 2
125292, 125293, 2
125292, 125290, 2
125292, 125300, 2
125292, 125289, 2
125292, 125294, 2
125292, 125291, 2
125306, 125311, 2
125306, 125314, 2
125306, 125293, 2
125306, 125304, 2
125306, 125298, 2
125306, 125300, 2
125306, 125313, 2
125306, 125302, 2
125305, 125307, 0
125305, 125303, 2
125305, 125308, 2
125305, 125293, 2
125305, 125309, 1
125305, 125299, 2
125298, 125292, 2
125298, 125306, 2
125298, 125293, 2
125298, 125304, 2
125298, 125300, 0
125298, 125289, 2
125298, 125291, 2
125298, 125302, 1
125309, 125311, 2
125309, 125314, 2
125309, 125303, 2
125309, 125310, 0
125309, 125308, 2
125309, 125293, 2
125309, 125305, 2
125309, 125312, 2
125309, 125313, 2
125295, 125297, 2
125295, 125292, 2
125295, 125301, 2
125295, 125293, 2
125295, 125296, 1
125295, 125291, 2
125295, 125294, 2
125311, 125314, 2
125311, 125310, 2
125311, 125308, 2
125311, 125306, 2
125311, 125293, 2
125311, 125304, 2
125311, 125289, 2
125311, 125312, 1
125311, 125300, 2
125311, 125309, 2
125311, 125313, 2
125301, 125307, 2
125301, 125297, 2
125301, 125303, 1
125301, 125293, 2
125301, 125294, 2
125301, 125295, 2
125301, 125299, 2
125301, 125296, 2
125290, 125292, 2
125290, 125293, 2
125290, 125300, 2
125290, 125289, 2
125290, 125291, 2
125290, 125294, 2
125285, 125287, 6
125285, 125288, 2
125285, 125289, 1
125285, 125286, 4
125300, 125311, 2
125300, 125314, 2
125300, 125292, 2
125300, 125306, 2
125300, 125293, 2
125300, 125304, 2
125300, 125298, 2
125300, 125290, 2
125300, 125289, 2
125300, 125291, 2
125300, 125302, 2
125289, 125307, 2
125289, 125311, 2
125289, 125292, 2
125289, 125302, 2
125289, 125293, 1
125289, 125304, 2
125289, 125298, 2
125289, 125291, 0
125289, 125286, 2
125289, 125294, 2
125289, 125297, 2
125289, 125310, 2
125289, 125285, 2
125289, 125290, 3
125289, 125287, 2
125289, 125300, 2
125289, 125288, 2
125299, 125307, 2
125299, 125297, 2
125299, 125303, 2
125299, 125301, 2
125299, 125293, 2
125299, 125296, 2
125299, 125305, 2
