197382, 197381, 2
197382, 197379, 2
197377, 197376, 2
197377, 197378, 1
197377, 197375, 2
197381, 197382, 3
197381, 197379, 2
197381, 197380, 2
197376, 197377, 2
197376, 197375, 2
197378, 197377, 2
197378, 197379, 1
197380, 197381, 1
197380, 197379, 2
197379, 197381, 2
197379, 197382, 2
197379, 197378, 2
197379, 197380, 1
197375, 197376, 3
197375, 197377, 1
