73227, 73229, 2
73227, 73226, 2
73227, 73228, 1
73232, 73231, 2
73232, 73233, 1
73231, 73232, 1
73231, 73229, 2
73231, 73233, 2
73231, 73230, 2
73231, 73228, 2
73229, 73227, 2
73229, 73231, 2
73229, 73233, 2
73229, 73226, 2
73229, 73228, 2
73229, 73230, 2
73233, 73231, 2
73233, 73229, 2
73233, 73232, 2
73226, 73229, 2
73226, 73227, 1
73228, 73231, 1
73228, 73229, 6
73228, 73227, 2
73228, 73230, 3
73230, 73231, 2
73230, 73229, 2
73230, 73228, 2
