216162, 216161, 2
216162, 216159, 2
216162, 216158, 2
216162, 216160, 2
216162, 216163, 2
216161, 216162, 3
216161, 216163, 1
216161, 216159, 2
216161, 216158, 2
216161, 216160, 6
216156, 216155, 2
216156, 216157, 3
216156, 216158, 1
216160, 216162, 2
216160, 216161, 2
216160, 216158, 2
216160, 216163, 2
216160, 216155, 2
216160, 216164, 2
216160, 216159, 2
216158, 216162, 2
216158, 216161, 2
216158, 216156, 2
216158, 216160, 2
216158, 216155, 2
216158, 216157, 2
216158, 216159, 1
216163, 216162, 2
216163, 216161, 2
216163, 216160, 2
216163, 216164, 0
216155, 216157, 2
216155, 216156, 1
216155, 216158, 2
216155, 216160, 2
216157, 216155, 2
216157, 216156, 2
216157, 216158, 2
216164, 216163, 2
216164, 216160, 2
216159, 216162, 2
216159, 216161, 1
216159, 216158, 2
216159, 216160, 2
