215851, 215850, 2
215851, 215847, 2
215851, 215853, 1
215851, 215849, 2
215851, 215848, 2
215851, 215852, 3
215850, 215851, 2
215850, 215848, 2
215850, 215849, 2
215850, 215852, 2
215847, 215846, 2
215847, 215851, 2
215847, 215848, 1
215847, 215849, 2
215853, 215854, 1
215853, 215851, 2
215853, 215848, 2
215853, 215852, 2
215854, 215853, 2
215846, 215847, 1
215846, 215845, 2
215852, 215851, 2
215852, 215850, 2
215852, 215849, 2
215852, 215853, 2
215849, 215850, 2
215849, 215851, 2
215849, 215848, 2
215849, 215847, 2
215849, 215852, 2
215848, 215851, 1
215848, 215850, 8
215848, 215849, 3
215848, 215853, 2
215848, 215847, 2
215845, 215846, 1
