134185, 134186, 1
134185, 134189, 2
134190, 134188, 2
134190, 134186, 2
134190, 134189, 2
134190, 134187, 2
134186, 134185, 2
134186, 134188, 2
134186, 134189, 2
134186, 134190, 2
134186, 134187, 1
134189, 134185, 2
134189, 134188, 2
134189, 134186, 2
134189, 134190, 2
134189, 134187, 2
134187, 134190, 2
134187, 134186, 2
134187, 134189, 0
134187, 134188, 1
134188, 134190, 1
134188, 134186, 2
134188, 134189, 2
134188, 134187, 2
