185447, 185449, 1
185447, 185450, 2
185447, 185446, 2
185447, 185448, 3
185443, 185442, 2
185443, 185444, 1
185457, 185454, 2
185457, 185455, 2
185457, 185456, 2
185454, 185457, 2
185454, 185456, 1
185454, 185452, 2
185454, 185455, 3
185454, 185453, 2
185444, 185445, 1
185444, 185443, 2
185453, 185454, 2
185453, 185452, 2
185453, 185455, 2
185445, 185444, 2
185445, 185446, 1
185442, 185443, 1
185450, 185449, 2
185450, 185447, 2
185450, 185451, 2
185450, 185448, 2
185455, 185457, 2
185455, 185454, 2
185455, 185456, 2
185455, 185453, 2
185455, 185452, 2
185451, 185449, 2
185451, 185450, 2
185451, 185452, 1
185448, 185447, 2
185448, 185449, 2
185448, 185450, 2
185449, 185447, 2
185449, 185450, 3
185449, 185451, 1
185449, 185448, 2
185449, 185452, 2
185452, 185449, 2
185452, 185454, 1
185452, 185455, 2
185452, 185453, 3
185452, 185451, 2
185446, 185447, 1
185446, 185445, 2
185456, 185457, 1
185456, 185454, 2
185456, 185455, 2
