186166, 186168, 1
186166, 186167, 0
186166, 186165, 2
186166, 186161, 2
186166, 186164, 2
186181, 186182, 1
186181, 186180, 2
186185, 186188, 2
186185, 186183, 2
186185, 186186, 2
186185, 186179, 2
186185, 186182, 2
186185, 186184, 2
186185, 186180, 2
186185, 186189, 2
186176, 186177, 2
186176, 186174, 2
186176, 186175, 2
186169, 186168, 2
186169, 186170, 1
186172, 186177, 2
186172, 186179, 2
186172, 186167, 2
186172, 186173, 1
186172, 186174, 2
186172, 186171, 2
186189, 186188, 2
186189, 186185, 2
186154, 186155, 1
186154, 186156, 2
186154, 186161, 2
186162, 186164, 2
186162, 186156, 2
186162, 186161, 2
186162, 186167, 2
186162, 186160, 2
186162, 186163, 1
186177, 186175, 2
186177, 186176, 2
186177, 186172, 2
186177, 186167, 2
186177, 186173, 2
186177, 186174, 2
186177, 186179, 2
186177, 186178, 1
186183, 186182, 2
186183, 186184, 2
186183, 186185, 2
186174, 186177, 2
186174, 186176, 2
186174, 186168, 2
186174, 186172, 2
186174, 186170, 2
186174, 186167, 2
186174, 186173, 2
186174, 186175, 2
186174, 186179, 2
186174, 186171, 2
186182, 186181, 2
186182, 186183, 8
186182, 186179, 2
186182, 186184, 1
186182, 186185, 2
186182, 186180, 2
186173, 186177, 2
186173, 186175, 1
186173, 186174, 0
186173, 186179, 2
186173, 186172, 2
186155, 186159, 2
186155, 186156, 0
186155, 186161, 2
186155, 186154, 2
186155, 186157, 1
186159, 186155, 2
186159, 186156, 2
186159, 186161, 2
186159, 186160, 1
186159, 186158, 2
186159, 186157, 2
186161, 186166, 2
186161, 186160, 2
186161, 186164, 2
186161, 186156, 2
186161, 186168, 2
186161, 186167, 2
186161, 186155, 2
186161, 186159, 2
186161, 186154, 2
186161, 186162, 2
186188, 186187, 2
186188, 186185, 2
186188, 186189, 1
186188, 186186, 2
186160, 186159, 2
186160, 186161, 0
186160, 186162, 1
186186, 186187, 1
186186, 186184, 2
186186, 186185, 2
186186, 186188, 2
186186, 186179, 2
186178, 186177, 2
186178, 186180, 1
186178, 186179, 0
186168, 186166, 2
186168, 186161, 2
186168, 186174, 2
186168, 186170, 2
186168, 186167, 2
186168, 186169, 1
186184, 186182, 2
186184, 186185, 0
186184, 186183, 2
186184, 186186, 1
186184, 186179, 2
186180, 186182, 2
186180, 186185, 2
186180, 186181, 1
186180, 186179, 2
186180, 186178, 2
186164, 186166, 1
186164, 186165, 8
186164, 186161, 2
186164, 186167, 2
186164, 186162, 2
186164, 186163, 2
186163, 186164, 1
186163, 186162, 2
186170, 186168, 2
186170, 186167, 2
186170, 186174, 2
186170, 186171, 1
186170, 186169, 2
186175, 186177, 1
186175, 186173, 2
186175, 186176, 3
186175, 186174, 2
186165, 186166, 2
186165, 186167, 2
186165, 186164, 2
186167, 186166, 2
186167, 186170, 2
186167, 186165, 2
186167, 186161, 2
186167, 186174, 2
186167, 186172, 2
186167, 186168, 2
186167, 186164, 2
186167, 186171, 2
186167, 186177, 2
186167, 186162, 2
186179, 186177, 2
186179, 186186, 2
186179, 186173, 2
186179, 186174, 2
186179, 186182, 2
186179, 186184, 2
186179, 186185, 2
186179, 186172, 2
186179, 186180, 2
186179, 186178, 2
186187, 186188, 1
186187, 186186, 2
186156, 186162, 2
186156, 186161, 2
186156, 186158, 2
186156, 186155, 2
186156, 186159, 2
186156, 186154, 2
186156, 186157, 2
186157, 186156, 2
186157, 186155, 2
186157, 186159, 1
186157, 186158, 3
186171, 186170, 2
186171, 186167, 2
186171, 186174, 2
186171, 186172, 1
186158, 186156, 2
186158, 186159, 2
186158, 186157, 2
