127238, 127236, 2
127238, 127235, 2
127238, 127234, 2
127238, 127230, 2
127238, 127231, 2
127238, 127233, 2
127238, 127232, 2
127238, 127239, 1
127238, 127237, 2
127230, 127229, 2
127230, 127222, 2
127230, 127234, 2
127230, 127231, 0
127230, 127233, 2
127230, 127238, 2
127230, 127232, 1
127209, 127212, 2
127209, 127208, 2
127209, 127211, 2
127209, 127210, 2
127209, 127204, 2
127214, 127213, 2
127214, 127215, 1
127214, 127211, 2
127214, 127212, 2
127203, 127205, 1
127203, 127202, 2
127203, 127204, 3
127239, 127238, 2
127239, 127237, 2
127206, 127208, 2
127206, 127205, 2
127206, 127207, 1
127206, 127222, 2
127213, 127214, 2
127213, 127211, 2
127213, 127215, 2
127213, 127212, 2
127208, 127209, 3
127208, 127211, 2
127208, 127210, 1
127208, 127222, 2
127208, 127207, 2
127208, 127206, 2
127219, 127220, 1
127219, 127218, 2
127219, 127222, 2
127226, 127231, 2
127226, 127225, 2
127226, 127227, 1
127226, 127222, 2
127202, 127203, 1
127224, 127231, 2
127224, 127225, 1
127224, 127223, 2
127224, 127222, 2
127231, 127238, 2
127231, 127228, 2
127231, 127227, 2
127231, 127230, 2
127231, 127224, 2
127231, 127234, 2
127231, 127233, 2
127231, 127232, 2
127231, 127226, 2
127231, 127222, 2
127231, 127229, 2
127237, 127236, 2
127237, 127238, 2
127237, 127239, 2
127237, 127232, 2
127210, 127212, 2
127210, 127208, 2
127210, 127211, 1
127210, 127209, 2
127218, 127220, 2
127218, 127219, 1
127218, 127222, 2
127218, 127217, 2
127207, 127208, 1
127207, 127206, 2
127232, 127236, 2
127232, 127235, 2
127232, 127234, 2
127232, 127230, 2
127232, 127231, 2
127232, 127233, 0
127232, 127238, 1
127232, 127237, 2
127212, 127214, 2
127212, 127211, 2
127212, 127210, 2
127212, 127213, 1
127212, 127209, 2
127235, 127236, 1
127235, 127234, 2
127235, 127238, 2
127235, 127232, 2
127211, 127213, 2
127211, 127208, 2
127211, 127209, 2
127211, 127214, 1
127211, 127210, 2
127211, 127212, 3
127228, 127231, 2
127228, 127229, 1
127228, 127227, 2
127228, 127222, 2
127220, 127221, 1
127220, 127219, 2
127220, 127222, 2
127220, 127218, 2
127225, 127224, 2
127225, 127226, 1
127227, 127231, 2
127227, 127228, 1
127227, 127226, 2
127217, 127216, 2
127217, 127218, 1
127217, 127222, 2
127236, 127235, 2
127236, 127237, 1
127236, 127238, 2
127236, 127232, 2
127215, 127214, 2
127215, 127216, 1
127215, 127222, 2
127215, 127213, 2
127223, 127221, 2
127223, 127224, 1
127223, 127222, 2
127204, 127205, 2
127204, 127203, 2
127204, 127209, 2
127222, 127228, 2
127222, 127230, 2
127222, 127219, 2
127222, 127220, 2
127222, 127229, 2
127222, 127217, 2
127222, 127231, 2
127222, 127208, 2
127222, 127215, 2
127222, 127223, 2
127222, 127221, 2
127222, 127224, 2
127222, 127206, 2
127222, 127226, 2
127222, 127218, 2
127221, 127220, 2
127221, 127223, 1
127221, 127222, 0
127234, 127235, 1
127234, 127230, 2
127234, 127231, 2
127234, 127233, 2
127234, 127238, 2
127234, 127232, 2
127229, 127231, 2
127229, 127228, 2
127229, 127222, 2
127229, 127230, 1
127216, 127215, 2
127216, 127217, 1
127233, 127231, 2
127233, 127234, 1
127233, 127238, 2
127233, 127230, 2
127233, 127232, 2
127205, 127203, 2
127205, 127204, 2
127205, 127206, 1
