217344, 217343, 2
217344, 217340, 2
217344, 217345, 2
217344, 217346, 2
217344, 217342, 2
217333, 217343, 2
217333, 217334, 1
217341, 217343, 2
217341, 217340, 2
217341, 217342, 1
217334, 217333, 2
217334, 217343, 2
217334, 217335, 1
217336, 217335, 2
217336, 217337, 1
217343, 217344, 2
217343, 217333, 2
217343, 217341, 2
217343, 217338, 2
217343, 217342, 2
217343, 217337, 2
217343, 217339, 2
217343, 217340, 2
217343, 217345, 2
217343, 217346, 2
217343, 217334, 2
217339, 217343, 2
217339, 217338, 2
217339, 217340, 1
217345, 217344, 2
217345, 217343, 2
217345, 217346, 1
217345, 217342, 2
217346, 217344, 2
217346, 217343, 2
217346, 217345, 2
217346, 217342, 2
217340, 217344, 2
217340, 217343, 2
217340, 217339, 2
217340, 217341, 1
217340, 217342, 2
217335, 217334, 2
217335, 217336, 1
217342, 217344, 3
217342, 217343, 2
217342, 217341, 2
217342, 217345, 1
217342, 217346, 2
217342, 217340, 2
217337, 217343, 2
217337, 217338, 1
217337, 217336, 2
217338, 217343, 2
217338, 217337, 2
217338, 217339, 1
