67137, 67138, 1
67137, 67135, 2
67137, 67136, 2
67152, 67151, 2
67152, 67153, 1
67149, 67150, 1
67149, 67148, 2
67139, 67138, 2
67139, 67140, 1
67136, 67137, 1
67136, 67135, 2
67134, 67133, 2
67134, 67132, 2
67134, 67135, 1
67134, 67131, 2
67141, 67142, 1
67141, 67144, 2
67141, 67140, 2
67141, 67143, 2
67146, 67147, 2
67146, 67144, 2
67146, 67148, 2
67146, 67145, 2
67142, 67141, 2
67142, 67143, 3
67142, 67144, 1
67147, 67146, 2
67147, 67144, 2
67147, 67148, 1
67147, 67145, 2
67154, 67155, 1
67154, 67153, 2
67130, 67131, 1
67150, 67149, 2
67150, 67151, 1
67150, 67148, 2
67131, 67132, 1
67131, 67130, 2
67131, 67133, 2
67131, 67134, 2
67138, 67137, 2
67138, 67139, 1
67144, 67145, 1
67144, 67141, 2
67144, 67146, 2
67144, 67142, 2
67144, 67147, 2
67144, 67143, 2
67153, 67152, 2
67153, 67154, 1
67132, 67133, 8
67132, 67131, 2
67132, 67135, 2
67132, 67134, 1
67156, 67155, 2
67156, 67157, 1
67155, 67157, 2
67155, 67154, 2
67155, 67156, 1
67133, 67132, 2
67133, 67131, 2
67133, 67135, 2
67133, 67134, 2
67143, 67141, 2
67143, 67142, 2
67143, 67144, 2
67145, 67146, 8
67145, 67147, 1
67145, 67148, 2
67145, 67144, 2
67135, 67137, 2
67135, 67132, 2
67135, 67136, 1
67135, 67133, 2
67135, 67134, 2
67148, 67149, 1
67148, 67146, 2
67148, 67147, 2
67148, 67150, 2
67148, 67145, 2
67151, 67152, 1
67151, 67150, 2
67157, 67155, 2
67157, 67156, 2
67140, 67141, 1
67140, 67139, 2
