340190, 340189, 2
340190, 340192, 2
340190, 340193, 2
340190, 340191, 2
340191, 340190, 2
340191, 340189, 2
340191, 340192, 1
340193, 340190, 2
340193, 340192, 2
340188, 340189, 1
340188, 340187, 2
340189, 340190, 3
340189, 340191, 1
340189, 340192, 2
340189, 340188, 2
340187, 340188, 1
340192, 340190, 2
340192, 340191, 2
340192, 340193, 3
340192, 340189, 2
