161659, 161656, 2
161659, 161657, 2
161659, 161655, 2
161659, 161660, 1
161659, 161658, 2
161659, 161654, 2
161650, 161652, 2
161650, 161649, 2
161650, 161651, 2
161650, 161648, 2
161650, 161656, 2
161657, 161659, 2
161657, 161655, 2
161657, 161654, 2
161657, 161658, 1
161657, 161656, 2
161651, 161650, 2
161651, 161652, 8
161651, 161656, 2
161651, 161653, 1
161651, 161649, 2
161651, 161648, 2
161653, 161652, 2
161653, 161656, 2
161653, 161651, 2
161653, 161655, 2
161653, 161654, 1
161648, 161651, 1
161648, 161650, 3
161648, 161649, 0
161652, 161650, 2
161652, 161651, 2
161652, 161653, 2
161652, 161656, 2
161654, 161659, 1
161654, 161657, 2
161654, 161658, 2
161654, 161655, 0
161654, 161653, 2
161654, 161656, 3
161655, 161659, 2
161655, 161656, 2
161655, 161657, 2
161655, 161658, 2
161655, 161660, 2
161655, 161653, 2
161655, 161654, 2
161660, 161659, 2
161660, 161655, 2
161658, 161659, 2
161658, 161655, 2
161658, 161654, 2
161658, 161657, 2
161658, 161656, 2
161649, 161651, 2
161649, 161650, 2
161649, 161648, 2
161656, 161659, 2
161656, 161650, 2
161656, 161657, 1
161656, 161658, 2
161656, 161655, 2
161656, 161653, 2
161656, 161651, 2
161656, 161652, 2
161656, 161654, 2
