340609, 340610, 3
340609, 340608, 2
340609, 340607, 2
340607, 340605, 2
340607, 340604, 2
340607, 340609, 2
340607, 340606, 2
340607, 340608, 1
340604, 340603, 2
340604, 340607, 2
340604, 340606, 2
340604, 340605, 1
340606, 340604, 2
340606, 340607, 2
340606, 340605, 2
340605, 340604, 2
340605, 340607, 1
340605, 340606, 3
340603, 340604, 1
340610, 340609, 2
340608, 340609, 1
340608, 340607, 2
