161786, 161787, 2
161786, 161788, 1
161796, 161798, 2
161796, 161797, 1
161796, 161795, 2
161796, 161787, 2
161794, 161792, 2
161794, 161795, 1
161794, 161793, 2
161794, 161787, 2
161787, 161786, 2
161787, 161796, 2
161787, 161794, 2
161787, 161788, 2
161787, 161798, 2
161787, 161792, 2
161787, 161789, 2
161787, 161790, 2
161787, 161797, 2
161787, 161793, 2
161787, 161791, 2
161798, 161796, 2
161798, 161797, 2
161798, 161787, 2
161788, 161786, 2
161788, 161789, 1
161788, 161787, 6
161793, 161792, 2
161793, 161794, 1
161793, 161787, 2
161789, 161790, 1
161789, 161788, 2
161789, 161787, 2
161790, 161789, 2
161790, 161791, 0
161790, 161792, 1
161790, 161787, 2
161792, 161791, 2
161792, 161794, 2
161792, 161790, 2
161792, 161793, 1
161792, 161787, 2
161797, 161798, 1
161797, 161796, 2
161797, 161787, 2
161795, 161796, 1
161795, 161794, 2
161791, 161792, 2
161791, 161790, 2
161791, 161787, 2
