185324, 185322, 2
185324, 185325, 1
185324, 185323, 2
185330, 185331, 1
185330, 185329, 2
185331, 185330, 2
185325, 185324, 2
185325, 185326, 1
185329, 185330, 1
185329, 185328, 2
185318, 185319, 1
185318, 185317, 2
185317, 185319, 2
185317, 185318, 1
185323, 185324, 1
185323, 185322, 2
185321, 185322, 2
185321, 185320, 2
185321, 185319, 2
185328, 185327, 2
185328, 185329, 1
185322, 185324, 2
185322, 185321, 2
185322, 185319, 2
185322, 185320, 2
185322, 185323, 1
185327, 185326, 2
185327, 185328, 1
185326, 185327, 1
185326, 185325, 2
185319, 185321, 2
185319, 185320, 1
185319, 185322, 2
185319, 185317, 2
185319, 185318, 2
185320, 185321, 3
185320, 185322, 1
185320, 185319, 2
