119450, 119454, 2
119450, 119453, 2
119450, 119449, 2
119450, 119452, 1
119450, 119445, 2
119450, 119448, 2
119450, 119451, 8
119450, 119447, 2
119454, 119450, 2
119454, 119446, 2
119454, 119455, 2
119454, 119457, 2
119454, 119452, 2
119454, 119445, 2
119454, 119453, 2
119449, 119450, 1
119449, 119446, 2
119449, 119445, 2
119449, 119448, 2
119449, 119447, 2
119451, 119450, 2
119451, 119453, 2
119451, 119452, 2
119444, 119446, 1
119444, 119445, 0
119455, 119456, 1
119455, 119454, 2
119455, 119453, 2
119455, 119452, 2
119448, 119450, 2
119448, 119446, 2
119448, 119449, 2
119448, 119447, 2
119446, 119454, 2
119446, 119445, 2
119446, 119449, 2
119446, 119447, 1
119446, 119444, 2
119446, 119448, 2
119453, 119450, 2
119453, 119454, 2
119453, 119455, 2
119453, 119452, 2
119453, 119451, 2
119457, 119456, 2
119457, 119454, 2
119447, 119450, 2
119447, 119446, 2
119447, 119449, 1
119447, 119448, 8
119456, 119455, 2
119456, 119457, 1
119452, 119450, 2
119452, 119454, 0
119452, 119453, 3
119452, 119451, 2
119452, 119445, 2
119452, 119455, 1
119445, 119450, 2
119445, 119454, 2
119445, 119449, 2
119445, 119452, 2
119445, 119446, 2
119445, 119444, 2
