216891, 216890, 2
216891, 216889, 2
216891, 216892, 1
216888, 216887, 2
216888, 216889, 2
216889, 216890, 1
216889, 216891, 2
216889, 216888, 2
216889, 216887, 2
216898, 216897, 2
216896, 216895, 2
216896, 216894, 2
216896, 216897, 1
216890, 216891, 1
216890, 216889, 2
216894, 216895, 8
216894, 216893, 2
216894, 216896, 1
216887, 216888, 8
216887, 216889, 1
216895, 216894, 2
216895, 216897, 2
216895, 216896, 2
216893, 216894, 1
216893, 216892, 2
216897, 216895, 2
216897, 216898, 1
216897, 216896, 2
216892, 216891, 2
216892, 216893, 1
