17154, 17153, 2
17154, 17152, 2
17154, 17151, 2
17145, 17144, 2
17145, 17146, 2
17145, 17143, 2
17148, 17149, 1
17148, 17147, 2
17152, 17154, 2
17152, 17151, 2
17152, 17146, 2
17152, 17153, 3
17142, 17140, 2
17142, 17147, 1
17142, 17141, 2
17142, 17146, 2
17142, 17143, 3
17141, 17140, 2
17141, 17142, 1
17151, 17154, 1
17151, 17150, 2
17151, 17149, 2
17151, 17152, 3
17140, 17142, 2
17140, 17141, 1
17147, 17148, 1
17147, 17144, 2
17147, 17149, 2
17147, 17142, 2
17147, 17143, 2
17147, 17146, 2
17144, 17145, 2
17144, 17147, 2
17144, 17143, 2
17144, 17146, 2
17150, 17149, 2
17150, 17151, 1
17149, 17150, 1
17149, 17147, 2
17149, 17148, 2
17149, 17151, 2
17143, 17147, 2
17143, 17145, 8
17143, 17142, 2
17143, 17146, 1
17143, 17144, 0
17146, 17145, 2
17146, 17147, 2
17146, 17152, 2
17146, 17142, 2
17146, 17143, 2
17146, 17144, 2
17153, 17154, 2
17153, 17152, 2
