221597, 221595, 2
221597, 221596, 2
221592, 221591, 2
221592, 221595, 2
221592, 221593, 1
221595, 221597, 2
221595, 221592, 2
221595, 221594, 2
221595, 221596, 1
221595, 221593, 2
221593, 221591, 2
221593, 221592, 2
221593, 221594, 3
221593, 221595, 1
221591, 221592, 1
221591, 221593, 2
221594, 221595, 2
221594, 221593, 2
221596, 221597, 1
221596, 221595, 2
