134726, 134728, 2
134726, 134724, 2
134726, 134725, 2
134726, 134723, 2
134726, 134727, 1
134724, 134726, 2
134724, 134725, 0
134724, 134728, 2
134724, 134727, 2
134724, 134723, 2
134724, 134722, 2
134724, 134721, 2
134725, 134726, 2
134725, 134728, 2
134725, 134724, 2
134725, 134723, 2
134725, 134727, 2
134723, 134726, 1
134723, 134724, 3
134723, 134725, 2
134723, 134728, 2
134723, 134722, 2
134723, 134727, 2
134727, 134726, 2
134727, 134723, 2
134727, 134724, 2
134727, 134725, 2
134727, 134728, 3
134728, 134726, 2
134728, 134724, 2
134728, 134725, 2
134728, 134723, 2
134728, 134727, 2
134722, 134724, 2
134722, 134723, 1
134722, 134721, 2
134721, 134724, 2
134721, 134722, 1
