132621, 132605, 2
132621, 132608, 2
132621, 132623, 2
132621, 132620, 2
132621, 132596, 2
132621, 132607, 2
132621, 132610, 2
132621, 132622, 1
132621, 132603, 2
132621, 132601, 2
132621, 132618, 2
132621, 132602, 2
132621, 132614, 2
132621, 132617, 2
132621, 132613, 2
132638, 132635, 2
132638, 132633, 2
132638, 132645, 2
132638, 132641, 1
132638, 132636, 2
132619, 132615, 2
132619, 132623, 2
132619, 132631, 2
132619, 132622, 2
132619, 132618, 2
132619, 132620, 2
132619, 132611, 2
132619, 132617, 2
132594, 132595, 3
132594, 132602, 2
132594, 132593, 2
132594, 132601, 2
132594, 132596, 1
132637, 132631, 2
132637, 132640, 2
132637, 132643, 2
132637, 132635, 2
132637, 132633, 2
132637, 132634, 2
132637, 132645, 2
132637, 132642, 2
132637, 132639, 0
132620, 132618, 2
132620, 132621, 0
132620, 132622, 2
132620, 132619, 2
132620, 132623, 1
132611, 132615, 2
132611, 132598, 2
132611, 132619, 2
132611, 132609, 2
132611, 132612, 2
132611, 132614, 2
132611, 132631, 2
132611, 132613, 2
132596, 132595, 2
132596, 132621, 2
132596, 132598, 1
132596, 132594, 2
132596, 132600, 2
132596, 132597, 3
132596, 132639, 2
132596, 132610, 2
132596, 132602, 2
132596, 132601, 2
132596, 132612, 2
132596, 132599, 2
132596, 132613, 2
132606, 132615, 2
132606, 132598, 2
132606, 132612, 2
132606, 132604, 2
132606, 132609, 1
132647, 132648, 1
132647, 132646, 2
132647, 132645, 2
132603, 132621, 2
132603, 132598, 2
132603, 132605, 1
132603, 132602, 2
132603, 132601, 2
132603, 132612, 2
132601, 132621, 2
132601, 132598, 2
132601, 132594, 2
132601, 132605, 2
132601, 132608, 2
132601, 132597, 2
132601, 132614, 2
132601, 132631, 2
132601, 132639, 2
132601, 132596, 2
132601, 132607, 2
132601, 132610, 2
132601, 132603, 2
132601, 132618, 2
132601, 132602, 0
132601, 132612, 2
132601, 132593, 2
132601, 132617, 2
132601, 132613, 2
132639, 132607, 2
132639, 132610, 2
132639, 132640, 1
132639, 132637, 2
132639, 132635, 2
132639, 132601, 2
132639, 132608, 2
132639, 132634, 2
132639, 132645, 2
132639, 132631, 2
132639, 132596, 2
132593, 132592, 2
132593, 132601, 2
132593, 132594, 1
132593, 132595, 2
132593, 132602, 2
132626, 132623, 2
132626, 132628, 2
132626, 132627, 2
132626, 132631, 2
132626, 132625, 2
132631, 132619, 2
132631, 132639, 2
132631, 132637, 2
132631, 132623, 2
132631, 132628, 2
132631, 132611, 2
132631, 132629, 2
132631, 132642, 2
132631, 132630, 2
132631, 132635, 2
132631, 132610, 2
132631, 132636, 2
132631, 132601, 2
132631, 132632, 1
132631, 132633, 2
132631, 132634, 2
132631, 132626, 2
132604, 132606, 1
132604, 132598, 2
132604, 132600, 2
132605, 132621, 2
132605, 132598, 2
132605, 132603, 2
132605, 132607, 1
132605, 132597, 2
132605, 132601, 2
132605, 132612, 2
132600, 132599, 2
132600, 132598, 2
132600, 132612, 2
132600, 132604, 1
132600, 132596, 2
132623, 132624, 0
132623, 132621, 2
132623, 132631, 2
132623, 132622, 2
132623, 132619, 2
132623, 132625, 2
132623, 132618, 2
132623, 132620, 2
132623, 132628, 2
132623, 132627, 1
132623, 132626, 2
132633, 132636, 2
132633, 132631, 2
132633, 132634, 0
132633, 132643, 2
132633, 132637, 2
132633, 132632, 2
132633, 132635, 1
132633, 132644, 2
132633, 132645, 2
132633, 132642, 2
132633, 132638, 2
132627, 132623, 2
132627, 132624, 2
132627, 132628, 1
132627, 132626, 2
132630, 132629, 2
132630, 132628, 2
132630, 132631, 2
132646, 132647, 1
132646, 132645, 2
132646, 132643, 2
132616, 132615, 2
132616, 132614, 2
132616, 132617, 1
132610, 132624, 2
132610, 132621, 2
132610, 132598, 2
132610, 132639, 2
132610, 132608, 2
132610, 132631, 2
132610, 132596, 2
132610, 132622, 2
132610, 132618, 2
132610, 132601, 2
132610, 132612, 2
132610, 132614, 2
132610, 132617, 2
132610, 132613, 2
132622, 132624, 2
132622, 132621, 2
132622, 132610, 2
132622, 132619, 2
132622, 132623, 2
132622, 132620, 2
132634, 132636, 2
132634, 132631, 2
132634, 132637, 2
132634, 132632, 2
132634, 132635, 2
132634, 132633, 2
132634, 132645, 2
132634, 132639, 2
132614, 132615, 3
132614, 132621, 2
132614, 132610, 2
132614, 132616, 1
132614, 132601, 2
132614, 132611, 2
132614, 132617, 2
132614, 132613, 2
132613, 132615, 2
132613, 132621, 2
132613, 132610, 2
132613, 132614, 1
132613, 132608, 2
132613, 132601, 2
132613, 132598, 2
132613, 132596, 2
132613, 132611, 2
132613, 132607, 2
132613, 132612, 2
132624, 132623, 2
132624, 132610, 2
132624, 132622, 2
132624, 132627, 2
132624, 132625, 1
132640, 132635, 2
132640, 132639, 2
132640, 132645, 2
132640, 132642, 1
132640, 132637, 2
132643, 132646, 2
132643, 132637, 2
132643, 132635, 2
132643, 132633, 2
132643, 132645, 2
132643, 132642, 2
132597, 132595, 2
132597, 132598, 2
132597, 132605, 2
132597, 132602, 2
132597, 132601, 2
132597, 132596, 2
132597, 132599, 2
132641, 132635, 2
132641, 132644, 1
132641, 132645, 2
132641, 132638, 2
132642, 132631, 2
132642, 132640, 2
132642, 132643, 1
132642, 132637, 2
132642, 132635, 2
132642, 132633, 2
132642, 132645, 2
132592, 132595, 2
132592, 132602, 2
132592, 132593, 1
132625, 132623, 2
132625, 132624, 2
132625, 132626, 1
132632, 132636, 2
132632, 132631, 2
132632, 132635, 2
132632, 132633, 1
132632, 132634, 2
132632, 132645, 2
132602, 132592, 2
132602, 132621, 2
132602, 132598, 2
132602, 132612, 2
132602, 132603, 1
132602, 132597, 2
132602, 132601, 2
132602, 132596, 2
132602, 132593, 2
132602, 132594, 2
132595, 132592, 2
132595, 132594, 2
132595, 132597, 2
132595, 132596, 2
132595, 132593, 2
132595, 132599, 2
132615, 132606, 2
132615, 132598, 2
132615, 132619, 2
132615, 132609, 2
132615, 132616, 2
132615, 132611, 2
132615, 132612, 2
132615, 132614, 2
132615, 132617, 2
132615, 132613, 2
132598, 132596, 2
132598, 132604, 2
132598, 132605, 2
132598, 132600, 2
132598, 132597, 2
132598, 132609, 2
132598, 132611, 2
132598, 132612, 1
132598, 132615, 2
132598, 132606, 2
132598, 132610, 2
132598, 132603, 2
132598, 132602, 2
132598, 132608, 2
132598, 132601, 6
132598, 132599, 4
132598, 132607, 2
132598, 132613, 2
132609, 132615, 2
132609, 132606, 2
132609, 132598, 2
132609, 132611, 1
132609, 132612, 2
132635, 132631, 2
132635, 132638, 2
132635, 132640, 2
132635, 132643, 2
132635, 132637, 6
132635, 132644, 2
132635, 132641, 2
132635, 132642, 2
132635, 132639, 2
132635, 132636, 4
132635, 132632, 2
132635, 132633, 2
132635, 132634, 2
132635, 132645, 1
132644, 132635, 2
132644, 132633, 2
132644, 132645, 2
132644, 132641, 2
132612, 132598, 2
132612, 132605, 2
132612, 132609, 2
132612, 132600, 2
132612, 132611, 2
132612, 132596, 2
132612, 132615, 2
132612, 132606, 2
132612, 132610, 2
132612, 132603, 2
132612, 132602, 2
132612, 132608, 2
132612, 132601, 2
132612, 132607, 2
132612, 132613, 1
132636, 132632, 2
132636, 132631, 2
132636, 132638, 1
132636, 132635, 2
132636, 132633, 2
132636, 132634, 2
132629, 132628, 2
132629, 132631, 2
132629, 132630, 1
132608, 132621, 2
132608, 132610, 1
132608, 132607, 2
132608, 132601, 2
132608, 132639, 2
132608, 132598, 2
132608, 132613, 2
132608, 132612, 2
132648, 132647, 2
132648, 132645, 2
132618, 132621, 2
132618, 132610, 2
132618, 132619, 3
132618, 132620, 1
132618, 132623, 2
132618, 132601, 2
132618, 132617, 2
132607, 132621, 2
132607, 132598, 2
132607, 132639, 2
132607, 132605, 2
132607, 132608, 1
132607, 132601, 2
132607, 132613, 2
132607, 132612, 2
132645, 132648, 2
132645, 132638, 2
132645, 132640, 2
132645, 132643, 2
132645, 132637, 2
132645, 132635, 2
132645, 132644, 2
132645, 132641, 2
132645, 132642, 2
132645, 132639, 2
132645, 132646, 0
132645, 132647, 2
132645, 132632, 2
132645, 132633, 2
132645, 132634, 2
132628, 132629, 4
132628, 132631, 1
132628, 132623, 2
132628, 132626, 2
132628, 132627, 2
132628, 132630, 2
132617, 132615, 2
132617, 132621, 2
132617, 132610, 2
132617, 132619, 2
132617, 132616, 2
132617, 132601, 2
132617, 132614, 2
132617, 132618, 1
132599, 132597, 2
132599, 132595, 2
132599, 132598, 2
132599, 132600, 1
132599, 132596, 2
