17271, 17273, 2
17271, 17272, 2
17271, 17268, 2
17271, 17267, 2
17271, 17269, 2
17271, 17270, 2
17266, 17261, 2
17266, 17262, 2
17266, 17263, 2
17266, 17268, 2
17266, 17265, 2
17266, 17269, 2
17266, 17270, 2
17266, 17267, 2
17264, 17265, 2
17264, 17263, 2
17264, 17262, 2
17264, 17267, 2
17268, 17271, 2
17268, 17266, 2
17268, 17269, 2
17268, 17267, 2
17265, 17261, 2
17265, 17267, 3
17265, 17263, 2
17265, 17264, 2
17265, 17262, 2
17265, 17266, 0
17265, 17269, 1
17265, 17270, 2
17273, 17271, 2
17273, 17272, 2
17273, 17270, 2
17269, 17271, 3
17269, 17267, 2
17269, 17266, 2
17269, 17272, 1
17269, 17268, 2
17269, 17265, 2
17269, 17270, 0
17269, 17262, 2
17267, 17271, 2
17267, 17266, 2
17267, 17263, 2
17267, 17264, 2
17267, 17268, 2
17267, 17265, 2
17267, 17269, 2
17267, 17270, 2
17261, 17265, 1
17261, 17263, 3
17261, 17262, 0
17261, 17260, 2
17261, 17266, 2
17260, 17261, 1
17260, 17263, 2
17260, 17262, 2
17263, 17261, 2
17263, 17260, 2
17263, 17265, 2
17263, 17264, 2
17263, 17262, 2
17263, 17266, 2
17263, 17267, 2
17272, 17271, 2
17272, 17273, 1
17272, 17269, 2
17272, 17270, 2
17262, 17261, 2
17262, 17260, 2
17262, 17264, 2
17262, 17263, 2
17262, 17265, 2
17262, 17266, 2
17262, 17269, 2
17270, 17271, 2
17270, 17273, 2
17270, 17272, 2
17270, 17265, 2
17270, 17266, 2
17270, 17269, 2
17270, 17267, 2
