222657, 222659, 2
222657, 222656, 2
222657, 222658, 1
222661, 222662, 1
222661, 222659, 2
222661, 222660, 2
222661, 222658, 2
222660, 222659, 2
222660, 222661, 2
222660, 222656, 2
222660, 222658, 2
222662, 222659, 2
222662, 222661, 2
222655, 222654, 2
222655, 222656, 1
222659, 222657, 2
222659, 222660, 2
222659, 222662, 2
222659, 222656, 2
222659, 222661, 2
222659, 222654, 2
222659, 222658, 2
222656, 222657, 1
222656, 222660, 2
222656, 222655, 2
222656, 222659, 2
222656, 222654, 2
222656, 222658, 2
222654, 222655, 1
222654, 222659, 2
222654, 222656, 2
222658, 222657, 2
222658, 222659, 2
222658, 222661, 1
222658, 222660, 3
222658, 222656, 2
