73192, 73190, 2
73192, 73193, 1
73192, 73191, 2
73192, 73194, 2
73196, 73195, 2
73196, 73197, 0
73193, 73192, 2
73193, 73194, 1
73191, 73192, 1
73191, 73190, 2
73190, 73192, 2
73190, 73191, 1
73194, 73192, 2
73194, 73193, 2
73194, 73195, 1
73197, 73196, 2
73195, 73196, 1
73195, 73194, 2
