63244, 63243, 2
63244, 63242, 2
63244, 63238, 2
63235, 63236, 1
63235, 63238, 2
63235, 63234, 2
63238, 63237, 2
63238, 63239, 2
63238, 63235, 2
63238, 63241, 2
63238, 63234, 2
63238, 63240, 2
63238, 63244, 2
63238, 63232, 2
63238, 63242, 2
63238, 63236, 2
63240, 63239, 2
63240, 63242, 1
63240, 63241, 3
63240, 63238, 2
63233, 63234, 1
63233, 63232, 2
63242, 63239, 2
63242, 63244, 2
63242, 63241, 2
63242, 63238, 2
63242, 63240, 2
63242, 63243, 1
63231, 63232, 1
63236, 63237, 1
63236, 63235, 2
63236, 63238, 4
63236, 63234, 2
63237, 63239, 1
63237, 63236, 2
63237, 63238, 2
63241, 63242, 2
63241, 63238, 2
63241, 63234, 2
63241, 63240, 2
63234, 63233, 2
63234, 63238, 2
63234, 63236, 2
63234, 63241, 2
63234, 63235, 1
63232, 63233, 1
63232, 63231, 2
63232, 63238, 2
63243, 63244, 1
63243, 63242, 2
63239, 63237, 2
63239, 63242, 2
63239, 63238, 2
63239, 63240, 1
