21574, 21573, 2
21574, 21575, 1
21574, 21572, 2
21574, 21571, 2
21574, 21576, 2
21571, 21576, 1
21571, 21574, 2
21571, 21572, 3
21571, 21573, 8
21576, 21574, 2
21576, 21571, 2
21576, 21573, 2
21576, 21575, 2
21576, 21572, 2
21576, 21577, 3
21573, 21576, 2
21573, 21575, 2
21573, 21572, 2
21573, 21571, 2
21573, 21574, 1
21575, 21573, 2
21575, 21574, 2
21575, 21577, 2
21575, 21576, 2
21572, 21573, 2
21572, 21574, 2
21572, 21571, 2
21572, 21576, 2
21577, 21576, 2
21577, 21575, 2
