64070, 64071, 3
64070, 64075, 2
64070, 64072, 1
64070, 64073, 2
64071, 64070, 2
64071, 64072, 2
64071, 64073, 2
64075, 64070, 2
64075, 64077, 2
64075, 64074, 2
64075, 64076, 1
64075, 64073, 2
64072, 64070, 2
64072, 64071, 2
64072, 64073, 1
64073, 64070, 2
64073, 64071, 2
64073, 64075, 1
64073, 64074, 3
64073, 64072, 2
64082, 64083, 1
64082, 64081, 2
64082, 64080, 2
64079, 64081, 2
64079, 64080, 1
64079, 64078, 2
64079, 64076, 2
64079, 64077, 2
64078, 64077, 2
64078, 64076, 2
64078, 64079, 1
64083, 64081, 2
64083, 64082, 2
64083, 64084, 1
64083, 64080, 2
64081, 64083, 2
64081, 64082, 2
64081, 64084, 2
64081, 64080, 2
64081, 64079, 2
64080, 64083, 2
64080, 64081, 3
64080, 64082, 1
64080, 64079, 2
64074, 64075, 2
64074, 64073, 2
64077, 64075, 2
64077, 64078, 2
64077, 64076, 2
64077, 64079, 2
64084, 64083, 2
64084, 64081, 2
64084, 64085, 1
64085, 64084, 2
64076, 64079, 2
64076, 64075, 2
64076, 64078, 1
64076, 64077, 3
