252901, 252900, 2
252901, 252902, 1
252901, 252898, 2
252891, 252894, 2
252891, 252895, 1
252891, 252893, 2
252891, 252892, 3
252895, 252891, 2
252895, 252898, 2
252895, 252900, 2
252895, 252897, 2
252895, 252894, 2
252895, 252899, 1
252895, 252896, 3
252895, 252892, 2
252905, 252904, 2
252905, 252903, 2
252894, 252891, 2
252894, 252895, 2
252894, 252893, 2
252896, 252897, 1
252896, 252895, 2
252902, 252901, 2
252902, 252898, 2
252902, 252903, 1
252898, 252901, 2
252898, 252895, 2
252898, 252897, 2
252898, 252900, 2
252898, 252899, 2
252898, 252902, 2
252897, 252895, 2
252897, 252896, 2
252897, 252898, 1
252900, 252901, 3
252900, 252895, 2
252900, 252899, 2
252900, 252898, 2
252899, 252900, 1
252899, 252895, 2
252899, 252898, 2
252893, 252894, 1
252893, 252892, 2
252893, 252891, 2
252892, 252891, 2
252892, 252895, 2
252892, 252893, 1
252904, 252905, 1
252904, 252903, 2
252903, 252902, 2
252903, 252905, 2
252903, 252904, 1
