166859, 166860, 1
166859, 166858, 2
166859, 166863, 2
166859, 166848, 2
166859, 166847, 2
166863, 166860, 2
166863, 166862, 2
166863, 166856, 2
166863, 166865, 2
166863, 166866, 1
166863, 166850, 2
166863, 166857, 2
166863, 166848, 2
166863, 166864, 2
166863, 166868, 2
166863, 166849, 2
166863, 166853, 2
166863, 166851, 2
166863, 166852, 2
166863, 166858, 2
166863, 166846, 2
166863, 166870, 2
166863, 166861, 2
166863, 166859, 2
166856, 166848, 2
166856, 166853, 2
166856, 166863, 2
166856, 166855, 2
166856, 166857, 2
166856, 166846, 2
166856, 166854, 2
166880, 166878, 2
166880, 166881, 1
166880, 166879, 2
166850, 166848, 2
166850, 166863, 2
166850, 166847, 2
166850, 166849, 2
166850, 166851, 1
166849, 166848, 4
166849, 166863, 2
166849, 166847, 2
166849, 166850, 1
166849, 166846, 2
166849, 166845, 2
166853, 166848, 2
166853, 166863, 2
166853, 166856, 2
166853, 166847, 2
166853, 166852, 2
166853, 166846, 2
166853, 166854, 1
166883, 166882, 2
166883, 166884, 1
166883, 166886, 2
166883, 166885, 2
166877, 166878, 1
166877, 166879, 2
166877, 166876, 2
166881, 166882, 1
166881, 166880, 2
166873, 166874, 8
166873, 166872, 2
166873, 166875, 1
166873, 166876, 2
166848, 166859, 2
166848, 166860, 2
166848, 166856, 2
166848, 166865, 2
166848, 166866, 2
166848, 166850, 2
166848, 166855, 2
166848, 166853, 2
166848, 166845, 2
166848, 166867, 2
166848, 166864, 2
166848, 166868, 2
166848, 166849, 2
166848, 166847, 2
166848, 166851, 2
166848, 166852, 2
166848, 166869, 2
166848, 166846, 2
166848, 166870, 2
166848, 166863, 2
166848, 166876, 2
166878, 166877, 2
166878, 166880, 1
166878, 166879, 3
166868, 166848, 2
166868, 166863, 2
166868, 166865, 2
166868, 166866, 2
166868, 166846, 2
166868, 166870, 1
166868, 166869, 2
166868, 166867, 2
166872, 166875, 2
166872, 166871, 2
166872, 166874, 2
166872, 166867, 2
166872, 166869, 2
166872, 166873, 1
166847, 166859, 2
166847, 166885, 2
166847, 166850, 2
166847, 166855, 2
166847, 166857, 2
166847, 166845, 2
166847, 166882, 2
166847, 166848, 2
166847, 166853, 2
166847, 166849, 2
166847, 166851, 2
166847, 166870, 2
166847, 166854, 2
166851, 166848, 2
166851, 166863, 2
166851, 166847, 2
166851, 166850, 2
166851, 166852, 1
166870, 166848, 2
166870, 166868, 2
166870, 166863, 2
166870, 166847, 2
166870, 166866, 2
166870, 166846, 2
166870, 166871, 1
166870, 166869, 4
166870, 166867, 2
166846, 166848, 2
166846, 166868, 2
166846, 166863, 2
166846, 166866, 2
166846, 166853, 2
166846, 166870, 2
166846, 166869, 2
166846, 166845, 2
166846, 166867, 2
166846, 166849, 2
166846, 166856, 2
166858, 166859, 1
166858, 166857, 2
166858, 166863, 2
166861, 166860, 2
166861, 166862, 1
166861, 166863, 2
166861, 166867, 2
166875, 166876, 1
166875, 166874, 2
166875, 166872, 2
166875, 166869, 2
166875, 166873, 2
166876, 166848, 2
166876, 166875, 2
166876, 166879, 2
166876, 166869, 2
166876, 166877, 1
166876, 166873, 2
166860, 166859, 2
166860, 166848, 2
166860, 166863, 2
166860, 166866, 2
166860, 166862, 2
166860, 166861, 1
166860, 166867, 2
166860, 166869, 2
166862, 166860, 2
166862, 166864, 1
166862, 166863, 2
166862, 166866, 2
166862, 166861, 2
166862, 166867, 2
166865, 166848, 2
166865, 166864, 2
166865, 166868, 1
166865, 166863, 2
166865, 166866, 2
166865, 166867, 2
166885, 166884, 2
166885, 166847, 2
166885, 166886, 3
166885, 166882, 2
166885, 166869, 2
166885, 166883, 2
166864, 166848, 2
166864, 166862, 2
166864, 166863, 4
166864, 166865, 1
166864, 166866, 2
166864, 166867, 2
166882, 166884, 2
166882, 166847, 2
166882, 166886, 2
166882, 166885, 2
166882, 166881, 2
166882, 166869, 2
166882, 166883, 1
166866, 166848, 2
166866, 166860, 2
166866, 166868, 2
166866, 166863, 2
166866, 166865, 2
166866, 166862, 2
166866, 166846, 2
166866, 166870, 2
166866, 166867, 1
166866, 166864, 2
166845, 166848, 2
166845, 166846, 4
166845, 166849, 1
166845, 166847, 6
166855, 166848, 2
166855, 166857, 1
166855, 166856, 3
166855, 166847, 2
166855, 166854, 2
166867, 166860, 2
166867, 166862, 2
166867, 166865, 2
166867, 166866, 2
166867, 166869, 2
166867, 166848, 2
166867, 166864, 2
166867, 166868, 2
166867, 166872, 2
166867, 166846, 2
166867, 166870, 2
166867, 166861, 2
166867, 166874, 2
166879, 166878, 2
166879, 166877, 2
166879, 166869, 2
166879, 166880, 2
166879, 166876, 2
166857, 166863, 2
166857, 166858, 1
166857, 166856, 2
166857, 166847, 2
166857, 166855, 2
166884, 166882, 2
166884, 166883, 2
166884, 166886, 2
166884, 166885, 1
166852, 166853, 1
166852, 166848, 2
166852, 166863, 2
166852, 166851, 2
166871, 166870, 2
166871, 166869, 2
166871, 166872, 1
166874, 166869, 2
166874, 166872, 2
166874, 166867, 2
166874, 166875, 2
166874, 166873, 2
166869, 166860, 2
166869, 166885, 2
166869, 166879, 2
166869, 166882, 2
166869, 166867, 2
166869, 166848, 2
166869, 166868, 2
166869, 166872, 2
166869, 166886, 2
166869, 166871, 2
166869, 166846, 2
166869, 166870, 2
166869, 166874, 2
166869, 166875, 2
166869, 166876, 2
166854, 166853, 2
166854, 166856, 2
166854, 166847, 2
166854, 166855, 1
166886, 166882, 2
166886, 166869, 2
166886, 166884, 2
166886, 166883, 2
166886, 166885, 2
