161318, 161317, 2
161318, 161319, 1
161315, 161314, 2
161315, 161316, 1
161319, 161318, 2
161319, 161320, 1
161324, 161323, 2
161323, 161322, 2
161323, 161324, 1
161314, 161315, 1
161314, 161316, 2
161321, 161320, 2
161321, 161322, 1
161320, 161321, 1
161320, 161319, 2
161322, 161321, 2
161322, 161323, 1
161317, 161318, 1
161317, 161316, 2
161316, 161314, 2
161316, 161315, 2
161316, 161317, 1
