128235, 128234, 2
128235, 128232, 2
128235, 128236, 1
128235, 128238, 2
128232, 128234, 2
128232, 128263, 2
128232, 128251, 2
128232, 128241, 2
128232, 128233, 2
128232, 128235, 2
128232, 128231, 2
128232, 128248, 2
128232, 128250, 2
128232, 128239, 2
128232, 128230, 2
128232, 128252, 2
128232, 128237, 2
128232, 128247, 2
128232, 128236, 2
128232, 128254, 2
128245, 128242, 2
128245, 128241, 2
128245, 128244, 2
128245, 128247, 2
128245, 128246, 1
128263, 128256, 2
128263, 128262, 2
128263, 128254, 2
128263, 128259, 2
128263, 128261, 2
128263, 128232, 2
128263, 128260, 2
128263, 128255, 2
128263, 128231, 2
128263, 128264, 1
128263, 128258, 2
128242, 128248, 2
128242, 128245, 2
128242, 128246, 2
128242, 128241, 2
128242, 128244, 2
128242, 128247, 1
128242, 128243, 0
128260, 128261, 1
128260, 128256, 2
128260, 128259, 2
128260, 128263, 2
128253, 128246, 2
128253, 128252, 2
128253, 128254, 1
128253, 128255, 2
128249, 128248, 2
128249, 128250, 1
128257, 128256, 2
128257, 128255, 2
128257, 128254, 2
128257, 128258, 1
128228, 128227, 2
128228, 128229, 3
128228, 128230, 1
128256, 128259, 2
128256, 128262, 2
128256, 128257, 0
128256, 128255, 2
128256, 128261, 2
128256, 128260, 2
128256, 128263, 1
128256, 128254, 2
128256, 128258, 2
128268, 128267, 2
128262, 128256, 2
128262, 128265, 2
128262, 128263, 2
128262, 128261, 2
128262, 128267, 2
128262, 128264, 2
128227, 128230, 2
128227, 128229, 2
128227, 128228, 1
128239, 128240, 1
128239, 128232, 2
128239, 128237, 2
128239, 128238, 2
128239, 128231, 2
128230, 128232, 2
128230, 128227, 2
128230, 128238, 2
128230, 128233, 1
128230, 128229, 2
128230, 128231, 3
128230, 128228, 2
128261, 128256, 2
128261, 128260, 2
128261, 128262, 1
128261, 128263, 2
128237, 128239, 1
128237, 128232, 2
128237, 128231, 2
128237, 128238, 0
128237, 128236, 2
128247, 128248, 1
128247, 128232, 2
128247, 128245, 2
128247, 128238, 2
128247, 128246, 2
128247, 128242, 2
128247, 128241, 2
128247, 128244, 2
128247, 128231, 2
128236, 128234, 2
128236, 128237, 1
128236, 128232, 2
128236, 128238, 2
128236, 128235, 2
128236, 128231, 2
128243, 128242, 2
128243, 128241, 2
128243, 128244, 1
128243, 128240, 2
128243, 128238, 2
128266, 128265, 2
128266, 128267, 1
128234, 128232, 2
128234, 128238, 2
128234, 128233, 2
128234, 128235, 1
128234, 128236, 2
128234, 128231, 2
128265, 128266, 1
128265, 128262, 2
128265, 128267, 2
128265, 128264, 2
128246, 128248, 2
128246, 128250, 2
128246, 128245, 2
128246, 128253, 2
128246, 128242, 2
128246, 128255, 2
128246, 128247, 2
128251, 128252, 1
128251, 128250, 2
128251, 128232, 2
128251, 128231, 2
128251, 128255, 2
128241, 128244, 2
128241, 128232, 2
128241, 128245, 2
128241, 128242, 1
128241, 128240, 2
128241, 128247, 2
128241, 128231, 2
128241, 128243, 2
128233, 128234, 1
128233, 128232, 2
128233, 128231, 2
128233, 128230, 2
128244, 128245, 1
128244, 128238, 2
128244, 128242, 2
128244, 128241, 2
128244, 128247, 2
128244, 128243, 2
128231, 128234, 2
128231, 128232, 3
128231, 128263, 2
128231, 128251, 2
128231, 128241, 2
128231, 128233, 2
128231, 128248, 2
128231, 128250, 2
128231, 128239, 2
128231, 128230, 2
128231, 128237, 2
128231, 128247, 2
128231, 128236, 2
128231, 128254, 2
128267, 128266, 2
128267, 128268, 1
128267, 128265, 2
128267, 128262, 2
128240, 128241, 1
128240, 128238, 2
128240, 128243, 2
128240, 128239, 2
128248, 128255, 2
128248, 128232, 2
128248, 128246, 2
128248, 128242, 2
128248, 128249, 1
128248, 128247, 2
128248, 128231, 2
128252, 128251, 2
128252, 128255, 2
128252, 128232, 2
128252, 128253, 1
128259, 128256, 2
128259, 128260, 1
128259, 128258, 2
128259, 128263, 2
128254, 128256, 1
128254, 128232, 2
128254, 128255, 0
128254, 128253, 2
128254, 128263, 2
128254, 128231, 2
128254, 128257, 2
128254, 128258, 2
128238, 128240, 2
128238, 128234, 2
128238, 128237, 2
128238, 128239, 2
128238, 128230, 2
128238, 128244, 2
128238, 128235, 2
128238, 128247, 2
128238, 128236, 2
128238, 128243, 2
128255, 128256, 2
128255, 128248, 2
128255, 128252, 2
128255, 128254, 2
128255, 128246, 2
128255, 128253, 2
128255, 128251, 2
128255, 128250, 2
128255, 128263, 2
128255, 128257, 2
128255, 128258, 2
128258, 128256, 2
128258, 128259, 1
128258, 128254, 2
128258, 128263, 2
128258, 128255, 2
128258, 128257, 2
128250, 128255, 2
128250, 128232, 2
128250, 128246, 2
128250, 128251, 1
128250, 128249, 2
128250, 128231, 2
128264, 128265, 1
128264, 128262, 2
128264, 128263, 2
128229, 128230, 2
128229, 128227, 2
128229, 128228, 2
