71866, 71867, 1
71866, 71865, 2
71868, 71867, 2
71864, 71865, 1
71864, 71862, 2
71864, 71863, 2
71862, 71864, 1
71862, 71865, 2
71862, 71863, 0
71865, 71864, 2
71865, 71866, 1
71865, 71862, 2
71865, 71863, 2
71863, 71864, 2
71863, 71862, 2
71863, 71865, 2
71867, 71868, 1
71867, 71866, 2
