21532, 21531, 2
21532, 21533, 1
21529, 21531, 2
21529, 21530, 1
21530, 21529, 2
21530, 21531, 1
21533, 21532, 2
21533, 21535, 1
21533, 21531, 2
21533, 21534, 3
21531, 21532, 1
21531, 21529, 2
21531, 21534, 2
21531, 21530, 2
21531, 21533, 2
21535, 21534, 2
21535, 21533, 2
21534, 21535, 2
21534, 21531, 2
21534, 21533, 2
