171468, 171469, 2
171468, 171466, 2
171468, 171467, 2
171465, 171464, 2
171465, 171466, 2
171465, 171463, 2
171467, 171468, 3
171467, 171469, 1
171467, 171466, 2
171466, 171468, 2
171466, 171463, 2
171466, 171464, 2
171466, 171465, 2
171466, 171467, 1
171469, 171468, 2
171469, 171467, 2
171464, 171463, 2
171464, 171466, 2
171464, 171465, 1
171463, 171464, 3
171463, 171466, 1
171463, 171465, 2
