341102, 341103, 1
341102, 341101, 2
341108, 341107, 2
341108, 341106, 2
341108, 341109, 1
341106, 341104, 2
341106, 341108, 1
341106, 341105, 2
341106, 341107, 3
341101, 341102, 1
341109, 341108, 2
341104, 341103, 2
341104, 341105, 1
341104, 341106, 2
341103, 341102, 2
341103, 341104, 1
341105, 341104, 2
341105, 341106, 1
341107, 341108, 2
341107, 341106, 2
