251721, 251719, 2
251721, 251720, 2
251721, 251718, 2
251721, 251722, 1
251716, 251718, 1
251716, 251717, 6
251724, 251723, 2
251724, 251725, 1
251717, 251719, 2
251717, 251720, 2
251717, 251718, 2
251717, 251716, 2
251719, 251720, 0
251719, 251721, 1
251719, 251718, 2
251719, 251717, 2
251720, 251719, 2
251720, 251721, 2
251720, 251717, 2
251718, 251719, 1
251718, 251721, 2
251718, 251716, 2
251718, 251717, 2
251722, 251721, 2
251722, 251723, 1
251723, 251722, 2
251723, 251725, 2
251723, 251724, 1
251725, 251723, 2
251725, 251724, 2
