295204, 295203, 2
295204, 295208, 2
295204, 295200, 2
295204, 295201, 2
295204, 295205, 2
295204, 295199, 2
295208, 295204, 2
295208, 295207, 2
295208, 295206, 2
295196, 295197, 1
295201, 295200, 2
295201, 295204, 2
295201, 295202, 1
295201, 295203, 2
295207, 295202, 2
295207, 295197, 2
295207, 295208, 2
295207, 295200, 2
295207, 295205, 2
295207, 295206, 2
295199, 295200, 2
295199, 295198, 2
295199, 295204, 2
295199, 295203, 2
295199, 295197, 2
295198, 295200, 1
295198, 295197, 2
295198, 295199, 3
295203, 295204, 3
295203, 295200, 2
295203, 295201, 2
295203, 295205, 2
295203, 295202, 2
295203, 295199, 2
295197, 295196, 2
295197, 295198, 1
295197, 295207, 2
295197, 295199, 2
295197, 295200, 2
295200, 295198, 2
295200, 295204, 2
295200, 295203, 2
295200, 295197, 2
295200, 295201, 1
295200, 295207, 2
295200, 295199, 2
295205, 295204, 2
295205, 295202, 2
295205, 295206, 1
295205, 295203, 2
295205, 295207, 2
295206, 295207, 6
295206, 295205, 2
295206, 295208, 1
295202, 295207, 2
295202, 295201, 2
295202, 295205, 1
295202, 295203, 3
