22511, 22510, 2
22511, 22509, 2
22511, 22512, 0
22512, 22511, 2
22509, 22511, 2
22509, 22510, 2
22509, 22507, 2
22509, 22508, 2
22506, 22505, 2
22506, 22507, 2
22507, 22505, 2
22507, 22509, 2
22507, 22506, 2
22507, 22508, 1
22505, 22506, 3
22505, 22507, 1
22510, 22511, 1
22510, 22509, 2
22510, 22508, 2
22508, 22510, 1
22508, 22509, 8
22508, 22507, 2
