20690, 20688, 2
20690, 20691, 1
20690, 20689, 2
20688, 20690, 1
20688, 20691, 2
20688, 20692, 2
20688, 20689, 3
20691, 20690, 2
20691, 20688, 2
20691, 20692, 0
20692, 20688, 2
20692, 20691, 2
20689, 20690, 2
20689, 20688, 2
