66440, 66441, 2
66440, 66437, 2
66440, 66435, 2
66440, 66436, 2
66440, 66439, 2
66440, 66438, 2
66437, 66440, 2
66437, 66432, 2
66437, 66441, 2
66437, 66435, 2
66437, 66436, 2
66437, 66439, 2
66437, 66438, 1
66435, 66441, 2
66435, 66440, 2
66435, 66434, 2
66435, 66431, 2
66435, 66432, 2
66435, 66437, 2
66435, 66436, 2
66435, 66439, 1
66435, 66433, 4
66435, 66438, 2
66444, 66438, 2
66444, 66442, 2
66444, 66443, 2
66444, 66441, 2
66444, 66445, 1
66433, 66434, 1
66433, 66431, 2
66433, 66432, 2
66433, 66428, 2
66433, 66435, 2
66433, 66426, 2
66433, 66425, 2
66433, 66430, 2
66433, 66429, 2
66447, 66446, 2
66447, 66445, 2
66441, 66435, 2
66441, 66440, 2
66441, 66437, 2
66441, 66444, 2
66441, 66436, 2
66441, 66439, 2
66441, 66443, 2
66441, 66438, 2
66441, 66442, 1
66446, 66447, 0
66446, 66445, 2
66430, 66431, 3
66430, 66429, 2
66430, 66432, 1
66430, 66433, 2
66430, 66428, 2
66431, 66432, 2
66431, 66428, 2
66431, 66435, 2
66431, 66436, 2
66431, 66430, 2
66431, 66433, 2
66431, 66438, 2
66432, 66434, 2
66432, 66431, 2
66432, 66437, 2
66432, 66435, 1
66432, 66436, 2
66432, 66430, 2
66432, 66433, 2
66432, 66438, 2
66428, 66431, 2
66428, 66430, 2
66428, 66433, 2
66428, 66427, 2
66428, 66429, 1
66425, 66426, 2
66425, 66433, 2
66425, 66424, 2
66445, 66446, 1
66445, 66447, 2
66445, 66444, 2
66445, 66443, 2
66445, 66438, 2
66445, 66442, 2
66442, 66443, 8
66442, 66445, 2
66442, 66441, 2
66442, 66444, 1
66434, 66436, 1
66434, 66433, 2
66434, 66432, 2
66434, 66435, 2
66429, 66430, 1
66429, 66433, 2
66429, 66428, 2
66424, 66426, 1
66424, 66425, 3
66436, 66440, 2
66436, 66434, 2
66436, 66431, 2
66436, 66432, 2
66436, 66437, 1
66436, 66435, 2
66436, 66439, 2
66436, 66438, 2
66436, 66441, 2
66426, 66425, 2
66426, 66433, 2
66426, 66427, 1
66426, 66424, 2
66439, 66440, 3
66439, 66441, 1
66439, 66437, 2
66439, 66435, 2
66439, 66436, 2
66439, 66438, 2
66443, 66438, 2
66443, 66442, 2
66443, 66445, 2
66443, 66441, 2
66443, 66444, 2
66438, 66440, 2
66438, 66431, 2
66438, 66432, 2
66438, 66437, 2
66438, 66444, 2
66438, 66436, 2
66438, 66439, 2
66438, 66441, 2
66438, 66443, 2
66438, 66435, 2
66438, 66445, 2
66427, 66426, 2
66427, 66428, 1
