340732, 340733, 2
340732, 340731, 2
340736, 340735, 2
340736, 340737, 1
340734, 340733, 2
340734, 340735, 1
340733, 340732, 2
340733, 340734, 1
340733, 340731, 2
340735, 340736, 1
340735, 340734, 2
340737, 340736, 2
340731, 340732, 3
340731, 340733, 1
