218934, 218930, 2
218934, 218933, 2
218934, 218932, 2
218934, 218935, 1
218932, 218934, 2
218932, 218930, 2
218932, 218933, 1
218932, 218931, 2
218932, 218929, 2
218948, 218945, 2
218948, 218946, 2
218948, 218949, 2
218948, 218944, 2
218948, 218947, 2
218946, 218945, 2
218946, 218947, 2
218946, 218948, 3
218946, 218949, 1
218931, 218930, 2
218931, 218932, 1
218931, 218929, 2
218940, 218939, 2
218940, 218943, 2
218940, 218942, 1
218940, 218941, 8
218930, 218934, 2
218930, 218931, 2
218930, 218932, 2
218930, 218929, 2
218930, 218933, 2
218930, 218935, 2
218933, 218934, 1
218933, 218930, 2
218933, 218932, 2
218935, 218934, 2
218935, 218929, 2
218935, 218930, 2
218935, 218936, 1
218935, 218947, 2
218935, 218938, 2
218935, 218937, 2
218937, 218935, 2
218937, 218938, 1
218937, 218936, 2
218945, 218948, 2
218945, 218946, 1
218945, 218944, 2
218945, 218947, 2
218942, 218939, 2
218942, 218943, 3
218942, 218944, 1
218942, 218941, 2
218942, 218940, 2
218941, 218943, 2
218941, 218942, 2
218941, 218939, 2
218941, 218940, 2
218929, 218930, 3
218929, 218932, 2
218929, 218931, 1
218929, 218935, 2
218939, 218942, 2
218939, 218941, 2
218939, 218940, 1
218939, 218943, 2
218939, 218947, 2
218939, 218938, 2
218944, 218945, 1
218944, 218943, 2
218944, 218947, 2
218944, 218948, 2
218944, 218942, 2
218943, 218939, 2
218943, 218944, 2
218943, 218940, 2
218943, 218941, 2
218943, 218942, 2
218949, 218946, 2
218949, 218948, 2
218949, 218947, 2
218947, 218945, 2
218947, 218946, 2
218947, 218939, 2
218947, 218935, 2
218947, 218944, 2
218947, 218948, 2
218947, 218949, 2
218938, 218937, 2
218938, 218939, 1
218938, 218935, 2
218936, 218937, 1
218936, 218935, 2
