185236, 185235, 2
185236, 185234, 2
185236, 185237, 2
185231, 185233, 2
185231, 185232, 0
185231, 185234, 1
185239, 185238, 2
185239, 185240, 0
185239, 185241, 2
185239, 185237, 2
185239, 185242, 1
185237, 185238, 1
185237, 185236, 2
185237, 185234, 2
185237, 185239, 2
185237, 185235, 2
185235, 185236, 3
185235, 185234, 2
185235, 185237, 1
185233, 185231, 2
185233, 185234, 2
185233, 185232, 2
185232, 185233, 3
185232, 185231, 2
185232, 185234, 2
185243, 185244, 1
185243, 185242, 2
185244, 185242, 2
185244, 185243, 2
185241, 185239, 2
185241, 185240, 2
185241, 185242, 2
185234, 185236, 2
185234, 185231, 2
185234, 185237, 2
185234, 185235, 1
185234, 185233, 2
185234, 185232, 2
185240, 185241, 3
185240, 185239, 2
185240, 185242, 2
185238, 185239, 1
185238, 185237, 2
185242, 185244, 2
185242, 185241, 2
185242, 185239, 2
185242, 185240, 2
185242, 185243, 1
