127143, 127137, 2
127143, 127138, 2
127143, 127142, 2
127143, 127140, 2
127143, 127144, 1
127143, 127141, 2
127143, 127139, 2
127148, 127149, 2
127148, 127138, 2
127148, 127144, 2
127148, 127147, 2
127148, 127145, 2
127148, 127141, 2
127148, 127146, 2
127149, 127148, 2
127149, 127140, 2
127149, 127141, 2
127149, 127150, 1
127149, 127147, 2
127154, 127156, 2
127154, 127153, 2
127154, 127157, 2
127154, 127141, 2
127154, 127155, 2
127125, 127126, 1
127125, 127138, 2
127125, 127140, 2
127125, 127124, 2
127138, 127148, 2
127138, 127137, 2
127138, 127127, 2
127138, 127132, 2
127138, 127143, 2
127138, 127125, 2
127138, 127136, 2
127138, 127135, 2
127138, 127141, 2
127138, 127139, 1
127138, 127145, 2
127138, 127129, 2
127138, 127126, 2
127138, 127144, 2
127138, 127133, 2
127138, 127134, 2
127138, 127131, 2
127141, 127148, 2
127141, 127149, 2
127141, 127144, 2
127141, 127143, 2
127141, 127153, 2
127141, 127135, 2
127141, 127138, 2
127141, 127137, 2
127141, 127139, 2
127141, 127157, 2
127141, 127151, 2
127141, 127154, 2
127141, 127142, 2
127141, 127145, 2
127150, 127151, 1
127150, 127149, 2
127158, 127156, 2
127158, 127159, 1
127158, 127140, 2
127158, 127157, 2
127156, 127154, 2
127156, 127155, 2
127156, 127153, 2
127156, 127140, 2
127156, 127158, 1
127156, 127157, 3
127130, 127129, 2
127130, 127131, 2
127139, 127137, 2
127139, 127142, 2
127139, 127143, 2
127139, 127136, 2
127139, 127135, 2
127139, 127138, 2
127139, 127141, 1
127126, 127125, 2
127126, 127140, 2
127126, 127138, 2
127126, 127127, 1
127145, 127148, 2
127145, 127144, 2
127145, 127147, 2
127145, 127138, 2
127145, 127141, 2
127145, 127146, 2
127132, 127140, 2
127132, 127138, 2
127132, 127133, 1
127132, 127131, 2
127161, 127140, 2
127161, 127160, 2
127137, 127142, 1
127137, 127143, 2
127137, 127136, 2
127137, 127140, 6
127137, 127138, 4
127137, 127141, 2
127137, 127135, 2
127137, 127139, 2
127127, 127126, 2
127127, 127138, 2
127127, 127140, 2
127127, 127128, 1
127160, 127140, 2
127160, 127159, 2
127160, 127161, 1
127128, 127129, 1
127128, 127127, 2
127152, 127153, 2
127152, 127151, 2
127153, 127156, 2
127153, 127154, 3
127153, 127152, 2
127153, 127151, 2
127153, 127140, 2
127153, 127155, 1
127153, 127141, 2
127153, 127157, 2
127147, 127148, 3
127147, 127149, 1
127147, 127144, 2
127147, 127140, 2
127147, 127145, 2
127147, 127146, 2
127134, 127140, 2
127134, 127138, 2
127134, 127133, 2
127134, 127135, 1
127155, 127156, 1
127155, 127154, 2
127155, 127153, 2
127155, 127157, 2
127124, 127125, 1
127124, 127140, 2
127146, 127148, 2
127146, 127145, 2
127146, 127147, 1
127146, 127144, 2
127151, 127153, 1
127151, 127152, 8
127151, 127140, 2
127151, 127141, 2
127151, 127150, 2
127159, 127160, 1
127159, 127158, 2
127133, 127134, 1
127133, 127138, 2
127133, 127132, 2
127142, 127140, 2
127142, 127141, 2
127142, 127137, 2
127142, 127139, 2
127142, 127143, 1
127129, 127140, 2
127129, 127138, 2
127129, 127130, 8
127129, 127128, 2
127129, 127131, 1
127140, 127149, 2
127140, 127143, 2
127140, 127125, 2
127140, 127158, 2
127140, 127156, 2
127140, 127126, 2
127140, 127132, 2
127140, 127137, 2
127140, 127127, 2
127140, 127160, 2
127140, 127153, 2
127140, 127147, 2
127140, 127135, 2
127140, 127124, 2
127140, 127151, 2
127140, 127142, 2
127140, 127129, 2
127140, 127161, 2
127140, 127144, 2
127140, 127136, 2
127140, 127134, 2
127140, 127131, 2
127144, 127148, 2
127144, 127138, 2
127144, 127143, 2
127144, 127147, 2
127144, 127140, 2
127144, 127145, 3
127144, 127141, 2
127144, 127146, 1
127136, 127137, 1
127136, 127138, 2
127136, 127135, 2
127136, 127139, 2
127136, 127140, 2
127135, 127137, 2
127135, 127136, 1
127135, 127140, 2
127135, 127138, 2
127135, 127141, 2
127135, 127134, 2
127135, 127139, 2
127157, 127156, 2
127157, 127154, 2
127157, 127155, 2
127157, 127153, 2
127157, 127141, 2
127157, 127158, 2
127131, 127129, 2
127131, 127140, 2
127131, 127138, 2
127131, 127132, 1
127131, 127130, 2
