68374, 68376, 2
68374, 68375, 1
68374, 68373, 2
68389, 68392, 2
68389, 68391, 1
68389, 68388, 2
68389, 68390, 8
68365, 68367, 2
68365, 68370, 2
68365, 68371, 1
68365, 68369, 2
68365, 68372, 2
68365, 68366, 3
68391, 68392, 1
68391, 68389, 2
68391, 68388, 2
68391, 68390, 2
68394, 68392, 2
68394, 68396, 2
68394, 68395, 1
68394, 68393, 2
68372, 68376, 2
68372, 68367, 2
68372, 68370, 2
68372, 68371, 2
68372, 68365, 2
68372, 68373, 1
68373, 68376, 2
68373, 68374, 1
68373, 68372, 2
68373, 68375, 2
68382, 68380, 2
68382, 68383, 2
68382, 68381, 2
68390, 68392, 2
68390, 68388, 2
68390, 68389, 2
68390, 68391, 2
68381, 68380, 2
68381, 68383, 1
68381, 68382, 8
68386, 68385, 2
68386, 68388, 1
68386, 68387, 3
68386, 68384, 2
68377, 68376, 2
68377, 68379, 2
68377, 68378, 1
68377, 68375, 2
68384, 68385, 1
68384, 68386, 2
68384, 68383, 2
68383, 68381, 2
68383, 68380, 2
68383, 68382, 2
68383, 68384, 1
68398, 68396, 2
68398, 68393, 2
68398, 68397, 2
68385, 68386, 1
68385, 68384, 2
68367, 68370, 2
68367, 68371, 2
68367, 68365, 2
68367, 68369, 1
68367, 68372, 2
68367, 68366, 2
68367, 68368, 8
68395, 68396, 1
68395, 68394, 2
68395, 68393, 2
68371, 68365, 2
68371, 68367, 2
68371, 68370, 2
68371, 68372, 1
68371, 68366, 2
68369, 68365, 2
68369, 68367, 2
68369, 68370, 1
68369, 68366, 2
68369, 68368, 2
68375, 68376, 3
68375, 68374, 2
68375, 68377, 1
68375, 68378, 2
68375, 68373, 2
68380, 68379, 2
68380, 68381, 1
68380, 68383, 2
68380, 68378, 2
68380, 68382, 2
68388, 68386, 2
68388, 68389, 1
68388, 68391, 2
68388, 68387, 2
68388, 68390, 2
68387, 68386, 2
68387, 68388, 2
68366, 68365, 2
68366, 68367, 1
68366, 68369, 2
68366, 68371, 2
68366, 68368, 2
68368, 68367, 2
68368, 68370, 2
68368, 68366, 2
68368, 68369, 2
68376, 68374, 2
68376, 68375, 2
68376, 68379, 2
68376, 68377, 2
68376, 68378, 2
68376, 68373, 2
68376, 68372, 2
68392, 68389, 2
68392, 68393, 8
68392, 68394, 1
68392, 68391, 2
68392, 68390, 2
68392, 68397, 2
68370, 68367, 2
68370, 68371, 2
68370, 68365, 2
68370, 68369, 2
68370, 68372, 2
68370, 68368, 2
68379, 68376, 2
68379, 68377, 2
68379, 68380, 2
68379, 68378, 2
68396, 68395, 2
68396, 68394, 2
68396, 68393, 2
68396, 68397, 3
68396, 68398, 1
68378, 68376, 2
68378, 68379, 3
68378, 68377, 2
68378, 68380, 1
68378, 68375, 2
68397, 68392, 2
68397, 68396, 2
68397, 68393, 2
68397, 68398, 2
68393, 68395, 2
68393, 68398, 2
68393, 68392, 2
68393, 68396, 2
68393, 68394, 2
68393, 68397, 2
