121994, 122004, 2
121994, 122003, 2
121994, 121996, 2
121994, 121998, 2
121994, 121999, 2
121994, 121997, 2
121994, 121995, 1
121994, 122002, 2
122005, 122004, 2
122005, 122007, 1
122005, 122000, 2
122005, 122002, 2
122005, 122006, 3
122005, 121997, 2
122010, 122012, 2
122010, 122009, 2
122010, 122008, 2
122010, 122007, 2
122010, 122011, 2
122003, 122004, 1
122003, 121994, 2
122003, 122007, 2
122003, 121998, 2
122003, 122000, 2
122003, 121999, 2
122003, 121995, 2
122003, 122002, 2
121998, 121994, 2
121998, 122003, 2
121998, 121997, 2
121998, 121995, 2
121998, 122000, 1
122000, 122004, 2
122000, 122005, 2
122000, 122007, 2
122000, 122003, 2
122000, 121998, 2
122000, 121997, 2
122000, 121995, 2
122000, 122006, 2
122008, 122010, 2
122008, 122007, 2
122008, 122009, 1
121997, 121994, 2
121997, 122004, 2
121997, 122007, 2
121997, 121998, 0
121997, 122000, 2
121997, 122005, 2
121997, 121995, 2
121997, 122006, 2
122006, 122005, 2
122006, 122004, 2
122006, 122007, 2
122006, 122000, 2
122006, 121997, 2
122006, 121995, 2
122004, 122005, 1
122004, 121994, 2
122004, 122007, 2
122004, 122003, 2
122004, 122000, 2
122004, 121999, 2
122004, 121997, 2
122004, 122006, 2
122004, 121995, 2
122004, 122002, 2
122007, 122005, 2
122007, 122010, 2
122007, 122003, 2
122007, 122000, 2
122007, 122008, 1
122007, 121997, 2
122007, 122006, 2
122007, 122004, 2
122007, 122011, 2
122007, 122009, 2
122007, 121995, 2
122007, 122002, 2
121996, 121994, 2
121996, 121995, 2
121996, 121999, 1
122001, 121995, 2
122001, 121999, 2
122001, 122002, 1
122011, 122012, 0
122011, 122010, 2
122011, 122007, 2
122011, 122009, 2
121999, 121994, 2
121999, 122004, 2
121999, 121996, 2
121999, 122001, 1
121999, 122002, 2
121999, 121995, 2
121999, 122003, 2
122012, 122010, 2
122012, 122009, 2
122012, 122011, 2
122009, 122012, 2
122009, 122010, 0
122009, 122008, 2
122009, 122007, 2
122009, 122011, 1
121995, 121994, 2
121995, 122003, 1
121995, 121998, 2
121995, 122000, 2
121995, 121997, 4
121995, 122006, 2
121995, 122004, 2
121995, 122007, 2
121995, 121996, 6
121995, 122001, 2
121995, 121999, 2
121995, 122002, 2
122002, 121994, 2
122002, 122004, 2
122002, 122007, 2
122002, 122003, 2
122002, 122001, 2
122002, 121999, 2
122002, 122005, 2
122002, 121995, 2
