61736, 61737, 1
61739, 61740, 2
61739, 61738, 2
61739, 61737, 2
61739, 61742, 2
61738, 61741, 2
61738, 61739, 8
61738, 61740, 1
61738, 61737, 2
61738, 61742, 2
61742, 61739, 2
61742, 61738, 2
61742, 61741, 2
61742, 61744, 2
61742, 61743, 1
61742, 61740, 2
61741, 61740, 2
61741, 61738, 2
61741, 61737, 2
61741, 61742, 2
61744, 61743, 2
61744, 61742, 2
61740, 61741, 6
61740, 61739, 2
61740, 61738, 2
61740, 61737, 2
61740, 61742, 1
61737, 61736, 2
61737, 61741, 2
61737, 61739, 2
61737, 61738, 1
61737, 61740, 2
61743, 61744, 1
61743, 61742, 2
