297299, 297300, 1
297316, 297307, 2
297316, 297319, 2
297316, 297318, 2
297316, 297312, 2
297316, 297314, 2
297316, 297313, 2
297316, 297315, 6
297316, 297311, 2
297316, 297317, 1
297313, 297316, 2
297313, 297305, 2
297313, 297312, 2
297313, 297314, 2
297313, 297310, 2
297313, 297309, 2
297313, 297319, 2
297313, 297311, 2
297302, 297304, 1
297302, 297301, 2
297302, 297303, 2
297302, 297305, 2
297300, 297299, 2
297300, 297301, 1
297315, 297308, 2
297315, 297319, 2
297315, 297307, 2
297315, 297317, 2
297315, 297312, 2
297315, 297314, 2
297315, 297304, 2
297315, 297309, 2
297315, 297318, 2
297315, 297316, 2
297315, 297311, 2
297311, 297316, 2
297311, 297313, 2
297311, 297307, 2
297311, 297308, 2
297311, 297319, 2
297311, 297303, 2
297311, 297312, 2
297311, 297314, 2
297311, 297310, 2
297311, 297304, 2
297311, 297309, 2
297311, 297315, 2
297311, 297318, 2
297307, 297316, 2
297307, 297311, 2
297307, 297306, 2
297307, 297308, 2
297307, 297319, 2
297307, 297303, 2
297307, 297312, 2
297307, 297310, 2
297307, 297304, 2
297307, 297301, 2
297307, 297309, 2
297307, 297315, 2
297306, 297308, 1
297306, 297304, 2
297306, 297303, 2
297306, 297305, 2
297306, 297307, 2
297308, 297305, 2
297308, 297306, 2
297308, 297303, 2
297308, 297304, 2
297308, 297309, 1
297308, 297307, 6
297308, 297311, 2
297308, 297315, 2
297319, 297311, 2
297319, 297316, 2
297319, 297317, 2
297319, 297313, 2
297319, 297307, 2
297319, 297318, 6
297319, 297315, 2
297303, 297308, 2
297303, 297312, 2
297303, 297302, 2
297303, 297307, 2
297303, 297304, 2
297303, 297301, 2
297303, 297309, 2
297303, 297311, 2
297303, 297305, 2
297303, 297306, 2
297312, 297307, 2
297312, 297316, 2
297312, 297309, 2
297312, 297311, 6
297312, 297314, 1
297312, 297310, 2
297312, 297313, 3
297312, 297315, 2
297312, 297318, 2
297312, 297303, 2
297314, 297316, 1
297314, 297313, 2
297314, 297312, 2
297314, 297311, 2
297314, 297315, 2
297310, 297313, 2
297310, 297309, 2
297310, 297312, 1
297310, 297311, 2
297310, 297307, 2
297304, 297308, 2
297304, 297305, 3
297304, 297302, 2
297304, 297307, 2
297304, 297306, 1
297304, 297315, 2
297304, 297311, 2
297304, 297303, 6
297301, 297300, 2
297301, 297307, 2
297301, 297302, 1
297301, 297303, 2
297309, 297308, 2
297309, 297303, 2
297309, 297312, 2
297309, 297310, 1
297309, 297311, 2
297309, 297313, 2
297309, 297307, 2
297309, 297305, 2
297309, 297315, 2
297305, 297308, 2
297305, 297313, 2
297305, 297303, 2
297305, 297302, 2
297305, 297304, 2
297305, 297309, 2
297305, 297306, 2
297318, 297316, 2
297318, 297317, 2
297318, 297312, 2
297318, 297319, 2
297318, 297311, 2
297318, 297315, 2
297317, 297316, 2
297317, 297319, 1
297317, 297318, 2
297317, 297315, 2
