67079, 67081, 2
67079, 67080, 2
67079, 67078, 2
67096, 67095, 2
67096, 67097, 8
67096, 67092, 2
67096, 67099, 2
67096, 67098, 1
67078, 67079, 8
67078, 67081, 2
67078, 67080, 1
67078, 67077, 2
67073, 67074, 2
67073, 67081, 2
67073, 67072, 2
67095, 67081, 2
67095, 67092, 2
67095, 67096, 1
67095, 67094, 2
67095, 67099, 2
67083, 67081, 2
67083, 67092, 2
67083, 67084, 1
67083, 67082, 2
67089, 67092, 2
67089, 67088, 2
67089, 67091, 1
67089, 67081, 2
67089, 67099, 2
67089, 67090, 8
67084, 67081, 2
67084, 67083, 2
67084, 67092, 2
67084, 67099, 2
67084, 67085, 1
67080, 67079, 2
67080, 67081, 6
67080, 67092, 2
67080, 67082, 1
67080, 67078, 2
67074, 67081, 2
67074, 67075, 1
67074, 67072, 2
67074, 67073, 2
67094, 67095, 1
67094, 67092, 2
67094, 67093, 2
67090, 67092, 2
67090, 67091, 2
67090, 67089, 2
67097, 67096, 2
67097, 67099, 2
67097, 67098, 2
67087, 67081, 2
67087, 67086, 2
67087, 67088, 1
67087, 67085, 2
67088, 67092, 2
67088, 67087, 2
67088, 67081, 2
67088, 67086, 2
67088, 67099, 2
67088, 67089, 1
67091, 67092, 6
67091, 67093, 1
67091, 67081, 2
67091, 67099, 2
67091, 67090, 2
67091, 67089, 2
67072, 67074, 1
67072, 67073, 0
67098, 67092, 2
67098, 67096, 2
67098, 67099, 6
67098, 67097, 2
67098, 67100, 1
67100, 67092, 2
67100, 67099, 2
67100, 67098, 2
67092, 67090, 2
67092, 67088, 2
67092, 67091, 2
67092, 67098, 2
67092, 67095, 2
67092, 67083, 2
67092, 67094, 2
67092, 67100, 2
67092, 67075, 2
67092, 67089, 2
67092, 67084, 2
67092, 67093, 2
67092, 67080, 2
67092, 67081, 2
67092, 67076, 2
67092, 67096, 2
67092, 67099, 2
67092, 67082, 2
67092, 67085, 2
67075, 67074, 2
67075, 67092, 2
67075, 67081, 2
67075, 67076, 1
67093, 67081, 2
67093, 67092, 2
67093, 67094, 1
67093, 67091, 2
67093, 67099, 2
67081, 67079, 2
67081, 67087, 2
67081, 67088, 2
67081, 67091, 2
67081, 67073, 2
67081, 67078, 2
67081, 67095, 2
67081, 67083, 2
67081, 67075, 2
67081, 67089, 2
67081, 67092, 2
67081, 67084, 2
67081, 67093, 2
67081, 67080, 2
67081, 67074, 2
67081, 67076, 2
67081, 67086, 2
67081, 67099, 2
67081, 67082, 2
67081, 67077, 2
67081, 67085, 2
67076, 67081, 2
67076, 67092, 2
67076, 67075, 2
67076, 67077, 1
67086, 67081, 2
67086, 67087, 1
67086, 67088, 2
67086, 67085, 2
67099, 67097, 2
67099, 67088, 2
67099, 67091, 2
67099, 67098, 2
67099, 67095, 2
67099, 67100, 2
67099, 67089, 2
67099, 67092, 2
67099, 67084, 2
67099, 67093, 2
67099, 67081, 2
67099, 67096, 2
67099, 67085, 2
67082, 67081, 2
67082, 67083, 1
67082, 67080, 2
67082, 67092, 2
67077, 67081, 2
67077, 67076, 2
67077, 67078, 1
67085, 67092, 2
67085, 67084, 2
67085, 67081, 2
67085, 67086, 1
67085, 67099, 2
67085, 67087, 2
