299989, 299992, 2
299989, 299990, 1
299992, 299989, 2
299992, 299993, 2
299992, 299991, 2
299992, 299990, 2
299991, 299992, 3
299991, 299993, 1
299991, 299990, 2
299993, 299992, 2
299993, 299991, 2
299990, 299989, 2
299990, 299992, 2
299990, 299991, 1
