216144, 216142, 2
216144, 216141, 2
216144, 216140, 2
216144, 216143, 2
216137, 216136, 2
216137, 216138, 1
216141, 216142, 1
216141, 216144, 2
216141, 216140, 2
216141, 216143, 2
216140, 216144, 2
216140, 216141, 1
216140, 216139, 2
216140, 216143, 2
216143, 216144, 2
216143, 216141, 2
216143, 216140, 2
216143, 216142, 2
216143, 216135, 2
216143, 216139, 2
216138, 216137, 2
216138, 216139, 1
216142, 216144, 3
216142, 216141, 2
216142, 216143, 2
216135, 216136, 1
216135, 216143, 2
216136, 216137, 1
216136, 216135, 2
216139, 216140, 1
216139, 216143, 2
216139, 216138, 2
