298863, 298862, 2
298863, 298864, 1
298863, 298865, 2
298863, 298861, 2
298863, 298859, 2
298865, 298864, 2
298865, 298866, 1
298865, 298867, 2
298865, 298863, 2
298878, 298879, 1
298878, 298874, 2
298878, 298876, 2
298878, 298877, 2
298878, 298880, 2
298873, 298874, 1
298873, 298875, 2
298873, 298872, 2
298856, 298857, 1
298856, 298860, 2
298856, 298855, 2
298853, 298855, 2
298853, 298854, 1
298853, 298851, 2
298853, 298852, 2
298853, 298849, 2
298859, 298858, 2
298859, 298863, 2
298859, 298860, 3
298859, 298861, 1
298866, 298865, 2
298866, 298867, 1
298854, 298853, 2
298854, 298855, 1
298855, 298853, 2
298855, 298854, 2
298855, 298860, 2
298855, 298856, 1
298870, 298869, 2
298870, 298871, 1
298864, 298863, 2
298864, 298865, 1
298880, 298879, 2
298880, 298878, 2
298868, 298867, 2
298868, 298869, 1
298857, 298858, 1
298857, 298860, 2
298857, 298856, 2
298849, 298853, 2
298849, 298850, 3
298849, 298851, 1
298849, 298848, 2
298851, 298853, 1
298851, 298850, 2
298851, 298852, 3
298851, 298849, 2
298875, 298873, 2
298875, 298877, 2
298875, 298874, 2
298875, 298871, 2
298875, 298872, 2
298875, 298876, 2
298879, 298878, 2
298879, 298880, 1
298874, 298877, 2
298874, 298878, 2
298874, 298875, 3
298874, 298873, 2
298874, 298876, 1
298850, 298847, 2
298850, 298849, 2
298850, 298851, 2
298850, 298852, 2
298850, 298848, 2
298861, 298862, 3
298861, 298863, 1
298861, 298859, 2
298861, 298860, 2
298847, 298850, 2
298847, 298848, 1
298848, 298849, 1
298848, 298850, 2
298848, 298847, 2
298871, 298869, 2
298871, 298875, 2
298871, 298872, 1
298871, 298870, 2
298862, 298863, 2
298862, 298860, 2
298862, 298861, 2
298869, 298871, 2
298869, 298868, 2
298869, 298867, 2
298869, 298870, 1
298852, 298853, 2
298852, 298850, 2
298852, 298851, 2
298852, 298860, 2
298858, 298857, 2
298858, 298859, 1
298858, 298860, 2
298877, 298874, 2
298877, 298878, 2
298877, 298875, 2
298877, 298876, 2
298860, 298862, 2
298860, 298857, 2
298860, 298855, 2
298860, 298852, 2
298860, 298856, 2
298860, 298858, 2
298860, 298859, 2
298860, 298861, 2
298867, 298866, 2
298867, 298865, 2
298867, 298869, 2
298867, 298868, 1
298872, 298875, 2
298872, 298873, 1
298872, 298871, 2
298876, 298874, 2
298876, 298878, 1
298876, 298875, 2
298876, 298877, 3
