130405, 130397, 2
130405, 130392, 2
130405, 130404, 2
130405, 130400, 2
130405, 130363, 2
130405, 130362, 2
130405, 130402, 2
130405, 130403, 2
130385, 130384, 2
130385, 130381, 2
130385, 130387, 2
130385, 130386, 1
130385, 130383, 2
130385, 130382, 2
130385, 130363, 2
130384, 130385, 3
130384, 130391, 2
130384, 130387, 1
130384, 130386, 2
130384, 130362, 2
130384, 130383, 2
130373, 130371, 2
130373, 130372, 2
130373, 130374, 1
130370, 130368, 2
130370, 130371, 1
130370, 130369, 2
130370, 130372, 2
130383, 130385, 2
130383, 130384, 1
130383, 130382, 2
130359, 130360, 2
130359, 130364, 2
130359, 130391, 2
130359, 130362, 2
130359, 130358, 2
130359, 130361, 1
130359, 130363, 2
130403, 130397, 2
130403, 130405, 2
130403, 130399, 2
130403, 130401, 2
130403, 130396, 2
130403, 130404, 2
130403, 130402, 2
130403, 130400, 2
130395, 130396, 1
130395, 130394, 2
130395, 130398, 2
130395, 130392, 2
130360, 130364, 2
130360, 130361, 2
130360, 130359, 2
130360, 130363, 1
130378, 130377, 2
130378, 130381, 2
130378, 130379, 2
130378, 130380, 2
130378, 130375, 2
130378, 130363, 2
130381, 130363, 2
130381, 130380, 2
130381, 130385, 2
130381, 130382, 2
130381, 130378, 2
130396, 130395, 2
130396, 130397, 1
130396, 130392, 2
130396, 130398, 2
130396, 130403, 2
130363, 130405, 2
130363, 130385, 2
130363, 130386, 2
130363, 130364, 2
130363, 130360, 2
130363, 130366, 2
130363, 130375, 2
130363, 130359, 2
130363, 130381, 2
130363, 130367, 2
130363, 130369, 2
130363, 130368, 2
130363, 130372, 2
130363, 130361, 2
130363, 130378, 2
130379, 130380, 1
130379, 130378, 2
130379, 130377, 2
130362, 130405, 2
130362, 130389, 2
130362, 130384, 2
130362, 130388, 2
130362, 130380, 2
130362, 130364, 2
130362, 130359, 2
130362, 130371, 2
130362, 130365, 2
130362, 130377, 2
130362, 130391, 2
130362, 130387, 2
130362, 130368, 2
130362, 130361, 2
130362, 130374, 2
130358, 130359, 1
130361, 130360, 4
130361, 130362, 6
130361, 130364, 1
130361, 130359, 2
130361, 130363, 2
130399, 130397, 2
130399, 130392, 2
130399, 130398, 2
130399, 130401, 2
130399, 130391, 2
130399, 130403, 2
130399, 130400, 1
130368, 130366, 2
130368, 130362, 2
130368, 130365, 2
130368, 130391, 2
130368, 130370, 1
130368, 130367, 2
130368, 130369, 3
130368, 130364, 2
130368, 130363, 2
130380, 130391, 2
130380, 130378, 2
130380, 130381, 3
130380, 130379, 2
130380, 130362, 2
130380, 130382, 1
130380, 130377, 2
130402, 130405, 2
130402, 130404, 1
130402, 130401, 2
130402, 130403, 0
130375, 130376, 2
130375, 130378, 2
130375, 130363, 2
130375, 130372, 2
130375, 130377, 2
130375, 130374, 2
130400, 130405, 2
130400, 130401, 1
130400, 130399, 2
130400, 130403, 2
130371, 130374, 2
130371, 130373, 1
130371, 130362, 2
130371, 130372, 3
130371, 130370, 2
130387, 130388, 1
130387, 130386, 2
130387, 130362, 2
130387, 130385, 2
130387, 130384, 2
130386, 130385, 2
130386, 130384, 2
130386, 130387, 2
130386, 130363, 2
130374, 130376, 1
130374, 130391, 2
130374, 130373, 2
130374, 130362, 2
130374, 130371, 2
130374, 130375, 3
130374, 130372, 2
130392, 130395, 2
130392, 130397, 2
130392, 130394, 2
130392, 130398, 1
130392, 130391, 2
130392, 130393, 0
130392, 130399, 2
130392, 130396, 2
130392, 130405, 2
130392, 130390, 2
130377, 130376, 2
130377, 130362, 2
130377, 130378, 3
130377, 130391, 2
130377, 130379, 1
130377, 130380, 2
130377, 130375, 2
130394, 130395, 1
130394, 130392, 2
130394, 130398, 2
130394, 130393, 2
130394, 130391, 2
130394, 130390, 2
130398, 130397, 2
130398, 130395, 2
130398, 130392, 2
130398, 130391, 2
130398, 130399, 1
130398, 130396, 2
130398, 130394, 2
130398, 130390, 2
130365, 130366, 3
130365, 130362, 2
130365, 130368, 2
130365, 130364, 2
130365, 130367, 1
130391, 130392, 2
130391, 130389, 2
130391, 130384, 2
130391, 130399, 2
130391, 130388, 2
130391, 130380, 2
130391, 130382, 2
130391, 130377, 2
130391, 130374, 2
130391, 130394, 2
130391, 130398, 2
130391, 130359, 2
130391, 130393, 2
130391, 130362, 2
130391, 130368, 2
130391, 130390, 2
130367, 130365, 2
130367, 130366, 2
130367, 130368, 1
130367, 130364, 2
130367, 130363, 2
130404, 130405, 1
130404, 130402, 2
130404, 130403, 2
130376, 130377, 1
130376, 130375, 2
130376, 130374, 2
130372, 130371, 2
130372, 130370, 2
130372, 130373, 2
130372, 130363, 2
130372, 130369, 2
130372, 130375, 2
130372, 130374, 2
130389, 130388, 2
130389, 130362, 2
130389, 130391, 2
130389, 130390, 1
130401, 130400, 2
130401, 130402, 1
130401, 130399, 2
130401, 130403, 2
130382, 130383, 1
130382, 130380, 2
130382, 130385, 2
130382, 130391, 2
130382, 130381, 2
130364, 130360, 2
130364, 130366, 2
130364, 130365, 1
130364, 130359, 2
130364, 130367, 2
130364, 130362, 2
130364, 130368, 2
130364, 130361, 2
130364, 130363, 2
130397, 130405, 2
130397, 130392, 2
130397, 130398, 2
130397, 130399, 2
130397, 130396, 2
130397, 130403, 2
130366, 130365, 2
130366, 130367, 2
130366, 130369, 2
130366, 130368, 2
130366, 130364, 2
130366, 130363, 2
130393, 130392, 2
130393, 130394, 1
130393, 130391, 2
130393, 130390, 2
130388, 130362, 2
130388, 130389, 1
130388, 130391, 2
130388, 130387, 2
130390, 130392, 1
130390, 130398, 2
130390, 130389, 2
130390, 130393, 2
130390, 130391, 0
130390, 130394, 2
130369, 130366, 2
130369, 130363, 2
130369, 130368, 2
130369, 130372, 2
130369, 130370, 2
