118721, 118720, 2
118721, 118719, 2
118721, 118716, 2
118721, 118713, 2
118721, 118722, 1
118713, 118720, 2
118713, 118721, 2
118713, 118715, 2
118713, 118716, 2
118713, 118712, 2
118713, 118714, 2
118718, 118720, 2
118718, 118716, 2
118718, 118717, 2
118718, 118719, 1
118714, 118712, 2
118714, 118716, 2
118714, 118715, 1
118714, 118713, 2
118714, 118717, 2
118717, 118712, 2
118717, 118718, 1
118717, 118720, 2
118717, 118714, 2
118717, 118716, 2
118719, 118718, 2
118719, 118720, 2
118719, 118721, 2
118719, 118716, 2
118723, 118722, 2
118720, 118721, 1
118720, 118716, 2
118720, 118713, 2
118720, 118718, 2
118720, 118717, 2
118720, 118719, 2
118715, 118714, 2
118715, 118713, 2
118715, 118716, 1
118716, 118720, 1
118716, 118721, 2
118716, 118715, 2
118716, 118713, 2
118716, 118718, 2
118716, 118714, 2
118716, 118717, 0
118716, 118719, 2
118712, 118714, 1
118712, 118717, 2
118712, 118713, 3
118722, 118723, 1
118722, 118721, 2
