20990, 20992, 2
20990, 20991, 1
20990, 20989, 2
20989, 20987, 2
20989, 20990, 1
20989, 20992, 2
20989, 20991, 2
20989, 20988, 2
20987, 20992, 2
20987, 20988, 1
20987, 20989, 2
20987, 20991, 2
20992, 20987, 2
20992, 20990, 2
20992, 20991, 2
20992, 20989, 2
20992, 20988, 2
20991, 20987, 2
20991, 20990, 2
20991, 20992, 6
20991, 20989, 2
20988, 20987, 2
20988, 20992, 2
20988, 20989, 1
