339553, 339554, 0
339553, 339555, 1
339554, 339553, 2
339554, 339555, 2
339558, 339557, 2
339557, 339558, 1
339557, 339556, 2
339556, 339557, 1
339556, 339555, 2
339555, 339556, 1
339555, 339553, 2
339555, 339554, 2
