302377, 302378, 1
302377, 302376, 2
302383, 302380, 2
302383, 302381, 2
302383, 302382, 2
302379, 302378, 2
302379, 302375, 2
302379, 302380, 1
302376, 302377, 1
302376, 302375, 2
302382, 302383, 2
302382, 302381, 2
302382, 302380, 2
302378, 302377, 2
302378, 302375, 2
302378, 302379, 2
302378, 302380, 2
302381, 302383, 1
302381, 302380, 2
302381, 302382, 3
302375, 302378, 2
302375, 302376, 0
302375, 302379, 1
302380, 302383, 2
302380, 302382, 2
302380, 302378, 2
302380, 302379, 2
302380, 302381, 1
