186633, 186634, 2
186633, 186632, 2
186632, 186634, 1
186632, 186633, 0
186632, 186635, 2
186636, 186635, 2
186636, 186637, 1
186634, 186635, 1
186634, 186633, 2
186634, 186632, 2
186637, 186636, 2
186635, 186634, 2
186635, 186632, 2
186635, 186636, 1
