221930, 221928, 2
221930, 221929, 2
221930, 221932, 1
221930, 221931, 3
221933, 221932, 2
221929, 221930, 1
221929, 221927, 2
221929, 221928, 2
221928, 221930, 2
221928, 221932, 2
221928, 221927, 2
221928, 221929, 2
221932, 221930, 2
221932, 221928, 2
221932, 221933, 1
221932, 221931, 2
221927, 221928, 6
221927, 221929, 1
221931, 221930, 2
221931, 221932, 2
