251343, 251342, 2
251339, 251336, 2
251339, 251340, 1
251339, 251338, 2
251341, 251342, 1
251341, 251340, 2
251335, 251336, 0
251335, 251337, 1
251335, 251338, 2
251336, 251335, 2
251336, 251339, 2
251336, 251337, 2
251336, 251340, 2
251336, 251338, 2
251342, 251343, 1
251342, 251341, 2
251338, 251336, 2
251338, 251339, 1
251338, 251335, 2
251338, 251337, 2
251340, 251336, 2
251340, 251339, 2
251340, 251341, 1
251337, 251336, 2
251337, 251335, 2
251337, 251338, 1
