15518, 15520, 1
15518, 15519, 3
15523, 15522, 2
15523, 15525, 1
15523, 15524, 3
15523, 15521, 2
15521, 15522, 8
15521, 15523, 1
15521, 15525, 2
15521, 15520, 2
15520, 15522, 2
15520, 15518, 2
15520, 15521, 1
15520, 15519, 2
15522, 15524, 2
15522, 15523, 2
15522, 15521, 2
15522, 15520, 2
15522, 15519, 2
15524, 15522, 2
15524, 15523, 2
15524, 15525, 2
15526, 15525, 2
15525, 15524, 2
15525, 15523, 2
15525, 15521, 2
15525, 15526, 1
15519, 15522, 2
15519, 15518, 2
15519, 15520, 2
