21733, 21734, 1
21733, 21732, 2
21733, 21730, 2
21733, 21735, 2
21736, 21735, 2
21736, 21737, 1
21732, 21733, 1
21732, 21731, 2
21732, 21730, 2
21734, 21733, 2
21734, 21735, 1
21731, 21732, 1
21731, 21730, 2
21735, 21733, 2
21735, 21734, 2
21735, 21736, 1
21730, 21733, 2
21730, 21731, 1
21730, 21732, 2
21737, 21736, 2
