124355, 124361, 2
124355, 124358, 2
124355, 124354, 2
124355, 124360, 2
124355, 124356, 1
124355, 124357, 2
124355, 124359, 2
124350, 124349, 2
124350, 124351, 1
124352, 124360, 2
124352, 124351, 2
124352, 124358, 2
124352, 124353, 1
124353, 124352, 2
124353, 124358, 2
124353, 124354, 1
124366, 124367, 3
124366, 124361, 2
124366, 124365, 2
124366, 124370, 2
124366, 124360, 2
124366, 124369, 2
124366, 124368, 1
124359, 124361, 1
124359, 124355, 2
124359, 124365, 2
124359, 124358, 2
124359, 124362, 2
124359, 124356, 2
124359, 124357, 2
124351, 124349, 2
124351, 124358, 2
124351, 124360, 2
124351, 124352, 1
124351, 124350, 2
124351, 124348, 2
124367, 124361, 2
124367, 124370, 2
124367, 124358, 2
124367, 124369, 2
124367, 124366, 2
124367, 124368, 2
124370, 124367, 2
124370, 124361, 2
124370, 124369, 2
124370, 124371, 2
124370, 124366, 2
124370, 124368, 2
124373, 124374, 1
124373, 124361, 2
124373, 124372, 2
124373, 124360, 2
124362, 124361, 2
124362, 124360, 2
124362, 124358, 2
124362, 124363, 1
124362, 124364, 2
124362, 124357, 2
124362, 124359, 2
124349, 124360, 2
124349, 124350, 1
124349, 124348, 2
124349, 124358, 2
124349, 124351, 2
124356, 124360, 2
124356, 124355, 2
124356, 124357, 1
124356, 124358, 2
124356, 124359, 2
124357, 124361, 2
124357, 124355, 2
124357, 124358, 4
124357, 124362, 1
124357, 124360, 6
124357, 124356, 2
124357, 124359, 2
124348, 124360, 2
124348, 124349, 1
124348, 124358, 2
124348, 124351, 2
124361, 124355, 2
124361, 124365, 2
124361, 124358, 2
124361, 124363, 2
124361, 124375, 2
124361, 124366, 2
124361, 124359, 2
124361, 124367, 2
124361, 124374, 2
124361, 124370, 2
124361, 124373, 2
124361, 124362, 2
124361, 124364, 2
124361, 124357, 2
124365, 124361, 2
124365, 124360, 2
124365, 124358, 2
124365, 124363, 2
124365, 124364, 2
124365, 124366, 1
124365, 124359, 2
124358, 124361, 2
124358, 124355, 2
124358, 124365, 2
124358, 124354, 2
124358, 124363, 2
124358, 124352, 2
124358, 124353, 2
124358, 124359, 1
124358, 124351, 2
124358, 124367, 2
124358, 124362, 2
124358, 124349, 2
124358, 124356, 2
124358, 124357, 2
124358, 124348, 2
124354, 124360, 2
124354, 124355, 1
124354, 124358, 2
124354, 124353, 2
124360, 124355, 2
124360, 124365, 2
124360, 124349, 2
124360, 124354, 2
124360, 124363, 2
124360, 124375, 2
124360, 124362, 2
124360, 124366, 2
124360, 124373, 2
124360, 124351, 2
124360, 124374, 2
124360, 124352, 2
124360, 124369, 2
124360, 124356, 2
124360, 124371, 2
124360, 124357, 2
124360, 124348, 2
124360, 124364, 2
124375, 124361, 2
124375, 124360, 2
124375, 124374, 2
124368, 124367, 2
124368, 124370, 2
124368, 124366, 2
124368, 124369, 1
124374, 124361, 2
124374, 124360, 2
124374, 124373, 2
124374, 124375, 1
124363, 124361, 2
124363, 124365, 2
124363, 124358, 2
124363, 124362, 2
124363, 124360, 2
124363, 124364, 1
124369, 124367, 2
124369, 124370, 3
124369, 124360, 2
124369, 124371, 1
124369, 124366, 2
124369, 124368, 2
124364, 124363, 2
124364, 124361, 2
124364, 124365, 1
124364, 124360, 2
124364, 124362, 2
124371, 124360, 2
124371, 124369, 2
124371, 124370, 2
124371, 124372, 1
124372, 124371, 2
124372, 124373, 1
