132877, 132880, 2
132877, 132876, 2
132877, 132878, 1
132881, 132880, 2
132881, 132879, 2
132881, 132878, 2
132876, 132877, 1
132880, 132879, 2
132880, 132881, 1
132880, 132877, 2
132880, 132878, 2
132879, 132880, 2
132879, 132881, 2
132879, 132878, 2
132878, 132880, 1
132878, 132877, 2
132878, 132881, 2
132878, 132879, 8
