341212, 341211, 2
341212, 341213, 8
341212, 341214, 1
341214, 341212, 2
341214, 341213, 2
341214, 341215, 1
341214, 341217, 2
341209, 341211, 2
341209, 341210, 1
341217, 341216, 2
341217, 341214, 2
341217, 341215, 2
341211, 341212, 1
341211, 341213, 2
341211, 341209, 2
341211, 341210, 2
341213, 341212, 2
341213, 341214, 2
341213, 341211, 2
341216, 341215, 2
341216, 341217, 1
341210, 341211, 1
341210, 341209, 2
341215, 341216, 1
341215, 341214, 2
341215, 341217, 2
