128109, 128107, 2
128109, 128106, 2
128109, 128110, 2
128121, 128122, 2
128121, 128118, 2
128121, 128117, 2
128121, 128119, 2
128103, 128106, 2
128103, 128102, 2
128103, 128104, 1
128103, 128107, 2
128103, 128110, 2
128103, 128105, 2
128103, 128108, 2
128114, 128116, 1
128114, 128115, 0
128114, 128112, 2
128114, 128113, 2
128114, 128117, 2
128114, 128110, 2
128113, 128112, 2
128113, 128117, 2
128113, 128110, 2
128113, 128111, 2
128113, 128114, 2
128141, 128142, 2
128141, 128139, 2
128141, 128138, 2
128141, 128136, 2
128141, 128137, 2
128141, 128133, 2
128141, 128135, 2
128117, 128121, 2
128117, 128114, 2
128117, 128118, 1
128117, 128120, 2
128117, 128123, 2
128117, 128135, 2
128117, 128119, 2
128117, 128116, 2
128117, 128122, 2
128117, 128115, 2
128117, 128110, 2
128117, 128113, 2
128105, 128103, 2
128105, 128106, 1
128105, 128104, 2
128105, 128107, 2
128105, 128110, 2
128105, 128108, 2
128140, 128142, 2
128140, 128137, 2
128140, 128134, 2
128140, 128138, 2
128140, 128132, 2
128140, 128136, 2
128140, 128133, 2
128140, 128135, 2
128123, 128134, 2
128123, 128136, 2
128123, 128124, 2
128123, 128119, 2
128123, 128142, 2
128123, 128122, 2
128123, 128139, 2
128123, 128129, 2
128123, 128125, 2
128123, 128132, 2
128123, 128117, 2
128123, 128126, 2
128127, 128142, 2
128127, 128122, 2
128127, 128135, 2
128127, 128129, 2
128127, 128124, 2
128127, 128125, 2
128127, 128130, 2
128127, 128128, 2
128127, 128126, 2
128129, 128127, 2
128129, 128135, 2
128129, 128131, 1
128129, 128134, 2
128129, 128122, 2
128129, 128130, 3
128129, 128132, 2
128129, 128126, 2
128129, 128128, 2
128129, 128123, 2
128122, 128121, 2
128122, 128134, 2
128122, 128128, 2
128122, 128117, 2
128122, 128120, 2
128122, 128123, 0
128122, 128135, 2
128122, 128118, 2
128122, 128124, 1
128122, 128142, 2
128122, 128127, 2
128122, 128129, 2
128122, 128125, 2
128122, 128130, 2
128122, 128119, 2
128122, 128136, 2
128138, 128142, 1
128138, 128137, 2
128138, 128134, 2
128138, 128141, 2
128138, 128130, 2
128138, 128132, 2
128138, 128136, 2
128138, 128139, 6
128138, 128140, 4
128138, 128135, 2
128132, 128134, 2
128132, 128136, 2
128132, 128135, 2
128132, 128140, 2
128132, 128123, 2
128132, 128142, 2
128132, 128137, 2
128132, 128129, 2
128132, 128131, 2
128132, 128138, 2
128132, 128130, 2
128132, 128133, 1
128119, 128122, 2
128119, 128121, 3
128119, 128117, 2
128119, 128118, 2
128119, 128123, 2
128115, 128116, 2
128115, 128114, 2
128115, 128117, 2
128115, 128110, 2
128115, 128111, 2
128115, 128112, 2
128111, 128115, 2
128111, 128112, 1
128111, 128113, 2
128111, 128110, 2
128112, 128111, 2
128112, 128110, 2
128112, 128113, 3
128112, 128115, 2
128112, 128114, 1
128142, 128134, 2
128142, 128141, 2
128142, 128136, 2
128142, 128127, 2
128142, 128140, 2
128142, 128135, 2
128142, 128137, 2
128142, 128130, 2
128142, 128122, 2
128142, 128138, 2
128142, 128132, 2
128142, 128123, 2
128142, 128139, 2
128142, 128133, 2
128124, 128122, 2
128124, 128125, 1
128124, 128127, 2
128124, 128123, 2
128136, 128142, 2
128136, 128137, 2
128136, 128140, 2
128136, 128134, 2
128136, 128122, 2
128136, 128138, 2
128136, 128141, 2
128136, 128139, 2
128136, 128132, 2
128136, 128133, 2
128136, 128123, 2
128120, 128122, 2
128120, 128117, 2
128120, 128118, 2
128128, 128122, 2
128128, 128127, 2
128128, 128129, 1
128128, 128126, 2
128104, 128103, 2
128104, 128107, 2
128104, 128108, 2
128104, 128105, 1
128104, 128110, 2
128118, 128122, 1
128118, 128121, 2
128118, 128117, 2
128118, 128120, 4
128118, 128119, 6
128134, 128136, 3
128134, 128137, 2
128134, 128140, 2
128134, 128123, 2
128134, 128142, 2
128134, 128122, 2
128134, 128139, 2
128134, 128129, 2
128134, 128131, 2
128134, 128125, 2
128134, 128138, 2
128134, 128132, 2
128134, 128133, 2
128134, 128126, 2
128137, 128142, 2
128137, 128139, 2
128137, 128133, 2
128137, 128130, 2
128137, 128141, 2
128137, 128138, 1
128137, 128132, 2
128137, 128134, 2
128137, 128136, 2
128137, 128140, 2
128137, 128135, 2
128110, 128109, 2
128110, 128103, 2
128110, 128114, 2
128110, 128104, 2
128110, 128107, 2
128110, 128105, 2
128110, 128108, 2
128110, 128116, 2
128110, 128106, 2
128110, 128111, 1
128110, 128112, 2
128110, 128113, 2
128110, 128117, 2
128110, 128115, 2
128116, 128117, 1
128116, 128110, 2
128116, 128115, 2
128116, 128114, 2
128139, 128142, 2
128139, 128137, 2
128139, 128138, 2
128139, 128141, 3
128139, 128136, 2
128139, 128134, 2
128139, 128135, 2
128139, 128133, 2
128139, 128123, 2
128108, 128104, 2
128108, 128103, 2
128108, 128106, 2
128108, 128105, 2
128108, 128110, 2
128102, 128103, 1
128131, 128130, 2
128131, 128132, 1
128131, 128134, 2
128131, 128135, 2
128131, 128129, 2
128125, 128127, 2
128125, 128134, 2
128125, 128122, 2
128125, 128123, 2
128125, 128124, 2
128125, 128126, 1
128130, 128142, 2
128130, 128127, 2
128130, 128129, 2
128130, 128131, 2
128130, 128122, 2
128130, 128138, 2
128130, 128132, 2
128130, 128137, 2
128130, 128135, 2
128106, 128109, 2
128106, 128103, 2
128106, 128107, 4
128106, 128110, 1
128106, 128105, 2
128106, 128108, 6
128135, 128141, 2
128135, 128117, 2
128135, 128137, 2
128135, 128140, 2
128135, 128142, 2
128135, 128127, 2
128135, 128129, 2
128135, 128131, 2
128135, 128130, 2
128135, 128122, 2
128135, 128138, 2
128135, 128132, 2
128135, 128139, 2
128135, 128133, 2
128107, 128109, 1
128107, 128103, 2
128107, 128106, 2
128107, 128104, 2
128107, 128105, 2
128107, 128110, 2
128133, 128142, 2
128133, 128137, 1
128133, 128132, 2
128133, 128134, 6
128133, 128141, 2
128133, 128136, 2
128133, 128139, 2
128133, 128140, 2
128133, 128135, 4
128126, 128127, 3
128126, 128129, 2
128126, 128134, 2
128126, 128125, 2
128126, 128128, 1
128126, 128123, 2
