302137, 302138, 1
302137, 302136, 2
302136, 302137, 1
302136, 302135, 2
302140, 302139, 2
302134, 302132, 2
302134, 302133, 2
302134, 302135, 1
302132, 302133, 1
302132, 302134, 2
302133, 302132, 2
302133, 302134, 1
302138, 302137, 2
302138, 302139, 1
302135, 302134, 2
302135, 302136, 1
302139, 302138, 2
302139, 302140, 1
