338956, 338955, 2
338954, 338955, 1
338954, 338952, 2
338954, 338953, 2
338955, 338956, 0
338955, 338954, 2
338955, 338953, 2
338952, 338954, 1
338952, 338953, 3
338953, 338954, 2
338953, 338955, 2
338953, 338952, 2
