259379, 259381, 2
259379, 259382, 1
259379, 259380, 0
259384, 259385, 2
259384, 259383, 2
259384, 259386, 2
259384, 259382, 2
259385, 259383, 2
259385, 259386, 1
259385, 259382, 2
259385, 259384, 2
259386, 259385, 2
259386, 259382, 2
259386, 259384, 2
259380, 259379, 2
259380, 259381, 1
259380, 259382, 2
259383, 259385, 1
259383, 259382, 2
259383, 259384, 3
259381, 259379, 2
259381, 259382, 2
259381, 259380, 2
259382, 259379, 2
259382, 259384, 2
259382, 259385, 2
259382, 259386, 2
259382, 259380, 2
259382, 259383, 1
259382, 259381, 2
