168796, 168794, 2
168796, 168795, 2
168796, 168793, 2
168794, 168796, 2
168794, 168793, 2
168794, 168795, 1
168795, 168794, 2
168795, 168796, 6
168795, 168793, 2
168793, 168794, 1
168793, 168796, 2
168793, 168795, 2
