257198, 257200, 1
257198, 257197, 2
257198, 257201, 2
257198, 257199, 8
257204, 257203, 2
257204, 257202, 2
257204, 257205, 1
257204, 257208, 2
257217, 257220, 2
257217, 257205, 2
257217, 257208, 2
257217, 257228, 2
257217, 257227, 2
257217, 257213, 2
257217, 257224, 2
257217, 257232, 2
257217, 257215, 2
257217, 257211, 2
257217, 257219, 4
257217, 257216, 2
257217, 257230, 2
257217, 257235, 2
257217, 257221, 2
257217, 257225, 1
257217, 257222, 2
257217, 257218, 6
257217, 257231, 2
257217, 257214, 2
257217, 257223, 2
257217, 257210, 2
257217, 257209, 2
257208, 257226, 2
257208, 257202, 2
257208, 257204, 2
257208, 257201, 2
257208, 257206, 2
257208, 257216, 2
257208, 257217, 2
257208, 257205, 2
257208, 257207, 2
257208, 257209, 1
257226, 257229, 2
257226, 257219, 2
257226, 257232, 2
257226, 257230, 2
257226, 257235, 2
257226, 257233, 2
257226, 257221, 2
257226, 257205, 2
257226, 257213, 2
257226, 257225, 2
257226, 257228, 4
257226, 257227, 6
257226, 257218, 2
257226, 257234, 1
257226, 257208, 2
257226, 257231, 2
257226, 257224, 2
257226, 257223, 2
257226, 257222, 2
257226, 257214, 2
257226, 257209, 2
257200, 257198, 2
257200, 257201, 2
257200, 257199, 2
257212, 257214, 2
257212, 257207, 2
257212, 257209, 2
257239, 257236, 2
257239, 257232, 2
257239, 257231, 2
257239, 257238, 2
257239, 257233, 2
257239, 257240, 0
257222, 257216, 2
257222, 257235, 2
257222, 257206, 2
257222, 257220, 2
257222, 257217, 2
257222, 257213, 2
257222, 257225, 2
257222, 257228, 2
257222, 257227, 2
257222, 257226, 2
257222, 257218, 2
257222, 257234, 2
257222, 257224, 0
257222, 257207, 2
257209, 257226, 2
257209, 257219, 2
257209, 257216, 2
257209, 257212, 0
257209, 257214, 1
257209, 257217, 2
257209, 257206, 2
257209, 257207, 2
257209, 257208, 2
257209, 257225, 2
257219, 257226, 2
257219, 257213, 2
257219, 257216, 2
257219, 257214, 2
257219, 257221, 1
257219, 257217, 2
257219, 257206, 2
257219, 257207, 2
257219, 257215, 2
257219, 257225, 2
257219, 257209, 2
257237, 257236, 2
257237, 257238, 1
257230, 257226, 2
257230, 257234, 2
257230, 257232, 1
257230, 257235, 2
257230, 257217, 2
257230, 257207, 2
257230, 257225, 2
257230, 257228, 2
257235, 257232, 2
257235, 257238, 2
257235, 257233, 2
257235, 257217, 2
257235, 257225, 2
257235, 257228, 2
257235, 257227, 2
257235, 257226, 2
257235, 257236, 1
257235, 257231, 2
257235, 257234, 2
257235, 257223, 2
257235, 257207, 2
257235, 257222, 2
257235, 257230, 2
257199, 257197, 2
257199, 257198, 2
257199, 257200, 2
257199, 257201, 2
257199, 257210, 2
257225, 257219, 2
257225, 257232, 2
257225, 257230, 2
257225, 257235, 2
257225, 257221, 2
257225, 257217, 2
257225, 257213, 2
257225, 257228, 2
257225, 257227, 2
257225, 257226, 1
257225, 257218, 2
257225, 257231, 2
257225, 257224, 2
257225, 257223, 2
257225, 257222, 2
257225, 257214, 2
257225, 257209, 2
257218, 257216, 2
257218, 257206, 2
257218, 257214, 2
257218, 257217, 2
257218, 257225, 2
257218, 257215, 2
257218, 257226, 2
257218, 257213, 2
257218, 257234, 2
257218, 257220, 0
257218, 257207, 2
257218, 257222, 1
257236, 257231, 2
257236, 257237, 1
257236, 257235, 2
257236, 257238, 2
257236, 257233, 2
257236, 257239, 2
257220, 257217, 2
257220, 257222, 2
257220, 257215, 2
257220, 257218, 2
257210, 257201, 2
257210, 257211, 1
257210, 257199, 2
257210, 257203, 2
257210, 257216, 2
257210, 257217, 2
257210, 257205, 2
257210, 257207, 2
257210, 257206, 2
257229, 257227, 2
257229, 257226, 2
257229, 257231, 2
257229, 257224, 2
257206, 257219, 2
257206, 257211, 2
257206, 257214, 2
257206, 257205, 2
257206, 257218, 2
257206, 257208, 2
257206, 257227, 2
257206, 257213, 2
257206, 257210, 2
257206, 257207, 1
257206, 257222, 2
257206, 257209, 2
257214, 257219, 2
257214, 257216, 2
257214, 257206, 2
257214, 257217, 2
257214, 257225, 2
257214, 257226, 2
257214, 257218, 2
257214, 257234, 2
257214, 257212, 2
257214, 257207, 2
257214, 257215, 0
257214, 257209, 2
257205, 257226, 2
257205, 257204, 2
257205, 257216, 2
257205, 257206, 1
257205, 257203, 2
257205, 257210, 2
257205, 257207, 2
257205, 257217, 2
257205, 257208, 2
257228, 257226, 2
257228, 257234, 2
257228, 257216, 2
257228, 257230, 1
257228, 257235, 2
257228, 257224, 2
257228, 257223, 2
257228, 257217, 2
257228, 257207, 2
257228, 257222, 2
257228, 257225, 2
257227, 257229, 0
257227, 257216, 2
257227, 257235, 2
257227, 257206, 2
257227, 257217, 2
257227, 257225, 2
257227, 257226, 2
257227, 257234, 2
257227, 257231, 1
257227, 257224, 2
257227, 257223, 2
257227, 257207, 2
257227, 257222, 2
257213, 257226, 2
257213, 257219, 2
257213, 257216, 2
257213, 257211, 2
257213, 257206, 2
257213, 257217, 2
257213, 257207, 2
257213, 257218, 2
257213, 257225, 2
257213, 257222, 2
257201, 257202, 1
257201, 257200, 2
257201, 257199, 2
257201, 257203, 2
257201, 257210, 2
257201, 257197, 2
257201, 257198, 2
257201, 257208, 2
257238, 257236, 2
257238, 257237, 2
257238, 257231, 2
257238, 257235, 2
257238, 257233, 2
257238, 257239, 1
257216, 257219, 2
257216, 257213, 2
257216, 257211, 2
257216, 257221, 2
257216, 257217, 1
257216, 257205, 2
257216, 257208, 2
257216, 257228, 2
257216, 257227, 2
257216, 257218, 2
257216, 257231, 2
257216, 257214, 2
257216, 257223, 2
257216, 257210, 2
257216, 257207, 2
257216, 257222, 2
257216, 257215, 2
257216, 257209, 2
257232, 257226, 2
257232, 257234, 2
257232, 257230, 2
257232, 257235, 2
257232, 257239, 2
257232, 257217, 2
257232, 257207, 2
257232, 257225, 2
257215, 257219, 2
257215, 257216, 2
257215, 257220, 2
257215, 257214, 2
257215, 257217, 2
257215, 257207, 2
257215, 257218, 2
257211, 257213, 1
257211, 257216, 2
257211, 257206, 2
257211, 257217, 2
257211, 257207, 2
257211, 257210, 2
257203, 257201, 2
257203, 257202, 2
257203, 257204, 2
257203, 257205, 2
257203, 257210, 2
257221, 257226, 2
257221, 257219, 2
257221, 257216, 2
257221, 257223, 1
257221, 257217, 2
257221, 257207, 2
257221, 257225, 2
257197, 257198, 3
257197, 257201, 1
257197, 257199, 2
257240, 257233, 2
257240, 257239, 2
257240, 257207, 2
257240, 257231, 2
257233, 257226, 2
257233, 257234, 2
257233, 257238, 2
257233, 257231, 2
257233, 257239, 2
257233, 257235, 2
257233, 257236, 2
257233, 257240, 2
257202, 257203, 8
257202, 257204, 1
257202, 257201, 2
257202, 257208, 2
257234, 257232, 2
257234, 257230, 2
257234, 257235, 1
257234, 257233, 2
257234, 257214, 2
257234, 257228, 2
257234, 257227, 2
257234, 257226, 2
257234, 257218, 2
257234, 257231, 2
257234, 257223, 2
257234, 257222, 2
257231, 257229, 2
257231, 257216, 2
257231, 257235, 2
257231, 257233, 0
257231, 257217, 2
257231, 257225, 2
257231, 257240, 2
257231, 257227, 2
257231, 257226, 2
257231, 257236, 2
257231, 257238, 2
257231, 257234, 2
257231, 257239, 2
257231, 257207, 2
257231, 257223, 2
257224, 257227, 2
257224, 257226, 2
257224, 257229, 2
257224, 257217, 2
257224, 257222, 2
257224, 257225, 2
257224, 257228, 2
257223, 257227, 2
257223, 257226, 2
257223, 257234, 2
257223, 257216, 2
257223, 257231, 2
257223, 257235, 2
257223, 257221, 2
257223, 257217, 2
257223, 257207, 2
257223, 257225, 2
257223, 257228, 2
257207, 257206, 2
257207, 257214, 2
257207, 257205, 2
257207, 257208, 6
257207, 257228, 2
257207, 257227, 2
257207, 257213, 2
257207, 257212, 2
257207, 257232, 2
257207, 257222, 2
257207, 257230, 2
257207, 257219, 2
257207, 257216, 1
257207, 257211, 2
257207, 257235, 2
257207, 257221, 2
257207, 257240, 2
257207, 257218, 2
257207, 257231, 2
257207, 257223, 2
257207, 257210, 4
257207, 257209, 2
257207, 257215, 2
