125888, 125892, 2
125888, 125889, 2
125888, 125882, 2
125888, 125894, 2
125888, 125886, 2
125888, 125887, 2
125888, 125908, 2
125888, 125884, 2
125888, 125897, 2
125888, 125890, 2
125882, 125886, 2
125882, 125880, 2
125882, 125899, 2
125882, 125884, 2
125882, 125883, 2
125882, 125901, 2
125882, 125888, 2
125882, 125896, 2
125882, 125908, 2
125882, 125881, 2
125882, 125893, 2
125882, 125897, 2
125882, 125894, 2
125886, 125889, 2
125886, 125891, 2
125886, 125888, 2
125886, 125882, 2
125886, 125883, 2
125886, 125880, 2
125886, 125885, 2
125886, 125881, 2
125886, 125884, 2
125886, 125887, 1
125903, 125904, 0
125903, 125908, 2
125903, 125902, 2
125903, 125905, 1
125880, 125904, 2
125880, 125891, 2
125880, 125882, 2
125880, 125884, 2
125880, 125881, 1
125880, 125877, 2
125880, 125879, 2
125880, 125875, 2
125880, 125886, 2
125880, 125885, 2
125880, 125898, 2
125880, 125897, 2
125895, 125897, 2
125895, 125894, 2
125895, 125896, 1
125887, 125888, 3
125887, 125889, 1
125887, 125886, 2
125905, 125901, 2
125905, 125904, 2
125905, 125906, 1
125905, 125902, 2
125905, 125908, 2
125905, 125903, 2
125875, 125880, 2
125875, 125876, 1
125896, 125891, 2
125896, 125882, 2
125896, 125894, 2
125896, 125898, 0
125896, 125899, 1
125896, 125895, 2
125896, 125897, 3
125908, 125904, 2
125908, 125891, 2
125908, 125882, 2
125908, 125903, 2
125908, 125901, 2
125908, 125905, 2
125908, 125906, 2
125908, 125907, 2
125908, 125888, 2
125908, 125885, 2
125908, 125898, 2
125908, 125897, 2
125893, 125892, 2
125893, 125882, 2
125893, 125894, 1
125890, 125892, 1
125890, 125891, 0
125890, 125888, 2
125890, 125889, 2
125879, 125880, 1
125879, 125878, 2
125894, 125892, 2
125894, 125891, 2
125894, 125888, 2
125894, 125882, 2
125894, 125896, 2
125894, 125898, 2
125894, 125893, 2
125894, 125895, 1
125894, 125897, 2
125883, 125885, 0
125883, 125882, 2
125883, 125884, 3
125883, 125886, 1
125883, 125881, 2
125904, 125903, 2
125904, 125907, 2
125904, 125908, 2
125904, 125905, 2
125904, 125880, 2
125904, 125898, 2
125904, 125899, 2
125904, 125902, 2
125891, 125896, 2
125891, 125892, 2
125891, 125889, 2
125891, 125894, 2
125891, 125886, 2
125891, 125880, 2
125891, 125885, 2
125891, 125898, 2
125891, 125908, 2
125891, 125890, 2
125906, 125905, 2
125906, 125908, 2
125906, 125907, 1
125876, 125877, 1
125876, 125875, 2
125877, 125880, 2
125877, 125878, 1
125877, 125876, 2
125900, 125901, 3
125900, 125899, 2
125900, 125902, 1
125899, 125901, 2
125899, 125904, 2
125899, 125882, 2
125899, 125902, 2
125899, 125896, 2
125899, 125900, 1
125899, 125898, 2
125899, 125897, 2
125884, 125888, 2
125884, 125882, 2
125884, 125883, 2
125884, 125886, 2
125884, 125880, 2
125884, 125885, 2
125884, 125889, 2
125884, 125881, 2
125881, 125882, 4
125881, 125883, 1
125881, 125886, 2
125881, 125880, 2
125881, 125885, 2
125881, 125884, 2
125901, 125905, 2
125901, 125882, 2
125901, 125908, 2
125901, 125902, 2
125901, 125900, 2
125901, 125899, 2
125901, 125897, 2
125892, 125891, 2
125892, 125888, 2
125892, 125894, 2
125892, 125898, 2
125892, 125893, 1
125892, 125889, 2
125892, 125890, 2
125889, 125892, 2
125889, 125891, 2
125889, 125888, 2
125889, 125886, 2
125889, 125885, 2
125889, 125887, 2
125889, 125890, 1
125889, 125897, 2
125889, 125884, 2
125897, 125882, 2
125897, 125902, 2
125897, 125880, 2
125897, 125899, 2
125897, 125889, 2
125897, 125895, 2
125897, 125901, 2
125897, 125888, 2
125897, 125896, 2
125897, 125898, 2
125897, 125908, 2
125897, 125894, 2
125902, 125901, 2
125902, 125903, 1
125902, 125904, 2
125902, 125899, 2
125902, 125905, 2
125902, 125898, 2
125902, 125900, 2
125902, 125897, 2
125885, 125891, 2
125885, 125889, 2
125885, 125883, 2
125885, 125886, 2
125885, 125880, 2
125885, 125908, 2
125885, 125884, 2
125885, 125881, 2
125898, 125904, 2
125898, 125891, 2
125898, 125902, 2
125898, 125896, 2
125898, 125892, 2
125898, 125880, 2
125898, 125908, 2
125898, 125899, 2
125898, 125897, 2
125898, 125894, 2
125878, 125877, 2
125878, 125879, 1
125907, 125904, 2
125907, 125906, 2
125907, 125908, 1
