220865, 220861, 2
220865, 220867, 1
220865, 220864, 2
220865, 220863, 2
220865, 220862, 2
220865, 220866, 6
220886, 220887, 1
220886, 220885, 2
220886, 220884, 2
220905, 220904, 2
220905, 220906, 3
220905, 220903, 2
220905, 220907, 1
220905, 220902, 2
220905, 220901, 2
220870, 220872, 2
220870, 220871, 2
220870, 220869, 2
220870, 220868, 2
220891, 220898, 2
220891, 220893, 1
220891, 220890, 2
220891, 220892, 8
220896, 220897, 1
220896, 220898, 2
220896, 220895, 2
220885, 220886, 2
220885, 220884, 2
220880, 220879, 2
220880, 220881, 1
220864, 220861, 2
220864, 220867, 2
220864, 220865, 1
220864, 220863, 2
220864, 220862, 2
220864, 220866, 2
220900, 220897, 2
220900, 220899, 2
220900, 220901, 1
220900, 220898, 2
220900, 220895, 2
220888, 220887, 2
220888, 220890, 1
220888, 220889, 3
220876, 220877, 1
220876, 220875, 2
220876, 220874, 2
220890, 220887, 2
220890, 220891, 1
220890, 220888, 2
220890, 220889, 2
220899, 220900, 1
220899, 220897, 2
220899, 220901, 2
220899, 220898, 2
220873, 220872, 2
220873, 220874, 1
220904, 220905, 2
220904, 220902, 2
220904, 220901, 2
220904, 220906, 2
220904, 220903, 2
220907, 220905, 2
220907, 220898, 2
220907, 220906, 2
220871, 220870, 2
220871, 220869, 2
220871, 220872, 2
220875, 220876, 1
220875, 220874, 2
220901, 220900, 2
220901, 220899, 2
220901, 220904, 2
220901, 220903, 2
220901, 220898, 2
220901, 220905, 2
220901, 220897, 2
220901, 220902, 1
220906, 220905, 2
220906, 220907, 2
220906, 220904, 2
220884, 220886, 1
220884, 220882, 2
220884, 220887, 2
220884, 220883, 2
220884, 220881, 2
220884, 220885, 8
220895, 220894, 2
220895, 220898, 2
220895, 220900, 2
220895, 220897, 2
220895, 220893, 2
220895, 220896, 1
220877, 220879, 2
220877, 220878, 1
220877, 220876, 2
220868, 220870, 2
220868, 220867, 2
220868, 220869, 1
220868, 220872, 2
220903, 220905, 2
220903, 220902, 2
220903, 220904, 2
220903, 220901, 2
220898, 220861, 2
220898, 220879, 2
220898, 220899, 2
220898, 220891, 2
220898, 220901, 2
220898, 220907, 2
220898, 220897, 2
220898, 220900, 2
220898, 220893, 2
220898, 220896, 2
220898, 220895, 2
220887, 220888, 1
220887, 220889, 2
220887, 220890, 2
220887, 220886, 2
220887, 220884, 2
220882, 220883, 3
220882, 220881, 2
220882, 220884, 1
220892, 220893, 2
220892, 220891, 2
220874, 220872, 2
220874, 220875, 1
220874, 220876, 2
220874, 220873, 2
220861, 220865, 2
220861, 220898, 2
220861, 220864, 2
220861, 220863, 2
220861, 220862, 1
220861, 220866, 2
220872, 220871, 2
220872, 220868, 2
220872, 220873, 1
220872, 220870, 2
220872, 220869, 2
220872, 220874, 2
220894, 220893, 2
220894, 220895, 1
220889, 220887, 2
220889, 220888, 2
220889, 220890, 2
220863, 220861, 2
220863, 220867, 2
220863, 220865, 2
220863, 220864, 2
220863, 220862, 2
220863, 220866, 2
220866, 220861, 2
220866, 220867, 2
220866, 220865, 2
220866, 220864, 2
220866, 220863, 2
220866, 220862, 2
220879, 220877, 2
220879, 220878, 2
220879, 220898, 2
220879, 220880, 1
220867, 220862, 2
220867, 220868, 1
220867, 220865, 2
220867, 220863, 2
220867, 220864, 2
220867, 220866, 2
220881, 220884, 2
220881, 220883, 2
220881, 220882, 1
220881, 220880, 2
220878, 220879, 1
220878, 220877, 2
220862, 220861, 2
220862, 220867, 2
220862, 220865, 2
220862, 220863, 6
220862, 220864, 1
220862, 220866, 2
220897, 220899, 1
220897, 220901, 2
220897, 220898, 2
220897, 220900, 2
220897, 220896, 2
220897, 220895, 2
220883, 220884, 2
220883, 220881, 2
220883, 220882, 2
220893, 220894, 1
220893, 220891, 2
220893, 220892, 2
220893, 220898, 2
220893, 220895, 2
220869, 220870, 3
220869, 220871, 8
220869, 220868, 2
220869, 220872, 1
220902, 220905, 1
220902, 220901, 2
220902, 220904, 8
220902, 220903, 3
