293792, 293791, 2
293792, 293793, 3
293792, 293794, 1
293792, 293795, 2
293798, 293799, 1
293798, 293797, 2
293794, 293792, 2
293794, 293793, 2
293794, 293795, 1
293795, 293792, 2
293795, 293794, 2
293795, 293793, 2
293795, 293797, 2
293795, 293796, 1
293799, 293798, 2
293799, 293793, 2
293799, 293797, 2
293796, 293793, 2
293796, 293797, 1
293796, 293795, 2
293793, 293792, 2
293793, 293794, 2
293793, 293795, 2
293793, 293799, 2
293793, 293796, 2
293793, 293791, 2
293793, 293797, 2
293791, 293792, 1
293791, 293793, 2
293797, 293795, 2
293797, 293799, 2
293797, 293798, 1
293797, 293793, 2
293797, 293796, 2
