219351, 219352, 1
219351, 219358, 2
219351, 219350, 2
219343, 219344, 1
219343, 219342, 2
219353, 219355, 2
219353, 219354, 1
219353, 219358, 2
219353, 219361, 2
219353, 219352, 2
219356, 219360, 2
219356, 219355, 2
219356, 219358, 2
219356, 219357, 1
219356, 219362, 2
219356, 219361, 2
219363, 219360, 2
219363, 219365, 2
219363, 219358, 2
219363, 219366, 2
219363, 219359, 2
219363, 219362, 2
219363, 219364, 1
219363, 219361, 2
219361, 219355, 2
219361, 219357, 2
219361, 219366, 2
219361, 219356, 2
219361, 219359, 2
219361, 219346, 2
219361, 219352, 2
219361, 219350, 2
219361, 219345, 2
219361, 219349, 2
219361, 219347, 2
219361, 219363, 2
219361, 219342, 2
219361, 219353, 2
219344, 219345, 1
219344, 219343, 2
219344, 219342, 2
219345, 219344, 2
219345, 219346, 1
219345, 219361, 2
219354, 219355, 1
219354, 219358, 2
219354, 219353, 2
219350, 219349, 2
219350, 219351, 1
219350, 219358, 2
219350, 219361, 2
219342, 219344, 2
219342, 219343, 1
219342, 219361, 2
219365, 219360, 2
219365, 219358, 2
219365, 219366, 2
219365, 219363, 2
219365, 219362, 2
219365, 219364, 2
219355, 219356, 1
219355, 219354, 2
219355, 219358, 2
219355, 219353, 2
219355, 219361, 2
219364, 219363, 2
219364, 219362, 2
219364, 219366, 1
219364, 219365, 3
219357, 219360, 2
219357, 219356, 2
219357, 219358, 2
219357, 219359, 1
219357, 219362, 2
219357, 219361, 2
219366, 219363, 2
219366, 219364, 2
219366, 219361, 2
219366, 219365, 2
219359, 219360, 2
219359, 219358, 4
219359, 219357, 2
219359, 219363, 1
219359, 219362, 2
219359, 219361, 6
219346, 219345, 2
219346, 219358, 2
219346, 219347, 1
219346, 219361, 2
219362, 219360, 2
219362, 219356, 2
219362, 219358, 2
219362, 219357, 2
219362, 219359, 2
219362, 219363, 2
219362, 219364, 2
219362, 219365, 2
219360, 219356, 2
219360, 219358, 2
219360, 219357, 2
219360, 219359, 2
219360, 219363, 2
219360, 219362, 1
219360, 219365, 2
219348, 219349, 1
219348, 219347, 2
219349, 219348, 2
219349, 219358, 2
219349, 219361, 2
219349, 219350, 1
219347, 219348, 1
219347, 219346, 2
219347, 219358, 2
219347, 219361, 2
219358, 219356, 2
219358, 219354, 2
219358, 219357, 2
219358, 219355, 2
219358, 219359, 2
219358, 219346, 2
219358, 219362, 2
219358, 219350, 2
219358, 219360, 1
219358, 219351, 2
219358, 219347, 2
219358, 219363, 2
219358, 219349, 2
219358, 219365, 2
219358, 219353, 2
219352, 219351, 2
219352, 219353, 1
219352, 219361, 2
