64379, 64378, 2
64379, 64382, 2
64379, 64376, 2
64379, 64374, 2
64379, 64380, 2
64379, 64381, 2
64379, 64383, 2
64382, 64379, 2
64382, 64376, 2
64382, 64381, 2
64382, 64383, 1
64369, 64372, 2
64369, 64371, 1
64369, 64370, 3
64373, 64372, 2
64373, 64374, 1
64372, 64369, 2
64372, 64371, 2
64372, 64370, 2
64372, 64373, 1
64387, 64386, 2
64387, 64384, 2
64387, 64376, 2
64384, 64387, 2
64384, 64385, 2
64384, 64386, 2
64384, 64383, 2
64370, 64372, 2
64370, 64369, 2
64370, 64371, 2
64386, 64387, 1
64386, 64384, 2
64386, 64383, 2
64386, 64385, 2
64383, 64379, 2
64383, 64382, 2
64383, 64386, 2
64383, 64385, 1
64383, 64384, 3
64383, 64376, 2
64381, 64379, 2
64381, 64382, 1
64381, 64380, 2
64381, 64376, 2
64378, 64379, 1
64378, 64376, 2
64378, 64377, 2
64376, 64378, 2
64376, 64379, 2
64376, 64381, 2
64376, 64374, 2
64376, 64382, 2
64376, 64375, 2
64376, 64380, 2
64376, 64387, 2
64376, 64383, 2
64376, 64377, 2
64374, 64379, 2
64374, 64380, 1
64374, 64375, 3
64374, 64376, 0
64374, 64373, 2
64385, 64386, 1
64385, 64384, 2
64385, 64383, 2
64375, 64380, 2
64375, 64374, 2
64375, 64376, 2
64375, 64377, 1
64371, 64372, 1
64371, 64369, 2
64371, 64370, 2
64380, 64379, 2
64380, 64376, 2
64380, 64377, 2
64380, 64375, 2
64380, 64381, 1
64380, 64374, 2
64377, 64378, 1
64377, 64380, 2
64377, 64375, 2
64377, 64376, 2
