256521, 256522, 2
256521, 256520, 2
256521, 256519, 2
256522, 256521, 2
256522, 256520, 2
256522, 256519, 2
256520, 256522, 2
256520, 256521, 2
256520, 256519, 2
256519, 256521, 3
256519, 256522, 1
256519, 256520, 6
