163902, 163903, 1
163902, 163901, 2
163902, 163900, 2
163902, 163909, 2
163904, 163903, 2
163904, 163905, 1
163904, 163909, 2
163921, 163909, 2
163921, 163922, 2
163921, 163919, 2
163921, 163920, 2
163921, 163917, 2
163921, 163916, 2
163921, 163918, 2
163921, 163923, 2
163900, 163902, 2
163900, 163916, 2
163900, 163909, 2
163900, 163905, 2
163900, 163915, 2
163900, 163903, 2
163900, 163899, 2
163900, 163898, 2
163900, 163907, 2
163900, 163901, 2
163900, 163910, 2
163900, 163906, 2
163900, 163908, 2
163909, 163904, 2
163909, 163902, 2
163909, 163921, 2
163909, 163900, 2
163909, 163917, 2
163909, 163912, 2
163909, 163911, 2
163909, 163913, 2
163909, 163915, 2
163909, 163903, 2
163909, 163914, 2
163909, 163908, 2
163909, 163905, 2
163909, 163907, 2
163909, 163916, 2
163909, 163901, 2
163909, 163923, 2
163909, 163910, 2
163909, 163906, 2
163918, 163921, 2
163918, 163919, 1
163918, 163917, 2
163913, 163915, 2
163913, 163912, 2
163913, 163914, 1
163913, 163911, 2
163913, 163909, 2
163915, 163914, 2
163915, 163911, 2
163915, 163916, 3
163915, 163917, 2
163915, 163900, 2
163915, 163909, 2
163915, 163910, 2
163915, 163913, 2
163919, 163921, 2
163919, 163922, 2
163919, 163916, 2
163919, 163920, 1
163919, 163917, 2
163919, 163918, 2
163899, 163901, 1
163899, 163900, 2
163899, 163898, 2
163908, 163907, 2
163908, 163910, 1
163908, 163900, 2
163908, 163909, 2
163917, 163915, 2
163917, 163921, 8
163917, 163919, 2
163917, 163916, 2
163917, 163909, 2
163917, 163918, 0
163917, 163922, 1
163917, 163914, 2
163907, 163900, 2
163907, 163908, 1
163907, 163906, 2
163907, 163909, 2
163901, 163902, 1
163901, 163899, 2
163901, 163900, 2
163901, 163909, 2
163923, 163921, 2
163923, 163922, 2
163923, 163920, 2
163923, 163909, 2
163922, 163921, 2
163922, 163919, 2
163922, 163916, 2
163922, 163920, 2
163922, 163917, 2
163922, 163923, 1
163916, 163915, 2
163916, 163921, 2
163916, 163919, 2
163916, 163900, 2
163916, 163909, 2
163916, 163917, 2
163916, 163922, 2
163916, 163914, 2
163920, 163921, 2
163920, 163919, 2
163920, 163923, 2
163920, 163922, 2
163905, 163904, 2
163905, 163900, 2
163905, 163906, 1
163905, 163909, 2
163911, 163915, 2
163911, 163912, 0
163911, 163913, 1
163911, 163910, 2
163911, 163909, 2
163914, 163915, 3
163914, 163913, 2
163914, 163917, 1
163914, 163916, 2
163914, 163909, 2
163898, 163899, 1
163898, 163900, 4
163912, 163909, 2
163912, 163911, 2
163912, 163913, 2
163903, 163902, 2
163903, 163904, 1
163903, 163900, 2
163903, 163909, 2
163910, 163915, 2
163910, 163911, 1
163910, 163900, 2
163910, 163908, 2
163910, 163909, 4
163906, 163907, 1
163906, 163905, 2
163906, 163900, 2
163906, 163909, 2
