339974, 339973, 2
339974, 339972, 2
339974, 339975, 1
339971, 339972, 1
339971, 339970, 2
339973, 339972, 2
339973, 339974, 2
339970, 339971, 1
339970, 339972, 2
339972, 339971, 2
339972, 339973, 3
339972, 339974, 1
339972, 339970, 2
339976, 339975, 2
339975, 339976, 3
339975, 339974, 2
