130722, 130721, 2
130722, 130719, 2
130718, 130721, 1
130718, 130719, 3
130718, 130720, 8
130721, 130722, 1
130721, 130718, 2
130721, 130719, 2
130721, 130720, 2
130719, 130722, 2
130719, 130718, 2
130719, 130721, 2
130719, 130720, 2
130720, 130718, 2
130720, 130721, 2
130720, 130719, 2
