63474, 63475, 1
63474, 63472, 2
63474, 63473, 2
63472, 63474, 1
63472, 63470, 2
63472, 63473, 0
63472, 63471, 2
63472, 63469, 2
63472, 63475, 2
63477, 63476, 2
63477, 63479, 2
63477, 63478, 2
63477, 63481, 2
63477, 63475, 2
63479, 63476, 2
63479, 63480, 6
63479, 63481, 3
63479, 63477, 2
63479, 63482, 0
63479, 63478, 2
63481, 63479, 2
63481, 63477, 2
63481, 63482, 2
63481, 63480, 2
63470, 63472, 1
63470, 63469, 2
63470, 63471, 0
63473, 63474, 2
63473, 63472, 2
63473, 63475, 2
63482, 63479, 2
63482, 63478, 2
63482, 63480, 2
63482, 63481, 2
63476, 63479, 1
63476, 63477, 3
63476, 63475, 2
63476, 63480, 2
63476, 63478, 0
63478, 63476, 2
63478, 63479, 2
63478, 63475, 2
63478, 63480, 2
63478, 63477, 2
63478, 63482, 2
63480, 63476, 2
63480, 63479, 2
63480, 63478, 2
63480, 63482, 2
63480, 63481, 2
63475, 63474, 2
63475, 63472, 2
63475, 63473, 2
63475, 63477, 2
63475, 63476, 1
63475, 63478, 2
63471, 63472, 2
63471, 63469, 2
63471, 63470, 2
63469, 63472, 2
63469, 63471, 2
63469, 63470, 1
