252844, 252847, 2
252844, 252845, 1
252844, 252843, 2
252844, 252846, 2
252851, 252852, 2
252851, 252850, 2
252847, 252848, 1
252847, 252844, 2
252847, 252843, 2
252847, 252846, 2
252857, 252858, 1
252857, 252856, 2
252852, 252851, 2
252852, 252853, 1
252852, 252850, 2
252853, 252852, 2
252853, 252854, 3
252854, 252855, 1
252854, 252853, 2
252855, 252856, 1
252855, 252854, 2
252845, 252844, 2
252845, 252846, 1
252846, 252848, 2
252846, 252847, 2
252846, 252845, 2
252846, 252844, 2
252846, 252843, 2
252856, 252855, 2
252856, 252858, 2
252856, 252857, 1
252850, 252848, 2
252850, 252851, 8
252850, 252852, 1
252850, 252849, 2
252848, 252847, 2
252848, 252849, 3
252848, 252846, 2
252848, 252850, 1
252858, 252856, 2
252858, 252857, 2
252843, 252847, 1
252843, 252844, 3
252843, 252846, 2
252849, 252848, 2
252849, 252850, 2
