218796, 218795, 2
218796, 218797, 2
218796, 218794, 2
218796, 218793, 2
218796, 218800, 2
218783, 218784, 1
218783, 218785, 2
218783, 218782, 6
218785, 218784, 2
218785, 218786, 1
218785, 218783, 2
218785, 218782, 2
218799, 218800, 3
218799, 218797, 2
218799, 218801, 1
218799, 218782, 2
218799, 218798, 2
218798, 218797, 2
218798, 218799, 1
218797, 218796, 2
218797, 218795, 2
218797, 218799, 2
218797, 218798, 1
218797, 218800, 2
218797, 218782, 2
218792, 218793, 3
218792, 218795, 1
218792, 218791, 2
218792, 218794, 8
218792, 218782, 2
218802, 218800, 2
218802, 218801, 2
218794, 218796, 2
218794, 218795, 2
218794, 218792, 2
218794, 218793, 2
218782, 218783, 2
218782, 218785, 2
218782, 218799, 2
218782, 218797, 2
218782, 218792, 2
218782, 218790, 2
218782, 218795, 2
218782, 218788, 2
218782, 218801, 2
218782, 218784, 2
218782, 218789, 2
218782, 218787, 2
218782, 218791, 2
218782, 218786, 2
218790, 218789, 2
218790, 218788, 2
218790, 218791, 1
218790, 218782, 2
218795, 218796, 3
218795, 218793, 2
218795, 218794, 2
218795, 218797, 1
218795, 218792, 2
218795, 218782, 2
218788, 218789, 1
218788, 218787, 2
218788, 218790, 2
218788, 218786, 2
218788, 218782, 2
218801, 218800, 2
218801, 218799, 2
218801, 218802, 3
218801, 218782, 2
218784, 218783, 2
218784, 218785, 1
218784, 218782, 2
218789, 218790, 1
218789, 218788, 2
218789, 218791, 2
218789, 218782, 2
218800, 218796, 2
218800, 218797, 2
218800, 218801, 2
218800, 218799, 2
218800, 218802, 2
218787, 218788, 1
218787, 218786, 2
218787, 218782, 2
218791, 218790, 2
218791, 218789, 2
218791, 218792, 1
218791, 218793, 2
218791, 218782, 2
218786, 218787, 1
218786, 218788, 2
218786, 218785, 2
218786, 218782, 2
218793, 218796, 2
218793, 218795, 2
218793, 218792, 2
218793, 218794, 2
218793, 218791, 2
