163226, 163228, 2
163226, 163227, 1
163226, 163225, 2
163215, 163216, 2
163215, 163214, 2
163215, 163217, 2
163223, 163224, 1
163223, 163222, 2
163223, 163225, 2
163220, 163217, 2
163220, 163219, 2
163220, 163221, 1
163216, 163217, 1
163216, 163215, 2
163216, 163214, 2
163218, 163217, 2
163218, 163219, 1
163214, 163216, 1
163214, 163215, 3
163214, 163217, 2
163227, 163226, 2
163227, 163225, 2
163227, 163228, 1
163232, 163231, 2
163232, 163233, 1
163225, 163226, 1
163225, 163224, 2
163225, 163227, 2
163225, 163223, 2
163217, 163216, 2
163217, 163215, 2
163217, 163214, 2
163217, 163218, 1
163217, 163220, 2
163230, 163231, 1
163230, 163229, 2
163229, 163230, 1
163229, 163228, 2
163221, 163220, 2
163221, 163222, 1
163224, 163223, 2
163224, 163225, 1
163233, 163234, 1
163233, 163232, 2
163234, 163233, 2
163228, 163226, 2
163228, 163229, 1
163228, 163227, 2
163219, 163220, 1
163219, 163218, 2
163222, 163223, 1
163222, 163221, 2
163231, 163230, 2
163231, 163232, 1
