217547, 217546, 2
217547, 217548, 2
217547, 217551, 2
217547, 217550, 2
217547, 217549, 1
217547, 217545, 2
217551, 217554, 1
217551, 217546, 2
217551, 217549, 2
217551, 217553, 0
217551, 217547, 2
217551, 217552, 3
217551, 217550, 2
217551, 217548, 2
217551, 217555, 2
217551, 217545, 2
217548, 217546, 2
217548, 217553, 2
217548, 217547, 2
217548, 217551, 2
217548, 217550, 2
217548, 217549, 2
217548, 217555, 2
217548, 217545, 2
217545, 217547, 2
217545, 217551, 2
217545, 217548, 2
217545, 217554, 2
217545, 217546, 2
217545, 217558, 2
217545, 217553, 2
217545, 217552, 2
217545, 217556, 2
217545, 217550, 2
217545, 217549, 2
217545, 217555, 2
217554, 217553, 2
217554, 217552, 2
217554, 217551, 2
217554, 217556, 1
217554, 217555, 2
217554, 217545, 2
217546, 217548, 0
217546, 217547, 3
217546, 217551, 1
217546, 217550, 2
217546, 217549, 2
217546, 217545, 6
217558, 217556, 2
217558, 217559, 3
217558, 217555, 2
217558, 217557, 2
217558, 217545, 2
217553, 217554, 2
217553, 217552, 2
217553, 217551, 2
217553, 217556, 2
217553, 217548, 2
217553, 217555, 2
217553, 217545, 2
217552, 217554, 2
217552, 217553, 2
217552, 217551, 2
217552, 217556, 2
217552, 217550, 2
217552, 217555, 2
217552, 217557, 2
217552, 217545, 2
217556, 217554, 2
217556, 217558, 1
217556, 217553, 2
217556, 217552, 2
217556, 217555, 6
217556, 217557, 3
217556, 217545, 2
217559, 217558, 2
217559, 217555, 2
217559, 217557, 2
217550, 217546, 2
217550, 217549, 2
217550, 217547, 2
217550, 217551, 2
217550, 217548, 2
217550, 217552, 2
217550, 217545, 2
217549, 217546, 2
217549, 217547, 2
217549, 217551, 2
217549, 217550, 1
217549, 217548, 2
217549, 217545, 2
217555, 217554, 2
217555, 217558, 2
217555, 217553, 2
217555, 217552, 2
217555, 217551, 2
217555, 217556, 2
217555, 217559, 2
217555, 217548, 2
217555, 217557, 2
217555, 217545, 2
217557, 217556, 2
217557, 217559, 2
217557, 217558, 2
217557, 217555, 2
217557, 217552, 2
