332878, 332876, 2
332878, 332877, 2
332871, 332872, 2
332871, 332873, 2
332871, 332870, 2
332873, 332872, 2
332873, 332870, 2
332873, 332871, 2
332873, 332875, 1
332873, 332874, 3
332877, 332878, 1
332877, 332876, 2
332872, 332871, 2
332872, 332873, 2
332872, 332870, 2
332869, 332870, 1
332874, 332873, 2
332874, 332875, 2
332876, 332878, 2
332876, 332875, 2
332876, 332877, 1
332870, 332872, 8
332870, 332869, 2
332870, 332871, 3
332870, 332873, 1
332875, 332874, 2
332875, 332873, 2
332875, 332876, 1
