170751, 170750, 2
170751, 170752, 1
170751, 170733, 2
170784, 170787, 2
170784, 170783, 2
170784, 170767, 2
170784, 170785, 1
170784, 170789, 2
170784, 170786, 2
170767, 170772, 2
170767, 170771, 2
170767, 170790, 2
170767, 170778, 2
170767, 170789, 2
170767, 170773, 2
170767, 170770, 2
170767, 170768, 2
170767, 170786, 2
170767, 170764, 2
170767, 170787, 2
170767, 170775, 2
170767, 170774, 2
170767, 170788, 2
170767, 170784, 2
170767, 170769, 2
170767, 170766, 2
170767, 170762, 2
170775, 170772, 2
170775, 170781, 2
170775, 170777, 2
170775, 170765, 2
170775, 170778, 2
170775, 170780, 2
170775, 170768, 2
170775, 170776, 1
170775, 170774, 2
170775, 170767, 2
170775, 170779, 2
170775, 170782, 2
170775, 170766, 2
170765, 170772, 2
170765, 170771, 2
170765, 170778, 2
170765, 170789, 2
170765, 170773, 2
170765, 170770, 2
170765, 170768, 2
170765, 170764, 2
170765, 170775, 2
170765, 170774, 2
170765, 170766, 1
170765, 170756, 2
170765, 170762, 2
170758, 170759, 2
170758, 170762, 2
170758, 170755, 2
170758, 170739, 2
170758, 170757, 2
170758, 170752, 2
170758, 170756, 2
170758, 170733, 2
170789, 170784, 2
170789, 170765, 2
170789, 170788, 2
170789, 170790, 1
170789, 170787, 2
170789, 170786, 2
170789, 170733, 2
170789, 170764, 2
170789, 170778, 2
170789, 170783, 2
170789, 170767, 2
170789, 170782, 2
170789, 170766, 2
170757, 170730, 2
170757, 170743, 2
170757, 170759, 1
170757, 170731, 2
170757, 170727, 2
170757, 170739, 2
170757, 170758, 3
170757, 170750, 2
170757, 170729, 2
170757, 170733, 2
170757, 170753, 2
170757, 170736, 2
170757, 170762, 2
170757, 170755, 2
170757, 170754, 2
170757, 170734, 2
170757, 170752, 2
170757, 170756, 2
170757, 170732, 2
170763, 170764, 1
170763, 170756, 2
170763, 170762, 2
170763, 170755, 2
170763, 170778, 2
170763, 170761, 2
170763, 170769, 2
170763, 170754, 2
170763, 170768, 2
170764, 170756, 2
170764, 170762, 2
170764, 170767, 2
170764, 170765, 1
170764, 170778, 2
170764, 170789, 2
170764, 170769, 2
170764, 170754, 2
170764, 170768, 2
170764, 170763, 2
170787, 170784, 2
170787, 170767, 2
170787, 170788, 1
170787, 170785, 2
170787, 170789, 2
170787, 170786, 2
170745, 170748, 2
170745, 170747, 2
170745, 170746, 1
170745, 170750, 2
170745, 170744, 2
170745, 170733, 2
170736, 170743, 2
170736, 170741, 2
170736, 170739, 2
170736, 170738, 2
170736, 170757, 2
170736, 170733, 2
170736, 170730, 2
170736, 170740, 2
170736, 170729, 2
170736, 170731, 2
170736, 170737, 1
170736, 170742, 2
170736, 170734, 2
170736, 170735, 2
170736, 170732, 2
170762, 170761, 2
170762, 170759, 2
170762, 170755, 2
170762, 170765, 2
170762, 170778, 2
170762, 170757, 4
170762, 170770, 2
170762, 170768, 1
170762, 170763, 2
170762, 170764, 2
170762, 170758, 2
170762, 170767, 2
170762, 170733, 2
170762, 170754, 2
170762, 170769, 2
170762, 170766, 2
170762, 170756, 2
170762, 170760, 2
170731, 170730, 2
170731, 170736, 2
170731, 170739, 2
170731, 170725, 2
170731, 170750, 2
170731, 170732, 1
170731, 170757, 2
170731, 170726, 2
170731, 170729, 2
170731, 170734, 2
170759, 170753, 2
170759, 170762, 2
170759, 170755, 2
170759, 170739, 2
170759, 170758, 2
170759, 170754, 2
170759, 170733, 2
170759, 170757, 2
170759, 170752, 2
170759, 170756, 2
170759, 170760, 1
170771, 170772, 1
170771, 170767, 2
170771, 170777, 2
170771, 170765, 2
170771, 170770, 2
170771, 170766, 2
170782, 170779, 2
170782, 170776, 2
170782, 170783, 1
170782, 170778, 2
170782, 170781, 2
170782, 170780, 2
170782, 170789, 2
170782, 170775, 2
170785, 170788, 2
170785, 170787, 1
170785, 170784, 2
170785, 170786, 8
170766, 170772, 2
170766, 170771, 2
170766, 170765, 2
170766, 170778, 2
170766, 170789, 2
170766, 170773, 2
170766, 170770, 2
170766, 170768, 2
170766, 170775, 2
170766, 170762, 2
170766, 170767, 3
170766, 170774, 2
170777, 170772, 2
170777, 170776, 2
170777, 170771, 2
170777, 170779, 1
170777, 170781, 2
170777, 170780, 2
170777, 170749, 2
170777, 170775, 2
170769, 170764, 2
170769, 170762, 2
170769, 170767, 2
170769, 170761, 2
170769, 170760, 2
170769, 170770, 1
170769, 170768, 2
170769, 170763, 2
170726, 170730, 2
170726, 170728, 2
170726, 170727, 2
170726, 170724, 2
170726, 170731, 2
170726, 170729, 2
170726, 170725, 2
170726, 170723, 2
170726, 170733, 2
170726, 170732, 2
170738, 170730, 2
170738, 170740, 1
170738, 170736, 2
170738, 170741, 2
170738, 170737, 2
170738, 170742, 2
170738, 170770, 2
170738, 170725, 2
170778, 170772, 2
170778, 170781, 2
170778, 170765, 2
170778, 170780, 2
170778, 170766, 2
170778, 170775, 2
170778, 170768, 2
170778, 170763, 2
170778, 170764, 2
170778, 170776, 2
170778, 170762, 2
170778, 170767, 2
170778, 170774, 2
170778, 170782, 2
170778, 170770, 2
170778, 170789, 2
170778, 170760, 2
170788, 170787, 2
170788, 170789, 2
170788, 170785, 2
170788, 170767, 2
170788, 170786, 2
170725, 170730, 2
170725, 170727, 2
170725, 170724, 2
170725, 170731, 2
170725, 170729, 2
170725, 170728, 2
170725, 170723, 2
170725, 170726, 2
170725, 170738, 2
170725, 170732, 2
170776, 170779, 2
170776, 170775, 2
170776, 170781, 2
170776, 170777, 6
170776, 170778, 4
170776, 170780, 1
170776, 170782, 2
170727, 170730, 2
170727, 170728, 1
170727, 170724, 2
170727, 170739, 2
170727, 170725, 2
170727, 170723, 2
170727, 170726, 2
170727, 170757, 2
170727, 170750, 2
170727, 170734, 2
170783, 170789, 2
170783, 170782, 2
170783, 170784, 1
170774, 170772, 2
170774, 170775, 1
170774, 170767, 2
170774, 170765, 2
170774, 170778, 2
170774, 170773, 2
170774, 170766, 2
170774, 170768, 2
170755, 170759, 2
170755, 170762, 2
170755, 170758, 2
170755, 170754, 2
170755, 170760, 2
170755, 170757, 2
170755, 170761, 2
170755, 170756, 2
170755, 170763, 2
170748, 170745, 2
170748, 170746, 2
170748, 170747, 2
170748, 170750, 2
170748, 170749, 1
170748, 170733, 2
170746, 170747, 8
170746, 170745, 2
170746, 170749, 2
170746, 170748, 1
170735, 170730, 2
170735, 170736, 1
170735, 170739, 2
170735, 170734, 2
170735, 170729, 2
170735, 170733, 2
170732, 170743, 2
170732, 170739, 2
170732, 170725, 2
170732, 170726, 2
170732, 170757, 2
170732, 170734, 2
170732, 170730, 2
170732, 170736, 2
170732, 170731, 2
170732, 170737, 2
170732, 170750, 2
170732, 170733, 3
170772, 170775, 2
170772, 170771, 2
170772, 170774, 2
170772, 170767, 2
170772, 170765, 2
170772, 170778, 2
170772, 170773, 1
170772, 170766, 2
170772, 170768, 2
170772, 170777, 2
170724, 170725, 0
170724, 170723, 2
170724, 170726, 3
170724, 170727, 2
170724, 170730, 1
170790, 170789, 2
170790, 170767, 2
170790, 170733, 2
170728, 170730, 2
170728, 170727, 2
170728, 170729, 1
170728, 170725, 2
170728, 170726, 2
170728, 170734, 2
170747, 170745, 2
170747, 170746, 2
170747, 170748, 2
170747, 170750, 2
170747, 170749, 2
170747, 170733, 2
170749, 170777, 2
170749, 170748, 2
170749, 170747, 2
170749, 170746, 2
170749, 170750, 2
170749, 170733, 2
170773, 170772, 2
170773, 170774, 1
170773, 170767, 2
170773, 170765, 2
170773, 170766, 2
170773, 170768, 2
170761, 170760, 2
170761, 170769, 2
170761, 170762, 2
170761, 170755, 2
170761, 170763, 1
170768, 170772, 2
170768, 170760, 2
170768, 170765, 2
170768, 170778, 2
170768, 170773, 2
170768, 170770, 2
170768, 170763, 2
170768, 170764, 2
170768, 170775, 2
170768, 170762, 2
170768, 170767, 2
170768, 170769, 0
170768, 170766, 2
170768, 170774, 2
170734, 170730, 2
170734, 170727, 2
170734, 170736, 2
170734, 170731, 2
170734, 170739, 2
170734, 170728, 2
170734, 170733, 2
170734, 170757, 2
170734, 170735, 0
170734, 170729, 2
170734, 170732, 2
170753, 170759, 2
170753, 170754, 1
170753, 170757, 2
170753, 170752, 2
170753, 170756, 2
170737, 170743, 2
170737, 170740, 2
170737, 170736, 2
170737, 170741, 1
170737, 170739, 4
170737, 170733, 2
170737, 170742, 2
170737, 170738, 6
170737, 170732, 2
170742, 170736, 2
170742, 170740, 2
170742, 170743, 1
170742, 170741, 2
170742, 170739, 2
170742, 170737, 2
170742, 170738, 2
170754, 170753, 2
170754, 170764, 2
170754, 170759, 2
170754, 170762, 1
170754, 170755, 0
170754, 170757, 2
170754, 170756, 3
170754, 170763, 2
170752, 170753, 1
170752, 170751, 2
170752, 170759, 2
170752, 170739, 2
170752, 170758, 2
170752, 170757, 2
170752, 170756, 2
170752, 170733, 2
170756, 170764, 2
170756, 170759, 2
170756, 170765, 2
170756, 170758, 2
170756, 170757, 2
170756, 170763, 2
170756, 170753, 2
170756, 170762, 2
170756, 170755, 2
170756, 170754, 2
170756, 170733, 2
170756, 170752, 2
170756, 170760, 2
170760, 170756, 2
170760, 170759, 2
170760, 170762, 2
170760, 170755, 2
170760, 170739, 2
170760, 170778, 2
170760, 170761, 1
170760, 170769, 2
170760, 170768, 2
170760, 170733, 2
170730, 170724, 2
170730, 170729, 2
170730, 170728, 2
170730, 170726, 2
170730, 170738, 2
170730, 170757, 2
170730, 170735, 2
170730, 170734, 1
170730, 170725, 2
170730, 170736, 2
170730, 170731, 2
170730, 170739, 2
170730, 170750, 2
170730, 170733, 2
170730, 170727, 4
170730, 170732, 2
170743, 170739, 2
170743, 170757, 2
170743, 170770, 2
170743, 170733, 2
170743, 170740, 2
170743, 170736, 2
170743, 170741, 2
170743, 170737, 2
170743, 170742, 2
170743, 170750, 2
170743, 170744, 1
170743, 170732, 2
170781, 170779, 2
170781, 170776, 2
170781, 170777, 2
170781, 170778, 2
170781, 170780, 2
170781, 170782, 1
170781, 170775, 2
170739, 170760, 2
170739, 170743, 2
170739, 170759, 2
170739, 170735, 2
170739, 170729, 2
170739, 170758, 2
170739, 170752, 2
170739, 170757, 2
170739, 170733, 2
170739, 170730, 2
170739, 170731, 2
170739, 170736, 2
170739, 170741, 2
170739, 170737, 2
170739, 170742, 2
170739, 170750, 2
170739, 170734, 2
170739, 170727, 2
170739, 170732, 2
170723, 170725, 2
170723, 170726, 2
170723, 170727, 2
170723, 170724, 1
170770, 170738, 2
170770, 170743, 2
170770, 170771, 1
170770, 170762, 2
170770, 170767, 2
170770, 170765, 2
170770, 170778, 2
170770, 170769, 2
170770, 170766, 2
170770, 170768, 2
170733, 170751, 2
170733, 170759, 2
170733, 170790, 2
170733, 170758, 2
170733, 170747, 2
170733, 170789, 2
170733, 170757, 2
170733, 170734, 2
170733, 170730, 2
170733, 170745, 2
170733, 170736, 2
170733, 170749, 2
170733, 170762, 2
170733, 170737, 2
170733, 170752, 2
170733, 170756, 2
170733, 170760, 2
170733, 170743, 2
170733, 170739, 2
170733, 170726, 2
170733, 170748, 2
170733, 170750, 2
170733, 170735, 2
170733, 170744, 2
170733, 170732, 2
170740, 170743, 2
170740, 170736, 2
170740, 170741, 2
170740, 170737, 2
170740, 170742, 2
170740, 170738, 2
170729, 170730, 2
170729, 170728, 2
170729, 170726, 2
170729, 170736, 2
170729, 170731, 1
170729, 170739, 2
170729, 170725, 2
170729, 170750, 2
170729, 170757, 2
170729, 170735, 2
170729, 170734, 2
170741, 170736, 2
170741, 170740, 2
170741, 170743, 2
170741, 170739, 2
170741, 170737, 2
170741, 170742, 1
170741, 170738, 2
170779, 170776, 2
170779, 170781, 2
170779, 170777, 2
170779, 170780, 2
170779, 170782, 2
170779, 170775, 2
170750, 170751, 1
170750, 170743, 2
170750, 170739, 2
170750, 170747, 2
170750, 170749, 2
170750, 170757, 2
170750, 170733, 2
170750, 170730, 2
170750, 170745, 2
170750, 170729, 2
170750, 170731, 2
170750, 170748, 2
170750, 170727, 2
170750, 170744, 2
170750, 170732, 2
170786, 170787, 2
170786, 170784, 2
170786, 170767, 2
170786, 170788, 2
170786, 170789, 2
170786, 170785, 2
170780, 170779, 2
170780, 170776, 2
170780, 170781, 1
170780, 170777, 2
170780, 170778, 2
170780, 170782, 2
170780, 170775, 2
170744, 170745, 1
170744, 170743, 2
170744, 170750, 2
170744, 170733, 2
