221202, 221203, 2
221202, 221205, 2
221202, 221204, 2
221202, 221201, 2
221203, 221202, 2
221203, 221205, 2
221203, 221204, 2
221203, 221201, 2
221205, 221203, 2
221205, 221202, 2
221205, 221204, 2
221204, 221202, 2
221204, 221203, 2
221204, 221205, 3
221204, 221201, 2
221201, 221202, 3
221201, 221203, 8
221201, 221204, 1
