163835, 163833, 2
163835, 163836, 1
163835, 163837, 2
163835, 163834, 2
163840, 163842, 2
163840, 163841, 2
163840, 163838, 2
163840, 163839, 2
163826, 163827, 1
163826, 163829, 2
163826, 163825, 2
163826, 163828, 2
163839, 163842, 2
163839, 163841, 1
163839, 163840, 8
163839, 163838, 2
163833, 163832, 2
163833, 163835, 2
163833, 163834, 1
163841, 163842, 1
163841, 163838, 2
163841, 163840, 2
163841, 163839, 2
163834, 163833, 2
163834, 163835, 1
163838, 163840, 2
163838, 163841, 2
163838, 163842, 2
163838, 163836, 2
163838, 163837, 2
163838, 163839, 1
163825, 163826, 1
163825, 163824, 2
163823, 163824, 2
163823, 163822, 2
163827, 163826, 2
163827, 163829, 2
163827, 163828, 1
163824, 163822, 2
163824, 163825, 1
163824, 163823, 2
163843, 163842, 2
163843, 163845, 1
163843, 163844, 3
163822, 163824, 1
163822, 163823, 3
163831, 163832, 1
163831, 163830, 2
163836, 163837, 3
163836, 163835, 2
163836, 163838, 1
163837, 163836, 2
163837, 163835, 2
163837, 163838, 2
163844, 163842, 2
163844, 163843, 2
163844, 163845, 2
163832, 163833, 1
163832, 163830, 2
163832, 163831, 2
163828, 163827, 2
163828, 163826, 2
163828, 163829, 0
163828, 163830, 1
163842, 163839, 2
163842, 163840, 2
163842, 163841, 2
163842, 163843, 1
163842, 163838, 2
163842, 163845, 2
163842, 163844, 2
163845, 163842, 2
163845, 163843, 2
163845, 163844, 2
163829, 163827, 2
163829, 163826, 2
163829, 163828, 2
163829, 163830, 2
163830, 163832, 2
163830, 163829, 2
163830, 163828, 2
163830, 163831, 1
