293948, 293949, 2
293948, 293947, 2
293948, 293946, 2
293947, 293948, 1
293947, 293945, 2
293947, 293946, 2
293947, 293949, 2
293946, 293944, 2
293946, 293948, 2
293946, 293947, 8
293946, 293945, 2
293946, 293949, 1
293944, 293942, 2
293944, 293943, 2
293944, 293945, 8
293944, 293946, 1
293949, 293948, 2
293949, 293947, 2
293949, 293946, 2
293942, 293944, 2
293942, 293941, 2
293942, 293943, 1
293942, 293945, 2
293941, 293942, 1
293941, 293943, 2
293941, 293945, 2
293943, 293944, 1
293943, 293941, 2
293943, 293942, 2
293945, 293944, 2
293945, 293947, 2
293945, 293941, 2
293945, 293942, 2
293945, 293946, 2
