259541, 259540, 2
259541, 259544, 2
259541, 259542, 1
259541, 259543, 2
259547, 259546, 2
259539, 259540, 1
259544, 259541, 2
259544, 259545, 1
259544, 259542, 2
259544, 259543, 2
259540, 259541, 1
259540, 259542, 2
259540, 259539, 2
259540, 259543, 2
259546, 259547, 1
259546, 259545, 2
259542, 259541, 2
259542, 259540, 2
259542, 259544, 2
259542, 259543, 1
259543, 259541, 2
259543, 259542, 2
259543, 259544, 1
259543, 259540, 2
259545, 259544, 2
259545, 259546, 1
