258025, 258023, 2
258025, 258022, 2
258025, 258024, 2
258025, 258021, 2
258023, 258025, 2
258023, 258024, 1
258023, 258022, 2
258023, 258021, 2
258024, 258025, 1
258024, 258023, 2
258022, 258025, 2
258022, 258023, 1
258022, 258021, 2
258021, 258025, 2
258021, 258023, 2
258021, 258022, 0
