297382, 297381, 2
297382, 297383, 1
297375, 297376, 1
297375, 297378, 2
297375, 297377, 2
297375, 297379, 2
297375, 297374, 2
297365, 297363, 2
297365, 297378, 2
297365, 297364, 2
297365, 297368, 2
297365, 297372, 2
297365, 297367, 2
297365, 297374, 2
297365, 297369, 2
297365, 297366, 2
297365, 297380, 2
297377, 297375, 2
297377, 297378, 2
297377, 297374, 2
297377, 297376, 2
297377, 297381, 2
297377, 297379, 3
297377, 297380, 2
297364, 297363, 2
297364, 297365, 2
297364, 297369, 2
297364, 297367, 2
297364, 297366, 1
297364, 297379, 2
297374, 297375, 1
297374, 297365, 2
297374, 297378, 2
297374, 297377, 2
297374, 297372, 2
297374, 297381, 2
297374, 297369, 2
297374, 297379, 2
297374, 297380, 2
297374, 297373, 2
297370, 297368, 2
297370, 297372, 2
297370, 297369, 2
297370, 297367, 2
297370, 297379, 2
297370, 297371, 2
297381, 297382, 1
297381, 297378, 2
297381, 297377, 2
297381, 297383, 2
297381, 297376, 2
297381, 297374, 2
297381, 297379, 2
297381, 297380, 2
297383, 297382, 2
297383, 297381, 2
297383, 297379, 2
297383, 297380, 2
297369, 297365, 2
297369, 297364, 2
297369, 297374, 2
297369, 297370, 2
297369, 297371, 2
297369, 297363, 2
297369, 297378, 2
297369, 297368, 2
297369, 297372, 2
297369, 297367, 2
297369, 297366, 2
297369, 297380, 2
297379, 297375, 2
297379, 297378, 2
297379, 297377, 2
297379, 297364, 2
297379, 297374, 2
297379, 297372, 2
297379, 297370, 2
297379, 297383, 2
297379, 297381, 2
297379, 297380, 2
297379, 297367, 2
297371, 297372, 1
297371, 297370, 2
297371, 297369, 2
297371, 297368, 2
297363, 297365, 2
297363, 297369, 2
297363, 297380, 2
297363, 297364, 1
297376, 297375, 2
297376, 297381, 1
297376, 297378, 0
297376, 297377, 3
297376, 297380, 2
297378, 297375, 2
297378, 297365, 2
297378, 297377, 2
297378, 297374, 2
297378, 297376, 2
297378, 297381, 2
297378, 297368, 2
297378, 297369, 2
297378, 297379, 2
297378, 297380, 1
297368, 297365, 2
297368, 297378, 2
297368, 297372, 2
297368, 297367, 2
297368, 297371, 1
297368, 297370, 8
297368, 297369, 6
297368, 297380, 2
297368, 297366, 2
297372, 297365, 2
297372, 297368, 2
297372, 297369, 2
297372, 297373, 1
297372, 297374, 2
297372, 297370, 2
297372, 297379, 2
297372, 297380, 2
297372, 297371, 2
297367, 297365, 2
297367, 297364, 2
297367, 297368, 2
297367, 297369, 2
297367, 297370, 2
297367, 297366, 2
297367, 297379, 2
297366, 297367, 8
297366, 297365, 6
297366, 297369, 2
297366, 297364, 2
297366, 297368, 1
297380, 297365, 2
297380, 297377, 2
297380, 297374, 2
297380, 297368, 2
297380, 297369, 2
297380, 297363, 2
297380, 297376, 2
297380, 297378, 2
297380, 297383, 2
297380, 297372, 2
297380, 297381, 2
297380, 297379, 2
297373, 297372, 2
297373, 297374, 1
