132937, 132940, 2
132937, 132936, 2
132937, 132938, 2
132940, 132937, 2
132940, 132939, 2
132940, 132938, 2
132936, 132937, 3
132936, 132938, 1
132939, 132940, 3
132939, 132938, 2
132938, 132937, 2
132938, 132940, 2
132938, 132936, 2
132938, 132939, 1
