300222, 300223, 1
300222, 300220, 2
300222, 300221, 2
300223, 300222, 2
300223, 300221, 2
300220, 300222, 1
300220, 300219, 2
300220, 300221, 2
300219, 300220, 0
300219, 300221, 3
300221, 300222, 2
300221, 300223, 2
300221, 300220, 2
300221, 300219, 2
