335532, 335533, 1
335532, 335531, 2
335540, 335542, 1
335540, 335541, 8
335540, 335539, 2
335535, 335533, 2
335535, 335536, 1
335535, 335534, 2
335534, 335541, 2
335534, 335533, 2
335534, 335536, 2
335534, 335535, 2
335544, 335542, 2
335544, 335545, 8
335544, 335543, 2
335544, 335546, 1
335545, 335541, 2
335545, 335546, 2
335545, 335544, 2
335530, 335529, 2
335530, 335531, 1
335531, 335532, 1
335531, 335530, 2
335543, 335542, 2
335543, 335544, 1
335546, 335545, 2
335546, 335544, 2
335539, 335540, 1
335539, 335538, 2
335533, 335532, 2
335533, 335535, 1
335533, 335534, 3
335541, 335542, 2
335541, 335540, 2
335541, 335534, 2
335541, 335545, 2
335537, 335536, 2
335537, 335538, 1
335542, 335540, 2
335542, 335541, 2
335542, 335543, 1
335542, 335544, 2
335529, 335530, 1
335536, 335535, 2
335536, 335534, 2
335536, 335537, 1
335538, 335537, 2
335538, 335539, 1
