72532, 72533, 1
72532, 72531, 2
72532, 72534, 2
72537, 72536, 2
72537, 72535, 2
72536, 72535, 2
72536, 72537, 1
72535, 72536, 1
72535, 72537, 2
72535, 72534, 2
72531, 72532, 1
72531, 72533, 2
72533, 72532, 2
72533, 72531, 2
72533, 72534, 1
72534, 72532, 2
72534, 72535, 1
72534, 72533, 2
