300186, 300188, 1
300186, 300185, 2
300186, 300187, 8
300188, 300187, 2
300188, 300186, 2
300188, 300185, 2
300185, 300188, 2
300185, 300186, 3
300185, 300184, 2
300184, 300185, 1
300187, 300188, 2
300187, 300186, 2
