217531, 217534, 1
217531, 217533, 3
217531, 217530, 2
217531, 217532, 6
217531, 217536, 2
217543, 217544, 1
217543, 217542, 2
217540, 217541, 1
217540, 217542, 2
217540, 217539, 2
217535, 217533, 2
217535, 217536, 6
217535, 217534, 2
217535, 217532, 2
217535, 217537, 3
217535, 217538, 1
217534, 217531, 2
217534, 217533, 2
217534, 217535, 1
217534, 217536, 2
217534, 217530, 2
217534, 217537, 2
217534, 217532, 2
217534, 217538, 2
217532, 217531, 2
217532, 217533, 2
217532, 217535, 2
217532, 217536, 2
217532, 217534, 2
217532, 217538, 2
217532, 217530, 2
217541, 217542, 1
217541, 217540, 2
217538, 217535, 2
217538, 217536, 2
217538, 217534, 2
217538, 217537, 2
217538, 217532, 2
217538, 217539, 1
217542, 217544, 2
217542, 217543, 1
217542, 217541, 2
217542, 217540, 2
217533, 217531, 2
217533, 217535, 2
217533, 217534, 2
217533, 217532, 2
217533, 217537, 2
217533, 217530, 2
217536, 217531, 2
217536, 217535, 2
217536, 217534, 2
217536, 217530, 2
217536, 217537, 2
217536, 217532, 2
217536, 217538, 2
217537, 217534, 2
217537, 217533, 2
217537, 217538, 2
217537, 217536, 2
217537, 217535, 2
217530, 217531, 1
217530, 217533, 2
217530, 217534, 2
217530, 217532, 2
217530, 217536, 2
217544, 217543, 2
217544, 217542, 2
217539, 217538, 2
217539, 217540, 1
