253047, 253048, 1
253047, 253046, 2
253048, 253047, 2
253048, 253049, 0
253036, 253037, 2
253036, 253035, 2
253041, 253043, 1
253041, 253040, 2
253041, 253042, 6
253041, 253039, 2
253049, 253048, 2
253043, 253040, 2
253043, 253041, 2
253043, 253044, 1
253043, 253042, 2
253042, 253043, 2
253042, 253040, 2
253042, 253041, 2
253042, 253039, 2
253040, 253043, 2
253040, 253039, 2
253040, 253042, 2
253040, 253041, 1
253038, 253037, 2
253038, 253039, 1
253046, 253047, 1
253046, 253045, 2
253035, 253037, 1
253035, 253036, 6
253039, 253037, 2
253039, 253040, 1
253039, 253038, 2
253039, 253042, 2
253039, 253041, 2
253037, 253036, 2
253037, 253038, 1
253037, 253039, 2
253037, 253035, 2
253044, 253043, 2
253044, 253045, 1
253045, 253046, 1
253045, 253044, 2
