222346, 222345, 2
222346, 222348, 2
222346, 222347, 1
222343, 222345, 2
222343, 222344, 1
222344, 222345, 1
222344, 222343, 2
222348, 222346, 2
222348, 222349, 2
222348, 222347, 2
222345, 222346, 1
222345, 222343, 2
222345, 222344, 2
222349, 222348, 2
222349, 222347, 2
222349, 222350, 1
222350, 222349, 2
222347, 222346, 2
222347, 222348, 8
222347, 222349, 1
