300527, 300528, 2
300527, 300525, 2
300527, 300526, 2
300527, 300523, 2
300523, 300527, 2
300523, 300525, 1
300523, 300524, 3
300525, 300527, 2
300525, 300523, 2
300525, 300526, 1
300525, 300524, 2
300526, 300527, 6
300526, 300528, 1
300526, 300525, 2
300524, 300523, 2
300524, 300525, 2
300528, 300527, 2
300528, 300526, 2
