18790, 18786, 2
18790, 18789, 2
18790, 18792, 2
18790, 18791, 2
18790, 18788, 2
18790, 18787, 2
18792, 18790, 2
18792, 18793, 2
18792, 18791, 2
18785, 18786, 8
18785, 18783, 2
18785, 18787, 1
18785, 18784, 2
18777, 18782, 2
18777, 18778, 3
18777, 18780, 1
18777, 18776, 2
18776, 18782, 2
18776, 18775, 2
18776, 18778, 2
18776, 18777, 1
18776, 18780, 2
18782, 18783, 2
18782, 18777, 2
18782, 18776, 2
18782, 18778, 2
18782, 18780, 2
18782, 18781, 2
18787, 18786, 2
18787, 18790, 2
18787, 18789, 2
18787, 18788, 1
18787, 18785, 2
18789, 18786, 2
18789, 18790, 8
18789, 18788, 2
18789, 18791, 1
18789, 18787, 2
18781, 18782, 2
18781, 18783, 2
18781, 18779, 2
18781, 18780, 2
18786, 18790, 2
18786, 18783, 2
18786, 18784, 2
18786, 18787, 2
18786, 18789, 2
18786, 18785, 2
18775, 18774, 2
18775, 18776, 1
18783, 18786, 2
18783, 18784, 1
18783, 18782, 2
18783, 18785, 2
18783, 18780, 2
18783, 18781, 2
18793, 18792, 2
18793, 18791, 2
18791, 18790, 2
18791, 18789, 2
18791, 18792, 8
18791, 18793, 1
18773, 18774, 1
18784, 18786, 2
18784, 18783, 2
18784, 18785, 1
18788, 18790, 2
18788, 18789, 1
18788, 18787, 2
18774, 18775, 1
18774, 18773, 2
18778, 18782, 2
18778, 18776, 2
18778, 18779, 2
18778, 18780, 2
18778, 18777, 2
18780, 18783, 1
18780, 18777, 2
18780, 18776, 2
18780, 18782, 0
18780, 18779, 2
18780, 18778, 2
18780, 18781, 3
18779, 18778, 2
18779, 18780, 2
18779, 18781, 2
