300929, 300928, 2
300929, 300931, 2
300929, 300930, 3
300933, 300932, 2
300933, 300934, 2
300933, 300931, 2
300933, 300928, 2
300934, 300933, 2
300934, 300932, 2
300934, 300930, 2
300930, 300929, 2
300930, 300934, 2
300930, 300931, 2
300932, 300933, 6
300932, 300931, 2
300932, 300934, 1
300928, 300929, 3
300928, 300933, 2
300928, 300931, 1
300931, 300929, 2
300931, 300933, 2
300931, 300932, 1
300931, 300928, 2
300931, 300930, 2
