294139, 294140, 1
294139, 294138, 2
294137, 294135, 2
294137, 294138, 1
294137, 294136, 2
294140, 294139, 2
294138, 294139, 1
294138, 294136, 2
294138, 294137, 2
294135, 294134, 2
294135, 294137, 2
294135, 294136, 1
294134, 294132, 2
294134, 294131, 2
294134, 294133, 2
294134, 294135, 1
294134, 294136, 2
294132, 294134, 2
294132, 294131, 2
294132, 294133, 2
294131, 294134, 2
294131, 294132, 3
294131, 294133, 1
294133, 294134, 1
294133, 294132, 2
294133, 294131, 2
294136, 294134, 2
294136, 294138, 2
294136, 294135, 2
294136, 294137, 1
