299110, 299109, 2
299110, 299111, 3
299110, 299114, 2
299110, 299112, 1
299108, 299109, 1
299108, 299111, 2
299108, 299107, 2
299109, 299110, 1
299109, 299108, 2
299109, 299111, 2
299105, 299104, 2
299105, 299106, 1
299103, 299104, 2
299103, 299111, 2
299103, 299101, 2
299103, 299102, 2
299101, 299099, 2
299101, 299098, 2
299101, 299103, 2
299101, 299100, 2
299101, 299102, 2
299125, 299126, 1
299125, 299124, 2
299129, 299131, 1
299129, 299133, 2
299129, 299128, 2
299129, 299130, 3
299111, 299110, 2
299111, 299108, 2
299111, 299109, 2
299111, 299103, 2
299111, 299106, 2
299111, 299107, 2
299111, 299113, 2
299111, 299112, 2
299114, 299110, 2
299114, 299113, 2
299114, 299116, 2
299114, 299112, 2
299114, 299115, 1
299124, 299123, 2
299124, 299125, 1
299124, 299126, 2
299124, 299122, 2
299119, 299118, 2
299119, 299120, 1
299099, 299098, 2
299099, 299100, 1
299099, 299101, 2
299128, 299130, 2
299128, 299129, 1
299128, 299127, 2
299123, 299122, 2
299123, 299124, 1
299131, 299132, 3
299131, 299129, 2
299131, 299133, 1
299131, 299130, 2
299122, 299123, 1
299122, 299120, 2
299122, 299124, 2
299122, 299121, 2
299118, 299119, 1
299118, 299116, 2
299118, 299117, 2
299134, 299133, 2
299134, 299135, 1
299098, 299099, 1
299098, 299101, 2
299133, 299134, 1
299133, 299132, 2
299133, 299129, 2
299133, 299135, 2
299133, 299131, 2
299130, 299131, 2
299130, 299127, 2
299130, 299132, 2
299130, 299129, 2
299130, 299126, 2
299130, 299128, 2
299135, 299134, 2
299135, 299133, 2
299102, 299100, 2
299102, 299104, 1
299102, 299103, 3
299102, 299101, 2
299107, 299108, 1
299107, 299111, 2
299107, 299106, 2
299120, 299119, 2
299120, 299122, 2
299120, 299121, 1
299104, 299100, 2
299104, 299105, 1
299104, 299102, 2
299104, 299106, 2
299104, 299103, 2
299112, 299110, 2
299112, 299113, 3
299112, 299111, 2
299112, 299114, 1
299106, 299111, 2
299106, 299104, 2
299106, 299105, 2
299106, 299107, 1
299100, 299099, 2
299100, 299104, 2
299100, 299102, 1
299100, 299101, 3
299113, 299111, 2
299113, 299114, 2
299113, 299112, 2
299132, 299131, 2
299132, 299133, 2
299132, 299130, 2
299117, 299116, 2
299117, 299118, 1
299127, 299126, 2
299127, 299128, 1
299127, 299130, 2
299116, 299118, 2
299116, 299114, 2
299116, 299115, 2
299116, 299117, 1
299126, 299127, 1
299126, 299125, 2
299126, 299124, 2
299126, 299130, 2
299115, 299116, 1
299115, 299114, 2
299121, 299122, 1
299121, 299120, 2
