15946, 15944, 2
15946, 15947, 0
15946, 15945, 2
15947, 15946, 2
15942, 15943, 2
15942, 15940, 2
15942, 15944, 2
15942, 15939, 2
15942, 15941, 2
15939, 15943, 2
15939, 15940, 1
15939, 15942, 2
15939, 15938, 2
15939, 15937, 2
15937, 15939, 1
15937, 15938, 3
15945, 15946, 1
15945, 15944, 2
15943, 15944, 1
15943, 15940, 2
15943, 15942, 2
15943, 15939, 2
15943, 15941, 2
15940, 15943, 1
15940, 15942, 8
15940, 15939, 2
15940, 15941, 0
15944, 15946, 2
15944, 15945, 1
15944, 15942, 2
15944, 15943, 2
15941, 15943, 2
15941, 15940, 2
15941, 15942, 2
15938, 15939, 2
15938, 15937, 2
