218052, 218051, 2
218052, 218053, 1
218060, 218059, 2
218060, 218061, 1
218049, 218050, 1
218056, 218055, 2
218056, 218057, 1
218055, 218054, 2
218055, 218056, 1
218055, 218057, 2
218055, 218053, 2
218050, 218051, 1
218050, 218049, 2
218062, 218063, 3
218062, 218064, 1
218062, 218061, 2
218053, 218054, 1
218053, 218055, 2
218053, 218052, 2
218054, 218055, 1
218054, 218053, 2
218059, 218057, 2
218059, 218060, 1
218059, 218058, 2
218064, 218063, 2
218064, 218065, 1
218064, 218062, 2
218057, 218056, 2
218057, 218055, 2
218057, 218059, 2
218057, 218058, 1
218065, 218064, 2
218065, 218066, 1
218058, 218059, 1
218058, 218057, 2
218061, 218063, 2
218061, 218062, 1
218061, 218060, 2
218063, 218064, 2
218063, 218061, 2
218063, 218062, 2
218066, 218065, 2
218051, 218052, 1
218051, 218050, 2
