62802, 62803, 6
62802, 62805, 2
62802, 62804, 1
62806, 62807, 3
62806, 62808, 8
62806, 62811, 1
62806, 62809, 2
62806, 62805, 2
62806, 62813, 2
62811, 62812, 3
62811, 62807, 2
62811, 62806, 2
62811, 62808, 2
62811, 62810, 2
62811, 62813, 1
62811, 62805, 2
62811, 62809, 2
62813, 62812, 2
62813, 62811, 2
62813, 62809, 2
62813, 62806, 2
62809, 62811, 2
62809, 62810, 1
62809, 62808, 2
62809, 62807, 2
62809, 62806, 2
62809, 62805, 2
62809, 62813, 2
62812, 62811, 2
62812, 62810, 2
62812, 62813, 2
62807, 62811, 2
62807, 62810, 2
62807, 62808, 2
62807, 62806, 2
62807, 62805, 2
62807, 62809, 2
62803, 62802, 2
62803, 62805, 2
62803, 62804, 2
62808, 62807, 2
62808, 62806, 2
62808, 62809, 1
62808, 62810, 2
62808, 62811, 2
62810, 62812, 2
62810, 62811, 2
62810, 62808, 2
62810, 62807, 2
62810, 62805, 2
62810, 62809, 2
62805, 62802, 2
62805, 62807, 2
62805, 62803, 2
62805, 62806, 1
62805, 62811, 2
62805, 62810, 2
62805, 62809, 2
62805, 62804, 2
62804, 62802, 2
62804, 62803, 2
62804, 62805, 1
