167150, 167145, 2
167150, 167149, 2
167150, 167148, 2
167150, 167146, 2
167150, 167143, 2
167150, 167153, 1
167150, 167141, 2
167153, 167150, 2
167153, 167146, 2
167153, 167148, 2
167153, 167149, 2
167153, 167154, 1
167153, 167164, 2
167149, 167150, 4
167149, 167145, 2
167149, 167147, 2
167149, 167148, 2
167149, 167154, 2
167149, 167155, 2
167149, 167141, 2
167149, 167164, 1
167149, 167152, 2
167149, 167160, 2
167149, 167156, 2
167149, 167146, 2
167149, 167157, 2
167149, 167163, 2
167149, 167161, 2
167149, 167162, 2
167149, 167153, 2
167149, 167151, 6
167149, 167158, 2
167149, 167159, 2
167147, 167142, 2
167147, 167145, 2
167147, 167148, 1
167147, 167149, 2
167147, 167141, 2
167147, 167151, 2
167147, 167146, 2
167155, 167149, 2
167155, 167151, 2
167155, 167157, 1
167155, 167152, 2
167155, 167146, 2
167170, 167160, 2
167170, 167168, 2
167170, 167171, 1
167170, 167163, 2
167170, 167161, 2
167170, 167172, 2
167170, 167167, 2
167170, 167169, 2
167170, 167173, 2
167170, 167162, 2
167141, 167147, 2
167141, 167151, 2
167141, 167145, 2
167141, 167148, 2
167141, 167149, 2
167141, 167150, 2
167141, 167143, 2
167141, 167164, 2
167141, 167146, 2
167141, 167142, 1
167141, 167144, 2
167143, 167150, 2
167143, 167141, 2
167143, 167146, 2
167143, 167142, 2
167143, 167144, 1
167173, 167170, 2
167173, 167174, 1
167173, 167172, 2
167162, 167166, 2
167162, 167168, 2
167162, 167165, 2
167162, 167149, 2
167162, 167164, 2
167162, 167170, 2
167162, 167167, 2
167162, 167169, 2
167162, 167160, 2
167156, 167161, 2
167156, 167159, 1
167156, 167149, 2
167156, 167154, 2
167144, 167143, 2
167144, 167142, 2
167144, 167141, 2
167144, 167145, 1
167144, 167146, 2
167146, 167150, 2
167146, 167145, 2
167146, 167148, 2
167146, 167149, 1
167146, 167147, 2
167146, 167155, 2
167146, 167141, 2
167146, 167154, 2
167146, 167160, 2
167146, 167142, 2
167146, 167157, 2
167146, 167164, 2
167146, 167163, 2
167146, 167161, 2
167146, 167143, 4
167146, 167153, 2
167146, 167151, 2
167146, 167144, 2
167157, 167146, 2
167157, 167149, 2
167157, 167164, 2
167157, 167155, 2
167157, 167151, 2
167157, 167152, 2
167157, 167158, 1
167157, 167160, 2
167167, 167166, 2
167167, 167168, 1
167167, 167161, 2
167167, 167170, 2
167167, 167160, 2
167167, 167162, 2
167161, 167156, 2
167161, 167146, 2
167161, 167159, 2
167161, 167163, 0
167161, 167149, 2
167161, 167164, 2
167161, 167165, 2
167161, 167170, 2
167161, 167154, 2
167161, 167169, 2
167161, 167167, 2
167178, 167179, 1
167178, 167177, 2
167178, 167176, 2
167151, 167147, 2
167151, 167146, 2
167151, 167157, 2
167151, 167148, 2
167151, 167149, 2
167151, 167155, 1
167151, 167145, 2
167151, 167141, 2
167151, 167152, 0
167166, 167160, 2
167166, 167167, 1
167166, 167165, 2
167166, 167162, 2
167177, 167178, 1
167177, 167176, 2
167165, 167166, 1
167165, 167161, 2
167165, 167160, 2
167165, 167164, 2
167165, 167162, 2
167148, 167147, 2
167148, 167145, 2
167148, 167149, 2
167148, 167146, 2
167148, 167150, 2
167148, 167153, 2
167148, 167141, 2
167148, 167151, 2
167148, 167142, 2
167142, 167144, 2
167142, 167146, 1
167142, 167148, 2
167142, 167147, 2
167142, 167143, 2
167142, 167145, 2
167142, 167141, 2
167179, 167180, 1
167179, 167178, 2
167145, 167150, 2
167145, 167146, 2
167145, 167148, 2
167145, 167149, 2
167145, 167144, 2
167145, 167147, 1
167145, 167141, 2
167145, 167151, 2
167145, 167142, 2
167174, 167175, 1
167174, 167172, 2
167174, 167173, 2
167174, 167176, 2
167164, 167146, 2
167164, 167165, 1
167164, 167149, 2
167164, 167163, 2
167164, 167161, 2
167164, 167157, 2
167164, 167141, 2
167164, 167154, 2
167164, 167160, 2
167164, 167153, 2
167164, 167162, 2
167169, 167170, 1
167169, 167161, 2
167169, 167168, 2
167169, 167160, 2
167169, 167162, 2
167154, 167156, 1
167154, 167146, 2
167154, 167159, 2
167154, 167163, 2
167154, 167149, 2
167154, 167164, 2
167154, 167153, 2
167154, 167161, 2
167176, 167177, 1
167176, 167174, 2
167176, 167175, 2
167176, 167178, 2
167180, 167179, 2
167180, 167181, 1
167181, 167180, 2
167181, 167182, 1
167175, 167174, 2
167175, 167176, 1
167159, 167156, 2
167159, 167154, 2
167159, 167149, 2
167159, 167161, 1
167163, 167146, 2
167163, 167164, 2
167163, 167149, 2
167163, 167161, 2
167163, 167170, 2
167163, 167154, 2
167168, 167170, 2
167168, 167167, 2
167168, 167169, 1
167168, 167160, 2
167168, 167162, 2
167172, 167170, 2
167172, 167174, 2
167172, 167171, 2
167172, 167173, 1
167182, 167181, 2
167152, 167155, 2
167152, 167151, 2
167152, 167157, 2
167152, 167149, 2
167160, 167158, 2
167160, 167165, 2
167160, 167149, 2
167160, 167146, 2
167160, 167164, 2
167160, 167170, 2
167160, 167169, 2
167160, 167162, 0
167160, 167166, 2
167160, 167157, 2
167160, 167168, 2
167160, 167167, 2
167158, 167157, 2
167158, 167149, 2
167158, 167160, 1
167171, 167170, 2
167171, 167172, 1
