255332, 255331, 2
255332, 255333, 1
255331, 255332, 1
255331, 255330, 2
255331, 255333, 2
255338, 255336, 2
255338, 255334, 2
255338, 255339, 2
255350, 255345, 2
255350, 255351, 0
255350, 255354, 2
255350, 255348, 2
255350, 255353, 2
255350, 255357, 2
255350, 255346, 2
255350, 255352, 2
255350, 255355, 2
255354, 255349, 2
255354, 255345, 2
255354, 255351, 2
255354, 255350, 2
255354, 255353, 2
255354, 255357, 2
255354, 255356, 0
255354, 255352, 2
255354, 255346, 2
255353, 255347, 2
255353, 255343, 2
255353, 255351, 2
255353, 255350, 2
255353, 255354, 6
255353, 255348, 2
255353, 255356, 2
255353, 255355, 4
255353, 255349, 2
255353, 255345, 2
255353, 255357, 1
255353, 255352, 2
255353, 255342, 2
255336, 255334, 2
255336, 255339, 1
255336, 255338, 0
255336, 255333, 2
255336, 255341, 2
255336, 255335, 2
255336, 255340, 2
255336, 255343, 2
255336, 255345, 2
255346, 255347, 6
255346, 255352, 1
255346, 255351, 2
255346, 255350, 2
255346, 255354, 2
255346, 255348, 2
255346, 255355, 2
255346, 255349, 4
255346, 255345, 2
255346, 255344, 2
255346, 255357, 2
255346, 255343, 2
255346, 255342, 2
255330, 255331, 1
255355, 255349, 2
255355, 255345, 2
255355, 255351, 2
255355, 255350, 2
255355, 255353, 2
255355, 255357, 2
255355, 255346, 2
255355, 255352, 2
255349, 255352, 2
255349, 255354, 2
255349, 255353, 2
255349, 255346, 2
255349, 255355, 2
255349, 255334, 2
255349, 255345, 2
255349, 255344, 2
255349, 255341, 2
255349, 255357, 2
255349, 255340, 2
255349, 255343, 2
255334, 255347, 2
255334, 255338, 2
255334, 255345, 2
255334, 255337, 4
255334, 255348, 2
255334, 255336, 2
255334, 255349, 2
255334, 255339, 2
255334, 255335, 6
255334, 255340, 1
255334, 255343, 2
255334, 255342, 2
255334, 255333, 2
255339, 255334, 2
255339, 255345, 2
255339, 255338, 2
255339, 255333, 2
255339, 255341, 2
255339, 255340, 2
255339, 255336, 2
255339, 255343, 2
255339, 255342, 2
255357, 255349, 2
255357, 255345, 2
255357, 255351, 2
255357, 255350, 2
255357, 255354, 2
255357, 255353, 2
255357, 255356, 2
255357, 255352, 2
255357, 255346, 2
255357, 255355, 2
255343, 255347, 2
255343, 255345, 2
255343, 255337, 2
255343, 255353, 2
255343, 255336, 2
255343, 255346, 2
255343, 255349, 2
255343, 255334, 2
255343, 255339, 2
255343, 255341, 2
255343, 255340, 2
255343, 255352, 2
255343, 255333, 2
255342, 255347, 2
255342, 255334, 2
255342, 255339, 2
255342, 255344, 0
255342, 255345, 2
255342, 255341, 2
255342, 255353, 2
255342, 255340, 2
255342, 255346, 2
255342, 255352, 2
255342, 255337, 2
255347, 255352, 2
255347, 255337, 2
255347, 255348, 1
255347, 255353, 2
255347, 255346, 2
255347, 255334, 2
255347, 255345, 2
255347, 255344, 2
255347, 255341, 2
255347, 255340, 2
255347, 255343, 2
255347, 255342, 2
255351, 255344, 2
255351, 255350, 2
255351, 255354, 2
255351, 255353, 2
255351, 255357, 2
255351, 255356, 2
255351, 255352, 2
255351, 255346, 2
255351, 255355, 2
255333, 255334, 1
255333, 255332, 2
255333, 255339, 2
255333, 255345, 2
255333, 255337, 2
255333, 255341, 2
255333, 255335, 2
255333, 255336, 2
255333, 255331, 2
255333, 255343, 2
255333, 255340, 2
255337, 255347, 2
255337, 255334, 2
255337, 255345, 2
255337, 255333, 2
255337, 255341, 2
255337, 255340, 2
255337, 255343, 2
255337, 255342, 2
255348, 255347, 2
255348, 255334, 2
255348, 255345, 2
255348, 255350, 1
255348, 255353, 2
255348, 255346, 2
255348, 255352, 2
255345, 255347, 2
255345, 255352, 2
255345, 255337, 2
255345, 255354, 2
255345, 255348, 2
255345, 255353, 2
255345, 255336, 2
255345, 255346, 1
255345, 255333, 2
255345, 255355, 2
255345, 255349, 2
255345, 255334, 2
255345, 255339, 2
255345, 255344, 2
255345, 255341, 2
255345, 255357, 2
255345, 255335, 2
255345, 255340, 2
255345, 255343, 2
255345, 255342, 2
255345, 255350, 2
255344, 255347, 2
255344, 255345, 2
255344, 255351, 2
255344, 255341, 2
255344, 255349, 2
255344, 255346, 2
255344, 255342, 2
255341, 255347, 2
255341, 255345, 1
255341, 255337, 2
255341, 255336, 2
255341, 255349, 2
255341, 255339, 2
255341, 255344, 2
255341, 255335, 2
255341, 255340, 2
255341, 255343, 4
255341, 255342, 6
255341, 255333, 2
255335, 255334, 2
255335, 255345, 2
255335, 255333, 2
255335, 255341, 2
255335, 255340, 2
255335, 255336, 1
255340, 255347, 2
255340, 255345, 2
255340, 255337, 2
255340, 255336, 2
255340, 255349, 2
255340, 255334, 2
255340, 255339, 2
255340, 255341, 1
255340, 255335, 2
255340, 255343, 2
255340, 255342, 2
255340, 255333, 2
255352, 255347, 2
255352, 255351, 2
255352, 255350, 2
255352, 255354, 2
255352, 255348, 2
255352, 255353, 1
255352, 255346, 2
255352, 255355, 2
255352, 255349, 2
255352, 255345, 2
255352, 255357, 2
255352, 255343, 2
255352, 255342, 2
255356, 255353, 2
255356, 255357, 2
255356, 255351, 2
255356, 255354, 2
