332786, 332785, 2
332786, 332787, 1
332779, 332780, 0
332779, 332782, 2
332779, 332781, 1
332782, 332784, 2
332782, 332779, 2
332782, 332783, 1
332782, 332780, 2
332782, 332781, 2
332780, 332783, 2
332780, 332779, 2
332780, 332782, 2
332780, 332785, 2
332780, 332781, 2
332783, 332780, 2
332783, 332782, 2
332783, 332785, 2
332783, 332784, 1
332781, 332780, 2
332781, 332779, 2
332781, 332782, 1
332785, 332786, 1
332785, 332784, 2
332785, 332783, 2
332785, 332780, 2
332787, 332786, 2
332784, 332783, 2
332784, 332782, 2
332784, 332785, 1
