131375, 131374, 2
131375, 131376, 1
131375, 131373, 2
131375, 131372, 2
131372, 131375, 2
131372, 131380, 2
131372, 131348, 2
131372, 131371, 2
131372, 131374, 1
131372, 131347, 2
131372, 131373, 0
131372, 131376, 2
131380, 131372, 2
131380, 131374, 2
131380, 131381, 1
131380, 131373, 2
131380, 131379, 2
131380, 131376, 2
131380, 131378, 2
131380, 131377, 2
131386, 131389, 2
131386, 131387, 1
131386, 131384, 2
131386, 131385, 2
131339, 131341, 2
131339, 131340, 1
131376, 131375, 2
131376, 131372, 2
131376, 131380, 2
131376, 131374, 2
131376, 131373, 2
131376, 131377, 1
131344, 131342, 2
131344, 131345, 0
131344, 131343, 2
131344, 131346, 1
131366, 131364, 2
131366, 131369, 2
131366, 131362, 2
131366, 131367, 1
131366, 131365, 2
131366, 131363, 2
131366, 131373, 2
131382, 131383, 1
131382, 131381, 2
131382, 131385, 2
131352, 131359, 2
131352, 131348, 2
131352, 131351, 2
131352, 131354, 1
131352, 131353, 0
131352, 131347, 2
131352, 131356, 2
131352, 131355, 2
131353, 131359, 2
131353, 131349, 2
131353, 131351, 2
131353, 131360, 2
131353, 131354, 2
131353, 131352, 2
131353, 131346, 2
131353, 131350, 2
131353, 131356, 2
131353, 131355, 2
131383, 131382, 2
131383, 131384, 1
131383, 131385, 2
131383, 131381, 2
131384, 131383, 2
131384, 131348, 2
131384, 131347, 2
131384, 131385, 0
131384, 131386, 1
131356, 131359, 2
131356, 131353, 2
131356, 131354, 2
131356, 131352, 2
131356, 131363, 2
131356, 131357, 1
131356, 131355, 2
131379, 131380, 2
131379, 131374, 2
131379, 131378, 2
131379, 131385, 2
131379, 131381, 2
131389, 131387, 2
131389, 131388, 2
131389, 131385, 2
131389, 131386, 2
131348, 131372, 2
131348, 131351, 2
131348, 131370, 2
131348, 131354, 2
131348, 131360, 2
131348, 131347, 2
131348, 131349, 2
131348, 131359, 2
131348, 131346, 2
131348, 131381, 2
131348, 131369, 2
131348, 131362, 2
131348, 131358, 2
131348, 131352, 2
131348, 131350, 2
131348, 131384, 2
131364, 131366, 2
131364, 131370, 2
131364, 131369, 1
131364, 131362, 2
131364, 131368, 2
131364, 131367, 2
131364, 131365, 0
131364, 131363, 2
131364, 131373, 2
131370, 131348, 2
131370, 131364, 2
131370, 131369, 2
131370, 131371, 1
131370, 131368, 2
131370, 131347, 2
131370, 131373, 2
131342, 131341, 2
131342, 131343, 3
131342, 131346, 2
131342, 131345, 2
131342, 131344, 1
131342, 131340, 2
131350, 131347, 2
131350, 131349, 2
131350, 131348, 2
131350, 131351, 1
131350, 131353, 2
131347, 131372, 2
131347, 131348, 3
131347, 131351, 2
131347, 131370, 2
131347, 131360, 2
131347, 131359, 2
131347, 131346, 2
131347, 131349, 2
131347, 131381, 2
131347, 131362, 2
131347, 131352, 2
131347, 131350, 2
131347, 131384, 2
131359, 131348, 2
131359, 131356, 2
131359, 131358, 2
131359, 131354, 2
131359, 131352, 2
131359, 131353, 2
131359, 131347, 2
131359, 131357, 2
131359, 131360, 1
131345, 131342, 2
131345, 131344, 2
131345, 131340, 2
131345, 131346, 2
131361, 131362, 1
131361, 131363, 2
131361, 131360, 2
131340, 131339, 2
131340, 131342, 1
131340, 131341, 3
131340, 131343, 2
131340, 131345, 2
131373, 131375, 2
131373, 131372, 2
131373, 131380, 2
131373, 131374, 2
131373, 131364, 2
131373, 131370, 2
131373, 131371, 2
131373, 131368, 2
131373, 131367, 2
131373, 131376, 2
131373, 131366, 2
131373, 131381, 2
131377, 131374, 2
131377, 131380, 2
131377, 131376, 2
131377, 131378, 1
131388, 131389, 0
131388, 131387, 2
131388, 131385, 2
131374, 131375, 0
131374, 131372, 2
131374, 131380, 1
131374, 131381, 2
131374, 131378, 2
131374, 131379, 2
131374, 131376, 2
131374, 131373, 2
131374, 131377, 2
131368, 131369, 2
131368, 131364, 2
131368, 131370, 2
131368, 131371, 2
131368, 131367, 2
131368, 131373, 2
131367, 131366, 2
131367, 131368, 1
131367, 131373, 2
131367, 131369, 2
131367, 131364, 2
131343, 131342, 2
131343, 131341, 2
131343, 131344, 2
131343, 131346, 2
131343, 131340, 2
131378, 131380, 2
131378, 131377, 2
131378, 131374, 2
131378, 131385, 2
131378, 131379, 1
131357, 131359, 2
131357, 131358, 1
131357, 131363, 2
131357, 131356, 2
131357, 131354, 2
131341, 131339, 2
131341, 131342, 2
131341, 131346, 2
131341, 131343, 2
131341, 131340, 2
131346, 131341, 2
131346, 131343, 2
131346, 131348, 2
131346, 131349, 1
131346, 131342, 2
131346, 131345, 2
131346, 131344, 2
131346, 131347, 3
131346, 131363, 2
131346, 131353, 2
131369, 131366, 2
131369, 131348, 2
131369, 131364, 2
131369, 131370, 1
131369, 131362, 2
131369, 131368, 2
131369, 131367, 2
131369, 131363, 2
131362, 131366, 2
131362, 131348, 2
131362, 131364, 1
131362, 131369, 2
131362, 131347, 2
131362, 131361, 2
131362, 131365, 2
131362, 131363, 0
131365, 131366, 1
131365, 131362, 2
131365, 131363, 2
131365, 131364, 2
131385, 131389, 2
131385, 131388, 2
131385, 131382, 2
131385, 131381, 2
131385, 131386, 2
131385, 131384, 2
131385, 131387, 2
131385, 131383, 2
131385, 131378, 2
131385, 131379, 2
131355, 131354, 2
131355, 131353, 2
131355, 131356, 1
131355, 131352, 2
131351, 131347, 2
131351, 131353, 2
131351, 131348, 2
131351, 131350, 2
131351, 131352, 1
131371, 131372, 1
131371, 131373, 2
131371, 131370, 2
131371, 131368, 2
131387, 131389, 2
131387, 131388, 1
131387, 131385, 2
131387, 131386, 2
131363, 131364, 2
131363, 131354, 2
131363, 131357, 2
131363, 131346, 2
131363, 131366, 2
131363, 131369, 2
131363, 131362, 2
131363, 131358, 2
131363, 131361, 2
131363, 131360, 2
131363, 131365, 2
131363, 131356, 2
131360, 131359, 2
131360, 131348, 2
131360, 131358, 2
131360, 131354, 2
131360, 131361, 1
131360, 131347, 2
131360, 131363, 2
131360, 131353, 2
131349, 131347, 2
131349, 131346, 2
131349, 131348, 2
131349, 131350, 1
131349, 131353, 2
131381, 131374, 2
131381, 131380, 2
131381, 131347, 2
131381, 131382, 1
131381, 131348, 2
131381, 131383, 2
131381, 131373, 2
131381, 131385, 2
131381, 131379, 2
131354, 131359, 1
131354, 131348, 2
131354, 131357, 2
131354, 131355, 0
131354, 131358, 2
131354, 131360, 2
131354, 131352, 2
131354, 131363, 2
131354, 131356, 2
131354, 131353, 2
131358, 131359, 2
131358, 131348, 2
131358, 131354, 2
131358, 131363, 2
131358, 131357, 2
131358, 131360, 2
