20708, 20711, 2
20708, 20709, 1
20711, 20708, 2
20711, 20709, 2
20711, 20710, 2
20711, 20712, 1
20709, 20708, 2
20709, 20711, 1
20709, 20710, 8
20710, 20711, 2
20710, 20709, 2
20710, 20712, 2
20712, 20711, 2
20712, 20710, 2
