334227, 334229, 1
334227, 334228, 0
334237, 334236, 2
334237, 334238, 2
334240, 334239, 2
334236, 334235, 2
334236, 334234, 2
334236, 334238, 1
334236, 334237, 0
334239, 334238, 2
334239, 334240, 1
334229, 334231, 2
334229, 334228, 2
334229, 334227, 2
334229, 334230, 1
334228, 334229, 2
334228, 334227, 2
334232, 334231, 2
334232, 334234, 2
334232, 334230, 2
334232, 334233, 1
334230, 334229, 2
334230, 334231, 0
334230, 334232, 1
334231, 334229, 2
334231, 334232, 2
334231, 334230, 2
334238, 334236, 2
334238, 334237, 2
334238, 334239, 1
334234, 334236, 2
334234, 334235, 1
334234, 334232, 2
334234, 334233, 2
334235, 334236, 1
334235, 334234, 2
334233, 334234, 1
334233, 334232, 2
