300986, 300985, 2
300986, 300989, 1
300986, 300988, 3
300986, 300987, 6
300987, 300984, 2
300987, 300985, 2
300987, 300989, 2
300987, 300986, 2
300984, 300985, 1
300984, 300988, 2
300984, 300987, 2
300985, 300984, 2
300985, 300987, 2
300985, 300986, 1
300985, 300988, 2
300989, 300987, 2
300989, 300986, 2
300989, 300988, 2
300988, 300984, 2
300988, 300985, 2
300988, 300989, 2
300988, 300986, 2
