197557, 197555, 2
197557, 197556, 2
197554, 197553, 2
197554, 197555, 1
197551, 197552, 3
197551, 197553, 1
197553, 197554, 1
197553, 197551, 2
197553, 197555, 2
197553, 197552, 2
197556, 197557, 1
197556, 197555, 2
197555, 197557, 2
197555, 197554, 2
197555, 197553, 2
197555, 197556, 1
197552, 197551, 2
197552, 197553, 2
