221492, 221490, 2
221492, 221491, 2
221490, 221492, 1
221490, 221491, 3
221490, 221489, 2
221490, 221488, 2
221488, 221487, 2
221488, 221490, 1
221488, 221491, 2
221488, 221489, 8
221487, 221488, 1
221487, 221489, 2
221487, 221491, 2
221489, 221487, 2
221489, 221490, 2
221489, 221488, 2
221489, 221491, 2
221491, 221487, 2
221491, 221492, 2
221491, 221490, 2
221491, 221488, 2
221491, 221489, 2
