118642, 118643, 1
118642, 118644, 2
118642, 118641, 2
118634, 118635, 1
118639, 118637, 2
118639, 118640, 1
118639, 118638, 2
118639, 118635, 2
118635, 118634, 2
118635, 118639, 2
118635, 118638, 2
118635, 118636, 1
118636, 118637, 1
118636, 118635, 2
118636, 118638, 2
118644, 118642, 2
118644, 118643, 2
118644, 118641, 2
118644, 118638, 2
118643, 118642, 2
118643, 118644, 3
118643, 118641, 2
118637, 118636, 2
118637, 118639, 1
118637, 118640, 2
118637, 118638, 3
118641, 118642, 1
118641, 118640, 2
118641, 118643, 2
118641, 118644, 2
118641, 118638, 2
118638, 118636, 2
118638, 118639, 2
118638, 118635, 2
118638, 118640, 2
118638, 118644, 2
118638, 118637, 2
118638, 118641, 2
118640, 118639, 2
118640, 118637, 2
118640, 118641, 1
118640, 118638, 2
