71763, 71761, 2
71763, 71762, 2
71762, 71761, 2
71762, 71763, 1
71762, 71760, 2
71759, 71761, 2
71759, 71760, 1
71759, 71757, 2
71759, 71758, 2
71761, 71763, 2
71761, 71760, 2
71761, 71762, 2
71761, 71759, 2
71760, 71761, 8
71760, 71762, 1
71760, 71759, 2
71758, 71757, 2
71758, 71759, 2
71757, 71758, 3
71757, 71759, 1
