19938, 19939, 1
19938, 19943, 2
19938, 19930, 2
19938, 19932, 2
19938, 19933, 2
19938, 19937, 2
19938, 19935, 2
19938, 19936, 2
19938, 19941, 2
19957, 19949, 2
19957, 19956, 2
19957, 19960, 2
19957, 19958, 0
19957, 19955, 2
19957, 19959, 3
19957, 19954, 2
19957, 19961, 2
19936, 19938, 1
19936, 19933, 2
19936, 19934, 2
19936, 19937, 3
19936, 19935, 6
19936, 19930, 2
19936, 19931, 2
19930, 19938, 2
19930, 19934, 2
19930, 19937, 2
19930, 19936, 1
19930, 19932, 2
19930, 19931, 0
19934, 19930, 2
19934, 19933, 2
19934, 19935, 2
19934, 19936, 2
19934, 19932, 2
19934, 19931, 2
19953, 19954, 2
19953, 19952, 2
19958, 19957, 2
19958, 19963, 2
19958, 19956, 2
19958, 19964, 2
19958, 19949, 2
19958, 19961, 2
19958, 19959, 2
19958, 19960, 2
19958, 19954, 2
19958, 19950, 2
19941, 19939, 2
19941, 19943, 0
19941, 19945, 2
19941, 19933, 2
19941, 19949, 2
19941, 19940, 2
19941, 19942, 3
19941, 19938, 2
19944, 19939, 2
19944, 19943, 2
19944, 19940, 2
19944, 19945, 2
19944, 19942, 2
19942, 19943, 2
19942, 19945, 2
19942, 19949, 2
19942, 19944, 2
19942, 19940, 2
19942, 19941, 2
19962, 19963, 2
19962, 19961, 2
19955, 19957, 2
19955, 19956, 0
19955, 19960, 8
19955, 19954, 2
19955, 19961, 1
19955, 19959, 2
19964, 19958, 2
19964, 19963, 2
19964, 19949, 2
19946, 19947, 0
19946, 19945, 2
19946, 19948, 2
19946, 19950, 1
19949, 19957, 2
19949, 19943, 2
19949, 19945, 2
19949, 19948, 2
19949, 19958, 2
19949, 19941, 2
19949, 19942, 2
19949, 19950, 2
19949, 19963, 2
19949, 19964, 2
19949, 19954, 2
19949, 19952, 2
19949, 19947, 2
19949, 19951, 2
19951, 19949, 2
19951, 19952, 1
19951, 19954, 2
19951, 19950, 2
19959, 19957, 2
19959, 19955, 2
19959, 19956, 2
19959, 19958, 2
19959, 19961, 2
19959, 19960, 2
19959, 19954, 2
19931, 19930, 2
19931, 19936, 2
19931, 19932, 1
19931, 19934, 2
19931, 19933, 2
19939, 19938, 2
19939, 19943, 2
19939, 19945, 2
19939, 19944, 2
19939, 19940, 1
19939, 19941, 2
19943, 19939, 2
19943, 19938, 2
19943, 19945, 2
19943, 19932, 2
19943, 19933, 2
19943, 19949, 2
19943, 19944, 2
19943, 19947, 2
19943, 19941, 2
19943, 19942, 2
19943, 19950, 2
19956, 19957, 1
19956, 19954, 2
19956, 19958, 2
19956, 19955, 2
19956, 19960, 2
19956, 19959, 2
19945, 19939, 2
19945, 19943, 2
19945, 19933, 2
19945, 19946, 1
19945, 19949, 2
19945, 19944, 2
19945, 19947, 2
19945, 19940, 2
19945, 19941, 2
19945, 19942, 2
19945, 19950, 2
19948, 19949, 2
19948, 19947, 2
19948, 19950, 2
19948, 19946, 2
19933, 19938, 2
19933, 19943, 2
19933, 19945, 2
19933, 19941, 2
19933, 19934, 2
19933, 19935, 2
19933, 19947, 2
19933, 19932, 2
19933, 19936, 2
19933, 19931, 2
19937, 19938, 2
19937, 19935, 2
19937, 19936, 2
19937, 19930, 2
19961, 19957, 2
19961, 19963, 1
19961, 19958, 2
19961, 19955, 2
19961, 19960, 2
19961, 19959, 2
19961, 19954, 2
19961, 19962, 8
19960, 19957, 2
19960, 19955, 2
19960, 19956, 2
19960, 19958, 2
19960, 19959, 2
19960, 19961, 2
19960, 19954, 2
19950, 19943, 2
19950, 19949, 2
19950, 19945, 2
19950, 19948, 2
19950, 19946, 2
19950, 19958, 2
19950, 19952, 2
19950, 19947, 2
19950, 19951, 1
19963, 19958, 2
19963, 19949, 2
19963, 19964, 1
19963, 19962, 2
19963, 19961, 2
19947, 19943, 2
19947, 19945, 2
19947, 19948, 3
19947, 19933, 2
19947, 19946, 2
19947, 19949, 0
19947, 19950, 2
19954, 19957, 2
19954, 19958, 2
19954, 19956, 2
19954, 19960, 2
19954, 19953, 2
19954, 19949, 2
19954, 19955, 1
19954, 19951, 2
19954, 19959, 2
19954, 19952, 2
19954, 19961, 2
19935, 19938, 2
19935, 19934, 2
19935, 19933, 2
19935, 19937, 2
19935, 19936, 2
19935, 19932, 2
19940, 19939, 2
19940, 19941, 0
19940, 19945, 1
19940, 19944, 8
19940, 19942, 2
19932, 19938, 2
19932, 19943, 2
19932, 19933, 0
19932, 19934, 3
19932, 19935, 2
19932, 19930, 2
19932, 19931, 2
19952, 19954, 1
19952, 19949, 2
19952, 19951, 2
19952, 19950, 2
19952, 19953, 3
