300095, 300098, 2
300095, 300097, 2
300095, 300096, 2
300095, 300094, 2
300098, 300095, 2
300098, 300097, 2
300098, 300096, 2
300098, 300094, 2
300097, 300095, 2
300097, 300098, 3
300097, 300096, 2
300096, 300095, 2
300096, 300098, 2
300096, 300097, 1
300096, 300094, 2
300094, 300095, 3
300094, 300098, 2
300094, 300096, 1
