62284, 62283, 2
62284, 62285, 1
62282, 62281, 2
62282, 62283, 1
62282, 62280, 2
62286, 62285, 2
62286, 62288, 1
62286, 62287, 8
62286, 62289, 2
62287, 62288, 2
62287, 62286, 2
62287, 62290, 2
62283, 62284, 1
62283, 62282, 2
62289, 62288, 2
62289, 62286, 2
62289, 62290, 2
62285, 62284, 2
62285, 62286, 1
62288, 62286, 2
62288, 62287, 2
62288, 62290, 1
62288, 62289, 6
62280, 62281, 3
62280, 62282, 1
62290, 62288, 2
62290, 62287, 2
62290, 62289, 2
62281, 62280, 2
62281, 62282, 2
