217604, 217603, 2
217604, 217602, 2
217596, 217595, 2
217596, 217597, 2
217596, 217594, 2
217596, 217593, 2
217597, 217595, 2
217597, 217592, 2
217597, 217598, 1
217597, 217596, 2
217597, 217594, 2
217590, 217591, 1
217593, 217595, 2
217593, 217592, 2
217593, 217596, 2
217593, 217591, 2
217593, 217594, 2
217592, 217591, 2
217592, 217594, 1
217592, 217593, 8
217592, 217598, 2
217592, 217595, 2
217592, 217597, 2
217598, 217595, 2
217598, 217592, 2
217598, 217599, 1
217598, 217597, 2
217601, 217602, 1
217601, 217600, 2
217599, 217598, 2
217599, 217600, 1
217591, 217592, 1
217591, 217590, 2
217591, 217593, 2
217594, 217595, 6
217594, 217592, 2
217594, 217596, 3
217594, 217597, 1
217594, 217593, 2
217603, 217604, 2
217603, 217602, 2
217602, 217603, 0
217602, 217604, 1
217602, 217601, 2
217595, 217596, 2
217595, 217597, 2
217595, 217594, 2
217595, 217593, 2
217595, 217592, 2
217595, 217598, 2
217600, 217599, 2
217600, 217601, 1
