72761, 72762, 3
72761, 72758, 2
72761, 72759, 2
72761, 72760, 2
72758, 72761, 2
72758, 72759, 3
72758, 72762, 2
72758, 72760, 1
72758, 72757, 2
72758, 72756, 2
72759, 72761, 2
72759, 72758, 2
72759, 72755, 2
72759, 72760, 2
72759, 72762, 2
72759, 72757, 2
72759, 72756, 2
72760, 72761, 1
72760, 72758, 2
72760, 72759, 2
72755, 72756, 1
72755, 72759, 2
72757, 72758, 1
72757, 72759, 2
72757, 72756, 2
72756, 72755, 2
72756, 72757, 1
72756, 72758, 2
72756, 72759, 2
72762, 72761, 2
72762, 72758, 2
72762, 72759, 2
