186747, 186746, 2
186747, 186750, 2
186747, 186749, 1
186747, 186748, 8
186745, 186744, 2
186745, 186746, 1
186749, 186747, 2
186749, 186750, 1
186749, 186748, 2
186750, 186747, 2
186750, 186749, 2
186750, 186748, 2
186744, 186745, 1
186746, 186747, 1
186746, 186745, 2
186746, 186748, 2
186748, 186747, 2
186748, 186746, 2
186748, 186749, 2
186748, 186750, 2
