339604, 339603, 2
339604, 339605, 1
339601, 339602, 0
339601, 339603, 1
339602, 339601, 2
339602, 339603, 2
339606, 339605, 2
339605, 339604, 2
339605, 339606, 1
339603, 339604, 1
339603, 339601, 2
339603, 339602, 2
