300995, 300996, 3
300995, 300993, 2
300995, 300994, 2
300991, 300996, 2
300991, 300993, 2
300991, 300992, 1
300992, 300996, 2
300992, 300991, 2
300992, 300993, 1
300996, 300995, 2
300996, 300991, 2
300996, 300992, 2
300996, 300993, 2
300996, 300994, 2
300993, 300995, 2
300993, 300991, 2
300993, 300994, 1
300993, 300992, 2
300993, 300996, 2
300994, 300995, 1
300994, 300993, 2
300994, 300996, 2
