340692, 340693, 1
340692, 340691, 2
340693, 340692, 2
340693, 340694, 1
340693, 340695, 2
340691, 340692, 1
340691, 340695, 2
340698, 340697, 2
340697, 340696, 2
340697, 340698, 0
340696, 340697, 1
340696, 340694, 2
340696, 340695, 2
340695, 340696, 2
340695, 340693, 2
340695, 340694, 2
340695, 340691, 2
340694, 340693, 2
340694, 340696, 1
340694, 340695, 3
