333401, 333402, 1
333401, 333400, 2
333402, 333401, 2
333402, 333405, 2
333402, 333403, 1
333407, 333405, 2
333407, 333408, 1
333407, 333406, 2
333405, 333402, 2
333405, 333403, 2
333405, 333407, 2
333405, 333406, 1
333405, 333404, 2
333408, 333407, 2
333408, 333406, 2
333408, 333409, 1
333411, 333410, 2
333400, 333401, 1
333409, 333408, 2
333409, 333410, 1
333409, 333406, 2
333410, 333409, 2
333410, 333411, 1
333404, 333405, 2
333404, 333403, 2
333404, 333406, 2
333403, 333402, 2
333403, 333404, 0
333403, 333405, 1
333406, 333405, 2
333406, 333408, 2
333406, 333407, 1
333406, 333409, 2
333406, 333404, 2
