21649, 21650, 1
21649, 21648, 2
21651, 21652, 1
21651, 21650, 2
21652, 21651, 2
21652, 21650, 2
21652, 21653, 1
21654, 21653, 2
21650, 21649, 2
21650, 21651, 1
21650, 21652, 2
21650, 21648, 2
21653, 21652, 2
21653, 21654, 1
21648, 21649, 1
21648, 21650, 2
