186378, 186376, 2
186378, 186377, 2
186377, 186378, 1
186377, 186376, 2
186374, 186375, 1
186374, 186376, 2
186375, 186374, 2
186375, 186376, 1
186376, 186378, 2
186376, 186374, 2
186376, 186375, 2
186376, 186377, 1
