334844, 334843, 2
334844, 334845, 2
334843, 334839, 2
334843, 334842, 2
334843, 334841, 2
334843, 334844, 3
334843, 334840, 2
334843, 334845, 1
334831, 334832, 3
334831, 334833, 1
334835, 334836, 2
334835, 334834, 2
334841, 334843, 2
334841, 334842, 2
334841, 334840, 2
334832, 334831, 2
334832, 334833, 2
334842, 334843, 2
334842, 334841, 2
334837, 334836, 2
334837, 334838, 1
334840, 334839, 2
334840, 334843, 1
334840, 334845, 2
334840, 334841, 3
334834, 334836, 1
334834, 334833, 2
334834, 334835, 3
334839, 334838, 2
334839, 334843, 2
334839, 334840, 1
334838, 334839, 1
334838, 334837, 2
334836, 334835, 2
334836, 334837, 1
334836, 334834, 2
334836, 334833, 2
334845, 334843, 2
334845, 334844, 2
334845, 334840, 2
334833, 334836, 2
334833, 334832, 2
334833, 334831, 2
334833, 334834, 1
