170282, 170286, 4
170282, 170287, 2
170282, 170281, 2
170282, 170290, 2
170282, 170284, 2
170282, 170288, 2
170282, 170285, 2
170282, 170283, 6
170282, 170291, 1
170282, 170289, 2
170313, 170311, 2
170313, 170315, 2
170313, 170314, 1
170313, 170312, 2
170313, 170310, 2
170322, 170321, 2
170322, 170320, 2
170322, 170310, 2
170322, 170323, 1
170322, 170324, 2
170322, 170309, 2
170322, 170311, 2
170322, 170318, 2
170322, 170319, 2
170325, 170330, 1
170325, 170311, 2
170325, 170310, 2
170325, 170324, 2
170325, 170326, 3
170325, 170309, 2
170325, 170328, 2
170325, 170329, 2
170325, 170327, 2
170324, 170325, 1
170324, 170322, 2
170324, 170323, 2
170324, 170310, 2
170324, 170309, 2
170324, 170311, 2
170309, 170325, 2
170309, 170332, 2
170309, 170302, 2
170309, 170322, 2
170309, 170334, 2
170309, 170305, 2
170309, 170333, 2
170309, 170317, 2
170309, 170303, 2
170309, 170308, 2
170309, 170319, 2
170309, 170340, 2
170309, 170312, 2
170309, 170324, 2
170309, 170323, 2
170309, 170310, 0
170309, 170315, 2
170309, 170339, 2
170309, 170330, 2
170293, 170292, 2
170293, 170294, 2
170293, 170290, 2
170293, 170296, 2
170293, 170307, 2
170307, 170316, 2
170307, 170302, 2
170307, 170320, 2
170307, 170311, 2
170307, 170296, 2
170307, 170303, 2
170307, 170293, 2
170307, 170291, 2
170307, 170290, 2
170307, 170337, 2
170307, 170312, 2
170307, 170286, 2
170307, 170335, 2
170307, 170326, 2
170307, 170328, 2
170307, 170298, 2
170296, 170297, 2
170296, 170294, 2
170296, 170290, 2
170296, 170295, 2
170296, 170293, 2
170296, 170307, 2
170281, 170282, 1
170281, 170286, 2
170281, 170287, 2
170281, 170284, 2
170281, 170288, 2
170281, 170291, 2
170281, 170283, 2
170303, 170308, 2
170303, 170304, 6
170303, 170302, 2
170303, 170312, 1
170303, 170310, 2
170303, 170305, 2
170303, 170309, 2
170303, 170311, 2
170303, 170307, 4
170303, 170306, 2
170288, 170282, 2
170288, 170304, 2
170288, 170287, 2
170288, 170302, 2
170288, 170295, 2
170288, 170284, 2
170288, 170305, 2
170288, 170291, 2
170288, 170289, 0
170288, 170297, 2
170288, 170281, 2
170288, 170298, 2
170285, 170284, 2
170285, 170282, 2
170285, 170287, 1
170331, 170332, 1
170331, 170330, 2
170299, 170304, 2
170299, 170300, 1
170299, 170298, 2
170304, 170302, 2
170304, 170295, 2
170304, 170284, 2
170304, 170305, 1
170304, 170303, 2
170304, 170289, 2
170304, 170291, 2
170304, 170288, 2
170304, 170300, 2
170304, 170292, 2
170304, 170298, 2
170304, 170299, 2
170332, 170310, 2
170332, 170331, 2
170332, 170309, 2
170332, 170333, 1
170332, 170330, 2
170284, 170282, 2
170284, 170304, 2
170284, 170287, 2
170284, 170281, 2
170284, 170295, 2
170284, 170288, 1
170284, 170285, 4
170284, 170289, 2
170284, 170291, 2
170284, 170283, 2
170334, 170336, 2
170334, 170333, 2
170334, 170335, 3
170334, 170338, 2
170334, 170339, 1
170334, 170309, 2
170334, 170311, 2
170334, 170337, 2
170334, 170310, 2
170297, 170296, 2
170297, 170294, 2
170297, 170290, 2
170297, 170295, 2
170297, 170288, 2
170297, 170298, 1
170297, 170289, 2
170337, 170336, 2
170337, 170335, 2
170337, 170338, 0
170337, 170311, 2
170337, 170334, 2
170337, 170339, 2
170337, 170307, 2
170289, 170282, 2
170289, 170304, 2
170289, 170302, 2
170289, 170300, 2
170289, 170295, 2
170289, 170284, 2
170289, 170305, 2
170289, 170297, 2
170289, 170291, 2
170289, 170294, 2
170289, 170290, 2
170289, 170288, 2
170289, 170292, 2
170289, 170298, 2
170336, 170339, 2
170336, 170338, 2
170336, 170335, 2
170336, 170337, 1
170336, 170334, 2
170319, 170321, 2
170319, 170322, 2
170319, 170320, 2
170319, 170305, 2
170319, 170310, 2
170319, 170309, 2
170319, 170317, 2
170319, 170318, 2
170290, 170282, 2
170290, 170292, 2
170290, 170293, 2
170290, 170311, 2
170290, 170291, 2
170290, 170307, 2
170290, 170297, 2
170290, 170294, 2
170290, 170312, 2
170290, 170301, 2
170290, 170286, 2
170290, 170302, 2
170290, 170296, 2
170290, 170289, 2
170290, 170298, 2
170301, 170300, 2
170301, 170302, 1
170301, 170290, 2
170286, 170282, 2
170286, 170291, 2
170286, 170281, 2
170286, 170290, 2
170286, 170311, 2
170286, 170307, 2
170326, 170327, 1
170326, 170325, 2
170326, 170311, 2
170326, 170329, 2
170326, 170328, 2
170326, 170307, 2
170326, 170330, 2
170315, 170313, 2
170315, 170314, 2
170315, 170305, 2
170315, 170310, 2
170315, 170316, 3
170315, 170309, 2
170315, 170311, 2
170315, 170317, 1
170328, 170325, 2
170328, 170329, 0
170328, 170326, 2
170328, 170327, 2
170328, 170311, 2
170328, 170307, 2
170328, 170330, 2
170283, 170284, 1
170283, 170282, 2
170283, 170281, 2
170287, 170282, 2
170287, 170288, 2
170287, 170285, 2
170287, 170281, 2
170287, 170284, 2
170321, 170319, 2
170321, 170322, 1
170321, 170320, 2
170321, 170318, 2
170300, 170304, 2
170300, 170302, 2
170300, 170301, 1
170300, 170299, 2
170300, 170298, 2
170300, 170289, 2
170305, 170304, 2
170305, 170302, 2
170305, 170295, 2
170305, 170309, 1
170305, 170306, 4
170305, 170303, 2
170305, 170289, 2
170305, 170308, 2
170305, 170319, 2
170305, 170312, 2
170305, 170310, 2
170305, 170288, 2
170305, 170315, 2
170320, 170319, 2
170320, 170322, 2
170320, 170321, 2
170320, 170316, 2
170320, 170311, 2
170320, 170307, 2
170320, 170318, 2
170320, 170317, 2
170306, 170308, 1
170306, 170305, 2
170306, 170303, 2
170308, 170305, 2
170308, 170309, 2
170308, 170302, 2
170308, 170306, 2
170308, 170303, 2
170294, 170297, 1
170294, 170290, 2
170294, 170295, 0
170294, 170293, 2
170294, 170292, 2
170294, 170296, 3
170294, 170289, 2
170340, 170310, 2
170340, 170309, 2
170340, 170339, 2
170338, 170336, 2
170338, 170339, 2
170338, 170335, 2
170338, 170337, 2
170338, 170334, 2
170302, 170304, 2
170302, 170300, 2
170302, 170305, 2
170302, 170309, 2
170302, 170307, 2
170302, 170303, 1
170302, 170289, 2
170302, 170308, 2
170302, 170290, 2
170302, 170312, 2
170302, 170301, 2
170302, 170288, 2
170316, 170315, 2
170316, 170311, 2
170316, 170317, 2
170316, 170320, 2
170316, 170307, 2
170339, 170336, 2
170339, 170338, 2
170339, 170335, 2
170339, 170340, 1
170339, 170334, 2
170339, 170310, 2
170339, 170309, 2
170339, 170337, 2
170318, 170320, 3
170318, 170319, 0
170318, 170322, 2
170318, 170321, 1
170318, 170317, 2
170327, 170325, 2
170327, 170326, 2
170327, 170330, 2
170327, 170328, 1
170327, 170329, 2
170314, 170313, 2
170314, 170315, 1
170314, 170311, 2
170295, 170304, 2
170295, 170296, 2
170295, 170294, 2
170295, 170291, 2
170295, 170305, 2
170295, 170284, 2
170295, 170288, 2
170295, 170292, 2
170295, 170297, 2
170295, 170289, 2
170311, 170313, 2
170311, 170325, 2
170311, 170333, 2
170311, 170314, 2
170311, 170322, 2
170311, 170334, 2
170311, 170324, 2
170311, 170320, 2
170311, 170307, 2
170311, 170303, 2
170311, 170328, 2
170311, 170290, 2
170311, 170337, 2
170311, 170312, 2
170311, 170286, 2
170311, 170310, 2
170311, 170316, 2
170311, 170315, 2
170311, 170335, 2
170311, 170326, 2
170317, 170309, 2
170317, 170319, 2
170317, 170320, 2
170317, 170310, 2
170317, 170316, 2
170317, 170315, 2
170317, 170318, 1
170291, 170282, 2
170291, 170304, 2
170291, 170281, 2
170291, 170290, 4
170291, 170295, 2
170291, 170284, 2
170291, 170288, 2
170291, 170292, 1
170291, 170286, 2
170291, 170307, 2
170291, 170289, 2
170335, 170336, 1
170335, 170338, 2
170335, 170311, 2
170335, 170334, 2
170335, 170339, 2
170335, 170307, 2
170335, 170337, 2
170312, 170313, 1
170312, 170302, 2
170312, 170305, 2
170312, 170310, 2
170312, 170309, 2
170312, 170311, 4
170312, 170307, 2
170312, 170303, 2
170312, 170290, 2
170323, 170324, 1
170323, 170309, 2
170323, 170322, 2
170323, 170310, 2
170310, 170313, 2
170310, 170325, 2
170310, 170332, 2
170310, 170322, 2
170310, 170334, 2
170310, 170305, 2
170310, 170309, 2
170310, 170311, 2
170310, 170317, 2
170310, 170303, 2
170310, 170319, 2
170310, 170340, 2
170310, 170312, 2
170310, 170324, 2
170310, 170323, 2
170310, 170315, 2
170310, 170339, 2
170310, 170333, 2
170310, 170330, 2
170292, 170304, 2
170292, 170291, 2
170292, 170294, 1
170292, 170290, 2
170292, 170295, 2
170292, 170293, 3
170292, 170289, 2
170329, 170325, 2
170329, 170326, 2
170329, 170330, 2
170329, 170328, 2
170329, 170327, 2
170298, 170304, 2
170298, 170297, 2
170298, 170300, 2
170298, 170288, 2
170298, 170290, 2
170298, 170299, 1
170298, 170307, 2
170298, 170289, 2
170333, 170332, 2
170333, 170334, 1
170333, 170310, 2
170333, 170309, 2
170333, 170311, 2
170333, 170330, 2
170330, 170325, 2
170330, 170332, 2
170330, 170329, 2
170330, 170310, 2
170330, 170326, 2
170330, 170309, 2
170330, 170328, 2
170330, 170331, 1
170330, 170333, 2
170330, 170327, 2
