123794, 123802, 2
123794, 123795, 2
123794, 123792, 2
123794, 123791, 2
123794, 123803, 2
123794, 123793, 2
123794, 123796, 2
123800, 123799, 2
123800, 123802, 2
123800, 123795, 2
123800, 123797, 2
123800, 123801, 1
123800, 123798, 2
123813, 123799, 2
123813, 123793, 2
123813, 123815, 2
123813, 123814, 2
123813, 123817, 2
123813, 123812, 2
123813, 123811, 2
123801, 123802, 3
123801, 123800, 2
123801, 123795, 2
123801, 123804, 2
123801, 123803, 2
123801, 123798, 2
123801, 123816, 2
123801, 123807, 2
123801, 123796, 2
123801, 123799, 2
123801, 123806, 1
123801, 123797, 2
123801, 123817, 2
123801, 123805, 2
123803, 123799, 2
123803, 123804, 2
123803, 123794, 2
123803, 123795, 2
123803, 123802, 2
123803, 123801, 2
123803, 123793, 2
123803, 123796, 2
123812, 123810, 2
123812, 123816, 2
123812, 123813, 3
123812, 123814, 1
123812, 123798, 2
123812, 123817, 2
123812, 123811, 2
123793, 123799, 2
123793, 123794, 3
123793, 123795, 2
123793, 123792, 2
123793, 123813, 2
123793, 123791, 2
123793, 123817, 2
123793, 123803, 2
123793, 123796, 2
123793, 123811, 2
123793, 123802, 2
123815, 123814, 2
123815, 123798, 2
123815, 123817, 1
123815, 123816, 0
123815, 123813, 2
123797, 123799, 1
123797, 123802, 2
123797, 123800, 2
123797, 123792, 2
123797, 123795, 2
123797, 123801, 2
123797, 123796, 2
123805, 123799, 2
123805, 123804, 2
123805, 123806, 2
123805, 123801, 2
123805, 123817, 2
123805, 123807, 2
123805, 123811, 2
123811, 123799, 2
123811, 123810, 2
123811, 123813, 2
123811, 123805, 2
123811, 123808, 2
123811, 123793, 2
123811, 123812, 2
123802, 123794, 2
123802, 123800, 2
123802, 123795, 2
123802, 123804, 1
123802, 123801, 2
123802, 123803, 8
123802, 123793, 2
123802, 123796, 2
123802, 123799, 2
123802, 123806, 2
123802, 123797, 2
123802, 123807, 2
123810, 123799, 2
123810, 123808, 2
123810, 123809, 2
123810, 123798, 2
123810, 123816, 2
123810, 123807, 2
123810, 123812, 1
123810, 123811, 3
123792, 123799, 2
123792, 123794, 2
123792, 123795, 1
123792, 123791, 2
123792, 123797, 2
123792, 123798, 2
123792, 123816, 2
123792, 123793, 3
123792, 123796, 2
123795, 123794, 2
123795, 123800, 1
123795, 123792, 2
123795, 123802, 2
123795, 123801, 2
123795, 123798, 6
123795, 123816, 2
123795, 123803, 2
123795, 123793, 2
123795, 123796, 4
123795, 123799, 2
123795, 123797, 2
123791, 123794, 2
123791, 123798, 2
123791, 123792, 1
123791, 123793, 2
123791, 123796, 2
123798, 123795, 2
123798, 123800, 2
123798, 123806, 2
123798, 123792, 2
123798, 123791, 2
123798, 123801, 2
123798, 123816, 2
123798, 123807, 2
123798, 123810, 2
123798, 123812, 2
123798, 123815, 2
123798, 123814, 2
123798, 123817, 2
123816, 123792, 2
123816, 123810, 2
123816, 123795, 2
123816, 123815, 2
123816, 123814, 2
123816, 123801, 2
123816, 123798, 2
123816, 123817, 2
123816, 123807, 2
123816, 123812, 2
123807, 123799, 2
123807, 123802, 2
123807, 123810, 2
123807, 123806, 2
123807, 123804, 2
123807, 123801, 2
123807, 123798, 2
123807, 123816, 2
123807, 123805, 2
123807, 123808, 1
123796, 123799, 2
123796, 123794, 2
123796, 123795, 2
123796, 123792, 2
123796, 123802, 2
123796, 123797, 1
123796, 123801, 2
123796, 123791, 2
123796, 123803, 2
123796, 123793, 2
123799, 123802, 2
123799, 123800, 2
123799, 123792, 2
123799, 123795, 2
123799, 123804, 2
123799, 123801, 2
123799, 123813, 2
123799, 123803, 2
123799, 123810, 2
123799, 123793, 2
123799, 123796, 2
123799, 123808, 2
123799, 123797, 2
123799, 123817, 2
123799, 123805, 2
123799, 123807, 2
123799, 123811, 2
123808, 123799, 2
123808, 123809, 1
123808, 123810, 2
123808, 123807, 2
123808, 123811, 2
123804, 123799, 2
123804, 123802, 2
123804, 123803, 2
123804, 123806, 2
123804, 123801, 2
123804, 123805, 1
123804, 123807, 2
123806, 123802, 2
123806, 123804, 2
123806, 123801, 2
123806, 123798, 2
123806, 123805, 2
123806, 123807, 1
123809, 123810, 1
123809, 123808, 2
123814, 123816, 2
123814, 123815, 1
123814, 123813, 2
123814, 123798, 2
123814, 123817, 2
123814, 123812, 2
123817, 123799, 2
123817, 123815, 2
123817, 123813, 2
123817, 123814, 2
123817, 123801, 2
123817, 123798, 2
123817, 123816, 2
123817, 123805, 2
123817, 123812, 2
123817, 123793, 2
