295187, 295185, 2
295187, 295195, 2
295187, 295186, 2
295187, 295189, 2
295187, 295183, 2
295187, 295190, 2
295195, 295187, 2
295195, 295194, 2
295195, 295190, 2
295195, 295192, 2
295189, 295187, 2
295189, 295191, 2
295189, 295184, 2
295189, 295188, 2
295189, 295186, 2
295189, 295190, 1
295189, 295192, 2
295188, 295184, 2
295188, 295185, 2
295188, 295183, 2
295188, 295191, 2
295188, 295189, 2
295188, 295186, 2
295188, 295190, 2
295188, 295192, 2
295186, 295187, 6
295186, 295184, 2
295186, 295185, 2
295186, 295191, 2
295186, 295189, 1
295186, 295183, 2
295186, 295190, 2
295186, 295192, 2
295186, 295188, 3
295192, 295189, 2
295192, 295195, 2
295192, 295191, 2
295192, 295193, 1
295192, 295186, 2
295192, 295190, 2
295192, 295188, 2
295194, 295193, 2
295194, 295195, 2
295194, 295190, 2
295184, 295189, 2
295184, 295188, 2
295184, 295185, 2
295184, 295186, 2
295184, 295183, 2
295185, 295187, 2
295185, 295188, 2
295185, 295186, 1
295185, 295183, 2
295185, 295184, 2
295191, 295189, 2
295191, 295188, 2
295191, 295186, 2
295191, 295190, 2
295191, 295192, 1
295193, 295194, 1
295193, 295190, 2
295193, 295192, 2
295190, 295187, 2
295190, 295189, 2
295190, 295195, 1
295190, 295194, 2
295190, 295191, 3
295190, 295193, 2
295190, 295186, 2
295190, 295192, 2
295190, 295188, 2
295183, 295187, 2
295183, 295188, 2
295183, 295185, 1
295183, 295186, 2
295183, 295184, 3
