118789, 118790, 1
118789, 118787, 2
118789, 118786, 2
118789, 118788, 2
118793, 118794, 0
118793, 118795, 1
118793, 118792, 2
118785, 118788, 2
118785, 118784, 2
118785, 118786, 1
118791, 118790, 2
118791, 118786, 2
118791, 118788, 2
118791, 118792, 2
118794, 118793, 2
118794, 118787, 2
118794, 118795, 2
118794, 118790, 2
118794, 118786, 2
118794, 118792, 2
118784, 118788, 2
118784, 118787, 2
118784, 118786, 2
118784, 118785, 1
118786, 118789, 1
118786, 118794, 2
118786, 118788, 3
118786, 118787, 0
118786, 118791, 2
118786, 118785, 2
118786, 118790, 2
118786, 118784, 2
118792, 118793, 1
118792, 118790, 2
118792, 118787, 2
118792, 118791, 2
118792, 118794, 2
118788, 118789, 2
118788, 118787, 2
118788, 118791, 2
118788, 118785, 2
118788, 118790, 2
118788, 118784, 2
118788, 118786, 2
118787, 118789, 2
118787, 118794, 2
118787, 118788, 2
118787, 118790, 2
118787, 118784, 2
118787, 118786, 2
118787, 118792, 2
118795, 118793, 2
118795, 118794, 2
118790, 118789, 2
118790, 118794, 2
118790, 118788, 2
118790, 118787, 2
118790, 118791, 3
118790, 118786, 2
118790, 118792, 1
