21482, 21481, 2
21482, 21480, 2
21482, 21483, 1
21484, 21485, 1
21484, 21483, 2
21480, 21481, 2
21480, 21482, 2
21480, 21485, 2
21480, 21483, 2
21481, 21482, 1
21481, 21480, 6
21481, 21483, 2
21485, 21484, 2
21485, 21480, 2
21485, 21483, 2
21483, 21481, 2
21483, 21482, 2
21483, 21484, 1
21483, 21480, 2
21483, 21485, 2
