118572, 118573, 1
118572, 118570, 2
118572, 118571, 2
118572, 118574, 2
118575, 118576, 1
118575, 118574, 2
118575, 118573, 2
118569, 118570, 1
118569, 118571, 2
118569, 118568, 2
118574, 118572, 2
118574, 118575, 1
118574, 118570, 2
118574, 118573, 2
118574, 118568, 2
118578, 118573, 2
118578, 118577, 2
118576, 118575, 2
118576, 118573, 2
118576, 118577, 1
118573, 118572, 2
118573, 118575, 2
118573, 118574, 0
118573, 118578, 2
118573, 118576, 2
118573, 118570, 2
118573, 118571, 2
118573, 118577, 2
118568, 118570, 2
118568, 118569, 1
118568, 118574, 2
118568, 118571, 2
118570, 118572, 1
118570, 118569, 2
118570, 118574, 2
118570, 118573, 2
118570, 118571, 3
118570, 118568, 2
118571, 118570, 2
118571, 118572, 2
118571, 118569, 2
118571, 118573, 2
118571, 118568, 2
118577, 118576, 2
118577, 118573, 2
118577, 118578, 1
