219169, 219164, 2
219169, 219172, 2
219169, 219170, 2
219169, 219165, 2
219169, 219167, 2
219169, 219171, 2
219169, 219168, 2
219169, 219162, 2
219160, 219158, 2
219160, 219161, 1
219160, 219162, 2
219160, 219159, 2
219161, 219162, 1
219161, 219160, 2
219159, 219160, 1
219159, 219158, 2
219172, 219169, 2
219172, 219170, 2
219172, 219171, 2
219172, 219168, 2
219172, 219165, 2
219166, 219164, 2
219166, 219167, 2
219166, 219168, 2
219166, 219165, 2
219151, 219152, 3
219151, 219150, 2
219151, 219153, 1
219153, 219152, 2
219153, 219154, 1
219153, 219151, 2
219153, 219150, 2
219158, 219156, 2
219158, 219159, 1
219158, 219155, 2
219158, 219160, 2
219158, 219157, 2
219170, 219169, 2
219170, 219172, 2
219170, 219171, 2
219170, 219168, 2
219168, 219169, 6
219168, 219172, 2
219168, 219166, 2
219168, 219170, 3
219168, 219167, 2
219168, 219171, 1
219168, 219165, 2
219162, 219164, 1
219162, 219169, 2
219162, 219163, 8
219162, 219160, 2
219162, 219167, 2
219162, 219161, 2
219162, 219165, 2
219152, 219151, 2
219152, 219153, 2
219154, 219155, 1
219154, 219153, 2
219163, 219164, 2
219163, 219162, 2
219163, 219165, 2
219155, 219156, 1
219155, 219154, 2
219155, 219158, 2
219167, 219164, 2
219167, 219169, 2
219167, 219166, 2
219167, 219168, 1
219167, 219165, 2
219167, 219162, 2
219171, 219169, 2
219171, 219172, 1
219171, 219170, 2
219171, 219165, 2
219171, 219168, 2
219157, 219156, 2
219157, 219158, 2
219164, 219169, 2
219164, 219166, 3
219164, 219163, 2
219164, 219162, 2
219164, 219167, 1
219164, 219165, 6
219156, 219155, 2
219156, 219157, 3
219156, 219158, 1
219150, 219151, 1
219150, 219153, 2
219165, 219164, 2
219165, 219169, 2
219165, 219172, 2
219165, 219166, 2
219165, 219163, 2
219165, 219162, 2
219165, 219167, 2
219165, 219171, 2
219165, 219168, 2
