167236, 167237, 1
167236, 167234, 2
167236, 167235, 2
167236, 167238, 2
167236, 167239, 2
167240, 167241, 1
167240, 167238, 2
167240, 167235, 2
167240, 167243, 2
167240, 167239, 2
167255, 167256, 0
167255, 167257, 3
167255, 167258, 1
167255, 167254, 2
167231, 167232, 1
167231, 167230, 2
167231, 167227, 2
167231, 167228, 2
167242, 167241, 2
167242, 167239, 2
167242, 167243, 2
167242, 167250, 2
167263, 167266, 2
167263, 167261, 2
167263, 167265, 2
167263, 167268, 2
167263, 167264, 2
167263, 167267, 2
167263, 167262, 2
167263, 167260, 2
167247, 167246, 2
167247, 167248, 1
167247, 167250, 2
167229, 167228, 2
167229, 167230, 2
167256, 167258, 2
167256, 167257, 2
167256, 167252, 2
167256, 167254, 2
167256, 167255, 2
167248, 167249, 1
167248, 167247, 2
167248, 167246, 2
167248, 167250, 2
167241, 167240, 2
167241, 167239, 2
167241, 167243, 2
167241, 167242, 1
167232, 167231, 2
167232, 167230, 2
167232, 167227, 2
167232, 167233, 1
167238, 167236, 2
167238, 167240, 2
167238, 167235, 2
167238, 167234, 2
167238, 167237, 2
167238, 167239, 2
167252, 167253, 2
167252, 167256, 2
167252, 167254, 2
167252, 167251, 2
167252, 167250, 2
167246, 167247, 0
167246, 167245, 2
167246, 167248, 2
167246, 167250, 1
167254, 167253, 2
167254, 167256, 2
167254, 167255, 1
167254, 167252, 2
167254, 167257, 2
167254, 167251, 2
167245, 167244, 2
167245, 167246, 1
167245, 167243, 2
167260, 167262, 2
167260, 167263, 2
167260, 167261, 1
167260, 167259, 2
167260, 167258, 2
167259, 167262, 2
167259, 167260, 2
167259, 167258, 2
167259, 167257, 2
167234, 167236, 8
167234, 167237, 2
167234, 167238, 2
167234, 167233, 2
167234, 167235, 3
167234, 167239, 1
167257, 167253, 2
167257, 167256, 2
167257, 167255, 2
167257, 167259, 2
167257, 167254, 2
167257, 167262, 2
167257, 167258, 2
167237, 167236, 2
167237, 167238, 1
167237, 167235, 2
167237, 167234, 2
167237, 167239, 2
167249, 167248, 2
167249, 167250, 2
167243, 167241, 2
167243, 167240, 2
167243, 167242, 2
167243, 167245, 2
167243, 167250, 2
167243, 167244, 1
167243, 167239, 2
167264, 167262, 2
167264, 167263, 2
167264, 167261, 2
167264, 167265, 1
167264, 167266, 2
167266, 167267, 1
167266, 167261, 2
167266, 167265, 2
167266, 167268, 2
167266, 167264, 2
167266, 167262, 2
167266, 167263, 2
167228, 167229, 8
167228, 167231, 2
167228, 167227, 2
167228, 167230, 1
167235, 167236, 2
167235, 167240, 2
167235, 167238, 2
167235, 167233, 2
167235, 167234, 2
167235, 167237, 2
167235, 167239, 2
167235, 167230, 2
167258, 167260, 1
167258, 167256, 2
167258, 167255, 2
167258, 167259, 8
167258, 167262, 2
167258, 167257, 2
167239, 167236, 2
167239, 167240, 3
167239, 167238, 2
167239, 167241, 2
167239, 167243, 1
167239, 167242, 2
167239, 167234, 2
167239, 167235, 2
167239, 167237, 2
167267, 167263, 2
167267, 167266, 2
167267, 167265, 2
167267, 167268, 1
167262, 167266, 2
167262, 167261, 2
167262, 167259, 2
167262, 167264, 1
167262, 167260, 2
167262, 167263, 2
167262, 167257, 2
167262, 167258, 2
167253, 167257, 2
167253, 167252, 2
167253, 167254, 2
167253, 167251, 2
167253, 167250, 2
167265, 167266, 2
167265, 167261, 2
167265, 167268, 2
167265, 167264, 2
167265, 167267, 2
167265, 167263, 2
167230, 167232, 2
167230, 167231, 2
167230, 167227, 2
167230, 167228, 2
167230, 167235, 2
167230, 167229, 2
167227, 167228, 3
167227, 167231, 1
167227, 167230, 2
167227, 167232, 2
167250, 167253, 2
167250, 167249, 2
167250, 167252, 2
167250, 167246, 2
167250, 167243, 2
167250, 167242, 2
167250, 167247, 2
167250, 167251, 1
167250, 167248, 2
167244, 167245, 1
167244, 167243, 2
167268, 167263, 2
167268, 167266, 2
167268, 167265, 2
167268, 167267, 2
167233, 167232, 2
167233, 167234, 1
167233, 167235, 2
167251, 167253, 3
167251, 167252, 0
167251, 167254, 1
167251, 167250, 2
167261, 167266, 1
167261, 167265, 2
167261, 167264, 2
167261, 167262, 3
167261, 167263, 0
167261, 167260, 2
