129411, 129410, 2
129411, 129409, 2
129390, 129391, 2
129390, 129387, 2
129390, 129388, 2
129390, 129389, 2
129406, 129401, 2
129406, 129407, 1
129406, 129409, 2
129406, 129402, 2
129406, 129404, 2
129406, 129403, 2
129406, 129405, 2
129409, 129407, 2
129409, 129405, 2
129409, 129411, 2
129409, 129408, 2
129409, 129406, 2
129409, 129410, 1
129393, 129395, 2
129393, 129394, 8
129393, 129398, 2
129393, 129396, 1
129393, 129392, 2
129389, 129388, 2
129389, 129391, 1
129389, 129390, 8
129389, 129392, 2
129398, 129395, 2
129398, 129396, 2
129398, 129392, 2
129398, 129401, 2
129398, 129397, 2
129398, 129400, 2
129398, 129399, 2
129398, 129393, 2
129387, 129388, 1
129387, 129386, 2
129387, 129385, 2
129387, 129384, 2
129387, 129390, 2
129408, 129407, 2
129408, 129409, 2
129408, 129405, 2
129403, 129404, 2
129403, 129402, 2
129403, 129401, 2
129403, 129406, 2
129403, 129405, 2
129403, 129407, 2
129376, 129377, 1
129376, 129375, 2
129368, 129371, 2
129368, 129370, 1
129368, 129372, 2
129368, 129369, 3
129368, 129367, 2
129380, 129382, 1
129380, 129383, 2
129380, 129379, 2
129380, 129381, 8
129410, 129409, 2
129410, 129411, 1
129404, 129407, 2
129404, 129402, 2
129404, 129401, 2
129404, 129403, 2
129404, 129406, 2
129404, 129405, 1
129369, 129374, 2
129369, 129370, 2
129369, 129367, 2
129369, 129371, 2
129369, 129368, 2
129369, 129373, 2
129369, 129372, 2
129399, 129396, 2
129399, 129395, 2
129399, 129398, 6
129399, 129402, 2
129399, 129397, 2
129399, 129400, 1
129374, 129375, 1
129374, 129373, 2
129374, 129369, 2
129382, 129383, 1
129382, 129381, 2
129382, 129379, 2
129382, 129380, 2
129407, 129401, 2
129407, 129405, 2
129407, 129408, 1
129407, 129404, 2
129407, 129403, 2
129407, 129406, 2
129407, 129409, 2
129391, 129392, 1
129391, 129390, 2
129391, 129389, 2
129373, 129374, 1
129373, 129369, 2
129373, 129372, 2
129379, 129382, 2
129379, 129378, 2
129379, 129380, 1
129383, 129382, 2
129383, 129384, 1
129383, 129380, 2
129371, 129370, 2
129371, 129368, 2
129371, 129372, 1
129371, 129369, 2
129370, 129368, 2
129370, 129371, 1
129370, 129369, 2
129372, 129371, 2
129372, 129368, 2
129372, 129373, 1
129372, 129369, 2
129405, 129407, 2
129405, 129401, 2
129405, 129404, 2
129405, 129403, 2
129405, 129406, 3
129405, 129409, 1
129405, 129408, 2
129388, 129387, 2
129388, 129390, 2
129388, 129389, 1
129375, 129376, 1
129375, 129374, 2
129381, 129382, 2
129381, 129380, 2
129395, 129396, 2
129395, 129398, 2
129395, 129392, 2
129395, 129401, 2
129395, 129397, 2
129395, 129394, 2
129395, 129400, 2
129395, 129399, 2
129395, 129393, 2
129378, 129377, 2
129378, 129379, 1
129402, 129404, 2
129402, 129401, 2
129402, 129403, 1
129402, 129400, 2
129402, 129399, 2
129402, 129406, 2
129401, 129395, 2
129401, 129398, 2
129401, 129407, 2
129401, 129402, 3
129401, 129404, 1
129401, 129403, 2
129401, 129400, 2
129401, 129405, 2
129401, 129406, 2
129394, 129395, 2
129394, 129396, 2
129394, 129393, 2
129400, 129395, 2
129400, 129398, 2
129400, 129402, 2
129400, 129401, 1
129400, 129399, 2
129385, 129387, 1
129385, 129386, 8
129385, 129384, 2
129384, 129383, 2
129384, 129387, 2
129384, 129385, 1
129396, 129395, 6
129396, 129398, 2
129396, 129399, 2
129396, 129394, 2
129396, 129397, 1
129396, 129393, 2
129392, 129395, 2
129392, 129398, 2
129392, 129391, 2
129392, 129393, 1
129392, 129389, 2
129397, 129395, 2
129397, 129396, 2
129397, 129398, 2
129397, 129399, 1
129377, 129376, 2
129377, 129378, 1
129386, 129387, 2
129386, 129385, 2
129367, 129368, 1
129367, 129369, 2
