221650, 221649, 2
221650, 221651, 1
221649, 221650, 1
221649, 221648, 2
221651, 221650, 2
221651, 221652, 1
221651, 221653, 2
221652, 221651, 2
221652, 221653, 1
221653, 221651, 2
221653, 221652, 2
221648, 221649, 1
221648, 221647, 2
221647, 221648, 1
