301622, 301621, 2
301622, 301618, 2
301622, 301619, 2
301622, 301624, 2
301622, 301617, 2
301622, 301620, 2
301622, 301623, 2
301621, 301618, 2
301621, 301617, 2
301621, 301619, 2
301621, 301622, 1
301621, 301620, 2
301621, 301623, 2
301618, 301621, 2
301618, 301619, 2
301618, 301623, 2
301618, 301622, 2
301618, 301620, 2
301618, 301617, 2
301619, 301622, 2
301619, 301621, 2
301619, 301617, 2
301619, 301620, 1
301619, 301618, 2
301624, 301622, 2
301624, 301620, 2
301624, 301623, 2
301617, 301619, 1
301617, 301621, 2
301617, 301622, 2
301617, 301620, 2
301617, 301618, 6
301620, 301622, 2
301620, 301621, 0
301620, 301618, 2
301620, 301619, 2
301620, 301624, 2
301620, 301617, 2
301620, 301623, 1
301623, 301622, 2
301623, 301624, 1
301623, 301621, 2
301623, 301620, 2
301623, 301618, 2
