22632, 22631, 2
22632, 22633, 2
22635, 22637, 2
22635, 22634, 2
22635, 22636, 2
22635, 22638, 2
22637, 22635, 2
22637, 22636, 2
22637, 22638, 1
22634, 22633, 2
22634, 22635, 0
22634, 22636, 1
22636, 22633, 2
22636, 22635, 2
22636, 22637, 1
22636, 22634, 2
22639, 22638, 2
22633, 22632, 2
22633, 22631, 2
22633, 22634, 1
22633, 22636, 2
22631, 22632, 0
22631, 22633, 1
22638, 22635, 2
22638, 22637, 2
22638, 22639, 1
