256581, 256582, 1
256581, 256580, 2
256581, 256579, 2
256582, 256581, 2
256582, 256580, 2
256582, 256579, 2
256580, 256581, 2
256580, 256582, 2
256580, 256579, 2
256579, 256581, 1
256579, 256582, 2
256579, 256580, 3
