169020, 169018, 2
169020, 169000, 2
169020, 169021, 1
169020, 169019, 2
168989, 168986, 2
168989, 168981, 2
168989, 168988, 2
168989, 168987, 2
168989, 168977, 2
168989, 169002, 2
168989, 168997, 2
168989, 168990, 2
168989, 168991, 2
168982, 168980, 2
168982, 168981, 4
168982, 168977, 2
168982, 168994, 2
168982, 168973, 2
168982, 168979, 2
168982, 168997, 2
168982, 168975, 2
168982, 168983, 1
168977, 168981, 2
168977, 168989, 2
168977, 168982, 2
168977, 169001, 2
168977, 168973, 2
168977, 168997, 2
169002, 168989, 2
169002, 168995, 2
169002, 169000, 2
169002, 168991, 2
169002, 168992, 2
169002, 168981, 2
169002, 168993, 2
169002, 169003, 1
169002, 169001, 4
169002, 169006, 2
169002, 168997, 2
169002, 168999, 2
169019, 169020, 2
169019, 169018, 2
169019, 168997, 2
169019, 169001, 2
168979, 168980, 0
168979, 168978, 2
168979, 168990, 2
168979, 168995, 2
168979, 168982, 2
168979, 168987, 2
168979, 168994, 2
168979, 168985, 2
168979, 168973, 2
168979, 168975, 2
168979, 168991, 2
168974, 168973, 2
168974, 168975, 1
168976, 168978, 1
168976, 168973, 2
168976, 168975, 2
168983, 168980, 2
168983, 168981, 2
168983, 168984, 1
168983, 168982, 2
168983, 168985, 2
168983, 168994, 2
169013, 169014, 2
169013, 168997, 2
169013, 169001, 2
169013, 169012, 2
168978, 168979, 2
168978, 168973, 2
168978, 168976, 2
168978, 168975, 2
168988, 168990, 0
168988, 168989, 3
168988, 168987, 2
168988, 168991, 1
168995, 168979, 2
168995, 168996, 4
168995, 168993, 2
168995, 169000, 2
168995, 168992, 2
168995, 169006, 2
168995, 168994, 2
168995, 169002, 2
168995, 168998, 2
168995, 168999, 1
168995, 168980, 2
169000, 169020, 2
169000, 168995, 2
169000, 169002, 2
169000, 169011, 2
169000, 169018, 2
169000, 169016, 2
169000, 169012, 2
169000, 169010, 2
169000, 168993, 2
169000, 169003, 2
169000, 169021, 2
169000, 169001, 2
169000, 169006, 2
169000, 169009, 2
169000, 169014, 2
169000, 169017, 2
169000, 168999, 2
169000, 169005, 2
168987, 168979, 2
168987, 168986, 2
168987, 168989, 2
168987, 168985, 2
168987, 168994, 2
168987, 168980, 2
168987, 168990, 2
168987, 168988, 1
169005, 169007, 3
169005, 169004, 2
169005, 169000, 2
169005, 169001, 2
169005, 169006, 0
169005, 169003, 2
169005, 169008, 1
169005, 169009, 2
169012, 169000, 2
169012, 169001, 2
169012, 169011, 2
169012, 169014, 1
169012, 168999, 2
169012, 169013, 3
168981, 168980, 2
168981, 168986, 2
168981, 168989, 2
168981, 168982, 2
168981, 168977, 2
168981, 169002, 2
168981, 168993, 2
168981, 168991, 2
168981, 168984, 2
168981, 169001, 2
168981, 168985, 2
168981, 168973, 2
168981, 168997, 2
168981, 168983, 2
168993, 168995, 2
168993, 169000, 2
168993, 168996, 2
168993, 169002, 1
168993, 168991, 2
168993, 168992, 2
168993, 168981, 2
168993, 169001, 2
168993, 168994, 6
168993, 168998, 2
168993, 168997, 4
168993, 168999, 2
169008, 169007, 2
169008, 169005, 2
169008, 169009, 1
169008, 169006, 2
169021, 169020, 2
169021, 169000, 2
169021, 168999, 2
169006, 169007, 2
169006, 168995, 2
169006, 169008, 2
169006, 169000, 2
169006, 169003, 2
169006, 169005, 2
169006, 168999, 2
169006, 169002, 2
169006, 169009, 2
169003, 169004, 3
169003, 169000, 2
169003, 169001, 2
169003, 169006, 2
169003, 169002, 2
169003, 169005, 1
168975, 168979, 1
168975, 168978, 2
168975, 168990, 2
168975, 168982, 2
168975, 168994, 2
168975, 168985, 2
168975, 168973, 2
168975, 168976, 4
168975, 168980, 2
168975, 168974, 2
168997, 168986, 2
168997, 168989, 2
168997, 168982, 2
168997, 168977, 2
168997, 169002, 2
168997, 169019, 2
168997, 168991, 2
168997, 168992, 2
168997, 168981, 2
168997, 168993, 2
168997, 169001, 2
168997, 169013, 2
168999, 168992, 2
168999, 168995, 2
168999, 169000, 0
168999, 169017, 2
168999, 169002, 2
168999, 169006, 2
168999, 169018, 2
168999, 169016, 2
168999, 169012, 2
168999, 169010, 2
168999, 168993, 2
168999, 169009, 2
168999, 169021, 2
168999, 169011, 2
168999, 169014, 2
168999, 168998, 2
169015, 169014, 2
169015, 169016, 1
169007, 169004, 2
169007, 169009, 2
169007, 169001, 2
169007, 169006, 2
169007, 169008, 2
169007, 169005, 2
168980, 168995, 2
168980, 168982, 2
168980, 168987, 2
168980, 168991, 2
168980, 168979, 2
168980, 168981, 2
168980, 168990, 2
168980, 168973, 2
168980, 168985, 2
168980, 168994, 2
168980, 168975, 2
168980, 168983, 2
169016, 169014, 2
169016, 169017, 1
169016, 169000, 2
169016, 168999, 2
169016, 169015, 2
168991, 168979, 2
168991, 168981, 2
168991, 168989, 2
168991, 168992, 1
168991, 168993, 2
168991, 168994, 2
168991, 168980, 2
168991, 168990, 2
168991, 168997, 2
168991, 168988, 2
168991, 169002, 2
168996, 168993, 2
168996, 168995, 2
168996, 168998, 1
169018, 169020, 1
169018, 169000, 2
169018, 169001, 2
169018, 168999, 2
169018, 169019, 3
169018, 169017, 2
168985, 168979, 2
168985, 168981, 2
168985, 168984, 2
168985, 168987, 1
168985, 168986, 3
168985, 168994, 2
168985, 168980, 2
168985, 168975, 2
168985, 168983, 2
168973, 168979, 2
168973, 168978, 2
168973, 168982, 1
168973, 168977, 4
168973, 168981, 2
168973, 168980, 2
168973, 168976, 2
168973, 168975, 2
168973, 168974, 6
168986, 168985, 2
168986, 168981, 2
168986, 168989, 2
168986, 168997, 2
168986, 168987, 2
168992, 168993, 1
168992, 168995, 2
168992, 168994, 2
168992, 169002, 2
168992, 168997, 2
168992, 168999, 2
168992, 168991, 2
168984, 168985, 1
168984, 168981, 2
168984, 168983, 2
168990, 168979, 2
168990, 168980, 2
168990, 168989, 2
168990, 168987, 2
168990, 168994, 2
168990, 168975, 2
168990, 168988, 2
168990, 168991, 2
169017, 169018, 1
169017, 169000, 2
169017, 169001, 2
169017, 169014, 2
169017, 168999, 2
169017, 169016, 2
169010, 169009, 2
169010, 169000, 2
169010, 168999, 2
169010, 169011, 1
169004, 169007, 2
169004, 169005, 2
169004, 169003, 2
169004, 169001, 2
169009, 169010, 1
169009, 169007, 2
169009, 169008, 2
169009, 169001, 2
169009, 169006, 2
169009, 169000, 2
169009, 169005, 2
169009, 169011, 2
169009, 168999, 2
169001, 169007, 2
169001, 169000, 2
169001, 168977, 2
169001, 169002, 2
169001, 169018, 2
169001, 169019, 2
169001, 169012, 2
169001, 168981, 2
169001, 168993, 2
169001, 169004, 2
169001, 169003, 2
169001, 169011, 2
169001, 169009, 2
169001, 169017, 2
169001, 168997, 2
169001, 169005, 2
169001, 169013, 2
169011, 169010, 2
169011, 169000, 2
169011, 169001, 2
169011, 169009, 2
169011, 168999, 2
169011, 169012, 1
168994, 168980, 2
168994, 168992, 2
168994, 168995, 1
168994, 168982, 2
168994, 168987, 2
168994, 168993, 2
168994, 168991, 2
168994, 168979, 2
168994, 168990, 2
168994, 168985, 2
168994, 168975, 2
168994, 168983, 2
169014, 169015, 1
169014, 169000, 2
169014, 169012, 2
169014, 169013, 2
169014, 168999, 2
169014, 169016, 2
169014, 169017, 2
168998, 168996, 2
168998, 168993, 2
168998, 168995, 2
168998, 168999, 2
