336598, 336597, 2
336598, 336599, 1
336591, 336590, 2
336591, 336592, 2
336591, 336593, 2
336591, 336589, 2
336584, 336581, 2
336584, 336583, 2
336584, 336585, 1
336584, 336578, 2
336582, 336581, 2
336582, 336583, 1
336582, 336578, 2
336582, 336579, 2
336596, 336595, 2
336596, 336597, 1
336579, 336582, 2
336579, 336578, 2
336579, 336580, 1
336595, 336594, 2
336595, 336593, 2
336595, 336596, 1
336595, 336597, 2
336590, 336591, 8
336590, 336592, 1
336590, 336589, 2
336585, 336586, 1
336585, 336584, 2
336599, 336598, 2
336599, 336600, 1
336593, 336595, 2
336593, 336591, 2
336593, 336592, 2
336593, 336594, 2
336587, 336586, 2
336587, 336588, 1
336600, 336599, 2
336578, 336581, 2
336578, 336582, 1
336578, 336583, 2
336578, 336584, 2
336578, 336579, 0
336586, 336587, 1
336586, 336588, 2
336586, 336585, 2
336586, 336589, 2
336588, 336587, 2
336588, 336586, 2
336588, 336589, 1
336594, 336595, 1
336594, 336593, 2
336594, 336592, 2
336583, 336581, 2
336583, 336582, 2
336583, 336584, 1
336583, 336578, 2
336592, 336591, 2
336592, 336594, 1
336592, 336590, 2
336592, 336593, 8
336589, 336586, 2
336589, 336588, 2
336589, 336591, 2
336589, 336590, 1
336581, 336582, 2
336581, 336584, 2
336581, 336583, 2
336581, 336580, 2
336581, 336578, 2
336597, 336598, 0
336597, 336595, 2
336597, 336596, 2
336580, 336581, 1
336580, 336579, 2
