122683, 122681, 2
122683, 122685, 2
122683, 122684, 1
122683, 122686, 2
122683, 122682, 2
122696, 122697, 1
122696, 122692, 2
122696, 122695, 2
122696, 122694, 2
122696, 122698, 2
122696, 122691, 2
122696, 122699, 2
122696, 122693, 2
122695, 122696, 2
122695, 122691, 2
122695, 122698, 2
122695, 122694, 2
122695, 122693, 2
122695, 122692, 2
122679, 122678, 2
122679, 122680, 1
122679, 122681, 2
122689, 122691, 2
122689, 122688, 2
122689, 122687, 2
122689, 122682, 2
122689, 122692, 2
122689, 122693, 2
122689, 122690, 1
122697, 122698, 3
122697, 122696, 2
122697, 122699, 1
122687, 122689, 1
122687, 122686, 2
122687, 122688, 3
122681, 122683, 3
122681, 122684, 2
122681, 122682, 0
122681, 122685, 2
122681, 122679, 2
122681, 122686, 1
122681, 122680, 2
122694, 122696, 2
122694, 122691, 2
122694, 122693, 2
122694, 122695, 1
122694, 122692, 2
122698, 122696, 2
122698, 122697, 2
122698, 122695, 2
122698, 122699, 2
122685, 122683, 2
122685, 122686, 2
122685, 122688, 2
122685, 122682, 2
122685, 122681, 2
122685, 122684, 2
122690, 122689, 2
122690, 122691, 1
122690, 122693, 2
122690, 122692, 2
122692, 122689, 2
122692, 122696, 2
122692, 122691, 2
122692, 122682, 2
122692, 122695, 2
122692, 122694, 2
122692, 122686, 2
122692, 122693, 2
122692, 122699, 2
122692, 122690, 2
122688, 122689, 2
122688, 122685, 2
122688, 122687, 2
122688, 122693, 2
122680, 122679, 2
122680, 122681, 1
122686, 122683, 2
122686, 122692, 2
122686, 122687, 1
122686, 122681, 2
122686, 122685, 2
122686, 122684, 2
122686, 122682, 2
122691, 122689, 2
122691, 122696, 1
122691, 122692, 0
122691, 122695, 2
122691, 122694, 2
122691, 122693, 3
122691, 122690, 2
122699, 122698, 2
122699, 122696, 2
122699, 122697, 2
122699, 122692, 2
122678, 122679, 1
122684, 122683, 2
122684, 122685, 1
122684, 122682, 2
122684, 122681, 2
122684, 122686, 2
122693, 122689, 2
122693, 122696, 2
122693, 122691, 2
122693, 122688, 2
122693, 122695, 2
122693, 122694, 1
122693, 122692, 2
122693, 122690, 2
122682, 122683, 2
122682, 122689, 2
122682, 122685, 2
122682, 122681, 2
122682, 122684, 2
122682, 122686, 2
122682, 122692, 2
