300507, 300505, 2
300507, 300509, 2
300507, 300506, 2
300507, 300508, 2
300506, 300505, 2
300506, 300507, 8
300506, 300508, 1
300509, 300507, 2
300509, 300510, 1
300509, 300508, 2
300505, 300507, 2
300505, 300510, 2
300505, 300506, 3
300505, 300508, 2
300510, 300505, 2
300510, 300509, 2
300508, 300505, 2
300508, 300507, 2
300508, 300506, 2
300508, 300509, 1
