132856, 132852, 2
132856, 132855, 2
132856, 132854, 2
132856, 132853, 2
132855, 132856, 2
132855, 132853, 2
132855, 132854, 2
132855, 132852, 2
132854, 132856, 2
132854, 132855, 1
132854, 132853, 2
132854, 132852, 2
132853, 132856, 2
132853, 132855, 2
132853, 132854, 1
132853, 132852, 2
132852, 132856, 1
132852, 132855, 2
132852, 132854, 2
132852, 132853, 8
