118265, 118264, 2
118265, 118266, 2
118268, 118267, 2
118268, 118269, 8
118268, 118270, 1
118266, 118265, 2
118266, 118267, 1
118266, 118264, 2
118267, 118268, 1
118267, 118266, 2
118264, 118265, 3
118264, 118266, 1
118272, 118271, 2
118270, 118268, 2
118270, 118269, 2
118270, 118271, 1
118269, 118268, 2
118269, 118270, 2
118269, 118271, 2
118271, 118272, 1
118271, 118270, 2
118271, 118269, 2
