221896, 221895, 2
221896, 221897, 2
221896, 221898, 2
221896, 221894, 2
221896, 221893, 2
221893, 221892, 2
221893, 221896, 2
221893, 221895, 2
221893, 221894, 2
221893, 221897, 2
221897, 221896, 2
221897, 221893, 2
221897, 221892, 2
221897, 221898, 3
221897, 221895, 2
221897, 221894, 2
221892, 221895, 2
221892, 221894, 8
221892, 221893, 3
221892, 221897, 1
221895, 221896, 1
221895, 221892, 2
221895, 221893, 2
221895, 221894, 2
221895, 221897, 2
221898, 221896, 2
221898, 221897, 2
221894, 221892, 2
221894, 221896, 2
221894, 221895, 1
221894, 221893, 2
221894, 221897, 2
