221954, 221953, 2
221952, 221948, 2
221952, 221951, 2
221952, 221953, 2
221950, 221949, 2
221950, 221951, 1
221950, 221948, 2
221948, 221952, 2
221948, 221950, 1
221948, 221949, 6
221953, 221952, 2
221953, 221949, 2
221953, 221951, 2
221953, 221954, 1
221951, 221952, 3
221951, 221949, 2
221951, 221950, 2
221951, 221953, 1
221949, 221953, 2
221949, 221950, 2
221949, 221951, 2
221949, 221948, 2
