221820, 221821, 1
221820, 221819, 2
221815, 221816, 1
221819, 221820, 1
221819, 221818, 2
221818, 221819, 1
221818, 221817, 2
221821, 221820, 2
221817, 221818, 1
221817, 221816, 2
221816, 221817, 1
221816, 221815, 2
