222094, 222091, 2
222094, 222093, 2
222094, 222092, 2
222090, 222093, 1
222090, 222092, 8
222090, 222087, 2
222090, 222091, 3
222090, 222089, 2
222090, 222088, 2
222092, 222091, 2
222092, 222094, 2
222092, 222093, 2
222092, 222090, 2
222087, 222089, 8
222087, 222090, 1
222087, 222088, 3
222091, 222094, 2
222091, 222090, 2
222091, 222088, 2
222091, 222089, 2
222091, 222092, 2
222091, 222093, 2
222089, 222087, 2
222089, 222091, 2
222089, 222090, 2
222089, 222088, 2
222093, 222091, 2
222093, 222094, 3
222093, 222090, 2
222093, 222092, 2
222088, 222087, 2
222088, 222091, 2
222088, 222089, 2
222088, 222090, 2
