258632, 258633, 1
258632, 258631, 2
258633, 258632, 2
258633, 258631, 2
258633, 258635, 1
258633, 258634, 0
258635, 258633, 2
258635, 258636, 1
258635, 258634, 2
258636, 258635, 2
258631, 258632, 1
258631, 258633, 2
258634, 258633, 2
258634, 258635, 2
