70789, 70788, 2
70789, 70790, 1
70793, 70792, 2
70791, 70792, 1
70791, 70790, 2
70788, 70789, 1
70788, 70790, 2
70792, 70791, 2
70792, 70793, 0
70792, 70790, 2
70790, 70791, 1
70790, 70789, 2
70790, 70792, 2
70790, 70788, 2
