258671, 258670, 2
258671, 258669, 2
258670, 258671, 1
258670, 258669, 2
258670, 258668, 2
258669, 258671, 2
258669, 258667, 2
258669, 258670, 1
258669, 258668, 2
258667, 258669, 1
258667, 258668, 8
258668, 258667, 2
258668, 258670, 2
258668, 258669, 2
