253190, 253191, 2
253190, 253188, 2
253190, 253189, 2
253190, 253194, 2
253190, 253192, 2
253190, 253197, 2
253191, 253190, 2
253191, 253192, 1
253191, 253193, 2
253191, 253194, 2
253191, 253188, 2
253183, 253184, 2
253183, 253181, 2
253183, 253182, 2
253183, 253185, 2
253186, 253189, 1
253186, 253185, 2
253186, 253187, 3
253195, 253194, 2
253195, 253193, 2
253195, 253197, 2
253195, 253196, 1
253194, 253190, 2
253194, 253191, 2
253194, 253189, 2
253194, 253195, 3
253194, 253193, 2
253194, 253192, 2
253194, 253197, 1
253194, 253185, 2
253181, 253184, 1
253181, 253182, 6
253181, 253185, 2
253181, 253183, 3
253196, 253193, 2
253196, 253197, 2
253196, 253195, 2
253184, 253181, 2
253184, 253182, 2
253184, 253185, 1
253184, 253183, 2
253193, 253191, 2
253193, 253194, 2
253193, 253196, 2
253193, 253195, 2
253193, 253192, 2
253187, 253188, 2
253187, 253189, 2
253187, 253186, 2
253188, 253190, 2
253188, 253191, 2
253188, 253189, 2
253188, 253187, 2
253192, 253191, 2
253192, 253194, 2
253192, 253193, 1
253192, 253190, 2
253192, 253189, 2
253182, 253184, 2
253182, 253181, 2
253182, 253185, 2
253182, 253183, 2
253197, 253190, 2
253197, 253194, 2
253197, 253196, 2
253197, 253195, 2
253189, 253190, 3
253189, 253188, 2
253189, 253186, 2
253189, 253187, 2
253189, 253194, 1
253189, 253192, 2
253189, 253185, 2
253185, 253184, 2
253185, 253181, 2
253185, 253186, 1
253185, 253183, 2
253185, 253194, 2
253185, 253182, 2
253185, 253189, 2
