121104, 121103, 2
121104, 121105, 1
121093, 121092, 2
121093, 121090, 2
121093, 121094, 2
121093, 121091, 2
121096, 121097, 1
121096, 121094, 2
121096, 121095, 2
121099, 121100, 1
121099, 121097, 2
121099, 121098, 2
121103, 121104, 1
121103, 121102, 2
121103, 121105, 2
121101, 121100, 2
121101, 121102, 1
121090, 121093, 2
121090, 121091, 1
121098, 121099, 1
121098, 121097, 2
121092, 121093, 3
121092, 121094, 1
121092, 121091, 2
121102, 121101, 2
121102, 121103, 1
121094, 121092, 2
121094, 121093, 2
121094, 121096, 2
121094, 121095, 1
121106, 121107, 2
121106, 121105, 2
121095, 121094, 2
121095, 121096, 1
121105, 121104, 2
121105, 121107, 1
121105, 121103, 2
121105, 121106, 0
121091, 121092, 1
121091, 121093, 2
121091, 121090, 2
121097, 121099, 2
121097, 121096, 2
121097, 121098, 1
121100, 121099, 2
121100, 121101, 1
121107, 121105, 2
121107, 121106, 2
