220368, 220366, 2
220368, 220367, 2
220368, 220369, 1
220368, 220365, 2
220358, 220357, 2
220358, 220359, 8
220358, 220360, 1
220380, 220379, 2
220380, 220381, 1
220381, 220382, 1
220381, 220385, 2
220381, 220380, 2
220355, 220356, 1
220355, 220354, 2
220355, 220357, 2
220354, 220355, 1
220354, 220356, 2
220354, 220353, 2
220354, 220352, 2
220384, 220385, 8
220384, 220382, 2
220384, 220383, 2
220384, 220386, 1
220379, 220385, 2
220379, 220378, 2
220379, 220380, 1
220357, 220355, 2
220357, 220359, 2
220357, 220358, 1
220357, 220356, 2
220357, 220360, 2
220369, 220368, 2
220369, 220370, 1
220386, 220385, 2
220386, 220384, 2
220386, 220387, 1
220362, 220363, 1
220362, 220361, 2
220385, 220379, 2
220385, 220386, 2
220385, 220381, 2
220385, 220382, 2
220385, 220384, 2
220385, 220378, 2
220385, 220383, 2
220367, 220368, 1
220367, 220366, 2
220367, 220365, 2
220383, 220385, 2
220383, 220382, 2
220383, 220384, 1
220387, 220386, 2
220360, 220357, 2
220360, 220359, 2
220360, 220358, 2
220360, 220361, 1
220373, 220374, 1
220373, 220372, 2
220365, 220366, 8
220365, 220367, 1
220365, 220368, 2
220365, 220364, 2
220371, 220370, 2
220371, 220372, 1
220353, 220354, 1
220353, 220352, 2
220375, 220374, 2
220375, 220376, 1
220377, 220378, 1
220377, 220376, 2
220376, 220377, 1
220376, 220378, 2
220376, 220375, 2
220374, 220375, 1
220374, 220373, 2
220378, 220385, 2
220378, 220379, 1
220378, 220376, 2
220378, 220377, 2
220363, 220362, 2
220363, 220361, 2
220363, 220364, 1
220361, 220359, 2
220361, 220363, 2
220361, 220360, 2
220361, 220362, 1
220382, 220385, 2
220382, 220384, 2
220382, 220383, 1
220382, 220381, 2
220372, 220371, 2
220372, 220373, 1
220364, 220366, 2
220364, 220363, 2
220364, 220365, 1
220366, 220368, 2
220366, 220367, 2
220366, 220364, 2
220366, 220365, 2
220359, 220357, 2
220359, 220360, 2
220359, 220358, 2
220359, 220361, 2
220370, 220371, 1
220370, 220369, 2
220352, 220354, 2
220352, 220353, 1
220356, 220355, 2
220356, 220357, 1
220356, 220354, 2
