21803, 21805, 2
21803, 21802, 2
21803, 21804, 1
21809, 21807, 2
21809, 21808, 2
21804, 21805, 8
21804, 21803, 2
21804, 21806, 1
21804, 21807, 2
21806, 21807, 1
21806, 21805, 2
21806, 21804, 2
21807, 21806, 2
21807, 21809, 2
21807, 21804, 2
21807, 21805, 2
21807, 21808, 1
21802, 21803, 1
21805, 21803, 2
21805, 21806, 2
21805, 21807, 2
21805, 21804, 2
21808, 21807, 2
21808, 21809, 1
