302316, 302315, 2
302316, 302318, 8
302316, 302317, 3
302316, 302319, 1
302318, 302316, 2
302318, 302317, 2
302318, 302319, 2
302317, 302316, 2
302317, 302315, 2
302317, 302318, 2
302317, 302319, 2
302319, 302316, 2
302319, 302318, 2
302319, 302320, 1
302319, 302317, 2
302315, 302316, 1
302315, 302317, 2
302315, 302314, 2
302313, 302312, 2
302313, 302314, 1
302312, 302313, 1
302314, 302315, 1
302314, 302313, 2
302320, 302319, 2
