71602, 71599, 2
71602, 71601, 2
71599, 71602, 2
71599, 71600, 2
71599, 71598, 2
71599, 71601, 2
71598, 71599, 0
71598, 71596, 2
71598, 71600, 1
71598, 71601, 2
71598, 71597, 2
71601, 71602, 0
71601, 71599, 2
71601, 71598, 2
71601, 71600, 2
71600, 71599, 2
71600, 71598, 2
71600, 71601, 1
71596, 71598, 2
71596, 71597, 1
71597, 71598, 1
71597, 71596, 2
