218111, 218110, 2
218111, 218106, 2
218111, 218109, 2
218111, 218114, 2
218111, 218108, 2
218111, 218112, 2
218111, 218105, 2
218116, 218115, 2
218116, 218117, 3
218116, 218118, 1
218114, 218115, 1
218114, 218111, 2
218114, 218113, 2
218114, 218112, 2
218107, 218110, 2
218107, 218106, 2
218107, 218105, 2
218107, 218108, 2
218113, 218115, 2
218113, 218114, 1
218113, 218112, 2
218112, 218110, 2
218112, 218111, 2
218112, 218113, 1
218112, 218109, 2
218112, 218114, 2
218115, 218114, 2
218115, 218113, 2
218115, 218116, 1
218115, 218117, 2
218115, 218118, 2
218104, 218105, 1
218110, 218107, 2
218110, 218111, 2
218110, 218112, 2
218110, 218109, 2
218110, 218108, 2
218106, 218107, 3
218106, 218111, 2
218106, 218105, 2
218106, 218108, 1
218121, 218120, 2
218121, 218119, 2
218109, 218110, 3
218109, 218111, 0
218109, 218112, 1
218109, 218108, 2
218119, 218120, 3
218119, 218121, 1
218119, 218118, 2
218117, 218115, 2
218117, 218120, 2
218117, 218116, 2
218117, 218118, 2
218108, 218110, 2
218108, 218111, 2
218108, 218109, 1
218108, 218106, 2
218108, 218107, 2
218108, 218105, 2
218120, 218121, 2
218120, 218119, 2
218120, 218117, 2
218120, 218118, 2
218118, 218120, 2
218118, 218115, 2
218118, 218116, 2
218118, 218119, 1
218118, 218117, 2
218105, 218107, 2
218105, 218111, 2
218105, 218106, 1
218105, 218108, 2
218105, 218104, 2
