217944, 217942, 2
217944, 217945, 3
217944, 217943, 2
217944, 217946, 8
217944, 217947, 1
217944, 217941, 2
217951, 217949, 2
217951, 217953, 1
217951, 217950, 2
217951, 217952, 2
217955, 217954, 2
217955, 217956, 3
217955, 217957, 1
217955, 217952, 2
217945, 217944, 2
217945, 217942, 2
217945, 217943, 2
217945, 217947, 2
217945, 217946, 2
217945, 217950, 2
217943, 217944, 2
217943, 217942, 2
217943, 217941, 2
217943, 217945, 2
217949, 217948, 2
217949, 217951, 1
217949, 217952, 2
217949, 217950, 3
217947, 217948, 1
217947, 217944, 2
217947, 217946, 2
217947, 217952, 2
217947, 217945, 2
217941, 217944, 1
217941, 217942, 3
217941, 217943, 8
217950, 217948, 2
217950, 217954, 2
217950, 217945, 2
217950, 217949, 2
217950, 217951, 2
217950, 217946, 2
217950, 217952, 2
217950, 217956, 2
217956, 217954, 2
217956, 217955, 2
217956, 217950, 2
217956, 217957, 2
217948, 217949, 1
217948, 217946, 2
217948, 217952, 2
217948, 217950, 2
217948, 217947, 2
217958, 217957, 2
217958, 217952, 2
217942, 217944, 2
217942, 217941, 2
217942, 217945, 2
217942, 217943, 2
217954, 217952, 2
217954, 217953, 2
217954, 217956, 2
217954, 217955, 1
217954, 217950, 2
217953, 217954, 1
217953, 217952, 6
217953, 217951, 2
217946, 217948, 2
217946, 217944, 2
217946, 217947, 2
217946, 217950, 2
217946, 217945, 2
217957, 217958, 1
217957, 217956, 2
217957, 217955, 2
217957, 217952, 2
217952, 217948, 2
217952, 217958, 2
217952, 217954, 2
217952, 217955, 2
217952, 217951, 2
217952, 217949, 2
217952, 217953, 2
217952, 217947, 2
217952, 217957, 2
217952, 217950, 2
