170981, 170982, 1
170983, 170982, 2
170983, 170984, 1
170985, 170987, 2
170985, 170986, 1
170985, 170984, 2
170987, 170986, 2
170987, 170984, 2
170987, 170985, 2
170982, 170981, 2
170982, 170983, 1
170986, 170987, 1
170986, 170984, 2
170986, 170985, 2
170984, 170987, 2
170984, 170983, 2
170984, 170986, 2
170984, 170985, 0
