72104, 72103, 2
72104, 72105, 2
72104, 72106, 2
72104, 72102, 2
72105, 72104, 2
72105, 72103, 2
72105, 72102, 2
72105, 72106, 1
72100, 72101, 3
72100, 72102, 1
72106, 72104, 2
72106, 72103, 2
72106, 72105, 2
72102, 72104, 2
72102, 72103, 1
72102, 72105, 2
72102, 72100, 2
72102, 72101, 2
72103, 72104, 8
72103, 72105, 1
72103, 72106, 2
72103, 72102, 2
72101, 72100, 2
72101, 72102, 2
