63499, 63498, 2
63499, 63500, 1
63498, 63499, 1
63498, 63500, 2
63498, 63497, 2
63507, 63506, 2
63507, 63508, 1
63504, 63503, 2
63504, 63505, 1
63501, 63502, 1
63501, 63500, 2
63501, 63503, 2
63502, 63503, 1
63502, 63500, 2
63502, 63501, 2
63500, 63499, 2
63500, 63498, 2
63500, 63502, 2
63500, 63501, 1
63497, 63498, 1
63509, 63510, 1
63509, 63508, 2
63508, 63510, 2
63508, 63507, 2
63508, 63509, 1
63510, 63509, 2
63510, 63508, 2
63506, 63507, 1
63506, 63505, 2
63503, 63502, 2
63503, 63505, 2
63503, 63504, 1
63503, 63501, 2
63505, 63503, 2
63505, 63506, 1
63505, 63504, 2
