295918, 295916, 2
295918, 295919, 1
295918, 295917, 2
295918, 295920, 2
295915, 295916, 3
295915, 295917, 0
295915, 295914, 2
295915, 295921, 1
295915, 295920, 8
295925, 295923, 2
295925, 295926, 2
295925, 295924, 2
295926, 295922, 2
295926, 295921, 2
295926, 295925, 2
295926, 295923, 2
295926, 295920, 2
295926, 295924, 2
295914, 295916, 2
295914, 295915, 1
295914, 295913, 2
295914, 295912, 2
295922, 295919, 2
295922, 295924, 1
295922, 295926, 2
295922, 295921, 2
295922, 295923, 2
295920, 295918, 2
295920, 295919, 2
295920, 295915, 2
295920, 295921, 2
295920, 295923, 2
295920, 295917, 2
295920, 295916, 2
295920, 295926, 2
295919, 295918, 2
295919, 295916, 2
295919, 295922, 2
295919, 295921, 2
295919, 295920, 2
295917, 295918, 1
295917, 295916, 2
295917, 295915, 2
295917, 295920, 2
295921, 295919, 2
295921, 295915, 2
295921, 295923, 3
295921, 295916, 2
295921, 295926, 1
295921, 295922, 0
295921, 295920, 2
295923, 295922, 2
295923, 295921, 2
295923, 295925, 2
295923, 295916, 2
295923, 295926, 2
295923, 295920, 2
295923, 295924, 2
295916, 295918, 2
295916, 295919, 2
295916, 295915, 2
295916, 295921, 2
295916, 295923, 2
295916, 295917, 2
295916, 295914, 2
295916, 295920, 2
295913, 295912, 2
295913, 295914, 2
295912, 295913, 3
295912, 295914, 1
295924, 295922, 2
295924, 295926, 2
295924, 295925, 1
295924, 295923, 2
