168486, 168484, 2
168486, 168479, 2
168486, 168482, 2
168486, 168487, 1
168486, 168472, 2
168486, 168485, 2
168486, 168481, 2
168486, 168480, 2
168486, 168468, 2
168486, 168471, 2
168486, 168469, 2
168493, 168495, 2
168493, 168487, 2
168493, 168485, 2
168493, 168491, 2
168493, 168490, 2
168493, 168494, 2
168493, 168488, 2
168477, 168473, 2
168477, 168475, 2
168477, 168470, 2
168477, 168474, 2
168477, 168478, 2
168477, 168480, 2
168477, 168468, 2
168477, 168476, 2
168500, 168495, 2
168500, 168502, 1
168500, 168497, 2
168500, 168496, 2
168500, 168499, 2
168500, 168498, 2
168470, 168482, 2
168470, 168475, 2
168470, 168477, 2
168470, 168471, 2
168470, 168481, 2
168470, 168466, 2
168470, 168480, 2
168470, 168489, 2
168470, 168472, 2
168470, 168469, 2
168470, 168473, 2
168470, 168479, 2
168470, 168474, 2
168470, 168484, 2
168470, 168464, 2
168470, 168492, 2
168470, 168478, 2
168470, 168483, 2
168470, 168458, 2
168491, 168487, 2
168491, 168493, 1
168491, 168485, 2
168491, 168494, 2
168491, 168490, 2
168491, 168488, 2
168504, 168495, 2
168504, 168503, 2
168504, 168496, 2
168482, 168486, 2
168482, 168471, 2
168482, 168475, 2
168482, 168481, 2
168482, 168466, 2
168482, 168480, 2
168482, 168489, 2
168482, 168472, 2
168482, 168470, 2
168482, 168484, 2
168482, 168464, 2
168482, 168483, 3
168476, 168473, 2
168476, 168474, 2
168476, 168475, 2
168476, 168468, 2
168476, 168477, 1
168467, 168465, 2
168467, 168460, 2
168467, 168469, 2
168467, 168462, 2
168467, 168461, 2
168467, 168457, 2
168467, 168468, 1
168467, 168471, 2
168467, 168458, 2
168467, 168463, 2
168474, 168473, 2
168474, 168475, 3
168474, 168477, 2
168474, 168470, 2
168474, 168478, 2
168474, 168472, 2
168474, 168476, 1
168499, 168495, 2
168499, 168502, 2
168499, 168497, 2
168499, 168496, 2
168499, 168500, 2
168499, 168498, 2
168463, 168467, 2
168463, 168465, 1
168463, 168460, 2
168463, 168462, 2
168463, 168461, 2
168463, 168458, 2
168495, 168501, 2
168495, 168493, 2
168495, 168496, 0
168495, 168500, 2
168495, 168504, 2
168495, 168494, 2
168495, 168489, 2
168495, 168490, 2
168495, 168498, 2
168495, 168484, 2
168495, 168503, 2
168495, 168502, 2
168495, 168497, 2
168495, 168485, 2
168495, 168499, 2
168495, 168483, 2
168495, 168492, 2
168469, 168486, 2
168469, 168467, 2
168469, 168471, 2
168469, 168470, 2
168469, 168468, 2
168469, 168465, 2
168469, 168458, 2
168459, 168457, 2
168459, 168460, 1
168459, 168458, 2
168461, 168467, 2
168461, 168465, 2
168461, 168460, 2
168461, 168462, 3
168461, 168463, 2
168461, 168458, 2
168481, 168486, 2
168481, 168485, 2
168481, 168482, 3
168481, 168484, 1
168481, 168470, 2
168481, 168466, 2
168481, 168480, 2
168481, 168483, 2
168480, 168486, 2
168480, 168479, 2
168480, 168482, 2
168480, 168475, 2
168480, 168481, 1
168480, 168470, 2
168480, 168466, 2
168480, 168478, 2
168480, 168477, 2
168480, 168472, 2
168489, 168495, 2
168489, 168485, 2
168489, 168482, 2
168489, 168492, 3
168489, 168464, 2
168489, 168484, 2
168489, 168470, 2
168489, 168466, 2
168489, 168483, 2
168489, 168471, 2
168473, 168475, 2
168473, 168470, 2
168473, 168474, 3
168473, 168477, 2
168473, 168468, 2
168473, 168472, 2
168473, 168476, 2
168502, 168495, 2
168502, 168503, 2
168502, 168497, 2
168502, 168496, 2
168502, 168500, 2
168502, 168499, 2
168502, 168498, 2
168497, 168495, 2
168497, 168502, 2
168497, 168496, 2
168497, 168500, 2
168497, 168499, 2
168497, 168498, 3
168492, 168495, 2
168492, 168475, 2
168492, 168464, 2
168492, 168485, 2
168492, 168470, 2
168492, 168483, 2
168492, 168472, 2
168492, 168489, 2
168494, 168495, 2
168494, 168487, 2
168494, 168501, 2
168494, 168493, 2
168494, 168496, 2
168494, 168485, 2
168494, 168490, 2
168494, 168491, 2
168494, 168468, 2
168494, 168488, 2
168468, 168486, 2
168468, 168473, 2
168468, 168471, 2
168468, 168501, 2
168468, 168477, 2
168468, 168494, 2
168468, 168469, 3
168468, 168476, 2
168468, 168467, 2
168468, 168479, 2
168468, 168487, 2
168468, 168478, 2
168468, 168458, 2
168471, 168486, 2
168471, 168469, 2
168471, 168470, 4
168471, 168466, 2
168471, 168468, 2
168471, 168472, 1
168471, 168489, 2
168471, 168467, 2
168471, 168465, 2
168471, 168462, 2
168471, 168482, 2
168471, 168464, 2
168471, 168457, 2
168471, 168458, 2
168460, 168467, 1
168460, 168465, 2
168460, 168461, 3
168460, 168457, 2
168460, 168459, 2
168460, 168463, 2
168460, 168458, 2
168501, 168495, 2
168501, 168494, 2
168501, 168468, 2
168501, 168496, 2
168496, 168495, 2
168496, 168503, 2
168496, 168501, 6
168496, 168502, 2
168496, 168497, 4
168496, 168500, 2
168496, 168494, 2
168496, 168504, 2
168496, 168499, 2
168496, 168498, 2
168490, 168495, 2
168490, 168484, 2
168490, 168493, 2
168490, 168485, 2
168490, 168491, 2
168490, 168494, 2
168490, 168488, 2
168457, 168467, 2
168457, 168471, 2
168457, 168460, 2
168457, 168464, 2
168457, 168466, 2
168457, 168459, 2
168457, 168458, 1
168457, 168456, 2
168472, 168486, 2
168472, 168473, 0
168472, 168471, 2
168472, 168475, 2
168472, 168492, 2
168472, 168474, 2
168472, 168470, 2
168472, 168466, 2
168472, 168480, 1
168472, 168482, 2
168479, 168486, 2
168479, 168470, 2
168479, 168478, 2
168479, 168480, 2
168479, 168468, 2
168462, 168467, 2
168462, 168465, 2
168462, 168461, 2
168462, 168471, 2
168462, 168458, 2
168462, 168463, 1
168485, 168486, 6
168485, 168495, 1
168485, 168493, 2
168485, 168481, 2
168485, 168494, 2
168485, 168490, 2
168485, 168489, 4
168485, 168487, 2
168485, 168484, 2
168485, 168491, 2
168485, 168483, 2
168485, 168492, 2
168485, 168488, 2
168478, 168479, 1
168478, 168470, 2
168478, 168474, 2
168478, 168480, 2
168478, 168477, 2
168478, 168468, 2
168498, 168495, 2
168498, 168503, 2
168498, 168502, 2
168498, 168497, 2
168498, 168496, 2
168498, 168500, 1
168498, 168499, 3
168488, 168484, 2
168488, 168487, 2
168488, 168493, 2
168488, 168485, 2
168488, 168491, 1
168488, 168490, 3
168488, 168494, 2
168456, 168457, 1
168475, 168473, 2
168475, 168482, 2
168475, 168472, 2
168475, 168474, 2
168475, 168470, 2
168475, 168492, 2
168475, 168480, 2
168475, 168483, 2
168475, 168477, 2
168475, 168476, 2
168466, 168471, 2
168466, 168481, 2
168466, 168482, 2
168466, 168470, 2
168466, 168457, 2
168466, 168480, 2
168466, 168489, 2
168466, 168472, 2
168466, 168458, 2
168466, 168464, 2
168503, 168495, 2
168503, 168502, 2
168503, 168504, 1
168503, 168498, 2
168503, 168496, 2
168465, 168467, 2
168465, 168471, 2
168465, 168460, 2
168465, 168462, 2
168465, 168461, 2
168465, 168463, 2
168465, 168458, 2
168465, 168469, 2
168487, 168486, 2
168487, 168484, 2
168487, 168493, 2
168487, 168485, 2
168487, 168491, 2
168487, 168468, 2
168487, 168494, 1
168487, 168488, 3
168484, 168486, 2
168484, 168495, 2
168484, 168482, 2
168484, 168487, 2
168484, 168481, 2
168484, 168485, 1
168484, 168470, 2
168484, 168490, 2
168484, 168483, 2
168484, 168488, 2
168484, 168489, 2
168464, 168466, 3
168464, 168482, 2
168464, 168471, 2
168464, 168470, 2
168464, 168457, 2
168464, 168483, 2
168464, 168492, 2
168464, 168458, 2
168464, 168489, 2
168483, 168495, 2
168483, 168484, 2
168483, 168482, 2
168483, 168475, 2
168483, 168481, 2
168483, 168485, 2
168483, 168470, 2
168483, 168492, 2
168483, 168489, 2
168483, 168464, 2
168458, 168457, 2
168458, 168471, 1
168458, 168460, 2
168458, 168461, 2
168458, 168470, 2
168458, 168466, 2
168458, 168468, 2
168458, 168469, 2
168458, 168467, 2
168458, 168465, 2
168458, 168462, 2
168458, 168464, 4
168458, 168459, 6
168458, 168463, 2
