118496, 118498, 2
118496, 118495, 2
118496, 118497, 1
118496, 118499, 2
118496, 118493, 2
118496, 118494, 2
118495, 118496, 2
118495, 118493, 2
118495, 118494, 2
118497, 118496, 2
118497, 118498, 1
118498, 118496, 2
118498, 118499, 8
118498, 118497, 2
118498, 118500, 1
118499, 118498, 2
118499, 118496, 2
118499, 118500, 2
118499, 118494, 2
118491, 118492, 1
118491, 118494, 2
118493, 118496, 1
118493, 118495, 8
118493, 118492, 2
118493, 118494, 3
118492, 118491, 2
118492, 118493, 1
118492, 118494, 2
118500, 118498, 2
118500, 118499, 2
118494, 118496, 2
118494, 118495, 2
118494, 118499, 2
118494, 118491, 2
118494, 118493, 2
118494, 118492, 2
