186918, 186919, 1
186918, 186917, 2
186916, 186917, 1
186916, 186915, 2
186920, 186922, 2
186920, 186919, 2
186920, 186921, 2
186921, 186922, 3
186921, 186919, 2
186921, 186920, 2
186922, 186919, 2
186922, 186920, 2
186922, 186921, 2
186919, 186922, 2
186919, 186918, 2
186919, 186921, 1
186919, 186920, 3
186919, 186917, 2
186917, 186918, 1
186917, 186919, 2
186917, 186916, 2
186917, 186915, 2
186915, 186916, 1
186915, 186917, 2
