123869, 123868, 2
123869, 123864, 2
123869, 123870, 1
123863, 123861, 2
123863, 123865, 2
123863, 123864, 1
123863, 123862, 2
123863, 123867, 2
123847, 123850, 2
123847, 123852, 2
123847, 123846, 2
123847, 123865, 2
123847, 123848, 2
123847, 123851, 2
123847, 123849, 2
123852, 123853, 1
123852, 123850, 2
123852, 123856, 2
123852, 123854, 2
123852, 123851, 2
123852, 123848, 2
123852, 123847, 2
123852, 123846, 2
123852, 123849, 2
123846, 123850, 2
123846, 123852, 2
123846, 123847, 3
123846, 123854, 2
123846, 123851, 2
123846, 123848, 0
123846, 123845, 2
123846, 123849, 1
123859, 123850, 2
123859, 123862, 2
123859, 123858, 2
123859, 123857, 2
123859, 123860, 1
123859, 123855, 2
123849, 123850, 4
123849, 123852, 1
123849, 123847, 2
123849, 123846, 2
123849, 123848, 2
123849, 123851, 6
123866, 123865, 2
123866, 123867, 1
123851, 123847, 2
123851, 123852, 2
123851, 123856, 2
123851, 123862, 2
123851, 123854, 2
123851, 123846, 2
123851, 123848, 2
123851, 123849, 2
123845, 123846, 1
123850, 123859, 2
123850, 123847, 2
123850, 123852, 2
123850, 123856, 2
123850, 123848, 2
123850, 123846, 2
123850, 123865, 2
123850, 123868, 2
123850, 123857, 2
123850, 123849, 2
123850, 123867, 2
123868, 123869, 1
123868, 123850, 2
123868, 123864, 2
123868, 123867, 2
123854, 123852, 2
123854, 123856, 2
123854, 123862, 2
123854, 123846, 2
123854, 123853, 2
123854, 123851, 2
123854, 123855, 1
123857, 123850, 2
123857, 123855, 2
123857, 123862, 2
123857, 123858, 1
123857, 123859, 2
123857, 123856, 2
123853, 123854, 0
123853, 123852, 2
123853, 123856, 1
123853, 123855, 2
123860, 123861, 1
123860, 123859, 2
123867, 123863, 2
123867, 123850, 2
123867, 123866, 2
123867, 123865, 2
123867, 123868, 1
123867, 123864, 2
123864, 123869, 2
123864, 123863, 2
123864, 123865, 2
123864, 123868, 2
123864, 123867, 2
123855, 123862, 2
123855, 123854, 2
123855, 123857, 2
123855, 123859, 2
123855, 123853, 2
123855, 123861, 2
123855, 123856, 2
123862, 123863, 1
123862, 123865, 2
123862, 123856, 2
123862, 123854, 2
123862, 123857, 2
123862, 123848, 2
123862, 123859, 2
123862, 123851, 2
123862, 123855, 2
123862, 123861, 2
123858, 123857, 2
123858, 123859, 1
123865, 123863, 2
123865, 123850, 2
123865, 123866, 1
123865, 123862, 2
123865, 123861, 2
123865, 123847, 2
123865, 123864, 2
123865, 123867, 2
123848, 123850, 2
123848, 123852, 2
123848, 123862, 2
123848, 123846, 2
123848, 123847, 2
123848, 123851, 2
123848, 123849, 2
123861, 123863, 2
123861, 123865, 1
123861, 123860, 2
123861, 123862, 0
123861, 123855, 2
123856, 123850, 2
123856, 123852, 2
123856, 123862, 2
123856, 123854, 2
123856, 123851, 2
123856, 123853, 2
123856, 123857, 1
123856, 123855, 2
123870, 123869, 2
