197398, 197396, 2
197398, 197397, 2
197398, 197395, 2
197397, 197398, 1
197397, 197396, 2
197397, 197395, 2
197392, 197393, 3
197392, 197391, 2
197392, 197394, 1
197393, 197391, 2
197393, 197394, 2
197393, 197392, 2
197394, 197393, 2
197394, 197396, 2
197394, 197395, 1
197394, 197392, 2
197396, 197398, 2
197396, 197397, 2
197396, 197395, 2
197396, 197394, 2
197395, 197398, 2
197395, 197397, 1
197395, 197396, 8
197395, 197394, 2
197391, 197393, 2
197391, 197392, 1
