170821, 170820, 2
170821, 170822, 2
170825, 170826, 1
170825, 170824, 2
170823, 170822, 2
170823, 170824, 1
170820, 170821, 3
170820, 170822, 1
170822, 170823, 1
170822, 170821, 2
170822, 170820, 2
170826, 170824, 2
170826, 170825, 2
170824, 170823, 2
170824, 170826, 2
170824, 170825, 1
