65838, 65841, 2
65838, 65842, 1
65838, 65839, 3
65844, 65847, 2
65844, 65843, 2
65844, 65846, 2
65844, 65845, 1
65848, 65847, 2
65848, 65849, 2
65848, 65850, 2
65842, 65838, 2
65842, 65841, 2
65842, 65839, 2
65842, 65843, 1
65842, 65840, 2
65857, 65858, 1
65857, 65856, 2
65843, 65844, 1
65843, 65842, 2
65856, 65855, 2
65856, 65857, 1
65856, 65854, 2
65851, 65852, 1
65851, 65850, 2
65841, 65838, 2
65841, 65847, 2
65841, 65842, 2
65841, 65839, 2
65841, 65840, 2
65858, 65857, 2
65854, 65855, 3
65854, 65853, 2
65854, 65856, 1
65840, 65841, 2
65840, 65842, 2
65840, 65839, 2
65855, 65854, 2
65855, 65856, 2
65849, 65847, 2
65849, 65848, 2
65849, 65846, 2
65849, 65850, 2
65852, 65853, 1
65852, 65851, 2
65846, 65844, 2
65846, 65849, 2
65846, 65847, 3
65846, 65850, 1
65846, 65845, 2
65845, 65844, 2
65845, 65846, 1
65850, 65847, 2
65850, 65848, 2
65850, 65849, 2
65850, 65846, 2
65850, 65851, 1
65839, 65838, 2
65839, 65841, 1
65839, 65842, 2
65839, 65840, 8
65853, 65852, 2
65853, 65854, 1
65847, 65844, 2
65847, 65848, 8
65847, 65849, 1
65847, 65846, 2
65847, 65850, 2
65847, 65841, 2
