118536, 118539, 1
118536, 118537, 0
118536, 118535, 2
118536, 118538, 2
118543, 118544, 1
118543, 118542, 2
118538, 118536, 2
118538, 118539, 2
118538, 118542, 2
118538, 118540, 2
118538, 118544, 2
118538, 118537, 2
118538, 118535, 2
118542, 118540, 2
118542, 118543, 1
118542, 118538, 2
118542, 118541, 2
118542, 118539, 2
118539, 118536, 2
118539, 118538, 2
118539, 118542, 2
118539, 118540, 1
118539, 118537, 2
118539, 118541, 2
118539, 118535, 2
118544, 118543, 2
118544, 118538, 2
118537, 118536, 2
118537, 118538, 1
118537, 118535, 2
118537, 118539, 2
118541, 118540, 2
118541, 118542, 2
118541, 118539, 2
118540, 118539, 2
118540, 118538, 2
118540, 118541, 3
118540, 118542, 1
118535, 118536, 1
118535, 118537, 2
118535, 118538, 2
118535, 118539, 2
