222163, 222164, 2
222163, 222161, 2
222163, 222162, 2
222163, 222165, 2
222161, 222163, 8
222161, 222164, 1
222161, 222166, 2
222161, 222160, 2
222161, 222162, 3
222164, 222163, 2
222164, 222161, 2
222164, 222166, 1
222164, 222160, 2
222164, 222162, 2
222164, 222165, 3
222159, 222160, 1
222166, 222161, 2
222166, 222165, 2
222166, 222164, 2
222160, 222159, 2
222160, 222161, 1
222160, 222162, 2
222160, 222164, 2
222162, 222163, 2
222162, 222161, 2
222162, 222165, 2
222162, 222160, 2
222162, 222164, 2
222165, 222163, 2
222165, 222164, 2
222165, 222166, 2
222165, 222162, 2
