170942, 170941, 2
170942, 170943, 2
170942, 170940, 2
170944, 170941, 2
170944, 170943, 2
170943, 170942, 2
170943, 170944, 1
170943, 170941, 2
170940, 170942, 2
170940, 170939, 2
170940, 170941, 1
170939, 170940, 1
170941, 170942, 8
170941, 170944, 2
170941, 170943, 1
170941, 170940, 2
