334663, 334665, 2
334663, 334664, 1
334663, 334662, 2
334651, 334654, 2
334651, 334652, 3
334651, 334653, 1
334655, 334656, 1
334655, 334654, 2
334662, 334663, 1
334662, 334661, 2
334662, 334665, 2
334662, 334664, 2
334660, 334661, 1
334660, 334658, 2
334660, 334659, 2
334658, 334660, 2
334658, 334659, 1
334658, 334657, 2
334658, 334656, 2
334653, 334651, 2
334653, 334652, 2
334653, 334654, 1
334657, 334658, 1
334657, 334656, 2
334656, 334655, 2
334656, 334658, 2
334656, 334657, 1
334656, 334654, 2
334665, 334663, 2
334665, 334664, 2
334665, 334662, 2
334664, 334663, 2
334664, 334665, 1
334664, 334662, 2
334659, 334660, 1
334659, 334658, 2
334652, 334651, 2
334652, 334654, 2
334652, 334653, 2
334654, 334651, 2
334654, 334655, 1
334654, 334656, 2
334654, 334652, 2
334654, 334653, 2
334661, 334660, 2
334661, 334662, 1
