171384, 171386, 1
171384, 171382, 2
171384, 171344, 2
171384, 171380, 2
171384, 171379, 2
171384, 171362, 2
171384, 171372, 2
171384, 171377, 2
171384, 171381, 2
171384, 171376, 2
171384, 171371, 2
171384, 171385, 2
171384, 171378, 2
171384, 171383, 2
171405, 171398, 2
171405, 171406, 1
171405, 171404, 2
171405, 171400, 2
171405, 171382, 2
171345, 171362, 2
171345, 171343, 2
171345, 171344, 4
171345, 171339, 2
171345, 171337, 2
171345, 171358, 2
171345, 171370, 2
171345, 171355, 2
171345, 171333, 2
171345, 171367, 2
171345, 171342, 2
171345, 171346, 1
171360, 171359, 2
171360, 171382, 2
171360, 171358, 2
171360, 171370, 2
171360, 171361, 1
171360, 171357, 2
171360, 171367, 2
171360, 171356, 2
171390, 171391, 2
171390, 171389, 2
171390, 171393, 2
171390, 171395, 2
171390, 171385, 2
171390, 171392, 2
171390, 171396, 2
171390, 171387, 2
171390, 171388, 2
171341, 171340, 2
171341, 171333, 2
171341, 171343, 1
171341, 171342, 2
171341, 171344, 2
171341, 171339, 2
171341, 171337, 2
171388, 171391, 1
171388, 171389, 3
171388, 171385, 2
171388, 171390, 2
171388, 171387, 2
171388, 171382, 2
171388, 171403, 2
171401, 171402, 2
171401, 171398, 2
171401, 171397, 2
171401, 171400, 2
171401, 171404, 2
171401, 171396, 2
171401, 171399, 2
171393, 171391, 2
171393, 171387, 2
171393, 171395, 2
171393, 171372, 2
171393, 171385, 2
171393, 171390, 2
171393, 171398, 2
171393, 171394, 1
171393, 171392, 2
171393, 171403, 2
171355, 171337, 2
171355, 171345, 2
171355, 171357, 2
171355, 171353, 2
171355, 171342, 2
171355, 171344, 2
171355, 171346, 2
171355, 171354, 2
171355, 171339, 2
171355, 171356, 3
171385, 171384, 2
171385, 171387, 2
171385, 171380, 2
171385, 171377, 2
171385, 171390, 2
171385, 171375, 2
171385, 171373, 2
171385, 171388, 2
171385, 171393, 2
171385, 171392, 2
171385, 171394, 2
171385, 171356, 2
171385, 171386, 2
171385, 171368, 2
171385, 171378, 2
171385, 171379, 2
171385, 171372, 2
171385, 171381, 2
171385, 171376, 2
171385, 171389, 2
171385, 171371, 2
171385, 171357, 2
171385, 171395, 2
171385, 171396, 2
171385, 171383, 2
171364, 171363, 2
171364, 171358, 2
171364, 171370, 2
171364, 171366, 2
171364, 171367, 2
171364, 171365, 1
171352, 171358, 2
171352, 171351, 2
171352, 171379, 2
171352, 171362, 2
171352, 171353, 2
171352, 171342, 2
171352, 171344, 2
171352, 171370, 2
171342, 171351, 2
171342, 171345, 2
171342, 171335, 2
171342, 171353, 2
171342, 171338, 2
171342, 171344, 2
171342, 171339, 2
171342, 171337, 2
171342, 171336, 2
171342, 171343, 2
171342, 171340, 2
171342, 171346, 2
171342, 171352, 2
171342, 171341, 2
171342, 171355, 2
171386, 171384, 2
171386, 171387, 1
171386, 171380, 2
171386, 171379, 2
171386, 171372, 2
171386, 171344, 2
171386, 171382, 2
171386, 171385, 4
171386, 171358, 2
171386, 171395, 2
171386, 171371, 2
171386, 171398, 2
171386, 171370, 2
171386, 171403, 2
171368, 171366, 2
171368, 171382, 2
171368, 171379, 2
171368, 171362, 2
171368, 171372, 2
171368, 171365, 2
171368, 171344, 2
171368, 171373, 1
171368, 171369, 2
171368, 171358, 2
171368, 171370, 6
171368, 171371, 2
171368, 171385, 2
171368, 171367, 4
171368, 171403, 2
171382, 171391, 2
171382, 171387, 2
171382, 171360, 2
171382, 171365, 2
171382, 171375, 2
171382, 171373, 2
171382, 171388, 2
171382, 171406, 2
171382, 171357, 2
171382, 171386, 2
171382, 171394, 2
171382, 171384, 2
171382, 171368, 2
171382, 171405, 2
171382, 171397, 2
171382, 171379, 2
171382, 171362, 2
171382, 171359, 2
171382, 171374, 2
171382, 171358, 2
171382, 171370, 2
171382, 171398, 2
171382, 171392, 2
171382, 171403, 2
171348, 171347, 2
171348, 171344, 2
171348, 171346, 2
171348, 171349, 1
171348, 171362, 2
171362, 171366, 2
171362, 171345, 2
171362, 171377, 2
171362, 171354, 2
171362, 171346, 2
171362, 171352, 2
171362, 171384, 2
171362, 171347, 2
171362, 171368, 2
171362, 171382, 2
171362, 171351, 2
171362, 171335, 2
171362, 171379, 2
171362, 171353, 2
171362, 171338, 2
171362, 171381, 2
171362, 171374, 2
171362, 171358, 2
171362, 171370, 2
171362, 171398, 2
171362, 171383, 2
171362, 171348, 2
171339, 171355, 2
171339, 171336, 2
171339, 171335, 2
171339, 171340, 2
171339, 171343, 2
171339, 171353, 2
171339, 171338, 2
171339, 171337, 2
171339, 171342, 1
171339, 171341, 2
171339, 171345, 2
171337, 171345, 2
171337, 171335, 2
171337, 171353, 2
171337, 171343, 2
171337, 171338, 2
171337, 171334, 2
171337, 171339, 1
171337, 171355, 2
171337, 171340, 2
171337, 171333, 2
171337, 171367, 2
171337, 171354, 2
171337, 171342, 2
171337, 171341, 2
171337, 171336, 2
171359, 171357, 2
171359, 171367, 2
171359, 171382, 2
171359, 171358, 2
171359, 171360, 3
171389, 171385, 2
171389, 171390, 3
171389, 171387, 2
171389, 171391, 2
171389, 171388, 2
171361, 171363, 1
171361, 171358, 2
171361, 171370, 2
171361, 171360, 2
171361, 171357, 2
171361, 171367, 2
171361, 171356, 2
171340, 171333, 2
171340, 171338, 2
171340, 171344, 2
171340, 171339, 2
171340, 171342, 2
171340, 171341, 1
171340, 171337, 2
171357, 171366, 1
171357, 171382, 2
171357, 171363, 2
171357, 171360, 2
171357, 171403, 2
171357, 171359, 2
171357, 171358, 0
171357, 171355, 2
171357, 171385, 2
171357, 171367, 2
171357, 171354, 2
171357, 171356, 2
171357, 171361, 2
171392, 171391, 2
171392, 171382, 2
171392, 171393, 2
171392, 171379, 2
171392, 171398, 2
171392, 171390, 2
171392, 171385, 2
171392, 171370, 2
171392, 171403, 2
171366, 171368, 1
171366, 171344, 2
171366, 171362, 2
171366, 171365, 2
171366, 171369, 2
171366, 171363, 2
171366, 171358, 2
171366, 171370, 2
171366, 171371, 2
171366, 171357, 2
171366, 171367, 2
171366, 171364, 2
171366, 171356, 2
171383, 171384, 2
171383, 171370, 2
171383, 171379, 2
171383, 171362, 2
171383, 171385, 2
171383, 171372, 2
171383, 171381, 2
171365, 171366, 2
171365, 171382, 2
171365, 171358, 2
171365, 171370, 2
171365, 171368, 2
171365, 171364, 2
171381, 171384, 2
171381, 171370, 2
171381, 171380, 2
171381, 171379, 2
171381, 171362, 2
171381, 171385, 2
171381, 171378, 2
171381, 171383, 1
171381, 171377, 2
171350, 171346, 2
171350, 171344, 2
171350, 171351, 2
171350, 171349, 2
171350, 171353, 2
171391, 171382, 2
171391, 171393, 2
171391, 171392, 1
171391, 171390, 2
171391, 171370, 2
171391, 171389, 2
171391, 171388, 2
171387, 171386, 2
171387, 171396, 2
171387, 171382, 2
171387, 171395, 2
171387, 171385, 2
171387, 171390, 2
171387, 171393, 1
171387, 171388, 0
171387, 171389, 2
171387, 171403, 2
171380, 171384, 2
171380, 171386, 2
171380, 171379, 2
171380, 171377, 2
171380, 171385, 2
171380, 171378, 2
171380, 171381, 2
171343, 171345, 1
171343, 171333, 2
171343, 171341, 2
171343, 171344, 2
171343, 171339, 2
171343, 171342, 2
171343, 171337, 2
171399, 171401, 2
171399, 171402, 2
171399, 171397, 2
171399, 171398, 2
171399, 171404, 2
171399, 171400, 3
171375, 171382, 2
171375, 171371, 2
171375, 171373, 2
171375, 171377, 1
171375, 171385, 2
171375, 171372, 2
171375, 171374, 2
171375, 171376, 3
171375, 171367, 2
171373, 171368, 2
171373, 171382, 2
171373, 171370, 2
171373, 171371, 2
171373, 171379, 2
171373, 171372, 2
171373, 171385, 2
171373, 171367, 2
171373, 171369, 2
171373, 171374, 1
171373, 171375, 2
171332, 171333, 2
171332, 171331, 2
171332, 171334, 1
171398, 171402, 2
171398, 171406, 2
171398, 171405, 2
171398, 171397, 2
171398, 171379, 2
171398, 171362, 2
171398, 171404, 2
171398, 171382, 2
171398, 171394, 2
171398, 171401, 2
171398, 171393, 2
171398, 171386, 2
171398, 171400, 2
171398, 171392, 2
171398, 171370, 2
171398, 171399, 4
171398, 171403, 6
171397, 171401, 2
171397, 171402, 2
171397, 171382, 2
171397, 171395, 2
171397, 171398, 0
171397, 171396, 2
171397, 171399, 2
171397, 171404, 2
171397, 171400, 2
171397, 171394, 2
171402, 171401, 2
171402, 171400, 2
171402, 171397, 2
171402, 171398, 2
171402, 171404, 1
171402, 171399, 2
171334, 171333, 2
171334, 171332, 2
171334, 171337, 2
171334, 171335, 1
171334, 171367, 2
171400, 171401, 3
171400, 171402, 1
171400, 171405, 2
171400, 171397, 2
171400, 171398, 2
171400, 171396, 2
171400, 171404, 2
171400, 171399, 2
171333, 171337, 2
171333, 171345, 2
171333, 171335, 2
171333, 171334, 2
171333, 171343, 2
171333, 171338, 2
171333, 171340, 2
171333, 171331, 2
171333, 171341, 2
171333, 171336, 2
171333, 171332, 2
171354, 171358, 2
171354, 171355, 3
171354, 171362, 2
171354, 171357, 1
171354, 171353, 2
171354, 171344, 2
171354, 171356, 2
171354, 171337, 2
171394, 171398, 2
171394, 171382, 2
171394, 171395, 3
171394, 171372, 2
171394, 171385, 2
171394, 171393, 2
171394, 171396, 2
171394, 171397, 1
171394, 171403, 2
171346, 171347, 0
171346, 171350, 2
171346, 171345, 2
171346, 171348, 2
171346, 171362, 2
171346, 171353, 1
171346, 171344, 2
171346, 171349, 2
171346, 171370, 2
171346, 171355, 2
171346, 171367, 2
171346, 171342, 2
171346, 171356, 2
171356, 171366, 2
171356, 171363, 2
171356, 171355, 2
171356, 171360, 2
171356, 171357, 2
171356, 171367, 2
171356, 171385, 2
171356, 171344, 2
171356, 171346, 2
171356, 171354, 2
171356, 171361, 2
171347, 171370, 2
171347, 171344, 2
171347, 171346, 2
171347, 171348, 3
171347, 171362, 2
171406, 171398, 2
171406, 171405, 2
171406, 171370, 2
171406, 171382, 2
171378, 171384, 2
171378, 171380, 3
171378, 171379, 2
171378, 171377, 2
171378, 171385, 2
171378, 171381, 1
171351, 171350, 2
171351, 171362, 2
171351, 171353, 2
171351, 171342, 2
171351, 171344, 2
171351, 171352, 1
171335, 171344, 2
171335, 171336, 1
171335, 171333, 2
171335, 171334, 2
171335, 171367, 2
171335, 171342, 2
171335, 171362, 2
171335, 171339, 2
171335, 171338, 2
171335, 171337, 2
171395, 171386, 2
171395, 171387, 2
171395, 171397, 2
171395, 171371, 2
171395, 171390, 2
171395, 171385, 2
171395, 171372, 2
171395, 171393, 2
171395, 171344, 2
171395, 171396, 3
171395, 171394, 2
171369, 171366, 2
171369, 171372, 2
171369, 171371, 1
171369, 171368, 2
171369, 171367, 2
171369, 171373, 2
171377, 171384, 1
171377, 171380, 2
171377, 171379, 0
171377, 171362, 2
171377, 171372, 2
171377, 171381, 2
171377, 171375, 2
171377, 171376, 2
171377, 171374, 2
171377, 171370, 2
171377, 171385, 2
171377, 171378, 2
171377, 171403, 2
171372, 171384, 2
171372, 171368, 2
171372, 171369, 2
171372, 171377, 2
171372, 171344, 2
171372, 171375, 2
171372, 171373, 2
171372, 171394, 2
171372, 171374, 2
171372, 171395, 2
171372, 171376, 2
171372, 171386, 2
171372, 171385, 2
171372, 171393, 2
171372, 171383, 2
171372, 171371, 2
171338, 171344, 2
171338, 171336, 2
171338, 171335, 2
171338, 171340, 1
171338, 171333, 2
171338, 171342, 2
171338, 171362, 2
171338, 171339, 2
171338, 171337, 4
171344, 171350, 2
171344, 171366, 2
171344, 171345, 2
171344, 171343, 2
171344, 171341, 2
171344, 171395, 2
171344, 171355, 2
171344, 171386, 2
171344, 171354, 2
171344, 171346, 2
171344, 171356, 2
171344, 171384, 2
171344, 171347, 2
171344, 171368, 2
171344, 171351, 2
171344, 171335, 2
171344, 171348, 2
171344, 171353, 2
171344, 171372, 2
171344, 171338, 2
171344, 171376, 2
171344, 171352, 2
171344, 171340, 2
171344, 171367, 2
171344, 171342, 2
171344, 171349, 2
171344, 171336, 2
171404, 171401, 2
171404, 171402, 2
171404, 171405, 2
171404, 171397, 2
171404, 171400, 2
171404, 171398, 2
171404, 171399, 2
171376, 171384, 2
171376, 171371, 2
171376, 171377, 2
171376, 171385, 2
171376, 171372, 2
171376, 171344, 2
171376, 171375, 2
171349, 171350, 1
171349, 171344, 2
171349, 171346, 2
171349, 171348, 2
171379, 171384, 2
171379, 171386, 2
171379, 171382, 6
171379, 171380, 2
171379, 171362, 2
171379, 171377, 2
171379, 171381, 2
171379, 171368, 2
171379, 171373, 2
171379, 171352, 2
171379, 171385, 2
171379, 171374, 2
171379, 171358, 2
171379, 171370, 2
171379, 171392, 2
171379, 171398, 2
171379, 171378, 4
171379, 171383, 2
171379, 171403, 2
171363, 171366, 2
171363, 171358, 2
171363, 171370, 2
171363, 171361, 2
171363, 171357, 2
171363, 171367, 2
171363, 171364, 2
171363, 171356, 2
171363, 171371, 2
171374, 171382, 2
171374, 171370, 2
171374, 171371, 2
171374, 171379, 2
171374, 171362, 2
171374, 171372, 2
171374, 171377, 2
171374, 171375, 1
171374, 171373, 2
171358, 171386, 2
171358, 171366, 2
171358, 171382, 2
171358, 171345, 2
171358, 171379, 2
171358, 171362, 6
171358, 171363, 2
171358, 171353, 2
171358, 171365, 2
171358, 171360, 2
171358, 171368, 2
171358, 171403, 2
171358, 171359, 4
171358, 171370, 2
171358, 171361, 2
171358, 171357, 2
171358, 171367, 2
171358, 171354, 2
171358, 171364, 2
171358, 171352, 2
171370, 171366, 2
171370, 171345, 2
171370, 171362, 2
171370, 171391, 2
171370, 171373, 2
171370, 171406, 2
171370, 171364, 2
171370, 171352, 2
171370, 171386, 2
171370, 171368, 2
171370, 171382, 2
171370, 171379, 2
171370, 171377, 2
171370, 171346, 2
171370, 171360, 2
171370, 171381, 2
171370, 171363, 2
171370, 171374, 2
171370, 171358, 2
171370, 171347, 2
171370, 171361, 2
171370, 171398, 2
171370, 171392, 2
171370, 171383, 2
171370, 171365, 2
171371, 171384, 2
171371, 171366, 2
171371, 171368, 2
171371, 171372, 3
171371, 171369, 2
171371, 171375, 2
171371, 171373, 2
171371, 171363, 2
171371, 171374, 2
171371, 171395, 2
171371, 171376, 2
171371, 171386, 2
171371, 171385, 2
171371, 171367, 2
171331, 171333, 4
171331, 171332, 1
171353, 171350, 2
171353, 171352, 2
171353, 171351, 2
171353, 171362, 2
171353, 171344, 2
171353, 171339, 2
171353, 171337, 2
171353, 171358, 2
171353, 171355, 2
171353, 171342, 2
171353, 171346, 2
171353, 171354, 1
171367, 171368, 2
171367, 171356, 2
171367, 171345, 2
171367, 171335, 2
171367, 171369, 1
171367, 171364, 2
171367, 171344, 2
171367, 171375, 2
171367, 171373, 2
171367, 171359, 2
171367, 171363, 2
171367, 171358, 2
171367, 171371, 2
171367, 171334, 2
171367, 171357, 2
171367, 171366, 2
171367, 171337, 2
171367, 171346, 2
171367, 171360, 2
171367, 171361, 2
171396, 171401, 2
171396, 171400, 2
171396, 171387, 2
171396, 171397, 2
171396, 171395, 2
171396, 171385, 2
171396, 171390, 2
171396, 171394, 2
171403, 171386, 2
171403, 171368, 2
171403, 171382, 2
171403, 171379, 2
171403, 171377, 2
171403, 171387, 2
171403, 171388, 2
171403, 171398, 2
171403, 171358, 2
171403, 171393, 2
171403, 171357, 2
171403, 171392, 2
171403, 171394, 2
171336, 171335, 2
171336, 171333, 2
171336, 171342, 2
171336, 171344, 2
171336, 171339, 2
171336, 171338, 1
171336, 171337, 2
