219730, 219731, 1
219730, 219729, 2
219726, 219727, 6
219726, 219728, 1
219740, 219741, 8
219740, 219739, 2
219740, 219736, 2
219740, 219738, 2
219740, 219742, 1
219732, 219733, 1
219732, 219731, 2
219754, 219753, 2
219742, 219741, 2
219742, 219745, 2
219742, 219743, 0
219742, 219744, 1
219742, 219740, 2
219742, 219736, 2
219741, 219742, 2
219741, 219745, 2
219741, 219740, 2
219748, 219747, 2
219748, 219749, 2
219748, 219751, 2
219748, 219752, 2
219743, 219744, 2
219743, 219736, 2
219743, 219745, 2
219743, 219742, 2
219744, 219743, 2
219744, 219745, 1
219744, 219742, 2
219731, 219730, 2
219731, 219732, 1
219731, 219736, 2
219731, 219733, 2
219731, 219729, 2
219728, 219726, 2
219728, 219727, 2
219728, 219729, 1
219735, 219733, 2
219735, 219736, 6
219735, 219734, 2
219735, 219737, 1
219739, 219738, 2
219739, 219740, 1
219747, 219749, 1
219747, 219748, 8
219747, 219736, 2
219747, 219745, 2
219747, 219746, 2
219733, 219736, 2
219733, 219732, 2
219733, 219731, 2
219733, 219734, 1
219733, 219735, 2
219734, 219736, 2
219734, 219733, 2
219734, 219735, 1
219752, 219749, 2
219752, 219748, 2
219752, 219750, 2
219752, 219753, 1
219752, 219751, 2
219752, 219736, 2
219738, 219739, 1
219738, 219740, 2
219738, 219736, 2
219738, 219737, 2
219749, 219747, 2
219749, 219748, 2
219749, 219752, 2
219749, 219750, 0
219749, 219751, 1
219753, 219752, 2
219753, 219736, 2
219753, 219754, 1
219727, 219726, 2
219727, 219728, 2
219727, 219736, 2
219727, 219729, 2
219750, 219749, 2
219750, 219752, 2
219750, 219736, 2
219750, 219751, 2
219745, 219741, 2
219745, 219747, 2
219745, 219743, 2
219745, 219744, 2
219745, 219746, 1
219745, 219736, 2
219745, 219742, 2
219746, 219747, 1
219746, 219745, 2
219737, 219736, 2
219737, 219738, 1
219737, 219735, 2
219736, 219733, 2
219736, 219734, 2
219736, 219740, 2
219736, 219752, 2
219736, 219729, 2
219736, 219738, 2
219736, 219742, 2
219736, 219747, 2
219736, 219753, 2
219736, 219727, 2
219736, 219750, 2
219736, 219745, 2
219736, 219743, 2
219736, 219731, 2
219736, 219737, 2
219736, 219735, 2
219729, 219731, 2
219729, 219728, 2
219729, 219736, 2
219729, 219727, 2
219729, 219730, 1
219751, 219752, 1
219751, 219748, 2
219751, 219750, 2
219751, 219749, 2
