302386, 302387, 1
302386, 302384, 2
302386, 302385, 2
302392, 302391, 2
302384, 302387, 2
302384, 302386, 2
302384, 302385, 1
302388, 302387, 2
302388, 302389, 1
302385, 302386, 1
302385, 302384, 2
302387, 302386, 2
302387, 302388, 1
302387, 302384, 2
302389, 302388, 2
302389, 302390, 1
302390, 302389, 2
302390, 302391, 1
302391, 302392, 1
302391, 302390, 2
