21646, 21644, 2
21646, 21645, 2
21646, 21641, 2
21645, 21644, 2
21645, 21646, 1
21645, 21641, 2
21644, 21643, 2
21644, 21646, 2
21644, 21645, 2
21644, 21641, 2
21643, 21644, 1
21643, 21641, 2
21643, 21642, 2
21641, 21644, 2
21641, 21643, 0
21641, 21646, 2
21641, 21645, 1
21641, 21642, 6
21642, 21643, 2
21642, 21641, 2
