127397, 127394, 2
127397, 127396, 2
127397, 127395, 2
127394, 127397, 2
127394, 127396, 2
127394, 127395, 1
127396, 127397, 3
127396, 127394, 2
127396, 127395, 2
127395, 127397, 2
127395, 127394, 2
127395, 127396, 1
