340588, 340589, 1
340588, 340587, 2
340587, 340589, 2
340587, 340588, 1
340589, 340590, 1
340589, 340588, 2
340589, 340587, 2
340591, 340590, 2
340591, 340592, 1
340593, 340592, 2
340590, 340589, 2
340590, 340591, 1
340592, 340591, 2
340592, 340593, 1
