64293, 64294, 1
64293, 64295, 2
64293, 64289, 2
64293, 64287, 2
64293, 64292, 2
64293, 64288, 2
64284, 64285, 2
64284, 64283, 2
64286, 64285, 2
64286, 64287, 1
64286, 64288, 2
64282, 64280, 2
64282, 64283, 2
64282, 64281, 2
64279, 64280, 1
64289, 64293, 2
64289, 64290, 8
64289, 64291, 1
64289, 64288, 2
64289, 64287, 2
64289, 64292, 2
64292, 64293, 2
64292, 64290, 2
64292, 64291, 2
64292, 64294, 2
64292, 64295, 2
64292, 64289, 2
64292, 64287, 2
64290, 64291, 2
64290, 64289, 2
64290, 64288, 2
64290, 64292, 2
64291, 64290, 2
64291, 64289, 2
64291, 64288, 2
64291, 64292, 1
64291, 64287, 2
64281, 64280, 2
64281, 64283, 2
64281, 64282, 2
64295, 64293, 2
64295, 64294, 2
64295, 64292, 2
64294, 64293, 2
64294, 64287, 2
64294, 64292, 2
64294, 64295, 3
64280, 64279, 2
64280, 64283, 1
64280, 64282, 8
64280, 64281, 0
64285, 64284, 2
64285, 64283, 2
64285, 64288, 2
64285, 64286, 1
64285, 64287, 2
64283, 64284, 0
64283, 64280, 2
64283, 64285, 1
64283, 64281, 2
64283, 64282, 2
64287, 64293, 1
64287, 64286, 2
64287, 64288, 3
64287, 64291, 2
64287, 64285, 2
64287, 64289, 2
64287, 64292, 2
64287, 64294, 2
64288, 64293, 2
64288, 64290, 2
64288, 64286, 2
64288, 64291, 2
64288, 64285, 2
64288, 64289, 1
64288, 64287, 2
