120251, 120250, 2
120251, 120257, 2
120251, 120252, 1
120251, 120246, 2
120257, 120251, 2
120257, 120258, 2
120257, 120254, 2
120257, 120255, 2
120257, 120252, 2
120257, 120256, 2
120257, 120246, 2
120257, 120248, 2
120255, 120258, 1
120255, 120254, 2
120255, 120257, 0
120255, 120256, 3
120244, 120247, 1
120244, 120245, 3
120244, 120248, 2
120244, 120246, 0
120247, 120245, 2
120247, 120244, 2
120247, 120248, 1
120247, 120246, 2
120245, 120247, 2
120245, 120253, 2
120245, 120244, 2
120245, 120248, 2
120245, 120246, 2
120250, 120251, 1
120250, 120249, 2
120250, 120248, 2
120248, 120250, 2
120248, 120244, 2
120248, 120246, 2
120248, 120247, 2
120248, 120245, 2
120248, 120257, 2
120248, 120249, 1
120258, 120257, 2
120258, 120254, 2
120258, 120255, 2
120258, 120256, 2
120258, 120253, 2
120254, 120258, 2
120254, 120255, 1
120254, 120252, 2
120254, 120256, 2
120254, 120253, 2
120254, 120257, 2
120252, 120251, 2
120252, 120257, 2
120252, 120254, 1
120252, 120253, 3
120256, 120258, 2
120256, 120257, 2
120256, 120255, 2
120256, 120254, 2
120256, 120253, 2
120253, 120258, 2
120253, 120245, 2
120253, 120254, 2
120253, 120252, 2
120253, 120256, 2
120249, 120250, 1
120249, 120248, 2
120249, 120246, 2
120246, 120251, 2
120246, 120244, 2
120246, 120247, 2
120246, 120245, 2
120246, 120257, 2
120246, 120249, 2
120246, 120248, 2
