299842, 299841, 2
299842, 299843, 1
299839, 299841, 2
299839, 299840, 1
299840, 299841, 1
299840, 299839, 2
299841, 299842, 1
299841, 299839, 2
299841, 299840, 2
299841, 299843, 2
299843, 299841, 2
299843, 299842, 2
