163799, 163797, 2
163799, 163798, 2
163799, 163800, 1
163802, 163801, 2
163802, 163797, 2
163802, 163805, 2
163802, 163818, 2
163802, 163806, 2
163802, 163803, 0
163802, 163804, 1
163802, 163800, 2
163798, 163799, 1
163798, 163797, 4
163798, 163818, 2
163817, 163819, 1
163817, 163797, 2
163817, 163816, 2
163817, 163818, 3
163819, 163817, 2
163819, 163818, 2
163819, 163820, 1
163797, 163812, 2
163797, 163799, 2
163797, 163811, 2
163797, 163814, 2
163797, 163809, 2
163797, 163798, 2
163797, 163815, 2
163797, 163818, 2
163797, 163802, 2
163797, 163801, 2
163797, 163816, 2
163797, 163817, 2
163797, 163810, 2
163797, 163808, 2
163797, 163813, 2
163797, 163804, 2
163797, 163800, 2
163816, 163812, 2
163816, 163797, 2
163816, 163818, 2
163816, 163817, 1
163816, 163815, 2
163816, 163804, 2
163818, 163819, 2
163818, 163802, 2
163818, 163797, 2
163818, 163817, 2
163818, 163801, 2
163818, 163816, 2
163818, 163798, 2
163818, 163804, 2
163801, 163802, 2
163801, 163797, 2
163801, 163818, 2
163801, 163800, 2
163810, 163809, 2
163810, 163811, 1
163810, 163797, 2
163808, 163806, 2
163808, 163809, 1
163808, 163797, 2
163808, 163807, 2
163809, 163810, 1
163809, 163797, 2
163809, 163808, 2
163804, 163802, 2
163804, 163797, 2
163804, 163805, 0
163804, 163814, 2
163804, 163806, 2
163804, 163811, 2
163804, 163816, 1
163804, 163803, 2
163804, 163818, 2
163812, 163797, 2
163812, 163813, 2
163812, 163811, 2
163812, 163816, 2
163811, 163812, 3
163811, 163810, 2
163811, 163797, 2
163811, 163813, 1
163811, 163804, 2
163805, 163806, 1
163805, 163802, 2
163805, 163803, 2
163805, 163804, 2
163807, 163806, 2
163807, 163808, 1
163820, 163819, 2
163806, 163802, 2
163806, 163805, 2
163806, 163807, 1
163806, 163808, 2
163806, 163803, 2
163806, 163804, 2
163815, 163813, 2
163815, 163797, 2
163815, 163816, 2
163815, 163814, 2
163814, 163813, 2
163814, 163797, 2
163814, 163815, 1
163814, 163804, 2
163813, 163812, 2
163813, 163811, 2
163813, 163797, 2
163813, 163815, 2
163813, 163814, 1
163803, 163806, 2
163803, 163802, 2
163803, 163805, 2
163803, 163804, 2
163800, 163801, 3
163800, 163799, 2
163800, 163802, 1
163800, 163797, 2
