259130, 259131, 1
259130, 259129, 2
259129, 259128, 2
259129, 259130, 1
259129, 259126, 2
259129, 259131, 2
259128, 259129, 1
259128, 259127, 2
259128, 259131, 2
259131, 259129, 2
259131, 259130, 2
259131, 259128, 2
259127, 259128, 1
259127, 259126, 2
259126, 259129, 2
259126, 259127, 1
