119402, 119403, 1
119402, 119401, 2
119402, 119399, 2
119401, 119402, 1
119401, 119403, 2
119401, 119400, 2
119401, 119398, 2
119401, 119399, 2
119396, 119394, 2
119396, 119399, 2
119396, 119395, 2
119396, 119397, 1
119396, 119398, 2
119403, 119402, 2
119403, 119401, 2
119403, 119399, 2
119393, 119395, 1
119393, 119392, 2
119393, 119394, 8
119391, 119392, 1
119392, 119395, 2
119392, 119394, 2
119392, 119399, 2
119392, 119393, 1
119392, 119391, 2
119394, 119395, 2
119394, 119392, 2
119394, 119393, 2
119394, 119396, 2
119397, 119398, 1
119397, 119396, 2
119397, 119399, 2
119398, 119401, 2
119398, 119400, 1
119398, 119396, 2
119398, 119399, 0
119398, 119397, 2
119400, 119401, 1
119400, 119398, 2
119400, 119399, 2
119395, 119394, 2
119395, 119399, 2
119395, 119392, 2
119395, 119393, 2
119395, 119396, 1
119399, 119402, 2
119399, 119401, 2
119399, 119392, 2
119399, 119396, 2
119399, 119398, 2
119399, 119400, 2
119399, 119395, 2
119399, 119403, 2
119399, 119397, 2
