16853, 16852, 2
16853, 16854, 1
16851, 16852, 1
16851, 16850, 2
16849, 16848, 2
16849, 16847, 2
16849, 16850, 1
16845, 16844, 2
16845, 16842, 2
16845, 16846, 1
16845, 16843, 2
16843, 16845, 2
16843, 16844, 2
16843, 16842, 2
16852, 16853, 1
16852, 16851, 2
16854, 16855, 1
16854, 16853, 2
16855, 16854, 2
16844, 16845, 1
16844, 16843, 2
16844, 16842, 2
16847, 16848, 1
16847, 16846, 2
16847, 16849, 2
16850, 16851, 1
16850, 16849, 2
16848, 16847, 2
16848, 16849, 1
16842, 16845, 2
16842, 16843, 0
16842, 16844, 1
16846, 16845, 2
16846, 16847, 1
