294807, 294806, 2
294807, 294805, 2
294807, 294810, 2
294807, 294808, 1
294814, 294815, 2
294814, 294816, 2
294814, 294812, 2
294814, 294813, 2
294814, 294809, 2
294813, 294815, 2
294813, 294814, 2
294813, 294811, 2
294813, 294812, 2
294813, 294809, 2
294810, 294807, 2
294810, 294811, 1
294810, 294806, 2
294810, 294805, 2
294810, 294809, 6
294810, 294808, 2
294805, 294807, 2
294805, 294810, 2
294805, 294806, 2
294805, 294815, 2
294805, 294809, 2
294805, 294812, 2
294805, 294808, 2
294806, 294807, 1
294806, 294805, 6
294806, 294809, 2
294806, 294810, 2
294811, 294809, 2
294811, 294812, 1
294811, 294813, 2
294811, 294810, 2
294809, 294814, 2
294809, 294811, 2
294809, 294813, 2
294809, 294810, 2
294809, 294815, 2
294809, 294816, 2
294809, 294805, 2
294809, 294806, 2
294809, 294812, 2
294809, 294808, 2
294815, 294814, 2
294815, 294813, 2
294815, 294809, 2
294815, 294816, 1
294815, 294805, 2
294815, 294812, 2
294816, 294815, 2
294816, 294814, 2
294816, 294812, 2
294816, 294809, 2
294812, 294814, 8
294812, 294811, 2
294812, 294813, 3
294812, 294809, 2
294812, 294815, 1
294812, 294816, 2
294812, 294805, 2
294808, 294807, 2
294808, 294805, 2
294808, 294809, 2
294808, 294810, 1
