185716, 185713, 2
185716, 185714, 2
185716, 185715, 2
185716, 185712, 2
185716, 185717, 1
185704, 185703, 2
185704, 185705, 2
185699, 185696, 2
185699, 185697, 2
185699, 185712, 2
185699, 185700, 1
185699, 185698, 2
185713, 185716, 2
185713, 185714, 1
185713, 185710, 2
185713, 185715, 2
185713, 185698, 2
185713, 185711, 2
185713, 185712, 2
185702, 185703, 1
185702, 185701, 2
185705, 185706, 1
185705, 185704, 2
185705, 185703, 2
185705, 185698, 2
185714, 185716, 1
185714, 185717, 2
185714, 185715, 8
185714, 185713, 2
185710, 185713, 2
185710, 185712, 2
185710, 185709, 2
185710, 185711, 1
185708, 185706, 2
185708, 185707, 2
185708, 185712, 2
185708, 185709, 1
185708, 185698, 2
185706, 185705, 2
185706, 185707, 1
185706, 185712, 2
185706, 185698, 2
185706, 185708, 2
185695, 185698, 2
185695, 185696, 1
185700, 185698, 2
185700, 185699, 2
185700, 185701, 1
185717, 185716, 2
185717, 185714, 2
185717, 185712, 2
185711, 185713, 1
185711, 185710, 2
185711, 185712, 0
185703, 185704, 8
185703, 185698, 2
185703, 185701, 2
185703, 185702, 2
185703, 185712, 2
185703, 185705, 1
185712, 185716, 2
185712, 185706, 2
185712, 185699, 2
185712, 185717, 2
185712, 185713, 2
185712, 185703, 2
185712, 185709, 2
185712, 185710, 2
185712, 185698, 2
185712, 185711, 2
185712, 185708, 2
185712, 185701, 2
185709, 185710, 1
185709, 185712, 2
185709, 185698, 2
185709, 185708, 2
185707, 185706, 2
185707, 185708, 1
185715, 185716, 2
185715, 185714, 2
185715, 185713, 2
185698, 185706, 2
185698, 185695, 2
185698, 185699, 2
185698, 185700, 2
185698, 185713, 2
185698, 185703, 2
185698, 185712, 2
185698, 185709, 2
185698, 185705, 2
185698, 185696, 2
185698, 185701, 2
185698, 185697, 2
185698, 185708, 2
185696, 185697, 3
185696, 185695, 2
185696, 185698, 0
185696, 185699, 1
185701, 185703, 2
185701, 185702, 1
185701, 185712, 2
185701, 185700, 2
185701, 185698, 2
185697, 185698, 2
185697, 185699, 2
185697, 185696, 2
