334408, 334405, 2
334408, 334406, 2
334408, 334404, 2
334408, 334407, 2
334405, 334408, 2
334405, 334406, 2
334405, 334404, 2
334405, 334407, 2
334403, 334402, 2
334403, 334404, 2
334397, 334396, 2
334397, 334395, 2
334397, 334398, 1
334402, 334401, 2
334402, 334403, 0
334402, 334404, 2
334402, 334406, 2
334402, 334398, 2
334400, 334401, 2
334400, 334398, 2
334400, 334404, 2
334400, 334399, 2
334395, 334396, 0
334395, 334397, 1
334398, 334402, 2
334398, 334400, 2
334398, 334397, 2
334398, 334399, 3
334398, 334404, 1
334407, 334408, 2
334407, 334405, 2
334407, 334406, 2
334407, 334404, 2
334396, 334395, 2
334396, 334397, 2
334401, 334402, 1
334401, 334400, 2
334401, 334399, 2
334406, 334402, 2
334406, 334408, 2
334406, 334405, 2
334406, 334407, 0
334406, 334404, 2
334404, 334408, 1
334404, 334405, 0
334404, 334403, 2
334404, 334402, 2
334404, 334400, 2
334404, 334407, 2
334404, 334406, 3
334404, 334398, 2
334399, 334401, 1
334399, 334400, 0
334399, 334398, 2
