72928, 72926, 2
72928, 72927, 2
72920, 72921, 1
72922, 72923, 6
72922, 72925, 2
72922, 72926, 2
72922, 72924, 2
72922, 72921, 2
72921, 72923, 2
72921, 72925, 2
72921, 72920, 2
72921, 72922, 3
72921, 72924, 1
72923, 72922, 2
72923, 72924, 2
72923, 72921, 2
72927, 72928, 1
72927, 72926, 2
72926, 72928, 2
72926, 72922, 2
72926, 72925, 2
72926, 72927, 1
72924, 72923, 2
72924, 72925, 1
72924, 72922, 2
72924, 72921, 2
72925, 72926, 1
72925, 72922, 2
72925, 72924, 2
72925, 72921, 2
