118107, 118110, 2
118107, 118104, 2
118107, 118108, 2
118107, 118106, 2
118107, 118109, 2
118110, 118107, 2
118110, 118106, 2
118110, 118111, 1
118110, 118109, 2
118106, 118107, 0
118106, 118110, 2
118106, 118105, 2
118106, 118104, 2
118106, 118109, 2
118106, 118108, 1
118104, 118107, 2
118104, 118106, 2
118104, 118105, 1
118113, 118112, 2
118112, 118111, 2
118112, 118113, 1
118109, 118108, 2
118109, 118107, 2
118109, 118110, 1
118109, 118106, 2
118108, 118107, 2
118108, 118106, 2
118108, 118109, 1
118111, 118112, 1
118111, 118110, 2
118105, 118106, 1
118105, 118104, 2
