21127, 21125, 2
21127, 21128, 1
21127, 21126, 2
21125, 21127, 1
21125, 21128, 2
21125, 21126, 0
21129, 21130, 1
21129, 21128, 2
21128, 21127, 2
21128, 21125, 2
21128, 21129, 1
21128, 21126, 2
21130, 21129, 2
21126, 21127, 2
21126, 21125, 2
21126, 21128, 2
