258755, 258753, 2
258755, 258754, 2
258752, 258753, 2
258752, 258754, 2
258752, 258751, 2
258753, 258755, 2
258753, 258752, 2
258753, 258754, 2
258753, 258751, 2
258754, 258755, 3
258754, 258752, 2
258754, 258753, 2
258754, 258751, 2
258751, 258752, 3
258751, 258753, 8
258751, 258754, 1
