162536, 162531, 2
162536, 162528, 2
162536, 162529, 2
162536, 162534, 2
162536, 162540, 2
162537, 162538, 2
162537, 162535, 2
162537, 162529, 2
162537, 162539, 2
162537, 162540, 2
162540, 162536, 2
162540, 162537, 2
162540, 162535, 2
162540, 162538, 2
162540, 162531, 2
162540, 162528, 2
162540, 162529, 2
162540, 162530, 2
162540, 162539, 2
162540, 162523, 2
162525, 162527, 2
162525, 162523, 2
162525, 162524, 2
162525, 162526, 1
162525, 162528, 2
162523, 162527, 2
162523, 162540, 2
162523, 162525, 2
162523, 162531, 2
162523, 162528, 2
162523, 162529, 2
162523, 162524, 1
162523, 162530, 2
162523, 162526, 2
162523, 162533, 2
162529, 162536, 2
162529, 162537, 2
162529, 162540, 1
162529, 162523, 2
162529, 162526, 2
162529, 162538, 2
162529, 162535, 2
162529, 162532, 2
162529, 162531, 6
162529, 162528, 2
162529, 162539, 2
162529, 162534, 2
162529, 162530, 4
162529, 162533, 2
162534, 162536, 2
162534, 162531, 2
162534, 162529, 2
162526, 162523, 2
162526, 162525, 2
162526, 162527, 6
162526, 162528, 2
162526, 162529, 2
162526, 162530, 2
162538, 162537, 6
162538, 162540, 2
162538, 162535, 2
162538, 162539, 3
162538, 162529, 2
162538, 162533, 2
162531, 162536, 1
162531, 162527, 2
162531, 162540, 2
162531, 162534, 0
162531, 162523, 2
162531, 162528, 2
162531, 162529, 2
162531, 162524, 2
162532, 162535, 1
162532, 162529, 2
162532, 162530, 2
162532, 162533, 3
162535, 162538, 1
162535, 162537, 2
162535, 162540, 2
162535, 162532, 2
162535, 162530, 2
162535, 162528, 2
162535, 162529, 2
162535, 162539, 2
162535, 162533, 2
162528, 162536, 2
162528, 162531, 2
162528, 162540, 2
162528, 162525, 2
162528, 162527, 2
162528, 162535, 2
162528, 162529, 1
162528, 162524, 2
162528, 162530, 2
162528, 162523, 2
162528, 162526, 2
162539, 162538, 2
162539, 162537, 2
162539, 162540, 2
162539, 162535, 2
162539, 162529, 2
162539, 162533, 2
162524, 162523, 2
162524, 162527, 2
162524, 162525, 3
162524, 162531, 2
162524, 162528, 1
162530, 162527, 2
162530, 162540, 2
162530, 162532, 1
162530, 162535, 2
162530, 162528, 2
162530, 162529, 2
162530, 162533, 2
162530, 162523, 2
162530, 162526, 2
162533, 162538, 2
162533, 162523, 2
162533, 162529, 2
162533, 162532, 2
162533, 162535, 2
162533, 162539, 2
162533, 162530, 2
162527, 162531, 2
162527, 162525, 2
162527, 162523, 2
162527, 162528, 2
162527, 162530, 2
162527, 162524, 2
162527, 162526, 2
