166539, 166541, 1
166539, 166540, 8
166539, 166538, 2
166541, 166539, 2
166541, 166540, 2
166541, 166538, 2
166540, 166538, 2
166540, 166541, 2
166540, 166539, 2
166538, 166541, 2
166538, 166540, 2
166538, 166539, 3
