167219, 167220, 1
167219, 167218, 2
167220, 167219, 2
167220, 167221, 2
167225, 167224, 2
167225, 167226, 1
167225, 167222, 2
167225, 167223, 2
167197, 167221, 2
167197, 167217, 2
167197, 167200, 1
167197, 167203, 2
167197, 167192, 2
167197, 167189, 2
167197, 167194, 2
167197, 167198, 3
167197, 167187, 2
167197, 167204, 2
167197, 167208, 2
167197, 167196, 2
167197, 167199, 2
167197, 167205, 2
167197, 167193, 2
167197, 167223, 2
167200, 167217, 2
167200, 167203, 2
167200, 167208, 2
167200, 167198, 2
167200, 167194, 2
167200, 167189, 2
167200, 167199, 2
167200, 167201, 1
167200, 167221, 2
167200, 167197, 2
167200, 167205, 2
167200, 167223, 2
167203, 167201, 2
167203, 167202, 2
167203, 167197, 2
167203, 167200, 2
167203, 167208, 2
167203, 167199, 2
167203, 167205, 2
167203, 167198, 2
167203, 167204, 0
167208, 167202, 2
167208, 167197, 2
167208, 167200, 2
167208, 167203, 2
167208, 167206, 2
167208, 167199, 2
167208, 167212, 2
167208, 167221, 2
167208, 167214, 2
167208, 167196, 2
167208, 167204, 2
167208, 167210, 2
167208, 167217, 2
167208, 167205, 2
167208, 167223, 2
167208, 167211, 2
167189, 167195, 2
167189, 167202, 2
167189, 167188, 2
167189, 167197, 2
167189, 167200, 2
167189, 167192, 2
167189, 167194, 2
167189, 167187, 2
167189, 167199, 2
167189, 167191, 2
167189, 167190, 2
167189, 167196, 2
167189, 167193, 2
167188, 167190, 2
167188, 167195, 2
167188, 167196, 2
167188, 167186, 2
167188, 167192, 2
167188, 167184, 2
167188, 167189, 2
167188, 167187, 2
167188, 167185, 2
167198, 167197, 2
167198, 167200, 2
167198, 167199, 2
167198, 167203, 2
167209, 167213, 2
167209, 167214, 2
167209, 167210, 2
167209, 167206, 2
167209, 167205, 2
167209, 167207, 2
167209, 167211, 2
167204, 167202, 2
167204, 167197, 2
167204, 167203, 2
167204, 167208, 2
167204, 167205, 1
167204, 167199, 2
167191, 167190, 2
167191, 167195, 1
167191, 167192, 2
167191, 167193, 2
167191, 167194, 2
167191, 167189, 2
167191, 167187, 2
167191, 167199, 2
167201, 167202, 1
167201, 167200, 2
167201, 167205, 2
167201, 167199, 2
167201, 167203, 2
167216, 167218, 2
167216, 167202, 2
167216, 167217, 3
167216, 167215, 2
167196, 167192, 2
167196, 167188, 2
167196, 167197, 2
167196, 167208, 2
167196, 167193, 2
167196, 167194, 2
167196, 167189, 2
167196, 167187, 2
167196, 167199, 2
167196, 167195, 2
167196, 167221, 2
167196, 167223, 2
167199, 167195, 2
167199, 167202, 2
167199, 167197, 4
167199, 167200, 2
167199, 167203, 1
167199, 167208, 2
167199, 167198, 2
167199, 167194, 2
167199, 167189, 2
167199, 167204, 2
167199, 167191, 2
167199, 167190, 2
167199, 167221, 2
167199, 167207, 2
167199, 167201, 2
167199, 167196, 2
167199, 167205, 2
167199, 167193, 2
167199, 167223, 2
167184, 167190, 2
167184, 167188, 2
167184, 167185, 1
167217, 167216, 2
167217, 167214, 2
167217, 167197, 2
167217, 167200, 2
167217, 167208, 2
167217, 167221, 2
167217, 167218, 2
167217, 167202, 2
167217, 167215, 2
167205, 167202, 2
167205, 167197, 2
167205, 167200, 2
167205, 167203, 2
167205, 167206, 1
167205, 167207, 2
167205, 167209, 2
167205, 167204, 2
167205, 167201, 2
167205, 167208, 2
167205, 167214, 2
167205, 167199, 2
167205, 167210, 2
167205, 167211, 2
167223, 167195, 2
167223, 167202, 2
167223, 167222, 2
167223, 167197, 2
167223, 167200, 2
167223, 167221, 2
167223, 167225, 2
167223, 167199, 2
167223, 167190, 2
167223, 167208, 2
167223, 167196, 2
167223, 167224, 2
167212, 167213, 2
167212, 167206, 2
167212, 167214, 2
167212, 167208, 2
167212, 167202, 2
167212, 167211, 2
167215, 167216, 3
167215, 167218, 1
167215, 167214, 2
167215, 167217, 2
167213, 167212, 2
167213, 167214, 1
167213, 167211, 2
167213, 167209, 2
167224, 167222, 2
167224, 167223, 2
167224, 167225, 1
167202, 167222, 2
167202, 167217, 2
167202, 167203, 2
167202, 167221, 2
167202, 167194, 2
167202, 167189, 2
167202, 167199, 2
167202, 167211, 2
167202, 167201, 2
167202, 167208, 2
167202, 167214, 2
167202, 167204, 2
167202, 167216, 2
167202, 167205, 2
167202, 167223, 2
167202, 167212, 2
167202, 167206, 2
167222, 167224, 1
167222, 167221, 2
167222, 167202, 2
167222, 167225, 2
167222, 167223, 3
167218, 167219, 1
167218, 167221, 2
167218, 167214, 2
167218, 167217, 2
167218, 167216, 2
167218, 167215, 2
167207, 167210, 2
167207, 167206, 2
167207, 167205, 2
167207, 167209, 1
167207, 167199, 2
167207, 167211, 2
167192, 167190, 4
167192, 167195, 2
167192, 167196, 2
167192, 167197, 2
167192, 167193, 1
167192, 167188, 2
167192, 167189, 2
167192, 167187, 2
167192, 167191, 2
167226, 167225, 2
167194, 167195, 2
167194, 167190, 2
167194, 167202, 2
167194, 167196, 2
167194, 167197, 2
167194, 167200, 2
167194, 167189, 2
167194, 167193, 2
167194, 167199, 1
167194, 167191, 2
167187, 167195, 2
167187, 167190, 2
167187, 167196, 2
167187, 167197, 2
167187, 167186, 2
167187, 167192, 1
167187, 167188, 3
167187, 167189, 8
167187, 167191, 2
167185, 167190, 2
167185, 167184, 2
167185, 167188, 2
167185, 167186, 1
167190, 167194, 2
167190, 167192, 2
167190, 167223, 2
167190, 167188, 2
167190, 167189, 2
167190, 167187, 2
167190, 167185, 2
167190, 167191, 1
167190, 167195, 2
167190, 167199, 2
167190, 167184, 2
167190, 167186, 2
167190, 167193, 2
167221, 167220, 2
167221, 167202, 2
167221, 167222, 1
167221, 167217, 2
167221, 167200, 2
167221, 167208, 2
167221, 167218, 2
167221, 167199, 2
167221, 167195, 2
167221, 167196, 2
167221, 167197, 2
167221, 167223, 2
167214, 167213, 2
167214, 167206, 2
167214, 167202, 2
167214, 167217, 2
167214, 167211, 2
167214, 167208, 2
167214, 167205, 2
167214, 167215, 1
167214, 167218, 2
167214, 167209, 2
167214, 167212, 2
167210, 167206, 2
167210, 167207, 2
167210, 167208, 2
167210, 167205, 2
167210, 167209, 2
167210, 167211, 1
167186, 167190, 2
167186, 167188, 2
167186, 167187, 1
167186, 167185, 2
167193, 167190, 2
167193, 167195, 2
167193, 167196, 2
167193, 167197, 2
167193, 167192, 2
167193, 167194, 1
167193, 167189, 2
167193, 167199, 2
167193, 167191, 2
167211, 167213, 1
167211, 167206, 2
167211, 167202, 2
167211, 167209, 2
167211, 167210, 2
167211, 167208, 2
167211, 167205, 2
167211, 167207, 2
167211, 167212, 3
167211, 167214, 2
167206, 167212, 2
167206, 167202, 2
167206, 167214, 2
167206, 167207, 6
167206, 167208, 4
167206, 167205, 2
167206, 167210, 1
167206, 167209, 2
167206, 167211, 2
167195, 167188, 2
167195, 167221, 2
167195, 167223, 2
167195, 167194, 2
167195, 167189, 2
167195, 167187, 2
167195, 167199, 2
167195, 167191, 2
167195, 167190, 2
167195, 167192, 2
167195, 167196, 1
167195, 167193, 2
