186484, 186485, 1
186484, 186486, 2
186487, 186488, 1
186487, 186486, 2
186485, 186484, 2
186485, 186486, 1
186486, 186484, 2
186486, 186485, 2
186486, 186487, 1
186486, 186488, 2
186488, 186487, 2
186488, 186486, 2
