186332, 186330, 2
186332, 186329, 2
186332, 186331, 2
186330, 186332, 2
186330, 186329, 2
186330, 186331, 2
186329, 186332, 2
186329, 186330, 3
186329, 186331, 1
186331, 186332, 3
186331, 186330, 2
186331, 186329, 2
