251519, 251518, 2
251519, 251520, 2
251521, 251523, 1
251521, 251522, 3
251521, 251524, 2
251521, 251520, 2
251526, 251527, 1
251526, 251524, 2
251526, 251525, 2
251518, 251519, 3
251518, 251520, 1
251524, 251521, 2
251524, 251526, 1
251524, 251522, 2
251524, 251528, 2
251524, 251527, 2
251524, 251523, 2
251524, 251525, 3
251520, 251519, 2
251520, 251521, 1
251520, 251522, 2
251520, 251518, 2
251522, 251521, 2
251522, 251525, 2
251522, 251523, 2
251522, 251524, 2
251522, 251520, 2
251528, 251527, 2
251528, 251524, 2
251527, 251528, 0
251527, 251526, 2
251527, 251524, 2
251527, 251525, 2
251523, 251521, 2
251523, 251522, 2
251523, 251524, 1
251523, 251525, 2
251525, 251523, 2
251525, 251526, 2
251525, 251527, 2
251525, 251524, 2
251525, 251522, 2
