294229, 294226, 2
294229, 294230, 1
294229, 294228, 2
294229, 294231, 2
294229, 294235, 2
294232, 294234, 1
294232, 294230, 2
294232, 294235, 2
294232, 294231, 6
294232, 294233, 8
294234, 294232, 2
294234, 294236, 1
294234, 294235, 6
294234, 294231, 2
294234, 294233, 2
294228, 294227, 2
294228, 294229, 1
294228, 294226, 2
294231, 294232, 2
294231, 294234, 2
294231, 294233, 2
294231, 294229, 2
294231, 294226, 2
294231, 294230, 2
294231, 294235, 2
294233, 294230, 2
294233, 294232, 2
294233, 294234, 2
294233, 294235, 2
294233, 294231, 2
294227, 294226, 6
294227, 294228, 1
294226, 294227, 2
294226, 294229, 2
294226, 294228, 2
294226, 294231, 2
294236, 294234, 2
294236, 294235, 2
294230, 294229, 2
294230, 294232, 1
294230, 294235, 2
294230, 294231, 2
294230, 294233, 2
294235, 294232, 2
294235, 294234, 2
294235, 294231, 2
294235, 294233, 2
294235, 294229, 2
294235, 294236, 2
294235, 294230, 2
