165358, 165356, 2
165358, 165352, 2
165358, 165351, 2
165358, 165355, 2
165358, 165359, 2
165358, 165343, 2
165336, 165334, 2
165336, 165333, 2
165336, 165337, 2
165336, 165335, 2
165328, 165330, 1
165328, 165327, 2
165328, 165331, 2
165328, 165338, 2
165328, 165333, 2
165328, 165329, 2
165331, 165330, 2
165331, 165332, 2
165331, 165328, 2
165331, 165334, 2
165331, 165327, 2
165331, 165333, 1
165331, 165335, 2
165331, 165329, 2
165346, 165339, 2
165346, 165341, 2
165346, 165350, 1
165346, 165338, 2
165346, 165342, 2
165346, 165343, 2
165338, 165339, 1
165338, 165357, 2
165338, 165346, 2
165338, 165337, 2
165338, 165335, 2
165338, 165352, 2
165338, 165330, 2
165338, 165344, 2
165338, 165328, 2
165338, 165334, 2
165338, 165327, 2
165338, 165333, 2
165335, 165338, 2
165335, 165331, 2
165335, 165334, 2
165335, 165336, 3
165335, 165337, 1
165335, 165333, 2
165335, 165329, 2
165342, 165349, 2
165342, 165357, 2
165342, 165346, 2
165342, 165341, 2
165342, 165345, 2
165342, 165348, 2
165342, 165359, 2
165342, 165360, 2
165342, 165350, 2
165342, 165355, 2
165342, 165344, 2
165342, 165343, 1
165342, 165337, 2
165342, 165354, 2
165342, 165347, 2
165348, 165352, 2
165348, 165349, 1
165348, 165351, 2
165348, 165347, 2
165348, 165337, 2
165348, 165343, 2
165348, 165342, 2
165348, 165353, 2
165356, 165352, 2
165356, 165343, 2
165356, 165359, 1
165356, 165358, 3
165356, 165355, 2
165352, 165349, 2
165352, 165339, 2
165352, 165333, 2
165352, 165338, 2
165352, 165348, 2
165352, 165332, 2
165352, 165356, 2
165352, 165330, 2
165352, 165351, 2
165352, 165360, 2
165352, 165345, 2
165352, 165355, 2
165352, 165334, 2
165352, 165337, 2
165352, 165358, 2
165352, 165344, 2
165352, 165347, 2
165341, 165340, 2
165341, 165357, 2
165341, 165346, 2
165341, 165337, 2
165341, 165342, 1
165341, 165344, 2
165350, 165346, 2
165350, 165354, 1
165350, 165357, 2
165350, 165342, 2
165350, 165343, 2
165334, 165352, 2
165334, 165330, 2
165334, 165338, 2
165334, 165331, 2
165334, 165329, 2
165334, 165336, 2
165334, 165333, 2
165334, 165332, 2
165334, 165327, 2
165334, 165335, 1
165327, 165330, 2
165327, 165331, 2
165327, 165328, 3
165327, 165334, 1
165327, 165338, 2
165327, 165333, 2
165327, 165329, 2
165333, 165336, 2
165333, 165331, 2
165333, 165338, 1
165333, 165335, 2
165333, 165332, 2
165333, 165352, 2
165333, 165330, 2
165333, 165344, 2
165333, 165328, 2
165333, 165334, 2
165333, 165327, 2
165333, 165337, 2
165354, 165350, 2
165354, 165357, 3
165354, 165342, 2
165354, 165343, 2
165347, 165352, 2
165347, 165342, 2
165347, 165348, 1
165347, 165345, 2
165347, 165343, 2
165349, 165352, 2
165349, 165351, 3
165349, 165355, 1
165349, 165353, 2
165349, 165348, 2
165349, 165342, 2
165349, 165343, 2
165339, 165340, 1
165339, 165352, 2
165339, 165344, 2
165339, 165346, 2
165339, 165338, 2
165339, 165337, 2
165357, 165341, 2
165357, 165350, 2
165357, 165338, 2
165357, 165354, 2
165357, 165342, 2
165357, 165343, 2
165337, 165352, 2
165337, 165336, 2
165337, 165339, 2
165337, 165338, 2
165337, 165335, 2
165337, 165342, 2
165337, 165343, 2
165337, 165340, 2
165337, 165341, 2
165337, 165348, 2
165337, 165329, 2
165337, 165333, 2
165337, 165344, 2
165332, 165352, 2
165332, 165330, 2
165332, 165331, 2
165332, 165334, 2
165332, 165333, 2
165332, 165329, 2
165329, 165330, 2
165329, 165328, 2
165329, 165331, 1
165329, 165334, 2
165329, 165327, 4
165329, 165337, 2
165329, 165332, 2
165329, 165335, 2
165340, 165339, 2
165340, 165337, 2
165340, 165341, 1
165340, 165344, 2
165330, 165352, 2
165330, 165351, 2
165330, 165327, 2
165330, 165328, 2
165330, 165331, 2
165330, 165334, 2
165330, 165338, 2
165330, 165333, 2
165330, 165332, 1
165330, 165329, 2
165351, 165352, 4
165351, 165349, 2
165351, 165330, 2
165351, 165343, 2
165351, 165355, 2
165351, 165348, 2
165351, 165353, 6
165351, 165358, 2
165359, 165356, 2
165359, 165343, 2
165359, 165358, 2
165359, 165342, 2
165359, 165360, 1
165360, 165352, 2
165360, 165359, 2
165360, 165342, 2
165360, 165343, 2
165345, 165352, 2
165345, 165343, 2
165345, 165344, 2
165345, 165342, 2
165345, 165347, 1
165355, 165356, 1
165355, 165352, 2
165355, 165351, 2
165355, 165349, 2
165355, 165343, 2
165355, 165358, 2
165355, 165342, 2
165355, 165353, 2
165353, 165349, 2
165353, 165351, 2
165353, 165343, 2
165353, 165348, 2
165353, 165355, 2
165343, 165349, 2
165343, 165357, 2
165343, 165358, 2
165343, 165346, 6
165343, 165354, 2
165343, 165342, 2
165343, 165359, 2
165343, 165356, 2
165343, 165348, 2
165343, 165351, 2
165343, 165360, 2
165343, 165350, 2
165343, 165355, 2
165343, 165353, 2
165343, 165337, 2
165343, 165345, 2
165343, 165344, 4
165343, 165347, 2
165344, 165352, 2
165344, 165340, 2
165344, 165339, 2
165344, 165341, 2
165344, 165345, 1
165344, 165333, 2
165344, 165338, 2
165344, 165337, 2
165344, 165342, 2
165344, 165343, 2
