21933, 21930, 2
21933, 21932, 2
21933, 21935, 2
21933, 21931, 2
21933, 21934, 1
21932, 21933, 1
21932, 21930, 2
21932, 21931, 2
21936, 21935, 2
21936, 21937, 1
21936, 21934, 2
21937, 21935, 2
21937, 21936, 2
21937, 21934, 2
21934, 21933, 2
21934, 21935, 8
21934, 21936, 1
21934, 21937, 2
21930, 21933, 2
21930, 21932, 1
21930, 21931, 0
21935, 21933, 2
21935, 21936, 2
21935, 21937, 2
21935, 21934, 2
21931, 21933, 2
21931, 21930, 2
21931, 21932, 2
