17074, 17073, 2
17074, 17075, 0
17074, 17077, 1
17074, 17076, 8
17075, 17074, 2
17075, 17077, 2
17075, 17076, 2
17068, 17069, 2
17068, 17071, 2
17068, 17066, 2
17068, 17067, 2
17071, 17069, 2
17071, 17070, 2
17071, 17068, 2
17071, 17072, 1
17072, 17073, 1
17072, 17071, 2
17069, 17070, 0
17069, 17068, 2
17069, 17067, 2
17069, 17071, 1
17070, 17069, 2
17070, 17071, 2
17066, 17068, 2
17066, 17067, 1
17076, 17073, 2
17076, 17075, 2
17076, 17079, 2
17076, 17077, 2
17076, 17074, 2
17067, 17069, 1
17067, 17068, 8
17067, 17066, 2
17078, 17079, 2
17078, 17077, 2
17077, 17074, 2
17077, 17075, 2
17077, 17078, 0
17077, 17073, 2
17077, 17079, 1
17077, 17076, 2
17073, 17074, 1
17073, 17076, 2
17073, 17077, 2
17073, 17072, 2
17079, 17078, 2
17079, 17077, 2
17079, 17076, 2
