335028, 335027, 2
335022, 335023, 2
335022, 335021, 2
335022, 335019, 2
335013, 335016, 2
335013, 335014, 1
335013, 335015, 2
335013, 335017, 2
335015, 335014, 2
335015, 335018, 2
335015, 335016, 2
335015, 335013, 2
335015, 335017, 2
335026, 335027, 1
335026, 335024, 2
335026, 335025, 2
335027, 335028, 1
335027, 335025, 2
335027, 335026, 2
335023, 335024, 1
335023, 335022, 2
335023, 335021, 2
335023, 335020, 2
335023, 335025, 2
335018, 335016, 2
335018, 335014, 2
335018, 335015, 2
335018, 335019, 1
335018, 335020, 2
335018, 335017, 2
335021, 335023, 1
335021, 335020, 2
335021, 335022, 3
335025, 335027, 2
335025, 335023, 2
335025, 335024, 2
335025, 335026, 2
335016, 335017, 1
335016, 335018, 2
335016, 335014, 2
335016, 335015, 2
335016, 335013, 2
335019, 335018, 2
335019, 335022, 2
335019, 335020, 1
335020, 335019, 2
335020, 335018, 2
335020, 335021, 1
335020, 335023, 2
335024, 335023, 2
335024, 335025, 3
335024, 335026, 1
335017, 335018, 1
335017, 335016, 2
335017, 335014, 2
335017, 335015, 2
335017, 335013, 2
335014, 335018, 2
335014, 335016, 1
335014, 335013, 2
335014, 335015, 3
335014, 335017, 2
