16739, 16740, 1
16739, 16738, 2
16739, 16737, 2
16739, 16741, 2
16739, 16736, 2
16741, 16743, 1
16741, 16740, 2
16741, 16742, 0
16741, 16739, 2
16744, 16743, 2
16744, 16745, 0
16744, 16742, 2
16733, 16736, 1
16733, 16734, 0
16733, 16735, 2
16740, 16739, 2
16740, 16741, 1
16738, 16737, 2
16738, 16739, 2
16745, 16744, 2
16742, 16743, 2
16742, 16744, 2
16742, 16741, 2
16734, 16736, 2
16734, 16733, 2
16734, 16735, 1
16743, 16744, 1
16743, 16742, 2
16743, 16741, 2
16737, 16739, 1
16737, 16738, 0
16737, 16736, 2
16735, 16733, 2
16735, 16734, 2
16735, 16736, 2
16736, 16737, 1
16736, 16739, 2
16736, 16733, 2
16736, 16734, 2
16736, 16735, 2
