163106, 163104, 2
163106, 163111, 2
163106, 163108, 1
163106, 163116, 2
163106, 163105, 2
163106, 163109, 2
163121, 163120, 2
163121, 163123, 2
163121, 163122, 1
163121, 163124, 2
163108, 163106, 2
163108, 163109, 3
163108, 163111, 1
163108, 163105, 2
163107, 163104, 2
163107, 163105, 2
163107, 163110, 0
163107, 163112, 1
163113, 163111, 2
163113, 163114, 6
163113, 163116, 2
163113, 163115, 3
163113, 163105, 2
163113, 163109, 2
163119, 163120, 2
163119, 163124, 2
163119, 163118, 2
163119, 163116, 2
163119, 163117, 2
163111, 163106, 2
163111, 163104, 2
163111, 163108, 2
163111, 163114, 2
163111, 163113, 1
163111, 163116, 2
163111, 163115, 2
163111, 163109, 2
163111, 163105, 2
163109, 163106, 2
163109, 163108, 2
163109, 163111, 2
163109, 163113, 2
163109, 163115, 2
163109, 163105, 2
163122, 163123, 6
163122, 163121, 2
163122, 163124, 0
163112, 163107, 2
163112, 163116, 2
163112, 163104, 2
163112, 163105, 2
163112, 163110, 2
163123, 163122, 2
163123, 163121, 2
163123, 163124, 2
163104, 163106, 2
163104, 163111, 2
163104, 163107, 2
163104, 163116, 2
163104, 163105, 1
163104, 163112, 2
163114, 163113, 2
163114, 163116, 2
163114, 163115, 2
163114, 163105, 2
163114, 163111, 2
163120, 163119, 2
163120, 163116, 2
163120, 163115, 2
163120, 163118, 2
163120, 163121, 1
163124, 163123, 2
163124, 163119, 2
163124, 163122, 2
163124, 163121, 2
163118, 163120, 1
163118, 163119, 0
163118, 163116, 2
163118, 163117, 2
163116, 163106, 2
163116, 163111, 2
163116, 163113, 2
163116, 163119, 2
163116, 163112, 2
163116, 163104, 2
163116, 163114, 2
163116, 163120, 2
163116, 163118, 2
163116, 163115, 2
163116, 163105, 2
163116, 163117, 1
163115, 163120, 2
163115, 163111, 2
163115, 163114, 2
163115, 163113, 2
163115, 163116, 2
163115, 163105, 2
163115, 163109, 2
163105, 163106, 4
163105, 163108, 2
163105, 163111, 2
163105, 163107, 6
163105, 163113, 2
163105, 163109, 2
163105, 163112, 2
163105, 163104, 2
163105, 163114, 2
163105, 163116, 1
163105, 163115, 2
163105, 163110, 2
163110, 163107, 2
163110, 163105, 2
163110, 163112, 2
163117, 163119, 2
163117, 163116, 2
163117, 163118, 1
