132478, 132481, 2
132478, 132491, 2
132478, 132477, 2
132478, 132479, 1
132478, 132490, 2
132506, 132508, 2
132506, 132507, 1
132506, 132480, 2
132506, 132503, 2
132506, 132504, 2
132506, 132527, 2
132506, 132505, 2
132519, 132516, 2
132519, 132511, 2
132519, 132528, 2
132519, 132520, 1
132519, 132522, 2
132519, 132509, 2
132519, 132527, 2
132519, 132524, 2
132486, 132485, 2
132486, 132487, 8
132486, 132488, 1
132486, 132480, 2
132496, 132517, 2
132496, 132515, 2
132496, 132490, 2
132496, 132493, 2
132496, 132480, 2
132496, 132497, 1
132483, 132480, 2
132483, 132482, 2
132483, 132484, 1
132512, 132513, 1
132512, 132511, 2
132512, 132507, 2
132512, 132510, 2
132512, 132509, 2
132512, 132527, 2
132490, 132478, 2
132490, 132508, 2
132490, 132497, 2
132490, 132493, 2
132490, 132511, 2
132490, 132479, 2
132490, 132496, 2
132490, 132517, 2
132490, 132515, 2
132490, 132528, 2
132490, 132480, 2
132490, 132509, 2
132490, 132491, 0
132520, 132522, 8
132520, 132511, 2
132520, 132519, 2
132520, 132524, 1
132509, 132516, 2
132509, 132508, 2
132509, 132507, 2
132509, 132510, 0
132509, 132519, 2
132509, 132517, 2
132509, 132512, 2
132509, 132526, 2
132509, 132515, 2
132509, 132490, 2
132509, 132511, 1
132509, 132525, 2
132509, 132528, 2
132518, 132517, 2
132518, 132515, 2
132518, 132521, 1
132518, 132511, 2
132516, 132513, 2
132516, 132511, 2
132516, 132509, 2
132516, 132519, 1
132516, 132514, 2
132516, 132527, 2
132525, 132511, 2
132525, 132526, 1
132525, 132528, 2
132525, 132522, 2
132525, 132509, 2
132525, 132527, 2
132525, 132524, 2
132488, 132480, 2
132488, 132489, 1
132488, 132486, 2
132488, 132487, 2
132488, 132485, 2
132495, 132498, 1
132495, 132499, 2
132495, 132494, 2
132495, 132480, 2
132503, 132508, 2
132503, 132506, 2
132503, 132480, 2
132503, 132504, 8
132503, 132502, 2
132503, 132505, 1
132505, 132506, 1
132505, 132480, 2
132505, 132503, 2
132505, 132504, 2
132505, 132502, 2
132505, 132527, 2
132529, 132530, 1
132529, 132531, 2
132529, 132528, 2
132481, 132478, 2
132481, 132479, 2
132481, 132482, 1
132481, 132480, 2
132527, 132516, 2
132527, 132525, 2
132527, 132506, 2
132527, 132512, 2
132527, 132519, 2
132527, 132524, 2
132527, 132511, 2
132527, 132526, 2
132527, 132528, 2
132527, 132499, 2
132527, 132505, 2
132527, 132507, 2
132524, 132511, 2
132524, 132520, 2
132524, 132522, 2
132524, 132519, 2
132524, 132527, 2
132524, 132525, 1
132513, 132516, 2
132513, 132512, 2
132513, 132514, 1
132513, 132511, 2
132530, 132529, 2
132530, 132531, 1
132526, 132509, 2
132526, 132527, 0
132526, 132528, 2
132526, 132525, 2
132526, 132511, 2
132497, 132508, 2
132497, 132515, 2
132497, 132490, 2
132497, 132480, 2
132497, 132496, 2
132497, 132517, 2
132500, 132501, 3
132500, 132479, 2
132500, 132502, 1
132500, 132499, 2
132500, 132480, 2
132533, 132532, 2
132480, 132506, 2
132480, 132493, 2
132480, 132492, 2
132480, 132486, 2
132480, 132496, 2
132480, 132483, 2
132480, 132481, 6
132480, 132489, 2
132480, 132515, 2
132480, 132490, 4
132480, 132482, 2
132480, 132502, 2
132480, 132499, 2
132480, 132484, 2
132480, 132488, 2
132480, 132508, 1
132480, 132507, 2
132480, 132495, 2
132480, 132503, 2
132480, 132491, 2
132480, 132501, 2
132480, 132494, 2
132480, 132485, 2
132480, 132497, 2
132480, 132500, 2
132480, 132504, 2
132480, 132498, 2
132480, 132510, 2
132480, 132479, 2
132480, 132505, 2
132480, 132487, 2
132522, 132511, 2
132522, 132528, 2
132522, 132520, 2
132522, 132519, 2
132522, 132525, 2
132522, 132524, 2
132531, 132530, 2
132531, 132529, 2
132531, 132528, 2
132531, 132532, 1
132498, 132480, 2
132498, 132495, 2
132498, 132499, 1
132477, 132478, 1
132532, 132531, 2
132532, 132533, 1
132528, 132529, 1
132528, 132527, 2
132528, 132511, 2
132528, 132526, 2
132528, 132515, 2
132528, 132523, 2
132528, 132490, 2
132528, 132522, 2
132528, 132509, 2
132528, 132531, 2
132528, 132519, 2
132528, 132525, 2
132493, 132496, 1
132493, 132491, 2
132493, 132490, 2
132493, 132480, 2
132492, 132489, 2
132492, 132494, 2
132492, 132480, 2
132514, 132516, 1
132514, 132513, 2
132514, 132511, 2
132484, 132480, 2
132484, 132479, 2
132484, 132485, 1
132484, 132482, 2
132484, 132483, 2
132511, 132516, 2
132511, 132527, 2
132511, 132512, 6
132511, 132519, 2
132511, 132514, 2
132511, 132524, 2
132511, 132513, 2
132511, 132517, 2
132511, 132526, 2
132511, 132515, 4
132511, 132523, 2
132511, 132528, 1
132511, 132520, 2
132511, 132522, 2
132511, 132509, 2
132511, 132490, 2
132511, 132518, 2
132511, 132510, 2
132511, 132525, 2
132511, 132521, 2
132489, 132487, 2
132489, 132480, 2
132489, 132492, 8
132489, 132479, 2
132489, 132494, 1
132489, 132488, 2
132515, 132508, 2
132515, 132521, 2
132515, 132511, 2
132515, 132496, 2
132515, 132517, 0
132515, 132497, 2
132515, 132523, 2
132515, 132490, 2
132515, 132480, 2
132515, 132509, 2
132515, 132518, 2
132515, 132528, 2
132521, 132511, 2
132521, 132515, 2
132521, 132523, 1
132521, 132518, 2
132502, 132508, 2
132502, 132500, 2
132502, 132480, 2
132502, 132503, 1
132502, 132501, 2
132502, 132505, 2
132499, 132495, 2
132499, 132500, 1
132499, 132480, 2
132499, 132479, 2
132499, 132498, 2
132499, 132527, 2
132494, 132492, 2
132494, 132489, 2
132494, 132480, 2
132494, 132479, 2
132494, 132495, 1
132507, 132512, 2
132507, 132506, 2
132507, 132480, 2
132507, 132509, 2
132507, 132508, 2
132507, 132510, 2
132507, 132527, 2
132508, 132497, 2
132508, 132507, 2
132508, 132501, 2
132508, 132503, 2
132508, 132479, 2
132508, 132502, 2
132508, 132517, 2
132508, 132515, 2
132508, 132490, 2
132508, 132480, 2
132508, 132509, 1
132508, 132504, 2
132508, 132506, 2
132510, 132512, 2
132510, 132480, 2
132510, 132507, 2
132510, 132511, 2
132510, 132509, 2
132479, 132478, 2
132479, 132508, 2
132479, 132501, 2
132479, 132491, 2
132479, 132482, 2
132479, 132499, 2
132479, 132481, 2
132479, 132489, 2
132479, 132485, 2
132479, 132490, 2
132479, 132480, 1
132479, 132484, 2
132479, 132494, 2
132479, 132500, 2
132501, 132508, 2
132501, 132479, 2
132501, 132502, 2
132501, 132500, 2
132501, 132480, 2
132485, 132487, 2
132485, 132488, 2
132485, 132480, 2
132485, 132479, 2
132485, 132486, 1
132485, 132484, 2
132523, 132511, 2
132523, 132515, 2
132523, 132528, 2
132523, 132521, 2
132487, 132480, 2
132487, 132489, 2
132487, 132486, 2
132487, 132488, 2
132487, 132485, 2
132504, 132503, 2
132504, 132508, 2
132504, 132506, 2
132504, 132505, 2
132504, 132480, 2
132491, 132478, 2
132491, 132479, 2
132491, 132490, 2
132491, 132493, 1
132491, 132480, 2
132517, 132511, 2
132517, 132515, 2
132517, 132490, 2
132517, 132508, 2
132517, 132509, 2
132517, 132497, 2
132517, 132496, 2
132517, 132518, 1
132482, 132480, 2
132482, 132481, 2
132482, 132479, 2
132482, 132483, 1
132482, 132484, 2
