61858, 61860, 1
61858, 61859, 8
61858, 61857, 2
61858, 61856, 2
61863, 61865, 1
61863, 61862, 2
61863, 61864, 3
61857, 61858, 1
61857, 61856, 2
61857, 61859, 2
61861, 61860, 2
61861, 61862, 1
61861, 61859, 2
61860, 61858, 2
61860, 61859, 2
61860, 61861, 1
61856, 61858, 2
61856, 61857, 1
61865, 61863, 2
61865, 61864, 2
61862, 61863, 1
61862, 61861, 2
61859, 61858, 2
61859, 61860, 2
61859, 61857, 2
61859, 61861, 2
61864, 61865, 2
61864, 61863, 2
