220989, 220988, 6
220989, 220990, 1
220989, 220987, 2
220988, 220989, 2
220988, 220990, 2
220988, 220986, 2
220988, 220987, 2
220990, 220989, 2
220990, 220988, 2
220990, 220987, 2
220987, 220989, 1
220987, 220988, 2
220987, 220990, 2
220987, 220986, 2
220986, 220988, 2
220986, 220987, 1
