123752, 123747, 2
123752, 123753, 2
123752, 123748, 2
123752, 123750, 2
123752, 123749, 2
123752, 123745, 2
123751, 123753, 2
123751, 123744, 2
123751, 123748, 2
123751, 123749, 2
123751, 123746, 2
123751, 123743, 2
123755, 123759, 2
123755, 123753, 2
123755, 123756, 1
123755, 123754, 2
123745, 123747, 3
123745, 123753, 2
123745, 123744, 2
123745, 123743, 2
123745, 123750, 2
123745, 123749, 2
123745, 123752, 2
123745, 123748, 2
123739, 123741, 2
123739, 123740, 3
123739, 123743, 2
123739, 123742, 1
123739, 123737, 2
123739, 123738, 2
123741, 123742, 2
123741, 123740, 2
123741, 123743, 2
123741, 123739, 2
123744, 123747, 2
123744, 123748, 1
123744, 123751, 2
123744, 123750, 2
123744, 123745, 6
123744, 123746, 4
123744, 123743, 2
123748, 123747, 2
123748, 123753, 2
123748, 123744, 2
123748, 123743, 2
123748, 123750, 2
123748, 123749, 1
123748, 123752, 2
123748, 123751, 2
123748, 123745, 2
123748, 123746, 2
123754, 123757, 6
123754, 123753, 2
123754, 123761, 2
123754, 123756, 2
123754, 123763, 2
123754, 123759, 2
123754, 123755, 4
123754, 123758, 2
123754, 123762, 2
123754, 123760, 2
123759, 123754, 2
123759, 123753, 2
123759, 123756, 2
123759, 123755, 2
123759, 123763, 2
123759, 123762, 1
123738, 123737, 2
123738, 123740, 2
123738, 123739, 1
123757, 123753, 2
123757, 123758, 1
123757, 123761, 2
123757, 123754, 2
123753, 123757, 2
123753, 123752, 2
123753, 123743, 2
123753, 123763, 2
123753, 123755, 2
123753, 123751, 2
123753, 123745, 2
123753, 123746, 2
123753, 123760, 2
123753, 123754, 1
123753, 123759, 2
123753, 123761, 2
123753, 123748, 2
123753, 123750, 2
123753, 123749, 2
123753, 123747, 2
123753, 123762, 2
123758, 123757, 2
123758, 123760, 1
123758, 123754, 2
123742, 123741, 2
123742, 123743, 1
123742, 123739, 2
123743, 123741, 2
123743, 123753, 2
123743, 123744, 1
123743, 123748, 2
123743, 123751, 2
123743, 123742, 2
123743, 123747, 2
123743, 123745, 2
123743, 123746, 2
123743, 123739, 2
123756, 123759, 1
123756, 123755, 2
123756, 123754, 2
123763, 123759, 2
123763, 123753, 2
123763, 123762, 2
123763, 123754, 2
123746, 123753, 2
123746, 123744, 2
123746, 123743, 2
123746, 123751, 2
123746, 123749, 2
123746, 123748, 2
123760, 123753, 2
123760, 123758, 2
123760, 123761, 0
123760, 123754, 2
123747, 123753, 2
123747, 123744, 2
123747, 123748, 2
123747, 123750, 2
123747, 123749, 2
123747, 123752, 2
123747, 123745, 2
123747, 123743, 2
123740, 123741, 1
123740, 123738, 2
123740, 123739, 2
123750, 123747, 2
123750, 123753, 2
123750, 123752, 3
123750, 123748, 2
123750, 123749, 2
123750, 123744, 2
123750, 123745, 2
123750, 123761, 2
123749, 123747, 2
123749, 123753, 1
123749, 123752, 2
123749, 123748, 2
123749, 123751, 4
123749, 123750, 6
123749, 123745, 2
123749, 123746, 2
123761, 123757, 2
123761, 123753, 2
123761, 123760, 2
123761, 123754, 2
123761, 123750, 2
123737, 123739, 2
123737, 123738, 1
123762, 123759, 2
123762, 123753, 2
123762, 123763, 1
123762, 123754, 2
