256564, 256565, 2
256564, 256563, 2
256564, 256566, 2
256565, 256564, 2
256565, 256563, 2
256565, 256566, 1
256563, 256564, 3
256563, 256565, 1
256563, 256566, 2
256566, 256564, 2
256566, 256565, 2
256566, 256563, 2
