259073, 259074, 2
259073, 259071, 2
259073, 259072, 2
259074, 259075, 1
259074, 259073, 2
259074, 259071, 2
259074, 259072, 2
259075, 259074, 2
259071, 259074, 2
259071, 259073, 2
259071, 259072, 1
259071, 259070, 2
259072, 259074, 1
259072, 259073, 3
259072, 259071, 2
259070, 259071, 1
