251508, 251507, 2
251508, 251509, 1
251509, 251507, 2
251509, 251508, 2
251509, 251510, 1
251512, 251510, 2
251512, 251513, 1
251512, 251511, 2
251510, 251509, 2
251510, 251512, 1
251510, 251511, 3
251510, 251513, 2
251513, 251514, 1
251513, 251511, 2
251513, 251512, 2
251513, 251510, 2
251513, 251515, 2
251507, 251508, 1
251507, 251509, 2
251517, 251516, 2
251516, 251515, 2
251516, 251517, 2
251515, 251516, 3
251515, 251514, 2
251515, 251513, 2
251511, 251512, 2
251511, 251510, 2
251511, 251513, 2
251514, 251515, 1
251514, 251513, 2
