221368, 221369, 1
221368, 221367, 2
221371, 221372, 1
221371, 221370, 2
221369, 221368, 2
221369, 221370, 1
221370, 221369, 2
221370, 221372, 2
221370, 221371, 1
221372, 221370, 2
221372, 221371, 2
221367, 221368, 1
