221283, 221282, 2
221283, 221284, 2
221283, 221285, 2
221283, 221281, 2
221282, 221283, 8
221282, 221281, 2
221282, 221284, 1
221284, 221283, 2
221284, 221282, 2
221284, 221285, 1
221284, 221281, 2
221281, 221283, 2
221281, 221282, 1
221281, 221284, 2
221285, 221283, 2
221285, 221284, 2
