379304, 379306, 2
379304, 379305, 1
379304, 379303, 2
379310, 379307, 2
379310, 379305, 2
379310, 379309, 2
379310, 379308, 2
379303, 379304, 1
379307, 379306, 2
379307, 379310, 2
379307, 379305, 2
379307, 379308, 8
379307, 379309, 1
379306, 379307, 2
379306, 379305, 2
379306, 379308, 2
379306, 379304, 2
379305, 379304, 2
379305, 379306, 8
379305, 379310, 2
379305, 379307, 1
379309, 379310, 1
379309, 379307, 2
379309, 379308, 2
379308, 379306, 2
379308, 379310, 2
379308, 379307, 2
379308, 379309, 2
