550037, 550036, 2
550037, 550034, 2
550037, 550035, 2
550037, 550038, 2
550041, 550039, 2
550041, 550043, 1
550041, 550044, 2
550041, 550040, 2
550041, 550042, 0
550040, 550039, 2
550040, 550041, 2
550040, 550038, 2
550040, 550044, 2
550040, 550035, 2
550040, 550043, 2
550042, 550041, 2
550042, 550043, 2
550036, 550037, 1
550036, 550035, 2
550036, 550034, 2
550036, 550038, 2
550044, 550041, 2
550044, 550040, 2
550044, 550043, 2
550039, 550040, 3
550039, 550035, 2
550039, 550041, 1
550039, 550038, 2
550034, 550037, 2
550034, 550038, 1
550034, 550036, 0
550034, 550032, 2
550034, 550035, 3
550034, 550033, 2
550038, 550039, 1
550038, 550037, 2
550038, 550034, 2
550038, 550040, 2
550038, 550036, 2
550038, 550035, 2
550032, 550035, 2
550032, 550034, 2
550032, 550033, 1
550043, 550040, 2
550043, 550044, 3
550043, 550041, 2
550043, 550042, 2
550035, 550039, 2
550035, 550037, 2
550035, 550034, 2
550035, 550040, 2
550035, 550038, 2
550035, 550036, 2
550035, 550032, 2
550035, 550033, 2
550033, 550032, 2
550033, 550035, 2
550033, 550034, 1
