536437, 536438, 1
536437, 536436, 2
536437, 536434, 2
536437, 536435, 2
536438, 536437, 2
536438, 536436, 2
536438, 536435, 2
536436, 536437, 2
536436, 536438, 2
536436, 536434, 2
536436, 536435, 2
536434, 536437, 2
536434, 536436, 2
536434, 536435, 1
536435, 536437, 1
536435, 536438, 2
536435, 536436, 8
536435, 536434, 2
