591416, 591418, 2
591416, 591419, 2
591416, 591417, 1
591416, 591414, 2
591416, 591415, 2
591403, 591404, 1
591403, 591402, 2
591408, 591407, 2
591408, 591404, 2
591408, 591409, 2
591408, 591410, 2
591408, 591406, 2
591405, 591406, 8
591405, 591404, 2
591405, 591407, 1
591410, 591411, 1
591410, 591407, 2
591410, 591409, 2
591410, 591408, 2
591420, 591419, 2
591420, 591422, 2
591420, 591417, 2
591420, 591421, 1
591424, 591425, 1
591424, 591423, 2
591419, 591418, 2
591419, 591416, 2
591419, 591417, 2
591419, 591420, 1
591426, 591425, 2
591421, 591422, 1
591421, 591420, 2
591406, 591407, 2
591406, 591405, 2
591406, 591408, 2
591423, 591424, 1
591423, 591422, 2
591417, 591419, 1
591417, 591416, 2
591417, 591418, 8
591417, 591420, 2
591402, 591404, 2
591402, 591403, 1
591409, 591407, 2
591409, 591404, 2
591409, 591410, 1
591409, 591408, 2
591422, 591423, 1
591422, 591420, 2
591422, 591421, 2
591418, 591419, 2
591418, 591416, 2
591418, 591417, 2
591412, 591411, 2
591412, 591413, 1
591404, 591407, 2
591404, 591409, 2
591404, 591403, 2
591404, 591408, 2
591404, 591405, 1
591404, 591402, 2
591411, 591412, 1
591411, 591410, 2
591411, 591413, 2
591407, 591409, 1
591407, 591408, 8
591407, 591406, 2
591407, 591404, 2
591407, 591405, 2
591407, 591410, 2
591414, 591415, 1
591414, 591416, 2
591414, 591413, 2
591425, 591424, 2
591425, 591426, 1
591413, 591411, 2
591413, 591414, 1
591413, 591412, 2
591415, 591414, 2
591415, 591416, 1
