534176, 534175, 2
534176, 534174, 2
534172, 534173, 1
534172, 534171, 2
534175, 534176, 2
534175, 534174, 2
534174, 534173, 2
534174, 534176, 1
534174, 534175, 0
534173, 534172, 2
534173, 534174, 1
534173, 534171, 2
534168, 534167, 2
534168, 534169, 2
534168, 534171, 2
534168, 534170, 2
534167, 534169, 1
534167, 534168, 3
534167, 534170, 2
534169, 534167, 2
534169, 534168, 2
534169, 534170, 1
534171, 534173, 2
534171, 534172, 1
534171, 534168, 2
534171, 534170, 2
534170, 534168, 2
534170, 534167, 2
534170, 534169, 2
534170, 534171, 1
