455790, 455793, 2
455790, 455789, 2
455790, 455791, 1
455790, 455792, 2
455793, 455790, 2
455793, 455791, 2
455789, 455790, 1
455791, 455790, 2
455791, 455792, 4
455791, 455793, 6
455792, 455790, 2
455792, 455791, 2
