341575, 341573, 2
341575, 341574, 2
341575, 341577, 1
341575, 341572, 2
341575, 341571, 2
341575, 341576, 0
341573, 341571, 2
341573, 341572, 2
341573, 341574, 3
341573, 341569, 2
341573, 341575, 2
341574, 341571, 2
341574, 341575, 2
341574, 341572, 2
341574, 341573, 2
341577, 341575, 2
341577, 341576, 2
341570, 341572, 2
341570, 341569, 2
341570, 341571, 1
341572, 341575, 2
341572, 341574, 2
341572, 341570, 2
341572, 341571, 2
341572, 341569, 2
341572, 341573, 0
341569, 341570, 1
341569, 341571, 2
341569, 341572, 2
341569, 341573, 2
341571, 341575, 1
341571, 341572, 0
341571, 341574, 2
341571, 341570, 2
341571, 341573, 2
341571, 341569, 2
341576, 341575, 2
341576, 341577, 2
