537255, 537252, 2
537255, 537254, 2
537255, 537253, 2
537255, 537251, 2
537249, 537252, 2
537249, 537251, 2
537249, 537250, 1
537252, 537255, 2
537252, 537249, 2
537252, 537254, 2
537252, 537253, 1
537252, 537251, 2
537252, 537250, 2
537254, 537252, 2
537254, 537255, 2
537254, 537253, 2
537254, 537251, 2
537253, 537252, 2
537253, 537255, 2
537253, 537251, 2
537253, 537254, 1
537251, 537255, 1
537251, 537249, 2
537251, 537252, 8
537251, 537254, 2
537251, 537253, 2
537251, 537250, 2
537250, 537252, 2
537250, 537251, 1
537250, 537249, 2
