592834, 592835, 1
592834, 592833, 2
592831, 592832, 1
592831, 592830, 2
592832, 592831, 2
592832, 592830, 2
592832, 592833, 1
592833, 592834, 1
592833, 592832, 2
592830, 592831, 1
592830, 592832, 2
592835, 592834, 2
