522374, 522375, 1
522374, 522373, 2
522381, 522379, 2
522381, 522380, 2
522381, 522382, 1
522384, 522385, 0
522384, 522383, 2
522379, 522381, 1
522379, 522378, 2
522379, 522380, 3
522379, 522377, 2
522375, 522374, 2
522375, 522376, 1
522375, 522377, 2
522378, 522379, 2
522378, 522380, 2
522378, 522377, 2
522377, 522379, 1
522377, 522375, 2
522377, 522378, 3
522377, 522376, 2
522383, 522385, 2
522383, 522384, 1
522383, 522382, 2
522372, 522373, 1
522373, 522374, 1
522373, 522372, 2
522385, 522384, 2
522385, 522383, 2
522376, 522375, 2
522376, 522377, 1
522380, 522381, 2
522380, 522379, 2
522380, 522378, 2
522382, 522381, 2
522382, 522383, 1
