456500, 456499, 2
456500, 456498, 2
456495, 456496, 1
456495, 456494, 2
456497, 456496, 2
456497, 456498, 1
456498, 456499, 1
456498, 456500, 2
456498, 456497, 2
456499, 456500, 1
456499, 456498, 2
456496, 456497, 1
456496, 456495, 2
456496, 456494, 2
456494, 456495, 1
456494, 456496, 2
