643096, 643095, 2
643096, 643098, 2
643096, 643093, 2
643096, 643097, 2
643093, 643096, 2
643093, 643095, 2
643093, 643091, 2
643093, 643094, 2
643093, 643092, 2
643093, 643090, 2
643099, 643098, 2
643099, 643100, 1
643099, 643097, 2
643092, 643093, 1
643092, 643091, 2
643092, 643090, 2
643080, 643082, 2
643080, 643078, 2
643080, 643083, 2
643080, 643077, 2
643080, 643081, 1
643080, 643079, 2
643086, 643088, 2
643086, 643082, 2
643086, 643087, 1
643086, 643085, 2
643089, 643088, 2
643089, 643087, 2
643089, 643090, 1
643078, 643082, 2
643078, 643083, 2
643078, 643077, 2
643078, 643081, 2
643078, 643079, 2
643078, 643080, 2
643077, 643081, 2
643077, 643082, 2
643077, 643078, 3
643077, 643079, 1
643077, 643080, 2
643088, 643086, 2
643088, 643089, 2
643088, 643091, 2
643088, 643090, 2
643088, 643087, 2
643088, 643085, 2
643087, 643086, 2
643087, 643082, 2
643087, 643089, 1
643087, 643088, 8
643087, 643090, 2
643087, 643085, 2
643097, 643096, 2
643097, 643095, 2
643097, 643098, 3
643097, 643100, 2
643097, 643099, 1
643082, 643084, 2
643082, 643083, 3
643082, 643079, 2
643082, 643077, 2
643082, 643081, 2
643082, 643078, 2
643082, 643085, 2
643082, 643086, 1
643082, 643087, 2
643082, 643080, 2
643100, 643095, 2
643100, 643098, 2
643100, 643099, 2
643100, 643097, 2
643083, 643084, 1
643083, 643082, 2
643083, 643078, 2
643083, 643085, 2
643083, 643079, 2
643083, 643080, 2
643094, 643095, 1
643094, 643093, 2
643094, 643091, 2
643094, 643090, 2
643084, 643082, 2
643084, 643083, 2
643084, 643085, 1
643095, 643096, 3
643095, 643094, 2
643095, 643093, 2
643095, 643100, 2
643095, 643097, 1
643098, 643096, 2
643098, 643100, 2
643098, 643099, 2
643098, 643097, 2
643079, 643077, 2
643079, 643082, 2
643079, 643078, 2
643079, 643083, 2
643079, 643080, 1
643081, 643077, 2
643081, 643082, 1
643081, 643078, 2
643081, 643080, 2
643085, 643084, 2
643085, 643082, 2
643085, 643087, 2
643085, 643088, 2
643085, 643086, 2
643085, 643083, 2
643090, 643089, 2
643090, 643091, 3
643090, 643088, 2
643090, 643093, 2
643090, 643092, 2
643090, 643094, 1
643090, 643087, 2
643091, 643088, 2
643091, 643092, 1
643091, 643093, 2
643091, 643090, 2
643091, 643094, 2
