624062, 624064, 2
624062, 624063, 1
624062, 624069, 2
624062, 624061, 2
624067, 624070, 2
624067, 624069, 2
624067, 624066, 2
624067, 624068, 1
624067, 624065, 2
624072, 624071, 2
624072, 624069, 2
624072, 624073, 1
624066, 624067, 1
624066, 624064, 2
624066, 624069, 2
624066, 624065, 2
624066, 624068, 2
624064, 624062, 2
624064, 624063, 2
624064, 624069, 2
624064, 624066, 1
624064, 624065, 3
624070, 624067, 2
624070, 624071, 1
624070, 624069, 2
624070, 624068, 2
624070, 624065, 2
624061, 624062, 1
624073, 624069, 2
624073, 624072, 2
624063, 624062, 2
624063, 624064, 1
624063, 624065, 2
624069, 624067, 2
624069, 624062, 2
624069, 624072, 2
624069, 624066, 2
624069, 624068, 2
624069, 624071, 2
624069, 624064, 2
624069, 624070, 2
624069, 624073, 2
624068, 624067, 2
624068, 624070, 1
624068, 624069, 6
624068, 624066, 2
624071, 624070, 2
624071, 624069, 2
624071, 624072, 1
624065, 624067, 2
624065, 624064, 2
624065, 624070, 2
624065, 624066, 2
624065, 624063, 2
