643017, 643016, 2
643017, 643019, 2
643017, 643015, 2
643017, 643018, 1
643026, 643023, 2
643026, 643025, 2
643026, 643027, 1
643026, 643024, 2
643007, 643008, 3
643007, 643009, 1
643024, 643023, 2
643024, 643026, 1
643024, 643022, 2
643024, 643025, 3
643011, 643016, 1
643011, 643014, 2
643011, 643010, 2
643011, 643012, 3
643010, 643011, 1
643010, 643012, 2
643010, 643008, 2
643010, 643009, 2
643027, 643028, 1
643027, 643026, 2
643009, 643008, 2
643009, 643007, 2
643009, 643010, 1
643019, 643017, 2
643019, 643016, 2
643019, 643020, 2
643019, 643022, 2
643019, 643018, 2
643019, 643021, 2
643028, 643027, 2
643015, 643017, 2
643015, 643016, 2
643015, 643013, 2
643015, 643014, 2
643021, 643019, 2
643021, 643016, 2
643021, 643022, 1
643021, 643020, 2
643008, 643007, 2
643008, 643010, 2
643008, 643009, 2
643023, 643026, 2
643023, 643022, 2
643023, 643025, 2
643023, 643020, 2
643023, 643024, 2
643013, 643014, 1
643013, 643016, 2
643013, 643015, 2
643013, 643012, 2
643022, 643016, 2
643022, 643023, 8
643022, 643020, 2
643022, 643019, 2
643022, 643024, 1
643022, 643021, 2
643020, 643019, 2
643020, 643023, 2
643020, 643022, 2
643020, 643021, 2
643025, 643023, 2
643025, 643026, 2
643025, 643024, 2
643012, 643011, 2
643012, 643016, 2
643012, 643013, 2
643012, 643010, 2
643012, 643014, 2
643016, 643017, 3
643016, 643011, 2
643016, 643013, 2
643016, 643019, 2
643016, 643014, 2
643016, 643015, 2
643016, 643022, 2
643016, 643012, 2
643016, 643018, 2
643016, 643021, 1
643014, 643016, 2
643014, 643011, 2
643014, 643015, 1
643014, 643013, 2
643014, 643012, 2
643018, 643017, 2
643018, 643019, 1
643018, 643016, 2
