333273, 333272, 2
333273, 333274, 1
333277, 333276, 2
333277, 333274, 2
333277, 333275, 2
333277, 333278, 1
333272, 333273, 1
333272, 333271, 2
333270, 333271, 1
333270, 333269, 2
333268, 333269, 1
333274, 333273, 2
333274, 333277, 2
333274, 333276, 2
333274, 333275, 1
333276, 333277, 2
333276, 333278, 2
333276, 333275, 2
333276, 333274, 2
333278, 333277, 2
333278, 333276, 2
333271, 333272, 1
333271, 333270, 2
333269, 333270, 1
333269, 333268, 2
333275, 333277, 1
333275, 333276, 8
333275, 333274, 2
