379862, 379863, 2
379862, 379861, 2
379862, 379860, 2
379863, 379862, 2
379863, 379861, 2
379863, 379864, 1
379861, 379862, 3
379861, 379863, 1
379861, 379860, 2
379861, 379864, 2
379859, 379860, 2
379859, 379858, 2
379865, 379866, 2
379865, 379864, 2
379864, 379865, 0
379864, 379863, 2
379864, 379861, 2
379864, 379866, 1
379866, 379865, 2
379866, 379864, 2
379860, 379862, 2
379860, 379861, 1
379860, 379859, 2
379860, 379858, 2
379858, 379859, 0
379858, 379860, 1
