378357, 378358, 1
378357, 378356, 2
378357, 378359, 2
378357, 378355, 2
378356, 378357, 2
378356, 378354, 2
378356, 378355, 2
378358, 378357, 2
378358, 378359, 1
378359, 378358, 2
378359, 378357, 2
378354, 378356, 2
378354, 378355, 1
378355, 378357, 1
378355, 378356, 3
378355, 378354, 2
