450676, 450675, 2
450676, 450677, 1
450676, 450678, 2
450676, 450679, 2
450673, 450674, 2
450673, 450672, 2
450677, 450679, 2
450677, 450678, 1
450677, 450676, 2
450685, 450686, 8
450685, 450684, 2
450685, 450687, 1
450688, 450686, 2
450688, 450687, 2
450679, 450681, 2
450679, 450680, 1
450679, 450677, 2
450679, 450678, 2
450679, 450676, 2
450682, 450681, 2
450682, 450683, 0
450682, 450684, 1
450678, 450679, 1
450678, 450677, 2
450678, 450676, 2
450687, 450688, 1
450687, 450686, 2
450687, 450684, 2
450687, 450685, 2
450672, 450673, 3
450672, 450674, 1
450683, 450681, 2
450683, 450682, 2
450683, 450684, 2
450681, 450680, 2
450681, 450679, 2
450681, 450682, 1
450681, 450683, 2
450675, 450674, 2
450675, 450676, 1
450680, 450681, 1
450680, 450679, 2
450674, 450673, 2
450674, 450675, 1
450674, 450672, 2
450684, 450683, 2
450684, 450682, 2
450684, 450687, 2
450684, 450686, 2
450684, 450685, 1
450686, 450688, 2
450686, 450687, 2
450686, 450684, 2
450686, 450685, 2
