405523, 405522, 2
405523, 405524, 1
405521, 405522, 1
405521, 405520, 2
405520, 405521, 1
405520, 405522, 2
405522, 405523, 1
405522, 405521, 2
405522, 405520, 2
405522, 405524, 2
405524, 405523, 2
405524, 405522, 2
