644566, 644567, 1
644566, 644565, 2
644567, 644566, 2
644567, 644569, 2
644567, 644568, 1
644573, 644572, 2
644570, 644569, 2
644570, 644571, 1
644570, 644568, 2
644571, 644572, 1
644571, 644570, 2
644571, 644569, 2
644569, 644567, 2
644569, 644570, 1
644569, 644571, 2
644569, 644568, 2
644565, 644566, 1
644572, 644573, 1
644572, 644571, 2
644568, 644569, 1
644568, 644567, 2
644568, 644570, 2
