549651, 549650, 2
549651, 549653, 3
549651, 549654, 1
549651, 549649, 2
549651, 549652, 0
549652, 549656, 2
549652, 549653, 2
549652, 549651, 2
549652, 549654, 2
549656, 549655, 2
549656, 549653, 2
549656, 549657, 1
549656, 549654, 2
549656, 549652, 2
549653, 549650, 2
549653, 549651, 2
549653, 549654, 2
549653, 549652, 2
549653, 549656, 2
549653, 549657, 2
549653, 549649, 2
549660, 549659, 2
549659, 549658, 2
549659, 549660, 1
549659, 549657, 2
549650, 549653, 2
549650, 549651, 1
549650, 549649, 2
549655, 549656, 1
549655, 549654, 2
549654, 549656, 2
549654, 549655, 1
549654, 549653, 2
549654, 549651, 2
549654, 549652, 2
549657, 549656, 2
549657, 549658, 1
549657, 549653, 2
549657, 549659, 2
549649, 549653, 2
549649, 549651, 2
549649, 549650, 1
549658, 549659, 1
549658, 549657, 2
