379447, 379448, 1
379453, 379454, 1
379453, 379452, 2
379453, 379451, 2
379448, 379447, 2
379448, 379449, 1
379448, 379450, 2
379449, 379450, 8
379449, 379454, 2
379449, 379448, 2
379449, 379451, 1
379450, 379449, 2
379450, 379448, 2
379450, 379452, 2
379450, 379451, 2
379454, 379453, 2
379454, 379449, 2
379454, 379452, 2
379454, 379451, 2
379452, 379453, 2
379452, 379454, 2
379452, 379450, 2
379452, 379451, 2
379451, 379449, 2
379451, 379453, 1
379451, 379454, 2
379451, 379452, 8
379451, 379450, 2
