571879, 571881, 2
571879, 571880, 1
571879, 571878, 2
571881, 571879, 2
571881, 571880, 2
571881, 571878, 2
571878, 571879, 3
571878, 571881, 0
571878, 571880, 2
571880, 571879, 2
571880, 571881, 2
571880, 571878, 2
