515518, 515517, 2
515518, 515520, 2
515518, 515519, 1
515518, 515521, 2
515518, 515515, 2
515520, 515518, 2
515520, 515519, 2
515520, 515521, 0
515521, 515518, 2
515521, 515520, 2
515515, 515516, 3
515515, 515518, 2
515515, 515517, 1
515516, 515517, 2
515516, 515515, 2
515517, 515516, 2
515517, 515518, 1
515517, 515515, 2
515519, 515518, 2
515519, 515520, 1
