455485, 455486, 2
455485, 455484, 2
455486, 455485, 2
455486, 455488, 2
455486, 455484, 2
455486, 455487, 1
455488, 455486, 2
455488, 455487, 2
455487, 455486, 2
455487, 455488, 1
455484, 455485, 3
455484, 455486, 1
