515049, 515051, 2
515049, 515050, 1
515049, 515048, 2
515040, 515042, 2
515040, 515043, 2
515040, 515044, 2
515040, 515041, 2
515040, 515038, 2
515040, 515039, 2
515048, 515047, 2
515048, 515049, 1
515044, 515043, 2
515044, 515045, 1
515044, 515040, 2
515045, 515044, 2
515045, 515046, 1
515041, 515042, 1
515041, 515040, 2
515041, 515038, 2
515041, 515039, 2
515038, 515042, 2
515038, 515041, 1
515038, 515040, 2
515038, 515039, 0
515039, 515042, 2
515039, 515041, 2
515039, 515040, 1
515039, 515038, 2
515042, 515043, 1
515042, 515041, 2
515042, 515040, 2
515042, 515038, 2
515042, 515039, 2
515043, 515044, 1
515043, 515042, 2
515043, 515040, 2
515052, 515051, 2
515051, 515050, 2
515051, 515049, 2
515051, 515052, 1
515050, 515051, 1
515050, 515049, 2
515046, 515045, 2
515046, 515047, 1
515047, 515046, 2
515047, 515048, 1
