536515, 536517, 2
536515, 536514, 2
536515, 536516, 2
536515, 536518, 2
536517, 536515, 2
536517, 536514, 2
536517, 536516, 2
536517, 536518, 3
536516, 536515, 2
536516, 536517, 2
536516, 536518, 2
536516, 536514, 2
536514, 536515, 3
536514, 536517, 1
536514, 536516, 8
536518, 536515, 2
536518, 536517, 2
536518, 536516, 2
