590584, 590582, 2
590584, 590586, 2
590584, 590587, 2
590584, 590585, 1
590584, 590583, 2
590587, 590584, 2
590587, 590589, 2
590587, 590588, 1
590587, 590586, 2
590581, 590582, 1
590581, 590580, 2
590588, 590587, 2
590588, 590589, 1
590585, 590584, 2
590585, 590586, 1
590582, 590584, 2
590582, 590581, 2
590582, 590583, 1
590589, 590587, 2
590589, 590588, 2
590583, 590584, 1
590583, 590582, 2
590580, 590581, 1
590580, 590579, 2
590586, 590584, 2
590586, 590587, 1
590586, 590585, 2
590579, 590580, 1
