452680, 452684, 1
452680, 452681, 0
452708, 452709, 1
452708, 452707, 2
452696, 452698, 2
452696, 452699, 2
452696, 452707, 2
452696, 452700, 2
452696, 452694, 2
452696, 452695, 2
452696, 452709, 2
452696, 452701, 2
452696, 452706, 2
452696, 452697, 2
452696, 452702, 2
452698, 452699, 1
452698, 452700, 2
452698, 452694, 2
452698, 452695, 2
452698, 452701, 2
452698, 452696, 2
452698, 452697, 2
452699, 452698, 2
452699, 452700, 1
452699, 452701, 2
452699, 452696, 2
452699, 452697, 2
452699, 452702, 2
452701, 452699, 2
452701, 452698, 2
452701, 452700, 2
452701, 452694, 2
452701, 452696, 2
452701, 452697, 2
452701, 452702, 1
452707, 452706, 2
452707, 452708, 1
452707, 452697, 2
452707, 452696, 2
452707, 452705, 2
452689, 452690, 2
452689, 452688, 2
452682, 452683, 1
452682, 452681, 2
452694, 452698, 1
452694, 452693, 2
452694, 452695, 3
452694, 452701, 2
452694, 452692, 2
452694, 452696, 2
452694, 452697, 0
452688, 452687, 2
452688, 452689, 3
452688, 452686, 2
452688, 452690, 1
452685, 452686, 1
452685, 452684, 2
452690, 452691, 1
452690, 452689, 2
452690, 452688, 2
452690, 452692, 2
452709, 452696, 2
452709, 452708, 2
452709, 452697, 2
452691, 452692, 1
452691, 452690, 2
452700, 452699, 2
452700, 452698, 2
452700, 452701, 1
452700, 452696, 2
452700, 452697, 2
452700, 452702, 2
452684, 452680, 2
452684, 452686, 2
452684, 452685, 1
452684, 452683, 2
452684, 452681, 2
452683, 452682, 2
452683, 452684, 2
452703, 452704, 1
452703, 452705, 2
452703, 452702, 2
452692, 452691, 2
452692, 452694, 2
452692, 452690, 2
452692, 452693, 1
452687, 452686, 2
452687, 452688, 1
452686, 452685, 2
452686, 452687, 1
452686, 452688, 2
452686, 452684, 2
452702, 452699, 2
452702, 452704, 2
452702, 452700, 2
452702, 452703, 0
452702, 452701, 2
452702, 452705, 1
452702, 452696, 2
452702, 452697, 2
452702, 452706, 2
452695, 452698, 2
452695, 452696, 1
452695, 452697, 2
452695, 452694, 2
452704, 452705, 2
452704, 452697, 2
452704, 452702, 2
452704, 452703, 2
452706, 452707, 1
452706, 452696, 2
452706, 452702, 2
452706, 452705, 2
452697, 452709, 2
452697, 452699, 2
452697, 452700, 2
452697, 452705, 2
452697, 452696, 2
452697, 452702, 2
452697, 452698, 2
452697, 452704, 2
452697, 452707, 2
452697, 452694, 2
452697, 452695, 2
452697, 452701, 2
452705, 452707, 2
452705, 452703, 2
452705, 452704, 2
452705, 452706, 1
452705, 452697, 2
452705, 452702, 2
452681, 452680, 2
452681, 452682, 1
452681, 452684, 2
452693, 452692, 2
452693, 452694, 1
