405910, 405909, 2
405910, 405911, 3
405910, 405912, 1
405913, 405914, 1
405913, 405912, 2
405914, 405913, 2
405914, 405912, 2
405909, 405910, 1
405911, 405910, 2
405911, 405912, 2
405912, 405914, 2
405912, 405910, 2
405912, 405911, 2
405912, 405913, 1
