405722, 405723, 1
405722, 405721, 2
405722, 405720, 2
405719, 405721, 2
405719, 405720, 1
405724, 405723, 2
405723, 405722, 2
405723, 405724, 1
405721, 405722, 1
405721, 405719, 2
405721, 405720, 2
405720, 405722, 2
405720, 405721, 1
405720, 405719, 2
