455039, 455037, 2
455039, 455040, 2
455039, 455033, 2
455039, 455034, 2
455039, 455035, 2
455039, 455038, 2
455033, 455032, 2
455033, 455034, 2
455033, 455035, 2
455033, 455024, 2
455033, 455039, 2
455028, 455027, 2
455028, 455024, 2
455028, 455029, 1
455035, 455037, 2
455035, 455032, 2
455035, 455033, 2
455035, 455034, 4
455035, 455040, 2
455035, 455039, 2
455035, 455038, 1
455035, 455036, 2
455055, 455056, 2
455055, 455054, 2
455023, 455027, 2
455023, 455024, 3
455023, 455025, 0
455023, 455021, 2
455023, 455026, 1
455023, 455022, 2
455029, 455024, 2
455029, 455025, 2
455029, 455030, 1
455029, 455032, 2
455029, 455031, 2
455029, 455028, 2
455014, 455015, 1
455025, 455027, 2
455025, 455024, 2
455025, 455023, 2
455025, 455029, 2
455025, 455030, 2
455025, 455032, 2
455025, 455026, 2
455032, 455024, 2
455032, 455025, 2
455032, 455037, 2
455032, 455029, 2
455032, 455031, 2
455032, 455033, 3
455032, 455034, 2
455032, 455030, 2
455032, 455035, 1
455026, 455027, 1
455026, 455024, 2
455026, 455025, 2
455026, 455023, 2
455045, 455047, 1
455045, 455046, 3
455045, 455044, 2
455036, 455034, 2
455036, 455037, 2
455036, 455035, 2
455027, 455025, 2
455027, 455024, 2
455027, 455028, 1
455027, 455026, 2
455027, 455023, 2
455018, 455017, 2
455018, 455019, 1
455019, 455021, 2
455019, 455018, 2
455019, 455020, 1
455040, 455042, 2
455040, 455037, 2
455040, 455043, 2
455040, 455039, 2
455040, 455041, 1
455040, 455038, 2
455040, 455035, 2
455015, 455014, 2
455015, 455016, 1
455054, 455053, 2
455054, 455055, 1
455021, 455023, 2
455021, 455020, 2
455021, 455019, 2
455021, 455022, 1
455047, 455037, 2
455047, 455045, 2
455047, 455050, 2
455047, 455046, 2
455047, 455048, 1
455047, 455044, 2
455052, 455056, 2
455052, 455053, 1
455052, 455051, 2
455042, 455040, 2
455042, 455037, 2
455042, 455043, 2
455042, 455044, 2
455042, 455041, 2
455050, 455049, 2
455050, 455051, 1
455050, 455048, 2
455050, 455047, 2
455030, 455032, 2
455030, 455025, 2
455030, 455029, 2
455030, 455031, 1
455017, 455018, 1
455017, 455016, 2
455031, 455032, 1
455031, 455024, 2
455031, 455029, 2
455031, 455030, 2
455044, 455042, 2
455044, 455037, 2
455044, 455043, 2
455044, 455047, 2
455044, 455046, 2
455044, 455045, 1
455022, 455021, 2
455022, 455023, 1
455057, 455056, 2
455057, 455058, 1
455043, 455042, 2
455043, 455041, 2
455043, 455044, 1
455043, 455040, 2
455058, 455057, 2
455046, 455037, 2
455046, 455047, 2
455046, 455044, 2
455046, 455045, 2
455034, 455024, 2
455034, 455037, 1
455034, 455032, 2
455034, 455033, 2
455034, 455039, 2
455034, 455035, 2
455034, 455038, 2
455034, 455036, 8
455038, 455034, 2
455038, 455040, 1
455038, 455037, 2
455038, 455035, 2
455038, 455039, 3
455020, 455021, 1
455020, 455019, 2
455056, 455057, 1
455056, 455052, 2
455056, 455037, 2
455056, 455055, 2
455053, 455052, 2
455053, 455054, 3
455053, 455037, 2
455053, 455051, 2
455051, 455052, 1
455051, 455050, 2
455051, 455053, 2
455051, 455037, 2
455051, 455049, 2
455041, 455042, 8
455041, 455043, 1
455041, 455040, 2
455048, 455049, 8
455048, 455047, 2
455048, 455050, 1
455049, 455051, 2
455049, 455050, 2
455049, 455048, 2
455024, 455027, 2
455024, 455025, 2
455024, 455032, 2
455024, 455029, 2
455024, 455033, 2
455024, 455031, 2
455024, 455034, 2
455024, 455028, 2
455024, 455026, 2
455024, 455023, 2
455037, 455042, 2
455037, 455046, 2
455037, 455039, 2
455037, 455056, 2
455037, 455032, 2
455037, 455053, 2
455037, 455051, 2
455037, 455035, 2
455037, 455044, 2
455037, 455036, 2
455037, 455040, 2
455037, 455034, 2
455037, 455047, 2
455037, 455038, 2
455016, 455015, 2
455016, 455017, 1
