625662, 625664, 2
625662, 625663, 2
625662, 625661, 2
625662, 625666, 2
625664, 625663, 2
625664, 625662, 2
625664, 625665, 1
625664, 625666, 2
625665, 625663, 2
625665, 625664, 2
625665, 625666, 3
625661, 625663, 1
625661, 625662, 3
625663, 625662, 2
625663, 625661, 2
625663, 625664, 1
625663, 625665, 2
625666, 625664, 2
625666, 625662, 2
625666, 625665, 2
