608456, 608458, 1
608456, 608457, 3
608456, 608455, 2
608458, 608456, 2
608458, 608459, 1
608458, 608457, 2
608460, 608461, 1
608460, 608462, 2
608460, 608459, 2
608455, 608456, 1
608455, 608454, 2
608461, 608462, 1
608461, 608460, 2
608462, 608461, 2
608462, 608460, 2
608459, 608458, 2
608459, 608460, 1
608457, 608456, 2
608457, 608458, 2
608454, 608455, 1
