455462, 455459, 2
455462, 455461, 2
455462, 455460, 2
455462, 455463, 1
455459, 455462, 2
455459, 455460, 1
455459, 455461, 2
455461, 455462, 2
455461, 455460, 2
455461, 455459, 2
455461, 455463, 2
455460, 455462, 1
455460, 455459, 2
455460, 455461, 8
455460, 455463, 2
455463, 455462, 2
455463, 455460, 2
455463, 455461, 2
