489240, 489238, 2
489240, 489241, 1
489240, 489239, 2
489238, 489240, 1
489238, 489239, 3
489242, 489244, 2
489242, 489243, 2
489242, 489241, 2
489248, 489247, 2
489247, 489246, 2
489247, 489245, 2
489247, 489248, 3
489247, 489244, 2
489246, 489245, 2
489246, 489244, 2
489246, 489247, 1
489245, 489246, 2
489245, 489244, 2
489245, 489247, 2
489244, 489242, 2
489244, 489247, 2
489244, 489246, 1
489244, 489245, 3
489244, 489241, 2
489244, 489243, 2
489243, 489241, 2
489243, 489242, 2
489243, 489244, 1
489241, 489242, 3
489241, 489244, 2
489241, 489243, 1
489241, 489240, 2
489239, 489238, 2
489239, 489240, 2
