405849, 405851, 2
405849, 405846, 2
405849, 405847, 2
405849, 405850, 2
405849, 405848, 2
405849, 405852, 2
405851, 405849, 2
405851, 405850, 2
405851, 405848, 2
405851, 405852, 3
405846, 405847, 1
405846, 405849, 2
405846, 405848, 2
405847, 405846, 2
405847, 405849, 2
405847, 405848, 1
405850, 405851, 1
405850, 405849, 2
405850, 405848, 2
405848, 405849, 3
405848, 405851, 2
405848, 405846, 2
405848, 405847, 2
405848, 405850, 1
405848, 405852, 2
405852, 405851, 2
405852, 405849, 2
405852, 405848, 2
