335667, 335661, 2
335667, 335668, 1
335667, 335666, 2
335664, 335663, 2
335664, 335661, 2
335664, 335665, 2
335664, 335666, 2
335660, 335659, 2
335660, 335661, 2
335660, 335658, 2
335663, 335662, 2
335663, 335664, 1
335663, 335661, 2
335658, 335660, 2
335658, 335659, 1
335658, 335657, 2
335672, 335671, 2
335672, 335669, 2
335665, 335662, 2
335665, 335664, 2
335665, 335661, 2
335665, 335666, 1
335666, 335667, 1
335666, 335664, 2
335666, 335661, 2
335666, 335665, 2
335655, 335656, 1
335655, 335657, 2
335662, 335663, 1
335662, 335661, 2
335662, 335665, 2
335668, 335667, 2
335668, 335669, 1
335670, 335671, 1
335670, 335669, 2
335656, 335655, 2
335656, 335657, 1
335671, 335672, 1
335671, 335669, 2
335671, 335670, 2
335659, 335660, 3
335659, 335661, 1
335659, 335658, 2
335661, 335660, 2
335661, 335664, 2
335661, 335662, 0
335661, 335659, 2
335661, 335667, 2
335661, 335663, 2
335661, 335665, 1
335661, 335666, 2
335657, 335655, 2
335657, 335656, 2
335657, 335658, 1
335669, 335672, 2
335669, 335671, 2
335669, 335668, 2
335669, 335670, 0
