643557, 643555, 2
643557, 643554, 2
643557, 643556, 2
643555, 643557, 2
643555, 643554, 2
643555, 643556, 1
643554, 643557, 2
643554, 643555, 0
643554, 643556, 2
643556, 643557, 1
643556, 643555, 2
643556, 643554, 2
