449824, 449820, 2
449824, 449822, 2
449824, 449825, 1
449824, 449818, 2
449824, 449823, 2
449824, 449819, 2
449822, 449824, 2
449822, 449820, 2
449822, 449819, 2
449822, 449817, 2
449822, 449825, 2
449822, 449821, 2
449822, 449818, 2
449822, 449823, 2
449822, 449827, 2
449825, 449824, 2
449825, 449820, 2
449825, 449822, 2
449825, 449826, 1
449821, 449820, 2
449821, 449819, 2
449821, 449817, 2
449821, 449818, 2
449821, 449823, 1
449821, 449822, 2
449818, 449824, 2
449818, 449820, 1
449818, 449822, 2
449818, 449817, 2
449818, 449821, 2
449818, 449823, 2
449818, 449819, 2
449823, 449824, 1
449823, 449820, 2
449823, 449822, 2
449823, 449817, 2
449823, 449821, 2
449823, 449818, 2
449823, 449819, 2
449820, 449824, 2
449820, 449827, 2
449820, 449822, 2
449820, 449817, 2
449820, 449825, 2
449820, 449821, 2
449820, 449818, 2
449820, 449823, 2
449820, 449819, 2
449816, 449817, 1
449816, 449815, 2
449819, 449824, 2
449819, 449820, 2
449819, 449822, 1
449819, 449817, 2
449819, 449821, 2
449819, 449818, 2
449819, 449823, 2
449817, 449815, 2
449817, 449820, 2
449817, 449816, 2
449817, 449819, 0
449817, 449821, 1
449817, 449818, 3
449817, 449823, 2
449817, 449822, 2
449827, 449820, 2
449827, 449822, 2
449827, 449826, 2
449826, 449825, 2
449826, 449827, 1
449815, 449816, 1
449815, 449817, 2
