592840, 592841, 1
592840, 592839, 2
592841, 592840, 2
592841, 592842, 1
592841, 592839, 2
592837, 592838, 1
592838, 592837, 2
592838, 592839, 1
592842, 592841, 2
592842, 592843, 1
592843, 592842, 2
592839, 592838, 2
592839, 592840, 1
592839, 592841, 2
