376338, 376337, 2
376338, 376339, 1
376340, 376341, 1
376340, 376339, 2
376340, 376342, 2
376341, 376342, 1
376341, 376340, 2
376348, 376349, 1
376348, 376347, 2
376359, 376358, 2
376354, 376355, 1
376354, 376353, 2
376351, 376350, 2
376351, 376352, 1
376347, 376346, 2
376347, 376348, 1
376347, 376345, 2
376350, 376351, 1
376350, 376349, 2
376350, 376352, 2
376355, 376356, 1
376355, 376354, 2
376355, 376357, 2
376356, 376355, 2
376356, 376357, 1
376358, 376359, 1
376358, 376357, 2
376352, 376351, 2
376352, 376353, 1
376352, 376350, 2
376342, 376341, 2
376342, 376343, 1
376342, 376340, 2
376353, 376354, 1
376353, 376352, 2
376337, 376338, 1
376339, 376338, 2
376339, 376340, 1
376343, 376344, 1
376343, 376342, 2
376346, 376345, 2
376346, 376347, 1
376349, 376348, 2
376349, 376350, 1
376344, 376345, 1
376344, 376343, 2
376345, 376346, 1
376345, 376347, 2
376345, 376344, 2
376357, 376356, 2
376357, 376358, 1
376357, 376355, 2
