494042, 494044, 1
494042, 494041, 2
494042, 494043, 3
494044, 494042, 2
494044, 494043, 2
494041, 494042, 1
494041, 494043, 2
494041, 494040, 2
494043, 494042, 2
494043, 494044, 2
494043, 494041, 2
494040, 494041, 1
