406184, 406181, 2
406184, 406182, 2
406184, 406183, 2
406177, 406178, 1
406183, 406184, 0
406183, 406181, 2
406183, 406182, 2
406178, 406177, 2
406178, 406182, 2
406178, 406179, 1
406180, 406181, 1
406180, 406182, 2
406180, 406179, 2
406181, 406184, 2
406181, 406180, 2
406181, 406182, 3
406181, 406183, 1
406182, 406184, 2
406182, 406183, 2
406182, 406178, 2
406182, 406180, 2
406182, 406181, 2
406182, 406179, 2
406179, 406178, 2
406179, 406180, 1
406179, 406182, 2
