377955, 377956, 2
377955, 377954, 2
377955, 377952, 2
377953, 377954, 1
377953, 377952, 2
377954, 377955, 8
377954, 377953, 2
377954, 377956, 1
377954, 377952, 2
377956, 377955, 2
377956, 377954, 2
377952, 377955, 2
377952, 377953, 1
377952, 377954, 2
