404538, 404539, 2
404538, 404537, 2
404547, 404549, 2
404547, 404545, 2
404547, 404546, 2
404547, 404548, 1
404535, 404536, 1
404535, 404534, 2
404531, 404532, 1
404548, 404549, 1
404548, 404547, 2
404536, 404534, 2
404536, 404535, 2
404536, 404537, 1
404532, 404533, 1
404532, 404531, 2
404543, 404544, 1
404543, 404541, 2
404543, 404542, 2
404543, 404545, 2
404543, 404546, 2
404534, 404536, 2
404534, 404533, 2
404534, 404535, 1
404540, 404541, 2
404540, 404539, 2
404540, 404537, 2
404544, 404545, 1
404544, 404543, 2
404541, 404539, 2
404541, 404543, 2
404541, 404542, 1
404541, 404540, 2
404542, 404541, 2
404542, 404543, 1
404537, 404536, 2
404537, 404538, 0
404537, 404540, 2
404537, 404539, 1
404546, 404545, 2
404546, 404543, 2
404546, 404547, 2
404533, 404532, 2
404533, 404534, 1
404545, 404544, 2
404545, 404543, 2
404545, 404547, 1
404545, 404546, 3
404549, 404547, 2
404549, 404548, 2
404539, 404541, 1
404539, 404538, 2
404539, 404540, 3
404539, 404537, 2
