624258, 624257, 2
624258, 624259, 1
624260, 624257, 2
624260, 624259, 2
624260, 624261, 1
624250, 624252, 1
624250, 624249, 2
624250, 624251, 8
624250, 624253, 2
624252, 624254, 1
624252, 624253, 3
624252, 624251, 2
624252, 624250, 2
624256, 624254, 2
624256, 624257, 1
624256, 624255, 2
624253, 624252, 2
624253, 624254, 2
624253, 624251, 2
624253, 624250, 2
624259, 624258, 2
624259, 624260, 1
624262, 624261, 2
624257, 624258, 1
624257, 624260, 2
624257, 624256, 2
624257, 624254, 2
624254, 624257, 2
624254, 624256, 2
624254, 624253, 2
624254, 624252, 2
624254, 624255, 1
624249, 624251, 2
624249, 624250, 1
624261, 624260, 2
624261, 624262, 1
624251, 624252, 2
624251, 624249, 2
624251, 624253, 2
624251, 624250, 2
624255, 624254, 2
624255, 624256, 1
