553549, 553547, 2
553549, 553550, 1
553549, 553548, 2
553551, 553550, 2
553551, 553552, 1
553547, 553549, 2
553547, 553548, 1
553552, 553551, 2
553550, 553551, 1
553550, 553549, 2
553548, 553547, 2
553548, 553549, 1
