607398, 607401, 2
607398, 607400, 2
607398, 607394, 2
607398, 607397, 2
607398, 607399, 1
607395, 607394, 2
607395, 607393, 2
607395, 607396, 2
607383, 607384, 1
607383, 607382, 2
607399, 607400, 1
607399, 607398, 2
607394, 607401, 2
607394, 607393, 2
607394, 607398, 2
607394, 607396, 1
607394, 607395, 0
607400, 607401, 1
607400, 607399, 2
607400, 607398, 2
607388, 607389, 1
607388, 607387, 2
607385, 607384, 2
607385, 607386, 1
607385, 607387, 2
607384, 607383, 2
607384, 607385, 1
607393, 607394, 1
607393, 607396, 2
607393, 607392, 2
607393, 607395, 2
607390, 607389, 2
607390, 607391, 1
607380, 607381, 1
607380, 607379, 2
607387, 607385, 2
607387, 607389, 2
607387, 607388, 1
607387, 607386, 2
607401, 607400, 2
607401, 607394, 2
607401, 607398, 2
607382, 607383, 1
607382, 607381, 2
607397, 607398, 1
607397, 607396, 2
607381, 607382, 1
607381, 607380, 2
607379, 607380, 1
607389, 607390, 1
607389, 607387, 2
607389, 607388, 2
607386, 607385, 2
607386, 607387, 1
607396, 607394, 2
607396, 607393, 2
607396, 607397, 1
607396, 607395, 2
607392, 607393, 1
607392, 607391, 2
607391, 607390, 2
607391, 607392, 1
