379089, 379088, 2
379089, 379090, 1
379090, 379089, 2
379090, 379088, 2
379084, 379085, 3
379084, 379086, 1
379086, 379085, 2
379086, 379088, 2
379086, 379084, 2
379086, 379087, 1
379087, 379088, 1
379087, 379086, 2
379085, 379084, 2
379085, 379086, 2
379088, 379089, 1
379088, 379090, 2
379088, 379086, 2
379088, 379087, 2
