572358, 572357, 2
572358, 572360, 1
572358, 572356, 2
572358, 572361, 2
572358, 572359, 3
572360, 572358, 2
572360, 572361, 1
572360, 572359, 2
572361, 572358, 2
572361, 572360, 2
572357, 572358, 2
572357, 572356, 2
572356, 572357, 3
572356, 572358, 1
572359, 572358, 2
572359, 572360, 2
