378856, 378858, 1
378856, 378854, 2
378856, 378857, 8
378856, 378859, 2
378856, 378855, 2
378854, 378856, 1
378854, 378853, 2
378854, 378859, 2
378854, 378855, 8
378855, 378854, 2
378855, 378856, 2
378855, 378857, 2
378855, 378853, 2
378859, 378858, 2
378859, 378856, 2
378859, 378857, 2
378859, 378854, 2
378858, 378856, 2
378858, 378859, 1
378858, 378857, 2
378857, 378856, 2
378857, 378858, 2
378857, 378859, 2
378857, 378855, 2
378853, 378855, 2
378853, 378854, 1
