405473, 405476, 2
405473, 405471, 2
405473, 405475, 1
405473, 405478, 2
405473, 405469, 2
405473, 405474, 8
405473, 405470, 2
405473, 405472, 2
405471, 405473, 2
405471, 405475, 2
405471, 405476, 2
405471, 405469, 2
405471, 405470, 2
405471, 405472, 2
405444, 405441, 2
405444, 405445, 1
405467, 405468, 2
405467, 405466, 2
405467, 405469, 2
405467, 405465, 2
405467, 405470, 2
405467, 405472, 2
405467, 405463, 2
405453, 405452, 2
405453, 405441, 2
405453, 405456, 1
405441, 405444, 6
405441, 405458, 1
405441, 405442, 4
405441, 405453, 2
405441, 405448, 2
405441, 405457, 2
405441, 405447, 2
405441, 405456, 2
405441, 405452, 2
405441, 405454, 2
405441, 405459, 2
405441, 405455, 2
405441, 405443, 2
405441, 405446, 2
405441, 405451, 2
405441, 405449, 2
405441, 405450, 2
405441, 405445, 2
405448, 405441, 2
405448, 405445, 2
405448, 405450, 1
405457, 405441, 2
405457, 405458, 2
405457, 405459, 2
405457, 405456, 2
405447, 405441, 2
405447, 405449, 1
405447, 405458, 2
405447, 405446, 2
405456, 405441, 2
405456, 405457, 1
405456, 405458, 2
405456, 405459, 2
405456, 405453, 2
405477, 405476, 2
405477, 405479, 1
405477, 405478, 3
405477, 405480, 2
405452, 405441, 2
405452, 405449, 2
405452, 405458, 2
405452, 405459, 2
405452, 405453, 1
405475, 405473, 2
405475, 405471, 2
405475, 405476, 1
405475, 405478, 2
405475, 405469, 2
405475, 405474, 2
405475, 405464, 2
405469, 405473, 2
405469, 405471, 2
405469, 405475, 2
405469, 405467, 2
405469, 405468, 2
405469, 405463, 2
405469, 405466, 2
405469, 405470, 1
405469, 405464, 2
405469, 405472, 2
405459, 405458, 2
405459, 405441, 2
405459, 405457, 2
405459, 405460, 1
405459, 405456, 2
405459, 405461, 2
405459, 405452, 2
405459, 405450, 2
405459, 405462, 2
405459, 405463, 2
405459, 405449, 2
405459, 405455, 2
405462, 405463, 2
405462, 405460, 2
405462, 405459, 2
405449, 405441, 2
405449, 405452, 1
405449, 405458, 2
405449, 405459, 2
405449, 405447, 2
405470, 405473, 1
405470, 405471, 6
405470, 405467, 2
405470, 405472, 3
405470, 405469, 2
405480, 405481, 1
405480, 405478, 2
405480, 405483, 2
405480, 405482, 2
405480, 405479, 2
405480, 405464, 2
405480, 405477, 2
405446, 405441, 2
405446, 405443, 2
405446, 405458, 2
405446, 405447, 1
405455, 405441, 2
405455, 405451, 2
405455, 405458, 2
405455, 405459, 2
405455, 405454, 2
405476, 405473, 2
405476, 405471, 2
405476, 405478, 2
405476, 405475, 2
405476, 405479, 2
405476, 405464, 2
405476, 405477, 1
405476, 405472, 2
405468, 405466, 2
405468, 405469, 1
405468, 405465, 2
405468, 405467, 2
405468, 405464, 2
405468, 405472, 2
405458, 405452, 2
405458, 405447, 2
405458, 405459, 1
405458, 405450, 2
405458, 405446, 2
405458, 405441, 2
405458, 405457, 2
405458, 405451, 2
405458, 405449, 2
405458, 405455, 2
405458, 405456, 2
405481, 405482, 6
405481, 405483, 3
405481, 405478, 2
405481, 405480, 2
405478, 405476, 2
405478, 405475, 2
405478, 405481, 2
405478, 405480, 2
405478, 405463, 2
405478, 405474, 2
405478, 405483, 2
405478, 405473, 2
405478, 405479, 2
405478, 405472, 2
405478, 405477, 2
405442, 405441, 2
405442, 405443, 1
405482, 405481, 2
405482, 405483, 2
405482, 405480, 2
405479, 405476, 2
405479, 405483, 2
405479, 405477, 2
405479, 405478, 2
405479, 405480, 1
405460, 405463, 1
405460, 405462, 6
405460, 405459, 2
405460, 405461, 4
405472, 405473, 2
405472, 405471, 2
405472, 405467, 2
405472, 405478, 2
405472, 405469, 2
405472, 405463, 2
405472, 405468, 2
405472, 405476, 2
405472, 405470, 2
405472, 405474, 2
405461, 405463, 2
405461, 405460, 2
405461, 405459, 2
405483, 405481, 2
405483, 405482, 2
405483, 405479, 2
405483, 405478, 2
405483, 405480, 2
405465, 405463, 2
405465, 405468, 2
405465, 405466, 1
405465, 405464, 2
405465, 405467, 2
405451, 405441, 2
405451, 405458, 2
405451, 405450, 2
405451, 405455, 1
405451, 405454, 0
405463, 405469, 2
405463, 405459, 2
405463, 405478, 2
405463, 405462, 2
405463, 405465, 1
405463, 405467, 2
405463, 405466, 2
405463, 405460, 2
405463, 405464, 0
405463, 405472, 2
405463, 405461, 2
405443, 405441, 2
405443, 405446, 1
405443, 405442, 2
405466, 405468, 1
405466, 405467, 3
405466, 405469, 2
405466, 405465, 2
405466, 405463, 2
405466, 405464, 2
405445, 405441, 2
405445, 405448, 1
405445, 405444, 2
405464, 405476, 2
405464, 405468, 2
405464, 405475, 2
405464, 405466, 2
405464, 405469, 2
405464, 405465, 2
405464, 405463, 2
405464, 405480, 2
405474, 405473, 2
405474, 405475, 2
405474, 405472, 2
405474, 405478, 2
405450, 405441, 2
405450, 405448, 2
405450, 405458, 2
405450, 405459, 2
405450, 405451, 1
405454, 405441, 2
405454, 405451, 2
405454, 405455, 2
