641812, 641811, 2
641812, 641813, 1
641817, 641818, 1
641817, 641816, 2
641817, 641820, 2
641817, 641819, 2
641814, 641813, 2
641814, 641818, 2
641814, 641816, 2
641814, 641815, 1
641814, 641820, 2
641819, 641817, 2
641819, 641822, 2
641819, 641818, 2
641819, 641820, 2
641819, 641821, 2
641820, 641817, 2
641820, 641818, 2
641820, 641816, 2
641820, 641821, 3
641820, 641815, 2
641820, 641819, 2
641820, 641814, 2
641820, 641822, 1
641811, 641813, 2
641811, 641812, 1
641813, 641811, 2
641813, 641814, 1
641813, 641812, 2
641818, 641817, 2
641818, 641816, 2
641818, 641815, 2
641818, 641822, 2
641818, 641819, 1
641818, 641814, 2
641818, 641820, 2
641816, 641817, 2
641816, 641818, 2
641816, 641822, 2
641816, 641815, 2
641816, 641814, 2
641816, 641820, 2
641821, 641822, 2
641821, 641819, 2
641821, 641820, 2
641815, 641814, 2
641815, 641818, 2
641815, 641816, 3
641815, 641820, 1
641822, 641818, 2
641822, 641816, 2
641822, 641820, 2
641822, 641821, 2
641822, 641819, 2
