455516, 455514, 2
455516, 455518, 2
455516, 455517, 1
455516, 455515, 2
455514, 455516, 1
455514, 455515, 3
455518, 455516, 2
455518, 455517, 2
455515, 455516, 2
455515, 455514, 2
455517, 455516, 2
455517, 455518, 1
