536814, 536815, 1
536814, 536813, 2
536815, 536814, 2
536815, 536817, 2
536815, 536816, 1
536815, 536813, 2
536817, 536815, 2
536817, 536818, 0
536817, 536816, 2
536813, 536814, 1
536813, 536815, 2
536818, 536817, 2
536816, 536815, 2
536816, 536817, 1
