494663, 494666, 2
494663, 494664, 3
494663, 494665, 1
494666, 494663, 2
494666, 494664, 2
494666, 494665, 2
494666, 494667, 1
494664, 494663, 2
494664, 494666, 2
494664, 494665, 2
494668, 494667, 2
494665, 494663, 2
494665, 494666, 1
494665, 494664, 2
494667, 494666, 2
494667, 494668, 1
