491488, 491490, 2
491488, 491486, 2
491488, 491489, 1
491488, 491487, 2
491483, 491484, 1
491483, 491482, 2
491483, 491485, 2
491479, 491480, 2
491479, 491478, 2
491479, 491475, 2
491479, 491485, 2
491481, 491484, 2
491481, 491480, 2
491481, 491482, 2
491481, 491485, 2
491485, 491484, 2
491485, 491481, 2
491485, 491483, 2
491485, 491487, 2
491485, 491486, 2
491485, 491479, 2
491485, 491482, 2
491487, 491488, 1
491487, 491490, 2
491487, 491486, 2
491487, 491485, 2
491487, 491489, 2
491491, 491490, 2
491491, 491492, 2
491491, 491493, 2
491491, 491489, 2
491478, 491479, 3
491478, 491480, 1
491478, 491477, 2
491482, 491483, 1
491482, 491481, 2
491482, 491480, 2
491482, 491485, 2
491482, 491477, 2
491474, 491476, 1
491474, 491475, 3
491493, 491492, 2
491493, 491490, 2
491493, 491491, 2
491493, 491486, 2
491484, 491483, 2
491484, 491486, 1
491484, 491481, 2
491484, 491485, 8
491484, 491477, 2
491486, 491488, 2
491486, 491484, 2
491486, 491493, 2
491486, 491485, 2
491486, 491490, 1
491486, 491487, 8
491486, 491489, 2
491476, 491475, 2
491476, 491474, 2
491476, 491477, 1
491475, 491479, 2
491475, 491476, 2
491475, 491474, 2
491490, 491488, 2
491490, 491491, 3
491490, 491493, 2
491490, 491487, 2
491490, 491492, 1
491490, 491486, 2
491490, 491489, 2
491480, 491479, 2
491480, 491477, 2
491480, 491478, 2
491480, 491481, 2
491480, 491482, 2
491489, 491488, 2
491489, 491490, 2
491489, 491491, 2
491489, 491486, 2
491489, 491487, 2
491492, 491493, 1
491492, 491491, 2
491492, 491490, 2
491477, 491484, 2
491477, 491480, 2
491477, 491478, 3
491477, 491482, 1
491477, 491476, 2
