573143, 573142, 2
573143, 573144, 2
573143, 573145, 2
573146, 573147, 3
573146, 573150, 1
573146, 573148, 2
573146, 573145, 2
573144, 573142, 2
573144, 573143, 2
573144, 573145, 2
573149, 573150, 2
573149, 573148, 2
573142, 573143, 3
573142, 573144, 0
573150, 573146, 2
573150, 573148, 2
573150, 573149, 2
573148, 573147, 2
573148, 573150, 2
573148, 573146, 2
573148, 573149, 1
573147, 573146, 2
573147, 573148, 1
573147, 573145, 2
573145, 573143, 2
573145, 573146, 1
573145, 573144, 2
573145, 573147, 2
