522668, 522667, 2
522668, 522666, 2
522664, 522663, 2
522664, 522662, 2
522664, 522665, 1
522643, 522646, 2
522643, 522645, 1
522643, 522644, 3
522653, 522652, 2
522653, 522654, 1
522651, 522649, 2
522651, 522650, 2
522651, 522652, 2
522644, 522646, 2
522644, 522643, 2
522644, 522649, 2
522644, 522645, 2
522657, 522656, 2
522657, 522654, 2
522657, 522655, 2
522657, 522658, 1
522658, 522657, 2
522658, 522656, 2
522658, 522655, 2
522658, 522654, 2
522658, 522659, 1
522645, 522646, 1
522645, 522643, 2
522645, 522644, 2
522654, 522657, 1
522654, 522656, 2
522654, 522653, 2
522654, 522655, 3
522654, 522658, 2
522666, 522668, 2
522666, 522667, 3
522666, 522665, 2
522647, 522646, 2
522647, 522648, 1
522660, 522661, 1
522660, 522659, 2
522661, 522662, 1
522661, 522660, 2
522661, 522663, 2
522661, 522655, 2
522650, 522649, 2
522650, 522652, 1
522650, 522651, 3
522652, 522650, 2
522652, 522649, 2
522652, 522653, 1
522652, 522651, 2
522649, 522650, 1
522649, 522648, 2
522649, 522652, 2
522649, 522651, 2
522649, 522644, 2
522667, 522668, 6
522667, 522666, 2
522648, 522649, 1
522648, 522647, 2
522662, 522663, 3
522662, 522664, 1
522662, 522661, 2
522646, 522643, 2
522646, 522645, 2
522646, 522647, 1
522646, 522644, 2
522656, 522657, 2
522656, 522655, 2
522656, 522654, 2
522656, 522658, 2
522655, 522657, 2
522655, 522661, 2
522655, 522656, 6
522655, 522654, 2
522655, 522658, 2
522659, 522660, 1
522659, 522658, 2
522663, 522662, 2
522663, 522664, 2
522663, 522661, 2
522665, 522664, 2
522665, 522666, 1
