534239, 534238, 2
534239, 534240, 1
534245, 534244, 2
534245, 534246, 1
534237, 534238, 1
534238, 534239, 1
534238, 534237, 2
534241, 534242, 1
534241, 534240, 2
534246, 534245, 2
534243, 534244, 1
534243, 534242, 2
534244, 534245, 1
534244, 534243, 2
534242, 534241, 2
534242, 534243, 1
534242, 534240, 2
534240, 534239, 2
534240, 534241, 1
534240, 534242, 2
