550541, 550542, 0
550541, 550543, 1
550541, 550544, 2
550541, 550540, 2
550538, 550536, 2
550538, 550539, 1
550538, 550537, 2
550533, 550535, 2
550533, 550534, 1
550533, 550532, 2
550533, 550531, 2
550531, 550530, 2
550531, 550533, 2
550531, 550532, 1
550539, 550540, 1
550539, 550538, 2
550540, 550542, 2
550540, 550543, 2
550540, 550541, 1
550540, 550539, 2
550543, 550542, 2
550543, 550544, 1
550543, 550541, 2
550543, 550540, 2
550535, 550534, 2
550535, 550533, 2
550535, 550536, 1
550537, 550538, 1
550537, 550536, 2
550542, 550540, 2
550542, 550543, 2
550542, 550544, 2
550542, 550541, 2
550534, 550535, 1
550534, 550533, 2
550534, 550536, 2
550532, 550531, 2
550532, 550533, 1
550536, 550535, 2
550536, 550538, 2
550536, 550534, 2
550536, 550537, 1
550545, 550544, 2
550530, 550531, 1
550544, 550542, 2
550544, 550543, 2
550544, 550545, 1
550544, 550541, 2
