572363, 572364, 2
572363, 572362, 2
572363, 572365, 2
572365, 572363, 2
572365, 572364, 2
572365, 572366, 2
572365, 572367, 2
572362, 572363, 3
572362, 572364, 1
572364, 572363, 2
572364, 572365, 3
572364, 572366, 1
572364, 572362, 2
572366, 572365, 2
572366, 572367, 1
572366, 572364, 2
572367, 572365, 2
572367, 572366, 2
