551693, 551694, 1
551693, 551692, 2
551681, 551680, 2
551681, 551684, 2
551681, 551683, 2
551681, 551682, 2
551683, 551682, 2
551683, 551684, 1
551683, 551681, 2
551683, 551680, 2
551680, 551683, 2
551680, 551681, 3
551680, 551682, 1
551687, 551688, 1
551687, 551686, 2
551687, 551689, 2
551687, 551684, 2
551687, 551685, 2
551688, 551687, 2
551688, 551689, 1
551702, 551705, 2
551702, 551703, 2
551702, 551701, 2
551702, 551704, 2
551702, 551700, 2
551700, 551702, 2
551700, 551699, 2
551700, 551701, 1
551700, 551704, 2
551690, 551692, 2
551690, 551691, 1
551690, 551689, 2
551689, 551687, 2
551689, 551688, 2
551689, 551690, 1
551689, 551691, 2
551695, 551694, 2
551695, 551697, 1
551695, 551696, 3
551701, 551705, 2
551701, 551702, 3
551701, 551704, 1
551701, 551700, 2
551706, 551705, 2
551698, 551697, 2
551698, 551699, 1
551685, 551687, 1
551685, 551686, 0
551685, 551684, 2
551684, 551682, 2
551684, 551686, 2
551684, 551683, 2
551684, 551687, 2
551684, 551685, 1
551684, 551681, 2
551691, 551690, 2
551691, 551692, 1
551691, 551689, 2
551705, 551702, 2
551705, 551701, 2
551705, 551706, 3
551705, 551704, 2
551705, 551703, 2
551682, 551683, 1
551682, 551684, 2
551682, 551681, 2
551682, 551680, 2
551686, 551687, 2
551686, 551685, 2
551686, 551684, 2
551697, 551695, 2
551697, 551699, 2
551697, 551696, 2
551697, 551698, 1
551692, 551694, 2
551692, 551693, 1
551692, 551690, 2
551692, 551691, 2
551704, 551705, 1
551704, 551702, 2
551704, 551701, 2
551704, 551700, 2
551704, 551703, 2
551694, 551693, 2
551694, 551696, 2
551694, 551692, 2
551694, 551695, 1
551699, 551698, 2
551699, 551697, 2
551699, 551700, 1
551703, 551705, 2
551703, 551702, 2
551703, 551704, 2
551696, 551694, 2
551696, 551695, 2
551696, 551697, 2
