623799, 623796, 2
623799, 623800, 2
623799, 623797, 2
623799, 623798, 2
623800, 623799, 2
623800, 623798, 2
623797, 623799, 2
623797, 623798, 2
623797, 623796, 2
623797, 623795, 2
623796, 623795, 2
623796, 623799, 2
623796, 623797, 2
623796, 623798, 2
623796, 623794, 2
623796, 623793, 2
623794, 623795, 1
623794, 623793, 2
623794, 623796, 2
623794, 623792, 2
623794, 623789, 2
623794, 623791, 2
623789, 623790, 1
623789, 623791, 2
623789, 623794, 2
623791, 623792, 2
623791, 623789, 2
623791, 623790, 2
623791, 623794, 1
623795, 623798, 1
623795, 623797, 8
623795, 623796, 3
623795, 623794, 2
623798, 623799, 3
623798, 623800, 1
623798, 623797, 2
623798, 623796, 2
623798, 623795, 2
623792, 623793, 3
623792, 623791, 2
623792, 623794, 2
623793, 623792, 2
623793, 623796, 2
623793, 623794, 2
623790, 623789, 2
623790, 623791, 1
