572725, 572726, 3
572725, 572727, 1
572728, 572729, 1
572728, 572727, 2
572727, 572725, 2
572727, 572729, 2
572727, 572726, 2
572727, 572728, 1
572730, 572729, 2
572729, 572728, 2
572729, 572726, 2
572729, 572730, 0
572729, 572727, 2
572726, 572725, 2
572726, 572729, 2
572726, 572727, 2
