420267, 420270, 2
420267, 420262, 2
420267, 420264, 2
420267, 420268, 1
420267, 420265, 2
420277, 420285, 2
420277, 420278, 1
420277, 420280, 2
420277, 420276, 2
420277, 420270, 2
420277, 420275, 2
420277, 420286, 2
420288, 420285, 2
420288, 420290, 2
420288, 420292, 2
420288, 420296, 2
420288, 420280, 2
420288, 420289, 1
420288, 420295, 2
420288, 420279, 2
420288, 420287, 2
420250, 420257, 2
420250, 420251, 2
420250, 420249, 2
420259, 420258, 2
420259, 420255, 2
420259, 420254, 2
420259, 420251, 2
420259, 420249, 2
420259, 420261, 2
420259, 420256, 2
420282, 420285, 2
420282, 420279, 2
420282, 420286, 2
420282, 420280, 2
420282, 420281, 2
420282, 420284, 2
420282, 420275, 2
420282, 420268, 2
420282, 420283, 1
420285, 420279, 2
420285, 420288, 2
420285, 420280, 2
420285, 420286, 2
420285, 420291, 2
420285, 420278, 2
420285, 420284, 2
420285, 420282, 2
420285, 420277, 2
420285, 420283, 2
420285, 420287, 2
420269, 420266, 2
420269, 420270, 2
420269, 420262, 2
420269, 420261, 2
420279, 420288, 2
420279, 420286, 2
420279, 420275, 2
420279, 420302, 2
420279, 420297, 2
420279, 420287, 2
420279, 420285, 2
420279, 420295, 2
420279, 420278, 2
420279, 420280, 2
420279, 420270, 2
420279, 420301, 2
420279, 420284, 2
420279, 420282, 2
420279, 420296, 2
420279, 420283, 2
420296, 420290, 2
420296, 420288, 2
420296, 420279, 2
420296, 420276, 2
420296, 420289, 2
420296, 420297, 2
420296, 420295, 2
420265, 420267, 1
420265, 420262, 2
420265, 420264, 2
420265, 420261, 2
420265, 420270, 2
420289, 420293, 2
420289, 420290, 0
420289, 420288, 2
420289, 420296, 2
420289, 420291, 2
420289, 420292, 2
420289, 420295, 1
420294, 420293, 2
420294, 420295, 2
420284, 420285, 1
420284, 420279, 2
420284, 420282, 2
420284, 420283, 2
420272, 420271, 2
420272, 420280, 2
420272, 420286, 2
420272, 420281, 2
420272, 420270, 2
420272, 420275, 2
420272, 420273, 1
420264, 420267, 2
420264, 420265, 0
420264, 420270, 2
420264, 420262, 2
420264, 420268, 2
420264, 420261, 2
420251, 420249, 2
420251, 420250, 2
420251, 420259, 2
420251, 420253, 2
420251, 420257, 2
420251, 420252, 1
420251, 420254, 2
420281, 420272, 2
420281, 420280, 2
420281, 420270, 2
420281, 420275, 2
420281, 420268, 2
420281, 420282, 1
420254, 420259, 2
420254, 420253, 2
420254, 420251, 2
420254, 420255, 1
420254, 420252, 2
420287, 420285, 2
420287, 420279, 2
420287, 420288, 1
420287, 420286, 2
420293, 420295, 2
420293, 420292, 2
420293, 420289, 2
420293, 420294, 1
420278, 420285, 2
420278, 420277, 2
420278, 420280, 2
420278, 420276, 2
420278, 420270, 2
420278, 420275, 2
420278, 420279, 1
420276, 420277, 1
420276, 420278, 2
420276, 420280, 2
420276, 420270, 2
420276, 420274, 2
420276, 420275, 2
420276, 420296, 2
420249, 420259, 2
420249, 420251, 1
420249, 420250, 3
420275, 420271, 4
420275, 420277, 2
420275, 420272, 2
420275, 420280, 1
420275, 420276, 2
420275, 420282, 2
420275, 420279, 2
420275, 420278, 2
420275, 420286, 2
420275, 420281, 2
420275, 420270, 2
420275, 420274, 2
420275, 420273, 2
420263, 420266, 1
420263, 420270, 2
420263, 420262, 2
420263, 420261, 2
420258, 420260, 2
420258, 420255, 2
420258, 420259, 6
420258, 420257, 4
420258, 420261, 1
420258, 420256, 2
420291, 420285, 2
420291, 420290, 2
420291, 420289, 2
420291, 420292, 1
420257, 420258, 2
420257, 420260, 0
420257, 420255, 2
420257, 420250, 2
420257, 420253, 2
420257, 420251, 2
420257, 420261, 2
420257, 420256, 2
420286, 420277, 2
420286, 420272, 2
420286, 420283, 2
420286, 420282, 2
420286, 420285, 2
420286, 420279, 2
420286, 420280, 2
420286, 420270, 2
420286, 420274, 2
420286, 420287, 1
420286, 420275, 2
420286, 420273, 2
420266, 420269, 1
420266, 420262, 2
420266, 420270, 2
420266, 420261, 2
420266, 420263, 2
420270, 420267, 2
420270, 420277, 2
420270, 420272, 2
420270, 420280, 2
420270, 420271, 2
420270, 420275, 1
420270, 420263, 2
420270, 420265, 2
420270, 420268, 2
420270, 420269, 2
420270, 420279, 2
420270, 420278, 2
420270, 420286, 2
420270, 420276, 2
420270, 420266, 2
420270, 420281, 2
420270, 420274, 2
420270, 420262, 2
420270, 420264, 2
420270, 420261, 2
420270, 420273, 2
420301, 420279, 2
420301, 420299, 2
420301, 420302, 1
420301, 420300, 2
420292, 420293, 1
420292, 420289, 2
420292, 420288, 2
420292, 420291, 2
420298, 420299, 8
420298, 420297, 2
420298, 420300, 1
420252, 420253, 8
420252, 420251, 2
420252, 420254, 1
420283, 420285, 2
420283, 420279, 2
420283, 420280, 2
420283, 420286, 2
420283, 420284, 1
420283, 420282, 2
420271, 420275, 2
420271, 420272, 1
420271, 420270, 2
420290, 420295, 2
420290, 420289, 2
420290, 420288, 2
420290, 420296, 2
420290, 420291, 1
420299, 420297, 2
420299, 420301, 2
420299, 420300, 2
420299, 420298, 2
420255, 420258, 2
420255, 420260, 2
420255, 420261, 2
420255, 420259, 2
420255, 420253, 2
420255, 420257, 2
420255, 420254, 2
420255, 420256, 1
420280, 420277, 2
420280, 420272, 2
420280, 420276, 2
420280, 420279, 2
420280, 420282, 2
420280, 420285, 2
420280, 420288, 2
420280, 420278, 2
420280, 420286, 1
420280, 420281, 0
420280, 420270, 2
420280, 420274, 2
420280, 420273, 2
420280, 420275, 2
420280, 420283, 2
420256, 420258, 1
420256, 420260, 2
420256, 420255, 2
420256, 420259, 2
420256, 420257, 2
420256, 420261, 2
420300, 420297, 2
420300, 420301, 1
420300, 420299, 2
420300, 420298, 2
420297, 420279, 2
420297, 420299, 2
420297, 420296, 2
420297, 420300, 2
420297, 420298, 1
420297, 420295, 2
420268, 420267, 2
420268, 420281, 2
420268, 420270, 2
420268, 420262, 2
420268, 420264, 2
420268, 420261, 2
420268, 420282, 2
420260, 420258, 2
420260, 420257, 2
420260, 420255, 2
420260, 420261, 2
420260, 420256, 2
420295, 420293, 2
420295, 420279, 2
420295, 420288, 2
420295, 420296, 3
420295, 420289, 2
420295, 420297, 1
420295, 420290, 2
420295, 420294, 2
420253, 420251, 2
420253, 420257, 2
420253, 420252, 2
420253, 420254, 2
420253, 420255, 2
420262, 420267, 2
420262, 420269, 2
420262, 420265, 2
420262, 420266, 2
420262, 420270, 1
420262, 420264, 6
420262, 420268, 2
420262, 420261, 2
420262, 420263, 4
420274, 420286, 2
420274, 420280, 2
420274, 420276, 2
420274, 420270, 2
420274, 420275, 2
420274, 420273, 2
420273, 420272, 2
420273, 420286, 2
420273, 420280, 2
420273, 420270, 2
420273, 420274, 4
420273, 420275, 2
420302, 420279, 2
420302, 420301, 2
420261, 420258, 2
420261, 420263, 2
420261, 420255, 2
420261, 420259, 2
420261, 420257, 2
420261, 420268, 2
420261, 420260, 2
420261, 420269, 2
420261, 420265, 2
420261, 420266, 2
420261, 420270, 2
420261, 420262, 1
420261, 420264, 2
420261, 420256, 2
