625995, 625994, 2
625992, 625991, 2
625992, 625993, 1
625990, 625991, 1
625990, 625989, 2
625990, 625988, 2
625993, 625992, 2
625993, 625994, 1
625991, 625990, 2
625991, 625992, 1
625989, 625990, 1
625989, 625988, 2
625988, 625990, 2
625988, 625989, 1
625988, 625987, 2
625987, 625988, 1
625994, 625995, 1
625994, 625993, 2
