375547, 375545, 2
375547, 375546, 2
375547, 375548, 1
375545, 375547, 2
375545, 375546, 1
375545, 375544, 2
375556, 375557, 1
375556, 375555, 2
375544, 375545, 1
375546, 375547, 1
375546, 375545, 2
375553, 375554, 0
375553, 375551, 2
375553, 375552, 2
375553, 375555, 1
375548, 375549, 1
375548, 375547, 2
375548, 375551, 2
375555, 375554, 2
375555, 375553, 2
375555, 375556, 1
375549, 375548, 2
375549, 375550, 1
375552, 375553, 1
375552, 375551, 2
375550, 375549, 2
375550, 375551, 1
375558, 375559, 2
375558, 375557, 2
375559, 375558, 2
375559, 375557, 2
375559, 375560, 0
375554, 375553, 2
375554, 375555, 2
375551, 375553, 2
375551, 375552, 1
375551, 375550, 2
375551, 375548, 2
375560, 375559, 2
375557, 375558, 0
375557, 375559, 1
375557, 375556, 2
