572777, 572778, 3
572777, 572776, 2
572777, 572775, 2
572776, 572777, 0
572776, 572778, 2
572776, 572774, 2
572776, 572780, 2
572776, 572775, 2
572776, 572779, 1
572778, 572776, 2
572778, 572775, 2
572778, 572777, 2
572778, 572779, 2
572774, 572775, 1
572774, 572776, 2
572780, 572776, 2
572780, 572779, 2
572775, 572778, 2
572775, 572774, 2
572775, 572776, 1
572775, 572777, 2
572779, 572778, 2
572779, 572776, 2
572779, 572780, 1
