374211, 374212, 2
374211, 374209, 2
374211, 374207, 2
374211, 374210, 2
374214, 374215, 4
374214, 374213, 2
374214, 374212, 2
374214, 374216, 1
374209, 374211, 2
374209, 374212, 2
374209, 374206, 2
374209, 374208, 2
374209, 374210, 1
374207, 374211, 2
374207, 374212, 2
374207, 374208, 2
374207, 374206, 2
374210, 374211, 3
374210, 374212, 1
374210, 374209, 2
374215, 374214, 2
374215, 374216, 2
374212, 374211, 2
374212, 374214, 2
374212, 374209, 2
374212, 374207, 2
374212, 374210, 2
374212, 374213, 1
374206, 374209, 2
374206, 374208, 1
374206, 374207, 3
374208, 374209, 1
374208, 374207, 2
374208, 374206, 2
374213, 374214, 1
374213, 374212, 2
374216, 374214, 2
374216, 374215, 2
