432952, 432949, 2
432952, 432951, 2
432952, 432950, 2
432949, 432952, 2
432949, 432951, 2
432949, 432950, 1
432951, 432952, 0
432951, 432949, 2
432951, 432950, 2
432950, 432952, 2
432950, 432949, 2
432950, 432951, 1
