536008, 536007, 2
536008, 536011, 2
536008, 536010, 2
536008, 536009, 1
536028, 536029, 3
536028, 536032, 1
536028, 536030, 2
536028, 536031, 2
536028, 536034, 2
536028, 536027, 2
536001, 536002, 1
536021, 536024, 2
536021, 536023, 2
536021, 536019, 2
536021, 536022, 1
536021, 536020, 2
536017, 536013, 2
536017, 536016, 2
536017, 536014, 2
536017, 536018, 2
536015, 536013, 2
536015, 536016, 1
536015, 536018, 2
536015, 536014, 2
536030, 536028, 2
536030, 536029, 2
536030, 536032, 2
536030, 536031, 1
536007, 536008, 1
536007, 536002, 2
536007, 536010, 2
536007, 536005, 2
536007, 536009, 2
536007, 536006, 2
536007, 536003, 2
536007, 536004, 2
536007, 536011, 2
536032, 536028, 2
536032, 536030, 2
536032, 536033, 3
536032, 536031, 2
536032, 536034, 1
536032, 536027, 2
536014, 536013, 2
536014, 536016, 2
536014, 536018, 1
536014, 536017, 2
536014, 536015, 3
536003, 536007, 1
536003, 536004, 3
536003, 536005, 2
536003, 536006, 2
536003, 536002, 2
536013, 536011, 2
536013, 536010, 2
536013, 536017, 2
536013, 536014, 1
536013, 536015, 2
536013, 536009, 2
536013, 536012, 2
536013, 536018, 2
536010, 536008, 2
536010, 536007, 2
536010, 536009, 2
536010, 536013, 2
536010, 536011, 2
536010, 536012, 2
536016, 536018, 2
536016, 536014, 2
536016, 536017, 1
536016, 536015, 2
536023, 536021, 2
536023, 536024, 2
536023, 536022, 2
536018, 536017, 2
536018, 536019, 1
536018, 536014, 2
536018, 536015, 2
536018, 536013, 2
536018, 536016, 2
536034, 536028, 2
536034, 536032, 2
536034, 536033, 2
536011, 536008, 2
536011, 536007, 2
536011, 536010, 2
536011, 536009, 2
536011, 536013, 2
536011, 536012, 2
536024, 536021, 2
536024, 536025, 1
536024, 536026, 2
536024, 536023, 2
536024, 536022, 2
536024, 536027, 2
536006, 536007, 2
536006, 536002, 2
536006, 536005, 2
536006, 536003, 2
536019, 536021, 2
536019, 536018, 2
536019, 536020, 1
536009, 536008, 2
536009, 536007, 2
536009, 536010, 3
536009, 536013, 2
536009, 536011, 2
536009, 536012, 1
536025, 536026, 1
536025, 536024, 2
536025, 536027, 2
536004, 536007, 2
536004, 536002, 2
536004, 536005, 1
536004, 536003, 2
536033, 536032, 2
536033, 536031, 2
536033, 536034, 2
536026, 536025, 2
536026, 536024, 2
536026, 536027, 1
536002, 536007, 2
536002, 536004, 2
536002, 536001, 2
536002, 536006, 2
536002, 536003, 1
536029, 536028, 2
536029, 536030, 1
536029, 536027, 2
536005, 536007, 2
536005, 536004, 2
536005, 536006, 1
536005, 536003, 2
536022, 536023, 3
536022, 536021, 2
536022, 536024, 1
536020, 536021, 1
536020, 536019, 2
536012, 536011, 7
536012, 536013, 1
536012, 536010, 2
536012, 536009, 2
536031, 536028, 2
536031, 536030, 2
536031, 536032, 2
536031, 536033, 2
536031, 536027, 2
536027, 536028, 1
536027, 536029, 2
536027, 536032, 2
536027, 536025, 2
536027, 536026, 2
536027, 536024, 2
536027, 536031, 2
