608113, 608115, 1
608113, 608114, 3
608113, 608116, 2
608113, 608112, 2
608116, 608113, 2
608116, 608114, 2
608116, 608115, 2
608112, 608113, 1
608112, 608111, 2
608114, 608113, 2
608114, 608116, 2
608114, 608115, 2
608111, 608112, 1
608115, 608113, 2
608115, 608114, 2
608115, 608116, 1
