431830, 431829, 2
431830, 431832, 2
431830, 431831, 2
431826, 431829, 2
431826, 431825, 2
431826, 431827, 2
431826, 431824, 2
431824, 431826, 2
431824, 431822, 2
431824, 431825, 1
431824, 431823, 2
431831, 431829, 2
431831, 431830, 2
431831, 431832, 2
431829, 431830, 2
431829, 431826, 2
431829, 431831, 2
431829, 431827, 2
431829, 431822, 2
431829, 431832, 2
431829, 431825, 2
431829, 431828, 2
431822, 431829, 2
431822, 431824, 2
431822, 431823, 2
431822, 431825, 2
431822, 431827, 2
431832, 431829, 2
431832, 431830, 2
431832, 431831, 2
431823, 431822, 6
431823, 431824, 1
431825, 431829, 2
431825, 431826, 3
431825, 431822, 2
431825, 431827, 1
431825, 431824, 2
431828, 431829, 2
431828, 431827, 2
431827, 431829, 2
431827, 431826, 2
431827, 431822, 2
431827, 431825, 2
431827, 431828, 1
