554033, 554029, 2
554033, 554031, 2
554033, 554030, 2
554033, 554032, 2
554028, 554029, 1
554028, 554030, 2
554028, 554027, 2
554031, 554033, 2
554031, 554029, 2
554031, 554030, 2
554031, 554032, 2
554027, 554028, 1
554027, 554030, 2
554032, 554033, 1
554032, 554029, 2
554032, 554031, 2
554032, 554030, 2
554029, 554033, 2
554029, 554028, 2
554029, 554031, 0
554029, 554030, 3
554029, 554032, 2
554030, 554033, 2
554030, 554028, 2
554030, 554031, 2
554030, 554027, 2
554030, 554032, 1
554030, 554029, 2
