490097, 490098, 2
490097, 490096, 2
490097, 490099, 2
490105, 490104, 2
490105, 490102, 2
490105, 490100, 2
490105, 490101, 2
490105, 490103, 2
490096, 490095, 2
490096, 490097, 3
490096, 490098, 1
490096, 490099, 2
490101, 490102, 2
490101, 490104, 2
490101, 490100, 2
490101, 490103, 2
490101, 490105, 2
490101, 490099, 2
490098, 490097, 2
490098, 490099, 1
490098, 490096, 2
490102, 490104, 2
490102, 490100, 2
490102, 490103, 2
490102, 490105, 2
490102, 490101, 2
490102, 490099, 2
490100, 490102, 0
490100, 490104, 2
490100, 490099, 2
490100, 490103, 1
490100, 490105, 2
490100, 490101, 3
490094, 490095, 2
490094, 490093, 2
490103, 490102, 2
490103, 490100, 2
490103, 490101, 2
490103, 490105, 2
490103, 490104, 1
490095, 490093, 2
490095, 490094, 2
490095, 490096, 1
490093, 490095, 1
490093, 490094, 3
490104, 490102, 2
490104, 490101, 2
490104, 490100, 2
490104, 490105, 1
490104, 490103, 2
490099, 490102, 2
490099, 490097, 2
490099, 490100, 1
490099, 490096, 2
490099, 490101, 2
490099, 490098, 2
