375245, 375246, 2
375245, 375244, 2
375238, 375237, 2
375238, 375236, 2
375238, 375239, 1
375236, 375237, 1
375236, 375238, 2
375236, 375235, 2
375246, 375245, 2
375246, 375244, 2
375246, 375247, 1
375244, 375245, 0
375244, 375246, 1
375244, 375242, 2
375244, 375243, 2
375248, 375249, 0
375248, 375247, 2
375241, 375242, 1
375241, 375240, 2
375249, 375248, 2
375235, 375236, 1
375243, 375242, 2
375243, 375244, 1
375237, 375238, 1
375237, 375236, 2
375242, 375241, 2
375242, 375239, 2
375242, 375244, 2
375242, 375243, 1
375240, 375241, 1
375240, 375239, 2
375247, 375246, 2
375247, 375248, 1
375239, 375240, 1
375239, 375242, 2
375239, 375238, 2
