377815, 377816, 3
377815, 377814, 2
377816, 377815, 2
377816, 377814, 2
377812, 377813, 3
377812, 377814, 1
377813, 377812, 2
377813, 377814, 2
377814, 377815, 1
377814, 377816, 2
377814, 377812, 2
377814, 377813, 2
