554133, 554134, 1
554133, 554132, 2
554133, 554136, 2
554133, 554135, 2
554132, 554133, 1
554138, 554137, 2
554138, 554136, 2
554134, 554133, 2
554134, 554135, 3
554134, 554136, 1
554135, 554134, 2
554135, 554133, 2
554135, 554136, 2
554137, 554138, 1
554137, 554136, 2
554136, 554134, 2
554136, 554135, 2
554136, 554138, 2
554136, 554133, 2
554136, 554137, 1
