607958, 607957, 2
607958, 607956, 2
607958, 607955, 2
607957, 607958, 2
607957, 607956, 2
607954, 607955, 1
607956, 607958, 1
607956, 607957, 0
607956, 607955, 2
607955, 607958, 2
607955, 607954, 2
607955, 607956, 1
