607992, 607991, 2
607992, 607993, 1
607992, 607994, 2
607993, 607995, 1
607993, 607992, 2
607993, 607994, 8
607994, 607995, 2
607994, 607992, 2
607994, 607993, 2
607994, 607996, 2
607995, 607993, 2
607995, 607994, 2
607995, 607996, 1
607991, 607992, 1
607996, 607995, 2
607996, 607994, 2
