554048, 554052, 2
554048, 554051, 2
554048, 554053, 2
554048, 554050, 1
554048, 554049, 3
554049, 554052, 2
554049, 554051, 2
554049, 554048, 2
554049, 554050, 2
554052, 554053, 2
554052, 554051, 2
554052, 554048, 2
554052, 554049, 2
554051, 554050, 2
554051, 554052, 3
554051, 554048, 2
554051, 554049, 2
554051, 554053, 0
554053, 554052, 2
554053, 554051, 2
554053, 554048, 2
554050, 554051, 1
554050, 554048, 2
554050, 554049, 2
