658076, 658077, 3
658076, 658079, 2
658076, 658075, 6
658077, 658076, 2
658077, 658079, 1
658077, 658078, 8
658079, 658076, 2
658079, 658077, 2
658079, 658075, 2
658079, 658078, 2
658075, 658076, 2
658075, 658079, 2
658075, 658078, 2
658078, 658077, 2
658078, 658079, 2
658078, 658075, 2
