553835, 553837, 3
553835, 553838, 1
553835, 553836, 6
553837, 553835, 2
553837, 553838, 2
553838, 553835, 2
553838, 553837, 2
553838, 553839, 3
553838, 553836, 2
553839, 553838, 2
553836, 553835, 2
553836, 553838, 2
