554455, 554454, 2
554455, 554453, 2
554455, 554452, 2
554451, 554452, 3
554451, 554449, 2
554451, 554450, 2
554451, 554454, 1
554451, 554448, 2
554448, 554449, 3
554448, 554451, 1
554454, 554455, 3
554454, 554453, 2
554454, 554451, 2
554454, 554452, 2
554449, 554451, 2
554449, 554450, 2
554449, 554452, 2
554449, 554448, 2
554453, 554455, 2
554453, 554454, 2
554453, 554452, 2
554450, 554449, 2
554450, 554451, 2
554450, 554452, 2
554452, 554455, 2
554452, 554451, 2
554452, 554449, 2
554452, 554453, 2
554452, 554454, 2
554452, 554450, 2
