455476, 455478, 2
455476, 455477, 1
455476, 455475, 2
455476, 455474, 2
455478, 455476, 2
455478, 455477, 2
455477, 455476, 2
455477, 455478, 1
455475, 455476, 2
455475, 455474, 2
455474, 455476, 1
455474, 455475, 3
