417663, 417664, 1
417663, 417665, 2
417663, 417662, 2
417665, 417666, 2
417665, 417663, 2
417665, 417664, 2
417665, 417667, 2
417665, 417662, 2
417662, 417663, 1
417662, 417664, 2
417662, 417665, 2
417669, 417667, 2
417669, 417668, 2
417669, 417670, 1
417669, 417672, 2
417669, 417666, 2
417669, 417671, 2
417667, 417666, 2
417667, 417665, 2
417667, 417668, 2
417667, 417669, 2
417664, 417666, 1
417664, 417663, 2
417664, 417665, 8
417664, 417662, 2
417668, 417666, 2
417668, 417667, 2
417668, 417669, 2
417670, 417672, 1
417670, 417671, 8
417670, 417669, 2
417666, 417668, 0
417666, 417667, 3
417666, 417664, 2
417666, 417665, 2
417666, 417669, 1
417672, 417669, 2
417672, 417671, 2
417672, 417670, 2
417672, 417673, 1
417671, 417672, 2
417671, 417673, 2
417671, 417670, 2
417671, 417669, 2
417673, 417672, 2
417673, 417671, 2
