433425, 433424, 2
433425, 433426, 1
433422, 433423, 1
433422, 433421, 2
433423, 433422, 2
433423, 433424, 1
433421, 433422, 1
433421, 433424, 2
433427, 433426, 2
433424, 433425, 1
433424, 433423, 2
433424, 433421, 2
433426, 433425, 2
433426, 433427, 1
