643799, 643801, 2
643799, 643802, 2
643799, 643800, 2
643799, 643798, 2
643802, 643799, 2
643802, 643801, 2
643800, 643799, 2
643800, 643801, 1
643800, 643798, 2
643801, 643799, 2
643801, 643802, 0
643801, 643800, 2
643801, 643798, 2
643798, 643799, 0
643798, 643800, 1
643798, 643801, 2
