551198, 551199, 3
551198, 551200, 1
551198, 551197, 2
551198, 551196, 2
551199, 551198, 2
551199, 551200, 2
551207, 551208, 3
551207, 551206, 2
551207, 551210, 2
551207, 551209, 1
551207, 551205, 2
551201, 551200, 2
551201, 551202, 1
551197, 551198, 1
551197, 551200, 2
551197, 551196, 2
551205, 551204, 2
551205, 551207, 2
551205, 551203, 2
551205, 551202, 2
551205, 551206, 1
551208, 551210, 2
551208, 551207, 2
551208, 551209, 2
551208, 551211, 2
551210, 551206, 2
551210, 551207, 2
551210, 551209, 2
551210, 551208, 2
551210, 551213, 2
551210, 551211, 1
551211, 551208, 2
551211, 551210, 2
551211, 551212, 3
551211, 551213, 1
551196, 551198, 2
551196, 551197, 1
551196, 551195, 2
551212, 551213, 2
551212, 551211, 2
551213, 551210, 2
551213, 551215, 2
551213, 551212, 2
551213, 551211, 2
551213, 551214, 1
551204, 551203, 2
551204, 551205, 1
551200, 551198, 2
551200, 551199, 2
551200, 551201, 1
551200, 551202, 2
551200, 551197, 2
551209, 551208, 2
551209, 551210, 1
551209, 551207, 2
551209, 551206, 2
551206, 551210, 2
551206, 551207, 1
551206, 551209, 2
551206, 551205, 2
551214, 551215, 1
551214, 551213, 2
551215, 551214, 2
551215, 551213, 2
551202, 551200, 2
551202, 551201, 2
551202, 551203, 1
551202, 551205, 2
551195, 551196, 1
551203, 551204, 1
551203, 551202, 2
551203, 551205, 2
