380261, 380260, 2
380255, 380254, 2
380255, 380256, 1
380257, 380258, 1
380257, 380256, 2
380259, 380260, 1
380259, 380258, 2
380258, 380257, 2
380258, 380259, 1
380258, 380256, 2
380254, 380255, 1
380254, 380256, 2
380260, 380261, 1
380260, 380259, 2
380256, 380255, 2
380256, 380254, 2
380256, 380257, 1
380256, 380258, 2
