625971, 625972, 0
625971, 625974, 1
625971, 625973, 2
625975, 625974, 2
625975, 625977, 0
625975, 625973, 2
625975, 625976, 3
625973, 625972, 2
625973, 625974, 2
625973, 625971, 2
625973, 625975, 2
625972, 625971, 2
625972, 625973, 1
625974, 625971, 2
625974, 625975, 1
625974, 625973, 2
625974, 625976, 2
625977, 625975, 2
625977, 625976, 2
625976, 625974, 2
625976, 625975, 2
625976, 625977, 2
