535434, 535432, 2
535434, 535433, 2
535434, 535430, 2
535434, 535436, 2
535434, 535435, 1
535434, 535429, 2
535442, 535438, 2
535442, 535444, 2
535442, 535436, 2
535442, 535443, 1
535442, 535440, 2
535442, 535441, 2
535444, 535443, 2
535444, 535442, 2
535444, 535445, 1
535430, 535434, 1
535430, 535429, 2
535430, 535432, 2
535430, 535431, 3
535433, 535434, 2
535433, 535429, 2
535433, 535432, 2
535435, 535434, 2
535435, 535436, 1
535436, 535435, 2
535436, 535437, 8
535436, 535442, 2
535436, 535438, 1
535436, 535434, 2
535441, 535440, 2
535441, 535442, 2
535445, 535444, 2
535437, 535436, 2
535437, 535438, 2
535432, 535434, 2
535432, 535429, 2
535432, 535431, 2
535432, 535430, 2
535432, 535433, 1
535438, 535437, 2
535438, 535442, 1
535438, 535436, 2
535438, 535439, 3
535438, 535440, 2
535431, 535432, 1
535431, 535430, 2
535440, 535439, 2
535440, 535442, 2
535440, 535441, 1
535440, 535438, 2
535439, 535440, 1
535439, 535438, 2
535427, 535429, 2
535427, 535428, 1
535429, 535427, 2
535429, 535432, 2
535429, 535433, 2
535429, 535430, 1
535429, 535434, 2
535429, 535428, 2
535428, 535427, 2
535428, 535429, 1
535443, 535442, 2
535443, 535444, 1
