405638, 405639, 1
405638, 405640, 2
405638, 405637, 2
405639, 405638, 2
405639, 405640, 1
405635, 405636, 1
405636, 405635, 2
405636, 405637, 1
405640, 405638, 2
405640, 405639, 2
405637, 405638, 1
405637, 405636, 2
