378689, 378688, 2
378688, 378689, 1
378688, 378687, 2
378685, 378686, 2
378685, 378684, 2
378686, 378684, 2
378686, 378687, 1
378686, 378685, 2
378684, 378686, 1
378684, 378685, 0
378687, 378686, 2
378687, 378688, 1
