607900, 607901, 2
607900, 607899, 2
607902, 607903, 2
607902, 607901, 2
607902, 607899, 2
607901, 607900, 2
607901, 607902, 0
607901, 607903, 1
607901, 607899, 2
607903, 607902, 2
607903, 607901, 2
607899, 607900, 3
607899, 607902, 2
607899, 607901, 1
