455814, 455815, 1
455814, 455816, 2
455818, 455816, 2
455818, 455817, 2
455816, 455815, 2
455816, 455818, 2
455816, 455817, 1
455816, 455814, 2
455817, 455816, 2
455817, 455818, 1
455815, 455814, 2
455815, 455816, 1
