378959, 378961, 2
378959, 378958, 2
378959, 378960, 1
378958, 378959, 1
378963, 378962, 2
378961, 378959, 2
378961, 378962, 2
378961, 378960, 2
378962, 378961, 2
378962, 378963, 1
378962, 378960, 2
378960, 378959, 2
378960, 378961, 8
378960, 378962, 1
