535593, 535591, 2
535593, 535592, 2
535593, 535594, 1
535609, 535608, 2
535609, 535610, 1
535598, 535597, 2
535598, 535592, 2
535598, 535596, 2
535598, 535599, 1
535598, 535601, 2
535604, 535602, 2
535604, 535605, 1
535604, 535603, 2
535604, 535607, 2
535596, 535591, 2
535596, 535598, 1
535596, 535592, 2
535596, 535594, 2
535596, 535597, 3
535596, 535595, 2
535600, 535599, 2
535600, 535602, 1
535600, 535601, 3
535603, 535605, 2
535603, 535606, 2
535603, 535604, 3
535603, 535602, 2
535603, 535607, 1
535607, 535608, 1
535607, 535605, 2
535607, 535603, 2
535607, 535606, 2
535607, 535604, 2
535607, 535602, 2
535599, 535600, 1
535599, 535598, 2
535599, 535601, 2
535589, 535591, 1
535589, 535590, 3
535594, 535593, 2
535594, 535592, 2
535594, 535596, 2
535594, 535595, 1
535608, 535609, 1
535608, 535607, 2
535605, 535606, 1
535605, 535604, 2
535605, 535603, 2
535605, 535607, 2
535606, 535602, 2
535606, 535605, 2
535606, 535603, 2
535606, 535607, 2
535592, 535593, 3
535592, 535591, 2
535592, 535598, 2
535592, 535596, 1
535592, 535594, 2
535592, 535595, 2
535591, 535593, 2
535591, 535592, 1
535591, 535595, 2
535591, 535589, 2
535591, 535596, 2
535591, 535590, 2
535595, 535594, 2
535595, 535597, 2
535595, 535592, 2
535595, 535596, 2
535595, 535591, 2
535597, 535596, 2
535597, 535598, 2
535597, 535595, 2
535610, 535609, 2
535601, 535602, 2
535601, 535599, 2
535601, 535600, 2
535601, 535598, 2
535590, 535591, 2
535590, 535589, 2
535602, 535600, 2
535602, 535601, 2
535602, 535603, 1
535602, 535607, 2
535602, 535606, 2
535602, 535604, 2
