449766, 449765, 2
449766, 449767, 1
449772, 449769, 2
449772, 449771, 2
449772, 449774, 1
449772, 449773, 8
449772, 449775, 2
449773, 449774, 2
449773, 449771, 2
449773, 449772, 2
449773, 449775, 2
449773, 449769, 2
449775, 449774, 2
449775, 449769, 2
449775, 449772, 2
449775, 449773, 2
449767, 449766, 2
449767, 449769, 2
449767, 449770, 2
449767, 449765, 2
449767, 449768, 1
449764, 449763, 2
449764, 449765, 2
449769, 449771, 2
449769, 449770, 2
449769, 449773, 2
449769, 449775, 2
449769, 449768, 2
449769, 449774, 2
449769, 449767, 2
449769, 449765, 2
449769, 449772, 2
449771, 449769, 2
449771, 449770, 2
449771, 449773, 2
449771, 449768, 2
449771, 449774, 2
449771, 449772, 1
449770, 449769, 6
449770, 449771, 1
449770, 449768, 2
449770, 449767, 2
449768, 449769, 2
449768, 449771, 2
449768, 449770, 1
449768, 449767, 2
449774, 449769, 2
449774, 449771, 2
449774, 449772, 2
449774, 449773, 2
449774, 449775, 1
449765, 449766, 1
449765, 449769, 2
449765, 449763, 2
449765, 449764, 2
449765, 449767, 2
449763, 449764, 3
449763, 449765, 1
