337032, 337030, 2
337032, 337031, 2
337032, 337033, 1
337030, 337031, 1
337030, 337029, 2
337030, 337032, 2
337045, 337044, 2
337045, 337042, 2
337045, 337041, 2
337045, 337046, 2
337045, 337043, 2
337022, 337020, 2
337022, 337023, 1
337022, 337021, 2
337025, 337026, 1
337025, 337024, 2
337037, 337041, 1
337037, 337040, 2
337037, 337039, 2
337037, 337038, 0
337037, 337036, 2
337026, 337024, 2
337026, 337027, 1
337026, 337025, 2
337026, 337039, 2
337024, 337026, 2
337024, 337025, 1
337024, 337023, 2
337029, 337030, 1
337029, 337028, 2
337029, 337031, 2
337035, 337034, 2
337035, 337036, 1
337035, 337033, 2
337035, 337039, 2
337042, 337041, 2
337042, 337045, 2
337042, 337043, 0
337042, 337046, 2
337028, 337027, 2
337028, 337029, 1
337031, 337030, 2
337031, 337029, 2
337031, 337032, 1
337041, 337040, 2
337041, 337039, 2
337041, 337038, 2
337041, 337042, 0
337041, 337045, 2
337041, 337037, 2
337041, 337046, 1
337044, 337045, 1
337044, 337043, 2
337044, 337046, 2
337033, 337034, 1
337033, 337035, 2
337033, 337032, 2
337023, 337024, 1
337023, 337022, 2
337039, 337026, 2
337039, 337040, 1
337039, 337035, 2
337039, 337038, 2
337039, 337036, 2
337039, 337041, 2
337039, 337037, 2
337034, 337033, 2
337034, 337035, 1
337027, 337026, 2
337027, 337028, 1
337021, 337020, 2
337021, 337022, 2
337020, 337022, 1
337020, 337021, 0
337040, 337039, 2
337040, 337041, 2
337040, 337043, 2
337040, 337038, 2
337040, 337037, 2
337038, 337041, 2
337038, 337037, 2
337038, 337039, 0
337038, 337040, 2
337036, 337039, 2
337036, 337037, 1
337036, 337035, 2
337046, 337042, 2
337046, 337044, 2
337046, 337041, 2
337046, 337045, 2
337046, 337043, 2
337043, 337042, 2
337043, 337044, 1
337043, 337040, 2
337043, 337045, 2
337043, 337046, 2
