572063, 572062, 2
572063, 572064, 1
572063, 572065, 2
572063, 572066, 2
572062, 572063, 1
572062, 572064, 2
572064, 572063, 2
572064, 572062, 2
572064, 572065, 3
572064, 572066, 1
572065, 572063, 2
572065, 572064, 2
572065, 572066, 2
572066, 572063, 2
572066, 572064, 2
572066, 572065, 2
