554164, 554165, 2
554164, 554160, 2
554164, 554161, 2
554164, 554163, 2
554160, 554165, 2
554160, 554164, 2
554160, 554163, 2
554160, 554161, 3
554160, 554162, 1
554163, 554164, 3
554163, 554165, 0
554163, 554160, 2
554163, 554161, 2
554163, 554162, 2
554165, 554164, 2
554165, 554160, 2
554165, 554163, 2
554162, 554160, 2
554162, 554161, 2
554162, 554163, 1
554161, 554164, 2
554161, 554160, 2
554161, 554162, 2
554161, 554163, 2
