489282, 489283, 3
489282, 489284, 1
489283, 489282, 2
489283, 489284, 2
489283, 489285, 2
489284, 489282, 2
489284, 489283, 2
489284, 489285, 1
489286, 489287, 2
489286, 489285, 2
489287, 489286, 2
489287, 489288, 1
489287, 489285, 2
489285, 489283, 2
489285, 489284, 2
489285, 489286, 3
489285, 489287, 1
489292, 489291, 2
489290, 489291, 1
489290, 489289, 2
489290, 489288, 2
489291, 489292, 3
489291, 489290, 2
489291, 489288, 2
489288, 489291, 2
489288, 489289, 3
489288, 489287, 2
489288, 489290, 1
489289, 489290, 2
489289, 489288, 2
