449251, 449249, 2
449251, 449250, 2
449251, 449252, 1
449249, 449247, 2
449249, 449251, 2
449249, 449248, 2
449249, 449250, 1
449249, 449246, 2
449248, 449247, 2
449248, 449249, 1
449248, 449246, 2
449246, 449247, 1
449246, 449245, 2
449246, 449249, 2
449246, 449248, 2
449245, 449244, 2
449245, 449246, 1
449247, 449249, 2
449247, 449248, 1
449247, 449246, 2
449244, 449245, 1
449244, 449243, 2
449252, 449251, 2
449243, 449244, 1
449250, 449251, 1
449250, 449249, 2
