454721, 454722, 1
454721, 454720, 2
454729, 454728, 2
454729, 454724, 2
454729, 454730, 8
454729, 454723, 2
454729, 454731, 1
454729, 454727, 2
454736, 454738, 2
454736, 454735, 2
454736, 454737, 2
454736, 454740, 2
454728, 454729, 2
454728, 454726, 2
454728, 454727, 2
454728, 454723, 2
454741, 454739, 2
454741, 454742, 1
454741, 454740, 2
454722, 454721, 2
454722, 454725, 1
454722, 454726, 2
454722, 454748, 2
454722, 454724, 0
454722, 454718, 2
454722, 454723, 3
454722, 454720, 2
454720, 454721, 1
454720, 454722, 2
454720, 454718, 2
454720, 454719, 2
454731, 454729, 2
454731, 454726, 2
454731, 454732, 1
454731, 454730, 2
454731, 454724, 2
454731, 454727, 2
454747, 454746, 2
454747, 454749, 2
454747, 454750, 2
454747, 454748, 2
454727, 454729, 1
454727, 454731, 2
454727, 454726, 2
454727, 454728, 8
454756, 454748, 2
454756, 454755, 2
454756, 454723, 2
454740, 454741, 1
454740, 454723, 2
454740, 454742, 2
454740, 454736, 2
454740, 454739, 2
454725, 454722, 2
454725, 454724, 2
454725, 454726, 1
454725, 454723, 2
454725, 454748, 2
454743, 454744, 1
454743, 454742, 2
454754, 454752, 2
454754, 454748, 2
454754, 454755, 1
454754, 454751, 2
454754, 454753, 2
454754, 454724, 2
454754, 454750, 2
454719, 454720, 1
454719, 454716, 2
454719, 454717, 2
454719, 454718, 2
454715, 454716, 1
454732, 454748, 2
454732, 454724, 2
454732, 454733, 1
454732, 454731, 2
454732, 454723, 2
454732, 454730, 2
454735, 454737, 1
454735, 454736, 8
454735, 454734, 2
454735, 454723, 2
454716, 454719, 2
454716, 454718, 2
454716, 454717, 1
454716, 454715, 2
454734, 454748, 2
454734, 454737, 2
454734, 454724, 2
454734, 454733, 2
454734, 454735, 1
454734, 454723, 2
454744, 454748, 2
454744, 454723, 2
454744, 454743, 2
454744, 454745, 1
454744, 454724, 2
454744, 454742, 2
454755, 454748, 2
454755, 454754, 2
454755, 454753, 2
454755, 454724, 2
454755, 454723, 2
454755, 454756, 1
454737, 454738, 1
454737, 454735, 2
454737, 454736, 2
454737, 454734, 2
454717, 454718, 8
454717, 454716, 2
454717, 454719, 1
454749, 454724, 2
454749, 454748, 6
454749, 454746, 2
454749, 454747, 2
454749, 454750, 1
454746, 454749, 1
454746, 454748, 2
454746, 454724, 2
454746, 454745, 2
454746, 454723, 2
454746, 454747, 8
454746, 454750, 2
454739, 454724, 2
454739, 454741, 2
454739, 454748, 2
454739, 454738, 2
454739, 454740, 1
454730, 454732, 2
454730, 454729, 2
454730, 454731, 2
454730, 454723, 2
454753, 454752, 2
454753, 454748, 2
454753, 454755, 2
454753, 454754, 2
454753, 454751, 2
454750, 454752, 2
454750, 454749, 2
454750, 454754, 2
454750, 454751, 1
454750, 454748, 2
454750, 454746, 2
454750, 454723, 2
454750, 454724, 2
454750, 454747, 2
454752, 454751, 2
454752, 454748, 2
454752, 454754, 2
454752, 454750, 2
454752, 454753, 1
454724, 454729, 2
454724, 454755, 2
454724, 454726, 2
454724, 454746, 2
454724, 454744, 2
454724, 454722, 2
454724, 454739, 2
454724, 454731, 2
454724, 454748, 2
454724, 454750, 2
454724, 454725, 2
454724, 454749, 2
454724, 454754, 2
454724, 454732, 2
454724, 454723, 2
454724, 454742, 2
454724, 454734, 2
454724, 454738, 2
454751, 454752, 8
454751, 454748, 2
454751, 454754, 1
454751, 454750, 2
454751, 454753, 2
454718, 454722, 2
454718, 454719, 2
454718, 454716, 2
454718, 454717, 2
454718, 454720, 2
454748, 454744, 2
454748, 454755, 2
454748, 454726, 2
454748, 454753, 2
454748, 454746, 2
454748, 454739, 2
454748, 454747, 2
454748, 454749, 2
454748, 454756, 2
454748, 454734, 2
454748, 454725, 2
454748, 454722, 2
454748, 454754, 2
454748, 454751, 2
454748, 454752, 2
454748, 454732, 2
454748, 454724, 2
454748, 454742, 2
454748, 454750, 2
454748, 454738, 2
454733, 454732, 2
454733, 454734, 1
454723, 454729, 2
454723, 454755, 2
454723, 454726, 2
454723, 454746, 2
454723, 454728, 2
454723, 454744, 2
454723, 454724, 2
454723, 454730, 2
454723, 454750, 2
454723, 454756, 2
454723, 454740, 2
454723, 454725, 2
454723, 454722, 2
454723, 454732, 2
454723, 454735, 2
454723, 454742, 2
454723, 454734, 2
454723, 454738, 2
454742, 454741, 2
454742, 454743, 1
454742, 454748, 2
454742, 454724, 2
454742, 454723, 2
454742, 454744, 2
454742, 454740, 2
454745, 454746, 1
454745, 454744, 2
454738, 454748, 2
454738, 454737, 2
454738, 454736, 2
454738, 454724, 2
454738, 454739, 1
454738, 454723, 2
454726, 454725, 2
454726, 454724, 2
454726, 454728, 2
454726, 454748, 2
454726, 454722, 2
454726, 454731, 2
454726, 454723, 2
454726, 454727, 1
