378919, 378921, 1
378919, 378922, 2
378919, 378920, 8
378919, 378918, 2
378921, 378919, 2
378921, 378922, 1
378921, 378920, 2
378920, 378919, 2
378920, 378921, 2
378920, 378918, 2
378920, 378922, 2
378917, 378916, 2
378917, 378918, 1
378916, 378917, 1
378916, 378918, 2
378922, 378919, 2
378922, 378921, 2
378922, 378920, 2
378918, 378919, 1
378918, 378916, 2
378918, 378920, 2
378918, 378917, 2
