553006, 553005, 2
553006, 553007, 1
553003, 553005, 2
553003, 553004, 1
553005, 553006, 1
553005, 553003, 2
553005, 553007, 2
553005, 553004, 2
553004, 553003, 2
553004, 553005, 1
553007, 553006, 2
553007, 553005, 2
