406145, 406147, 1
406145, 406146, 3
406150, 406149, 2
406150, 406151, 1
406146, 406147, 2
406146, 406145, 2
406148, 406147, 2
406148, 406149, 1
406147, 406148, 1
406147, 406145, 2
406147, 406146, 2
406149, 406148, 2
406149, 406150, 1
406149, 406151, 2
406151, 406149, 2
406151, 406150, 2
406151, 406152, 1
406152, 406151, 2
