418909, 418910, 2
418909, 418902, 2
418909, 418901, 2
418909, 418906, 2
418900, 418898, 2
418900, 418896, 2
418900, 418897, 2
418900, 418901, 2
418900, 418895, 2
418893, 418892, 2
418893, 418897, 2
418893, 418895, 2
418893, 418894, 2
418893, 418891, 2
418898, 418900, 2
418898, 418896, 2
418898, 418901, 1
418898, 418897, 4
418898, 418899, 6
418898, 418895, 2
418920, 418910, 2
418920, 418911, 2
418920, 418913, 2
418920, 418918, 2
418920, 418917, 2
418920, 418919, 2
418920, 418915, 2
418899, 418896, 2
418899, 418895, 2
418899, 418898, 2
418899, 418901, 2
418899, 418889, 2
418899, 418894, 2
418899, 418891, 2
418891, 418893, 2
418891, 418889, 2
418891, 418892, 1
418891, 418890, 2
418891, 418897, 2
418891, 418894, 2
418891, 418899, 2
418910, 418909, 2
418910, 418913, 2
418910, 418903, 2
418910, 418917, 2
418910, 418920, 2
418910, 418905, 2
418910, 418914, 2
418910, 418902, 2
418910, 418908, 2
418910, 418901, 2
418910, 418911, 1
418910, 418912, 2
418910, 418907, 2
418910, 418906, 2
418910, 418904, 2
418896, 418900, 2
418896, 418898, 1
418896, 418901, 2
418896, 418897, 2
418896, 418899, 2
418896, 418895, 2
418913, 418914, 4
418913, 418910, 2
418913, 418920, 1
418913, 418911, 2
418913, 418916, 2
418913, 418918, 2
418913, 418917, 6
418913, 418919, 2
418913, 418912, 2
418913, 418915, 2
418918, 418916, 2
418918, 418914, 2
418918, 418919, 1
418918, 418920, 2
418918, 418913, 2
418892, 418893, 8
418892, 418894, 1
418892, 418891, 2
418890, 418889, 2
418890, 418897, 2
418890, 418891, 2
418906, 418910, 2
418906, 418902, 2
418906, 418909, 1
418906, 418901, 2
418906, 418903, 2
418912, 418910, 2
418912, 418914, 2
418912, 418911, 2
418912, 418913, 2
418894, 418892, 2
418894, 418891, 2
418894, 418899, 2
418894, 418895, 1
418894, 418893, 2
418903, 418910, 2
418903, 418902, 2
418903, 418901, 2
418903, 418906, 1
418916, 418918, 1
418916, 418915, 2
418916, 418913, 2
418916, 418911, 2
418889, 418890, 3
418889, 418899, 2
418889, 418891, 1
418919, 418914, 2
418919, 418918, 2
418919, 418920, 2
418919, 418913, 2
418905, 418910, 2
418905, 418902, 2
418905, 418907, 1
418905, 418901, 2
418905, 418904, 2
418895, 418900, 2
418895, 418901, 2
418895, 418893, 2
418895, 418898, 2
418895, 418896, 1
418895, 418897, 2
418895, 418899, 2
418895, 418894, 2
418914, 418910, 2
418914, 418913, 2
418914, 418911, 2
418914, 418918, 2
418914, 418912, 2
418914, 418919, 2
418914, 418915, 0
418902, 418910, 1
418902, 418908, 2
418902, 418901, 2
418902, 418903, 4
418902, 418909, 2
418902, 418907, 2
418902, 418906, 2
418902, 418905, 2
418902, 418904, 6
418908, 418910, 2
418908, 418902, 2
418908, 418901, 2
418908, 418917, 2
418908, 418907, 2
418908, 418904, 2
418901, 418909, 2
418901, 418900, 2
418901, 418903, 2
418901, 418898, 2
418901, 418899, 2
418901, 418895, 2
418901, 418905, 2
418901, 418910, 2
418901, 418902, 1
418901, 418908, 2
418901, 418896, 2
418901, 418897, 2
418901, 418906, 2
418901, 418904, 2
418915, 418916, 1
418915, 418914, 2
418915, 418920, 2
418915, 418911, 2
418915, 418913, 2
418911, 418910, 2
418911, 418914, 2
418911, 418913, 1
418911, 418916, 2
418911, 418912, 4
418911, 418920, 2
418911, 418917, 2
418911, 418915, 2
418897, 418901, 2
418897, 418893, 2
418897, 418898, 2
418897, 418896, 2
418897, 418890, 2
418897, 418895, 2
418897, 418900, 0
418897, 418891, 2
418904, 418910, 2
418904, 418902, 2
418904, 418908, 2
418904, 418901, 2
418904, 418905, 0
418904, 418907, 2
418917, 418910, 2
418917, 418908, 2
418917, 418920, 2
418917, 418911, 2
418917, 418913, 2
418907, 418910, 2
418907, 418902, 2
418907, 418908, 1
418907, 418905, 2
418907, 418904, 2
