419084, 419073, 2
419084, 419081, 2
419084, 419083, 2
419084, 419082, 2
419084, 419085, 2
419065, 419059, 2
419065, 419060, 2
419065, 419062, 2
419065, 419067, 0
419065, 419061, 2
419065, 419068, 2
419065, 419070, 2
419065, 419057, 2
419065, 419069, 2
419065, 419063, 2
419065, 419064, 2
419077, 419073, 2
419077, 419076, 2
419077, 419078, 1
419077, 419072, 2
419055, 419060, 2
419055, 419062, 2
419055, 419054, 2
419055, 419066, 2
419055, 419057, 2
419055, 419058, 2
419055, 419068, 2
419085, 419071, 2
419085, 419084, 2
419085, 419070, 2
419085, 419082, 2
419085, 419081, 2
419085, 419072, 2
419085, 419073, 2
419085, 419080, 2
419085, 419079, 2
419073, 419085, 1
419073, 419070, 2
419073, 419079, 6
419073, 419080, 2
419073, 419075, 2
419073, 419071, 2
419073, 419076, 2
419073, 419078, 2
419073, 419081, 2
419073, 419083, 2
419073, 419084, 2
419073, 419082, 2
419073, 419077, 2
419073, 419072, 2
419073, 419074, 4
419053, 419059, 2
419053, 419054, 2
419053, 419061, 2
419053, 419056, 1
419053, 419057, 2
419053, 419058, 2
419053, 419068, 2
419057, 419060, 2
419057, 419065, 2
419057, 419067, 2
419057, 419053, 2
419057, 419055, 2
419057, 419058, 2
419057, 419059, 2
419057, 419063, 2
419057, 419066, 2
419057, 419056, 2
419057, 419064, 2
419057, 419069, 2
419057, 419054, 2
419057, 419068, 2
419078, 419073, 2
419078, 419076, 2
419078, 419080, 1
419078, 419077, 2
419058, 419059, 3
419058, 419060, 0
419058, 419062, 2
419058, 419061, 1
419058, 419056, 2
419058, 419053, 2
419058, 419057, 2
419058, 419055, 2
419058, 419054, 2
419074, 419070, 2
419074, 419071, 2
419074, 419073, 2
419074, 419076, 2
419074, 419072, 2
419074, 419075, 1
419059, 419060, 2
419059, 419057, 2
419059, 419067, 2
419059, 419061, 2
419059, 419053, 2
419059, 419065, 2
419059, 419058, 2
419059, 419063, 2
419059, 419066, 2
419059, 419056, 2
419059, 419068, 2
419059, 419054, 2
419059, 419064, 2
419079, 419073, 2
419079, 419071, 2
419079, 419072, 2
419079, 419070, 2
419079, 419085, 2
419062, 419060, 2
419062, 419063, 2
419062, 419066, 2
419062, 419061, 2
419062, 419055, 2
419062, 419065, 2
419062, 419068, 2
419062, 419058, 2
419062, 419064, 2
419081, 419085, 2
419081, 419084, 2
419081, 419082, 1
419081, 419073, 2
419081, 419080, 2
419081, 419083, 2
419056, 419059, 2
419056, 419058, 2
419056, 419061, 2
419056, 419053, 2
419056, 419057, 1
419056, 419054, 2
419054, 419059, 2
419054, 419060, 2
419054, 419056, 2
419054, 419066, 2
419054, 419055, 6
419054, 419053, 4
419054, 419057, 2
419054, 419058, 1
419069, 419064, 2
419069, 419070, 2
419069, 419067, 2
419069, 419066, 2
419069, 419057, 2
419069, 419065, 2
419069, 419068, 2
419060, 419059, 2
419060, 419063, 2
419060, 419062, 2
419060, 419065, 2
419060, 419061, 2
419060, 419066, 2
419060, 419055, 2
419060, 419054, 2
419060, 419057, 2
419060, 419058, 2
419070, 419085, 2
419070, 419069, 2
419070, 419061, 2
419070, 419071, 1
419070, 419065, 2
419070, 419074, 2
419070, 419079, 2
419070, 419063, 2
419070, 419066, 2
419070, 419073, 2
419070, 419068, 2
419070, 419072, 2
419070, 419067, 2
419067, 419059, 2
419067, 419070, 2
419067, 419069, 2
419067, 419061, 2
419067, 419064, 2
419067, 419063, 2
419067, 419057, 2
419067, 419065, 2
419067, 419068, 2
419061, 419060, 2
419061, 419070, 2
419061, 419067, 2
419061, 419053, 2
419061, 419065, 2
419061, 419058, 2
419061, 419059, 2
419061, 419063, 1
419061, 419062, 0
419061, 419066, 2
419061, 419056, 2
419061, 419068, 2
419075, 419073, 2
419075, 419076, 1
419075, 419074, 2
419071, 419085, 2
419071, 419079, 2
419071, 419070, 2
419071, 419072, 1
419071, 419073, 2
419071, 419074, 2
419080, 419073, 2
419080, 419081, 1
419080, 419078, 2
419080, 419085, 2
419083, 419073, 2
419083, 419084, 1
419083, 419082, 2
419083, 419081, 2
419063, 419059, 2
419063, 419060, 2
419063, 419062, 2
419063, 419067, 2
419063, 419061, 2
419063, 419066, 2
419063, 419070, 2
419063, 419057, 2
419063, 419068, 2
419063, 419065, 2
419063, 419064, 1
419082, 419073, 2
419082, 419081, 2
419082, 419083, 1
419082, 419084, 2
419082, 419085, 2
419066, 419060, 2
419066, 419070, 2
419066, 419069, 2
419066, 419061, 2
419066, 419057, 2
419066, 419059, 2
419066, 419062, 2
419066, 419055, 2
419066, 419063, 2
419066, 419064, 2
419066, 419054, 2
419066, 419068, 2
419064, 419059, 2
419064, 419057, 2
419064, 419062, 2
419064, 419067, 2
419064, 419066, 6
419064, 419065, 4
419064, 419068, 1
419064, 419063, 2
419064, 419069, 2
419076, 419077, 1
419076, 419075, 2
419076, 419073, 2
419076, 419072, 2
419076, 419078, 2
419076, 419074, 2
419072, 419085, 2
419072, 419079, 2
419072, 419070, 2
419072, 419077, 2
419072, 419073, 1
419072, 419071, 2
419072, 419076, 2
419072, 419074, 2
419068, 419070, 1
419068, 419067, 2
419068, 419061, 2
419068, 419053, 2
419068, 419057, 2
419068, 419065, 2
419068, 419059, 2
419068, 419062, 2
419068, 419066, 2
419068, 419055, 2
419068, 419069, 4
419068, 419063, 2
419068, 419064, 2
