572369, 572370, 2
572369, 572368, 2
572368, 572369, 3
572368, 572370, 1
572372, 572370, 2
572372, 572373, 1
572372, 572371, 2
572370, 572369, 2
572370, 572372, 1
572370, 572368, 2
572370, 572371, 3
572373, 572372, 2
572371, 572372, 2
572371, 572370, 2
