592306, 592307, 1
592306, 592305, 2
592308, 592309, 1
592308, 592307, 2
592309, 592308, 2
592309, 592307, 2
592307, 592306, 2
592307, 592308, 1
592307, 592309, 2
592307, 592305, 2
592305, 592306, 1
592305, 592307, 2
