573089, 573086, 2
573089, 573092, 2
573089, 573087, 2
573089, 573091, 1
573089, 573090, 8
573089, 573088, 2
573086, 573089, 2
573086, 573087, 1
573086, 573090, 2
573086, 573088, 2
573091, 573089, 2
573091, 573090, 2
573091, 573092, 1
573087, 573089, 1
573087, 573086, 2
573087, 573088, 8
573092, 573089, 2
573092, 573088, 2
573092, 573090, 2
573092, 573091, 2
573090, 573092, 2
573090, 573089, 2
573090, 573088, 2
573090, 573086, 2
573090, 573091, 2
573088, 573089, 2
573088, 573090, 2
573088, 573087, 2
573088, 573086, 2
573088, 573092, 2
