590224, 590225, 1
590224, 590223, 2
590227, 590226, 2
590227, 590228, 1
590225, 590224, 2
590225, 590226, 1
590220, 590221, 1
590226, 590225, 2
590226, 590227, 1
590226, 590228, 2
590222, 590221, 2
590222, 590223, 1
590221, 590222, 1
590221, 590220, 2
590221, 590223, 2
590223, 590222, 2
590223, 590224, 1
590223, 590221, 2
590228, 590226, 2
590228, 590227, 2
