535684, 535685, 1
535684, 535682, 2
535684, 535686, 2
535684, 535683, 2
535684, 535689, 2
535688, 535685, 2
535688, 535689, 2
535688, 535687, 2
535689, 535685, 2
535689, 535684, 2
535689, 535688, 2
535689, 535691, 2
535689, 535687, 2
535689, 535686, 2
535689, 535690, 1
535697, 535696, 2
535697, 535699, 1
535697, 535693, 2
535697, 535698, 3
535697, 535695, 2
535697, 535692, 2
535690, 535689, 2
535690, 535691, 3
535690, 535692, 1
535683, 535684, 2
535683, 535682, 2
535692, 535693, 1
535692, 535694, 2
535692, 535691, 2
535692, 535697, 2
535692, 535690, 2
535704, 535703, 2
535704, 535701, 2
535704, 535705, 0
535701, 535703, 2
535701, 535699, 2
535701, 535704, 2
535701, 535705, 2
535701, 535702, 2
535701, 535700, 2
535687, 535685, 2
535687, 535688, 1
535687, 535689, 2
535687, 535686, 2
535700, 535699, 2
535700, 535701, 1
535685, 535684, 2
535685, 535686, 3
535685, 535689, 1
535685, 535688, 2
535685, 535687, 2
535699, 535703, 2
535699, 535698, 2
535699, 535701, 2
535699, 535697, 2
535699, 535702, 1
535699, 535705, 2
535699, 535693, 2
535699, 535700, 0
535691, 535692, 2
535691, 535689, 2
535691, 535690, 2
535702, 535703, 1
535702, 535699, 2
535702, 535701, 2
535702, 535705, 2
535703, 535699, 2
535703, 535704, 1
535703, 535698, 2
535703, 535701, 2
535703, 535705, 2
535703, 535702, 2
535693, 535696, 2
535693, 535699, 2
535693, 535697, 1
535693, 535695, 2
535693, 535694, 3
535693, 535692, 2
535694, 535693, 2
535694, 535692, 2
535694, 535695, 1
535696, 535693, 2
535696, 535698, 2
535696, 535697, 2
535696, 535695, 2
535705, 535703, 2
535705, 535699, 2
535705, 535704, 2
535705, 535701, 2
535705, 535702, 2
535698, 535703, 2
535698, 535699, 2
535698, 535697, 2
535698, 535696, 2
535686, 535685, 2
535686, 535684, 2
535686, 535689, 2
535686, 535687, 1
535695, 535696, 1
535695, 535693, 2
535695, 535694, 2
535695, 535697, 2
535682, 535684, 1
535682, 535683, 3
