625681, 625684, 2
625681, 625682, 2
625681, 625685, 2
625681, 625680, 2
625685, 625686, 2
625685, 625681, 2
625685, 625684, 2
625685, 625682, 2
625685, 625683, 2
625683, 625684, 1
625683, 625682, 2
625683, 625685, 2
625686, 625684, 2
625686, 625685, 2
625682, 625681, 2
625682, 625680, 2
625682, 625685, 2
625682, 625683, 1
625684, 625686, 1
625684, 625681, 2
625684, 625685, 6
625684, 625683, 2
625680, 625681, 6
625680, 625682, 1
