494655, 494656, 1
494655, 494652, 2
494655, 494654, 2
494655, 494653, 2
494652, 494655, 2
494652, 494651, 2
494652, 494654, 2
494652, 494653, 1
494656, 494655, 2
494656, 494653, 2
494653, 494655, 1
494653, 494652, 2
494653, 494654, 8
494653, 494656, 2
494651, 494652, 1
494654, 494655, 2
494654, 494652, 2
494654, 494653, 2
