534579, 534582, 1
534579, 534577, 2
534579, 534581, 2
534579, 534578, 2
534579, 534583, 2
534579, 534580, 3
534584, 534583, 2
534584, 534585, 1
534581, 534579, 2
534581, 534582, 2
534581, 534577, 2
534581, 534578, 2
534581, 534583, 2
534581, 534580, 2
534574, 534575, 1
534578, 534579, 1
534578, 534577, 2
534578, 534581, 2
534583, 534579, 2
534583, 534582, 2
534583, 534580, 2
534583, 534584, 1
534583, 534581, 2
534576, 534575, 2
534576, 534577, 1
534582, 534579, 2
534582, 534583, 1
534582, 534580, 2
534582, 534581, 7
534577, 534579, 2
534577, 534576, 2
534577, 534578, 1
534577, 534580, 2
534577, 534581, 2
534575, 534574, 2
534575, 534576, 1
534585, 534584, 2
534580, 534579, 2
534580, 534582, 2
534580, 534583, 2
534580, 534577, 2
534580, 534581, 2
