643064, 643065, 1
643064, 643063, 2
643064, 643062, 2
643068, 643066, 2
643068, 643070, 2
643068, 643067, 2
643068, 643069, 1
643061, 643060, 2
643061, 643059, 2
643061, 643063, 2
643061, 643062, 2
643062, 643058, 2
643062, 643056, 2
643062, 643065, 2
643062, 643057, 2
643062, 643067, 1
643062, 643064, 2
643062, 643060, 2
643062, 643061, 2
643062, 643059, 2
643062, 643063, 3
643054, 643055, 2
643054, 643053, 2
643054, 643056, 2
643059, 643058, 2
643059, 643060, 1
643059, 643061, 2
643059, 643062, 2
643070, 643071, 2
643070, 643069, 2
643070, 643072, 2
643070, 643067, 2
643070, 643068, 2
643072, 643071, 2
643072, 643073, 3
643072, 643074, 1
643072, 643067, 2
643072, 643070, 2
643066, 643065, 2
643066, 643067, 2
643066, 643068, 2
643063, 643065, 2
643063, 643061, 2
643063, 643064, 1
643063, 643062, 2
643074, 643072, 2
643074, 643073, 2
643074, 643075, 1
643074, 643067, 2
643074, 643071, 2
643056, 643058, 2
643056, 643055, 2
643056, 643057, 1
643056, 643060, 2
643056, 643062, 2
643056, 643054, 2
643076, 643075, 2
643057, 643058, 3
643057, 643056, 2
643057, 643060, 2
643057, 643062, 1
643067, 643065, 2
643067, 643068, 3
643067, 643070, 2
643067, 643072, 1
643067, 643066, 2
643067, 643062, 2
643067, 643069, 2
643067, 643074, 2
643055, 643056, 1
643055, 643054, 2
643055, 643053, 2
643060, 643058, 2
643060, 643056, 2
643060, 643057, 2
643060, 643062, 2
643060, 643061, 1
643060, 643059, 2
643069, 643070, 1
643069, 643067, 2
643069, 643068, 2
643058, 643056, 2
643058, 643060, 2
643058, 643057, 2
643058, 643059, 2
643058, 643062, 2
643071, 643072, 2
643071, 643073, 2
643071, 643074, 2
643071, 643070, 2
643073, 643072, 2
643073, 643071, 2
643073, 643074, 2
643065, 643066, 2
643065, 643062, 2
643065, 643063, 2
643065, 643064, 2
643065, 643067, 2
643075, 643076, 1
643075, 643074, 2
643053, 643055, 1
643053, 643054, 3
