535074, 535073, 2
535074, 535078, 2
535074, 535075, 2
535074, 535079, 2
535074, 535076, 2
535088, 535089, 2
535088, 535087, 2
535076, 535078, 1
535076, 535075, 2
535076, 535074, 2
535076, 535077, 3
535076, 535079, 2
535084, 535085, 1
535084, 535083, 2
535084, 535089, 2
535084, 535081, 2
535075, 535076, 1
535075, 535077, 2
535075, 535074, 2
535075, 535079, 2
535075, 535073, 2
535091, 535089, 2
535091, 535090, 2
535086, 535085, 2
535086, 535087, 1
535085, 535084, 2
535085, 535077, 2
535085, 535087, 2
535085, 535089, 1
535085, 535086, 3
535073, 535077, 2
535073, 535075, 1
535073, 535074, 0
535080, 535082, 1
535080, 535078, 2
535080, 535081, 0
535080, 535077, 2
535080, 535079, 2
535079, 535074, 2
535079, 535080, 2
535079, 535081, 2
535079, 535076, 2
535079, 535078, 2
535079, 535075, 2
535081, 535080, 2
535081, 535084, 2
535081, 535083, 2
535081, 535082, 2
535081, 535078, 2
535081, 535079, 2
535087, 535085, 2
535087, 535086, 2
535087, 535089, 2
535087, 535088, 1
535082, 535083, 1
535082, 535080, 2
535082, 535081, 2
535077, 535085, 2
535077, 535073, 2
535077, 535080, 2
535077, 535076, 2
535077, 535078, 2
535077, 535075, 2
535083, 535082, 2
535083, 535081, 2
535083, 535084, 1
535089, 535085, 2
535089, 535091, 2
535089, 535087, 2
535089, 535084, 2
535089, 535088, 2
535089, 535090, 1
535078, 535080, 1
535078, 535081, 2
535078, 535076, 2
535078, 535074, 2
535078, 535077, 2
535078, 535079, 0
535090, 535089, 2
535090, 535091, 1
