341467, 341465, 2
341467, 341466, 2
341467, 341468, 8
341467, 341469, 1
341464, 341465, 2
341464, 341466, 2
341464, 341463, 2
341462, 341461, 2
341462, 341463, 2
341461, 341462, 8
341461, 341463, 1
341463, 341461, 2
341463, 341464, 8
341463, 341465, 1
341463, 341462, 2
341465, 341467, 1
341465, 341464, 2
341465, 341466, 8
341465, 341468, 2
341465, 341463, 2
341466, 341467, 2
341466, 341464, 2
341466, 341468, 2
341466, 341465, 2
341469, 341467, 2
341469, 341468, 2
341468, 341467, 2
341468, 341465, 2
341468, 341469, 2
341468, 341466, 2
