570359, 570357, 2
570359, 570361, 2
570359, 570358, 2
570359, 570360, 2
570358, 570357, 2
570358, 570359, 2
570358, 570360, 2
570358, 570354, 2
570358, 570361, 2
570360, 570359, 2
570360, 570358, 2
570360, 570361, 1
570356, 570357, 1
570356, 570354, 2
570356, 570355, 2
570357, 570359, 0
570357, 570358, 3
570357, 570354, 2
570357, 570356, 2
570357, 570355, 2
570357, 570353, 2
570361, 570359, 2
570361, 570358, 2
570361, 570360, 2
570354, 570357, 2
570354, 570356, 2
570354, 570358, 2
570354, 570353, 2
570354, 570355, 2
570355, 570357, 2
570355, 570356, 1
570355, 570353, 2
570355, 570354, 2
570353, 570357, 2
570353, 570354, 3
570353, 570351, 2
570353, 570352, 2
570353, 570355, 1
570351, 570353, 1
570351, 570352, 3
570352, 570351, 2
570352, 570353, 2
