625725, 625724, 2
625725, 625726, 3
625725, 625727, 0
625725, 625722, 2
625722, 625725, 2
625722, 625724, 1
625722, 625723, 3
625723, 625724, 2
625723, 625722, 2
625727, 625724, 2
625727, 625726, 2
625727, 625725, 2
625726, 625725, 2
625726, 625727, 2
625726, 625724, 2
625724, 625725, 1
625724, 625726, 2
625724, 625727, 2
625724, 625722, 2
625724, 625723, 2
