534372, 534375, 2
534372, 534370, 2
534372, 534374, 2
534372, 534373, 2
534372, 534369, 2
534372, 534371, 2
534367, 534370, 8
534367, 534376, 2
534367, 534368, 3
534367, 534373, 1
534367, 534366, 2
534367, 534371, 2
534375, 534372, 2
534375, 534374, 2
534375, 534376, 2
534370, 534372, 2
534370, 534367, 2
534370, 534369, 2
534370, 534368, 2
534370, 534373, 2
534370, 534371, 1
534376, 534374, 2
534376, 534373, 2
534376, 534367, 2
534376, 534368, 2
534376, 534375, 2
534374, 534372, 2
534374, 534373, 2
534374, 534375, 3
534374, 534376, 2
534368, 534367, 2
534368, 534370, 2
534368, 534376, 2
534368, 534371, 2
534368, 534373, 2
534368, 534366, 2
534368, 534369, 3
534373, 534372, 2
534373, 534367, 2
534373, 534370, 2
534373, 534376, 1
534373, 534368, 2
534373, 534371, 2
534373, 534374, 3
534373, 534366, 2
534371, 534372, 1
534371, 534367, 2
534371, 534370, 2
534371, 534368, 2
534371, 534373, 2
534371, 534366, 2
534371, 534369, 2
534366, 534368, 2
534366, 534373, 2
534366, 534367, 1
534366, 534371, 2
534369, 534372, 2
534369, 534368, 2
534369, 534370, 2
534369, 534371, 2
