377340, 377339, 2
377340, 377346, 2
377340, 377338, 2
377340, 377342, 2
377340, 377341, 1
377327, 377325, 2
377327, 377328, 1
377327, 377326, 2
377342, 377343, 1
377342, 377340, 2
377342, 377341, 2
377331, 377332, 1
377331, 377333, 2
377331, 377346, 2
377331, 377330, 2
377333, 377332, 2
377333, 377335, 2
377333, 377334, 1
377333, 377331, 2
377320, 377321, 2
377320, 377319, 2
377320, 377322, 2
377346, 377348, 2
377346, 377340, 2
377346, 377356, 2
377346, 377350, 2
377346, 377331, 2
377346, 377335, 2
377346, 377344, 2
377346, 377328, 2
377346, 377339, 2
377346, 377336, 2
377346, 377322, 2
377346, 377330, 2
377346, 377343, 2
377346, 377338, 2
377346, 377345, 2
377346, 377349, 2
377328, 377323, 2
377328, 377327, 2
377328, 377326, 2
377328, 377325, 2
377328, 377346, 2
377328, 377330, 2
377328, 377329, 1
377329, 377330, 1
377329, 377328, 2
377347, 377348, 2
377347, 377350, 2
377347, 377345, 2
377347, 377343, 2
377332, 377333, 1
377332, 377331, 2
377339, 377346, 2
377339, 377340, 2
377339, 377338, 2
377326, 377325, 2
377326, 377328, 2
377326, 377324, 2
377326, 377327, 2
377325, 377324, 2
377325, 377328, 2
377325, 377327, 1
377325, 377323, 2
377325, 377326, 8
377352, 377350, 2
377352, 377353, 2
377352, 377354, 2
377352, 377351, 2
377338, 377339, 0
377338, 377337, 2
377338, 377346, 2
377338, 377340, 1
377338, 377336, 2
377350, 377352, 2
377350, 377346, 2
377350, 377347, 2
377350, 377349, 2
377350, 377351, 1
377345, 377346, 6
377345, 377344, 2
377345, 377347, 3
377345, 377348, 1
377345, 377343, 2
377349, 377346, 2
377349, 377350, 1
377349, 377348, 2
377351, 377352, 8
377351, 377350, 2
377351, 377356, 2
377351, 377353, 1
377348, 377346, 2
377348, 377347, 2
377348, 377345, 2
377348, 377349, 1
377337, 377336, 2
377337, 377338, 1
377324, 377325, 2
377324, 377323, 2
377324, 377326, 2
377324, 377322, 2
377334, 377333, 2
377334, 377335, 1
377344, 377346, 2
377344, 377345, 1
377344, 377343, 2
377341, 377343, 2
377341, 377340, 2
377341, 377342, 1
377353, 377352, 2
377353, 377355, 1
377353, 377356, 2
377353, 377354, 8
377353, 377351, 2
377354, 377352, 2
377354, 377355, 2
377354, 377356, 2
377354, 377353, 2
377356, 377346, 2
377356, 377355, 2
377356, 377353, 2
377356, 377354, 2
377356, 377351, 2
377335, 377333, 2
377335, 377346, 2
377335, 377336, 1
377335, 377334, 2
377336, 377335, 2
377336, 377346, 2
377336, 377337, 1
377336, 377338, 2
377323, 377325, 1
377323, 377328, 2
377323, 377324, 8
377323, 377322, 2
377322, 377321, 2
377322, 377346, 2
377322, 377320, 2
377322, 377324, 2
377322, 377323, 1
377330, 377346, 2
377330, 377328, 2
377330, 377329, 2
377330, 377331, 1
377321, 377320, 2
377321, 377319, 2
377321, 377322, 1
377343, 377342, 2
377343, 377341, 2
377343, 377346, 2
377343, 377347, 2
377343, 377344, 1
377343, 377345, 2
377319, 377321, 1
377319, 377320, 3
377355, 377356, 1
377355, 377353, 2
377355, 377354, 2
