572099, 572100, 1
572099, 572098, 2
572099, 572097, 2
572099, 572101, 2
572100, 572099, 2
572100, 572101, 2
572097, 572099, 2
572097, 572098, 3
572097, 572101, 1
572098, 572099, 1
572098, 572097, 2
572101, 572099, 2
572101, 572100, 2
572101, 572097, 2
