339785, 339786, 1
339785, 339784, 2
339781, 339783, 3
339781, 339784, 1
339781, 339782, 6
339783, 339784, 2
339783, 339781, 2
339783, 339782, 2
339786, 339785, 2
339784, 339783, 2
339784, 339785, 1
339784, 339781, 2
339784, 339782, 2
339782, 339783, 2
339782, 339784, 2
339782, 339781, 2
