624625, 624624, 2
624625, 624631, 2
624625, 624626, 1
624632, 624634, 1
624632, 624630, 2
624632, 624633, 3
624632, 624631, 6
624632, 624629, 2
624630, 624632, 1
624630, 624631, 2
624630, 624629, 2
624622, 624624, 2
624622, 624623, 1
624635, 624634, 2
624635, 624636, 1
624635, 624631, 2
624628, 624627, 2
624628, 624629, 2
624638, 624639, 2
624638, 624637, 2
624631, 624632, 2
624631, 624634, 2
624631, 624630, 2
624631, 624633, 2
624631, 624635, 2
624631, 624625, 2
624631, 624629, 2
624626, 624625, 2
624626, 624627, 1
624626, 624624, 2
624626, 624629, 2
624637, 624636, 2
624637, 624639, 1
624637, 624638, 3
624639, 624636, 2
624639, 624638, 2
624639, 624637, 2
624633, 624632, 2
624633, 624634, 2
624633, 624631, 2
624627, 624629, 1
624627, 624626, 2
624627, 624628, 3
624623, 624624, 1
624623, 624622, 2
624634, 624632, 2
624634, 624636, 2
624634, 624633, 2
624634, 624631, 2
624634, 624635, 1
624636, 624634, 2
624636, 624639, 2
624636, 624637, 1
624636, 624635, 2
624624, 624625, 1
624624, 624626, 2
624624, 624623, 2
624624, 624622, 2
624629, 624632, 2
624629, 624630, 1
624629, 624628, 2
624629, 624627, 2
624629, 624631, 2
624629, 624626, 2
