657905, 657906, 2
657905, 657907, 3
657905, 657904, 2
657906, 657905, 2
657906, 657907, 2
657906, 657904, 2
657907, 657905, 2
657907, 657906, 2
657907, 657904, 2
657904, 657905, 3
657904, 657906, 0
657904, 657907, 2
