515388, 515390, 3
515388, 515391, 2
515388, 515389, 0
515390, 515388, 2
515390, 515391, 1
515390, 515389, 2
515391, 515388, 2
515391, 515390, 2
515391, 515389, 2
515389, 515388, 2
515389, 515390, 2
515389, 515391, 2
