379072, 379073, 1
379072, 379071, 2
379076, 379074, 2
379076, 379075, 2
379073, 379074, 1
379073, 379072, 2
379074, 379076, 1
379074, 379073, 2
379074, 379075, 4
379070, 379071, 1
379075, 379074, 2
379075, 379076, 2
379071, 379072, 1
379071, 379070, 2
