488921, 488922, 1
488921, 488920, 2
488921, 488919, 2
488922, 488921, 2
488922, 488925, 2
488922, 488920, 2
488922, 488919, 2
488922, 488923, 1
488920, 488921, 2
488920, 488922, 2
488920, 488919, 2
488920, 488923, 2
488919, 488921, 1
488919, 488922, 2
488919, 488920, 3
488919, 488923, 2
488923, 488922, 2
488923, 488925, 1
488923, 488924, 3
488923, 488920, 2
488923, 488919, 2
488927, 488926, 2
488924, 488925, 2
488924, 488923, 2
488926, 488925, 2
488926, 488927, 1
488925, 488922, 2
488925, 488923, 2
488925, 488924, 2
488925, 488926, 1
