379005, 379002, 2
379005, 379004, 2
379005, 379001, 2
379005, 379003, 2
379000, 379002, 1
379000, 379001, 0
379003, 379002, 2
379003, 379005, 2
379003, 379004, 1
379002, 379000, 2
379002, 379005, 2
379002, 379001, 2
379002, 379003, 1
379004, 379005, 1
379004, 379003, 2
379001, 379002, 2
379001, 379005, 2
379001, 379000, 2
