606773, 606772, 2
606769, 606768, 2
606769, 606770, 1
606770, 606769, 2
606770, 606771, 1
606763, 606762, 2
606763, 606764, 1
606766, 606765, 2
606766, 606764, 2
606766, 606767, 1
606766, 606768, 2
606762, 606763, 1
606764, 606765, 3
606764, 606763, 2
606764, 606766, 1
606767, 606768, 1
606767, 606766, 2
606771, 606772, 1
606771, 606770, 2
606765, 606764, 2
606765, 606766, 2
606768, 606767, 2
606768, 606769, 1
606768, 606766, 2
606772, 606773, 1
606772, 606771, 2
