455654, 455655, 3
455654, 455657, 1
455658, 455656, 2
455658, 455657, 2
455656, 455658, 2
455656, 455655, 2
455656, 455657, 2
455655, 455654, 2
455655, 455656, 2
455655, 455657, 2
455657, 455654, 2
455657, 455658, 3
455657, 455656, 2
455657, 455655, 2
