450763, 450766, 2
450763, 450762, 2
450763, 450765, 2
450763, 450764, 1
450770, 450769, 2
450770, 450771, 1
450772, 450774, 2
450772, 450773, 1
450772, 450775, 2
450772, 450771, 2
450773, 450774, 3
450773, 450772, 2
450773, 450775, 1
450767, 450766, 2
450767, 450768, 1
450767, 450769, 2
450767, 450765, 2
450779, 450778, 2
450779, 450777, 2
450776, 450778, 1
450776, 450777, 8
450776, 450775, 2
450762, 450763, 1
450777, 450776, 2
450777, 450778, 2
450777, 450775, 2
450777, 450779, 2
450771, 450770, 2
450771, 450772, 1
450766, 450763, 2
450766, 450765, 2
450766, 450764, 2
450766, 450767, 1
450764, 450763, 2
450764, 450766, 1
450764, 450765, 8
450775, 450772, 2
450775, 450776, 1
450775, 450774, 2
450775, 450778, 2
450775, 450773, 2
450775, 450777, 2
450774, 450772, 2
450774, 450773, 2
450774, 450775, 2
450778, 450776, 2
450778, 450777, 2
450778, 450775, 2
450778, 450779, 1
450769, 450770, 1
450769, 450768, 2
450769, 450767, 2
450765, 450766, 2
450765, 450763, 2
450765, 450764, 2
450765, 450767, 2
450768, 450769, 1
450768, 450767, 2
