553587, 553588, 1
553587, 553586, 2
553585, 553584, 2
553585, 553586, 1
553586, 553588, 2
553586, 553587, 1
553586, 553585, 2
553586, 553584, 2
553588, 553587, 2
553588, 553586, 2
553584, 553585, 1
553584, 553583, 2
553584, 553586, 2
553583, 553584, 1
