554488, 554489, 1
554488, 554487, 2
554487, 554488, 1
554487, 554486, 2
554491, 554489, 2
554491, 554490, 2
554491, 554492, 3
554484, 554485, 1
554492, 554489, 2
554492, 554491, 2
554485, 554486, 1
554485, 554484, 2
554489, 554488, 2
554489, 554490, 1
554489, 554491, 2
554489, 554492, 2
554490, 554489, 2
554490, 554491, 1
554486, 554487, 1
554486, 554485, 2
