534848, 534847, 2
534848, 534846, 2
534848, 534849, 1
534843, 534841, 2
534843, 534842, 2
534843, 534844, 1
534853, 534852, 2
534853, 534851, 2
534853, 534854, 1
534845, 534847, 2
534845, 534846, 1
534845, 534844, 2
534851, 534852, 1
534851, 534850, 2
534851, 534853, 2
534842, 534841, 2
534842, 534843, 2
534849, 534850, 1
534849, 534848, 2
534855, 534854, 2
534846, 534847, 1
534846, 534848, 2
534846, 534845, 2
534841, 534843, 1
534841, 534842, 0
534854, 534855, 1
534854, 534853, 2
534852, 534851, 2
534852, 534850, 2
534852, 534853, 1
534850, 534852, 2
534850, 534851, 1
534850, 534849, 2
534847, 534848, 1
534847, 534846, 2
534847, 534845, 2
534844, 534843, 2
534844, 534845, 1
