657772, 657777, 2
657772, 657776, 2
657772, 657775, 2
657772, 657758, 2
657772, 657771, 2
657772, 657769, 2
657772, 657773, 2
657748, 657746, 2
657748, 657747, 2
657748, 657749, 0
657748, 657751, 2
657748, 657750, 1
657752, 657753, 3
657752, 657757, 2
657752, 657755, 1
657752, 657751, 2
657767, 657766, 2
657767, 657770, 2
657767, 657774, 2
657767, 657769, 2
657767, 657768, 2
657750, 657749, 2
657750, 657751, 1
657750, 657748, 2
657749, 657750, 2
657749, 657746, 2
657749, 657769, 2
657749, 657748, 2
657759, 657756, 2
657759, 657757, 2
657759, 657761, 2
657759, 657758, 2
657759, 657760, 1
657777, 657772, 2
657777, 657774, 2
657777, 657776, 2
657777, 657778, 2
657764, 657763, 2
657764, 657762, 2
657764, 657758, 2
657764, 657771, 2
657764, 657765, 1
657764, 657768, 2
657776, 657777, 3
657776, 657772, 2
657776, 657774, 2
657776, 657775, 2
657776, 657778, 2
657776, 657771, 2
657776, 657770, 2
657776, 657773, 2
657768, 657766, 2
657768, 657774, 2
657768, 657764, 2
657768, 657771, 2
657768, 657770, 1
657768, 657767, 2
657768, 657769, 2
657778, 657777, 2
657778, 657776, 2
657778, 657774, 2
657778, 657775, 2
657778, 657769, 2
657771, 657766, 2
657771, 657772, 3
657771, 657773, 2
657771, 657758, 2
657771, 657764, 2
657771, 657765, 2
657771, 657770, 2
657771, 657776, 2
657771, 657768, 2
657771, 657769, 2
657775, 657772, 2
657775, 657774, 6
657775, 657778, 1
657775, 657776, 3
657775, 657773, 2
657775, 657769, 2
657753, 657754, 3
657753, 657757, 2
657753, 657755, 2
657753, 657751, 2
657753, 657752, 2
657757, 657753, 2
657757, 657756, 2
657757, 657758, 3
657757, 657752, 2
657757, 657754, 2
657757, 657755, 2
657757, 657759, 2
657774, 657777, 2
657774, 657768, 2
657774, 657776, 2
657774, 657775, 2
657774, 657778, 2
657774, 657770, 2
657774, 657767, 2
657774, 657769, 2
657774, 657773, 2
657751, 657753, 2
657751, 657750, 2
657751, 657748, 2
657751, 657752, 1
657756, 657754, 2
657756, 657757, 3
657756, 657755, 2
657756, 657759, 1
657754, 657753, 2
657754, 657757, 2
657754, 657755, 2
657754, 657758, 2
657754, 657756, 2
657765, 657766, 1
657765, 657764, 2
657765, 657771, 2
657755, 657753, 2
657755, 657757, 2
657755, 657754, 2
657755, 657752, 2
657755, 657756, 1
657746, 657747, 1
657746, 657749, 2
657746, 657748, 2
657761, 657762, 1
657761, 657758, 2
657761, 657759, 2
657761, 657760, 2
657766, 657765, 2
657766, 657767, 0
657766, 657768, 1
657766, 657771, 2
657763, 657762, 2
657763, 657769, 2
657763, 657764, 2
657762, 657763, 0
657762, 657761, 2
657762, 657764, 1
657758, 657757, 2
657758, 657772, 2
657758, 657764, 2
657758, 657771, 2
657758, 657754, 2
657758, 657761, 2
657758, 657759, 2
657758, 657760, 2
657770, 657776, 2
657770, 657774, 2
657770, 657773, 1
657770, 657771, 3
657770, 657767, 2
657770, 657769, 6
657770, 657768, 2
657747, 657746, 2
657747, 657748, 1
657769, 657749, 2
657769, 657763, 2
657769, 657772, 2
657769, 657774, 2
657769, 657773, 2
657769, 657778, 2
657769, 657771, 2
657769, 657770, 2
657769, 657767, 2
657769, 657768, 2
657769, 657775, 2
657773, 657772, 2
657773, 657774, 2
657773, 657775, 1
657773, 657771, 2
657773, 657770, 2
657773, 657776, 2
657773, 657769, 2
657760, 657761, 1
657760, 657759, 2
657760, 657758, 2
