549927, 549928, 1
549927, 549926, 2
549927, 549929, 2
549927, 549930, 2
549927, 549925, 2
549923, 549924, 1
549934, 549933, 2
549933, 549932, 2
549933, 549934, 1
549933, 549931, 2
549926, 549927, 2
549926, 549924, 2
549926, 549925, 2
549932, 549930, 2
549932, 549931, 2
549932, 549933, 2
549930, 549929, 2
549930, 549927, 2
549930, 549931, 1
549930, 549932, 2
549924, 549926, 2
549924, 549923, 2
549924, 549925, 1
549931, 549930, 2
549931, 549932, 3
549931, 549933, 1
549928, 549929, 1
549928, 549927, 2
549929, 549928, 2
549929, 549927, 2
549929, 549930, 1
549925, 549927, 1
549925, 549924, 2
549925, 549926, 3
