625590, 625589, 2
625590, 625591, 1
625590, 625592, 2
625589, 625590, 1
625591, 625590, 2
625591, 625593, 1
625591, 625592, 3
625593, 625591, 2
625593, 625592, 2
625592, 625590, 2
625592, 625591, 2
625592, 625593, 2
