644142, 644144, 1
644142, 644143, 6
644145, 644144, 2
644145, 644143, 2
644145, 644146, 1
644145, 644148, 2
644147, 644146, 2
644147, 644148, 2
644144, 644143, 2
644144, 644142, 2
644144, 644145, 1
644143, 644144, 2
644143, 644142, 2
644143, 644145, 2
644143, 644148, 2
644146, 644147, 3
644146, 644145, 2
644146, 644148, 1
644148, 644143, 2
644148, 644145, 2
644148, 644146, 2
644148, 644147, 2
