549282, 549285, 1
549282, 549281, 2
549282, 549284, 8
549282, 549283, 3
549285, 549282, 2
549285, 549288, 1
549285, 549283, 2
549285, 549286, 3
549285, 549291, 2
549285, 549281, 2
549285, 549284, 2
549288, 549285, 2
549288, 549286, 2
549288, 549287, 2
549288, 549289, 3
549288, 549291, 1
549288, 549290, 2
549283, 549282, 2
549283, 549285, 2
549283, 549281, 2
549283, 549284, 2
549283, 549286, 2
549286, 549285, 2
549286, 549288, 2
549286, 549283, 2
549286, 549287, 2
549286, 549289, 2
549286, 549284, 2
549289, 549291, 2
549289, 549288, 2
549289, 549287, 2
549289, 549286, 2
549289, 549290, 1
549291, 549285, 2
549291, 549288, 2
549291, 549290, 2
549291, 549289, 2
549281, 549282, 1
549281, 549285, 2
549281, 549283, 2
549290, 549291, 2
549290, 549288, 2
549290, 549287, 2
549290, 549289, 2
549284, 549282, 2
549284, 549285, 2
549284, 549283, 2
549284, 549286, 2
549287, 549288, 2
549287, 549286, 2
549287, 549289, 2
549287, 549290, 2
