592636, 592638, 2
592636, 592637, 1
592640, 592641, 1
592640, 592639, 2
592639, 592638, 2
592639, 592640, 1
592641, 592640, 2
592637, 592636, 2
592637, 592638, 1
592638, 592636, 2
592638, 592639, 1
592638, 592637, 2
