374702, 374701, 2
374702, 374704, 1
374702, 374703, 3
374699, 374700, 1
374699, 374698, 2
374696, 374697, 3
374696, 374695, 2
374696, 374698, 1
374694, 374695, 1
374703, 374702, 2
374703, 374704, 2
374700, 374701, 1
374700, 374699, 2
374700, 374698, 2
374704, 374702, 2
374704, 374705, 1
374704, 374703, 2
374705, 374704, 2
374701, 374700, 2
374701, 374702, 1
374697, 374695, 2
374697, 374696, 2
374697, 374698, 2
374698, 374700, 2
374698, 374695, 2
374698, 374696, 2
374698, 374699, 1
374698, 374697, 2
374695, 374697, 2
374695, 374696, 1
374695, 374698, 2
374695, 374694, 2
