453009, 453008, 2
453009, 453010, 8
453009, 453011, 1
453011, 453009, 2
453011, 453013, 1
453011, 453010, 2
453011, 453012, 3
453011, 453008, 2
453016, 453017, 8
453016, 453015, 2
453016, 453018, 1
453001, 453003, 1
453001, 452998, 2
453001, 453004, 2
453001, 452996, 2
453001, 453002, 2
453001, 453000, 2
453001, 452999, 2
453001, 452997, 2
453013, 453014, 1
453013, 453010, 2
453013, 453011, 2
453013, 453005, 2
453013, 453012, 2
452989, 452990, 1
452999, 452998, 2
452999, 452996, 2
452999, 452992, 2
452999, 452990, 2
452999, 452994, 2
452999, 453001, 1
452999, 453002, 2
452999, 453000, 2
452999, 453004, 2
452999, 452997, 2
453018, 453017, 2
453018, 453020, 1
453018, 453015, 2
453018, 453019, 3
453018, 453016, 2
453020, 453018, 2
453020, 453017, 2
453020, 453019, 2
453020, 453005, 2
452995, 452996, 1
452995, 452994, 2
452993, 452992, 2
452993, 452994, 1
453019, 453018, 2
453019, 453020, 2
453019, 453017, 2
453019, 453005, 2
453004, 453003, 2
453004, 453007, 2
453004, 452999, 2
453004, 453005, 4
453004, 453001, 2
453004, 453008, 2
453004, 453002, 2
453004, 453000, 2
453004, 453006, 1
453003, 452998, 2
453003, 452996, 2
453003, 453007, 2
453003, 453006, 2
453003, 453005, 2
453003, 453001, 2
453003, 453002, 2
453003, 453000, 2
453003, 453004, 2
453003, 452997, 2
452996, 452998, 2
452996, 453003, 2
452996, 452995, 2
452996, 452994, 2
452996, 453005, 2
452996, 453001, 2
452996, 452999, 2
452996, 452997, 1
453008, 453009, 1
453008, 453007, 2
453008, 453011, 2
453008, 453005, 2
453008, 453004, 2
453008, 453010, 2
453008, 453006, 2
452998, 453003, 2
452998, 452996, 2
452998, 453005, 2
452998, 453001, 2
452998, 453000, 1
452998, 452999, 4
452998, 452997, 2
452994, 452996, 2
452994, 452995, 1
452994, 452999, 2
452994, 452993, 2
453010, 453009, 2
453010, 453008, 2
453010, 453011, 2
453010, 453005, 2
453010, 453013, 2
453010, 453012, 2
452991, 452992, 1
452991, 452990, 2
453006, 453003, 2
453006, 453007, 3
453006, 453008, 1
453006, 453005, 2
453006, 453004, 2
453012, 453013, 2
453012, 453010, 2
453012, 453011, 2
453012, 453005, 2
453017, 453018, 2
453017, 453015, 2
453017, 453020, 2
453017, 453019, 2
453017, 453016, 2
453015, 453018, 2
453015, 453017, 2
453015, 453014, 2
453015, 453005, 2
453015, 453016, 1
453007, 453003, 2
453007, 453005, 2
453007, 453008, 2
453007, 453006, 2
453007, 453004, 2
452990, 452989, 2
452990, 452991, 1
452990, 452999, 2
453005, 453003, 2
453005, 452996, 2
453005, 453010, 2
453005, 453013, 2
453005, 453006, 2
453005, 453000, 2
453005, 452998, 2
453005, 453020, 2
453005, 453019, 2
453005, 453008, 2
453005, 453007, 2
453005, 453015, 2
453005, 453002, 2
453005, 453012, 2
453005, 453004, 2
453005, 452997, 2
452992, 452991, 2
452992, 452999, 2
452992, 452993, 1
453014, 453015, 1
453014, 453013, 2
453002, 453003, 2
453002, 452999, 2
453002, 453005, 2
453002, 453001, 2
453002, 453000, 2
453002, 453004, 1
453000, 452998, 2
453000, 453003, 2
453000, 452999, 2
453000, 453005, 2
453000, 453001, 2
453000, 453002, 1
453000, 453004, 2
452997, 453003, 2
452997, 452998, 1
452997, 453005, 2
452997, 452996, 2
452997, 453001, 2
452997, 452999, 2
