625913, 625912, 6
625913, 625909, 2
625913, 625911, 2
625913, 625914, 3
625910, 625912, 2
625910, 625909, 2
625910, 625911, 1
625910, 625908, 2
625909, 625913, 2
625909, 625910, 1
625909, 625907, 2
625909, 625908, 2
625907, 625909, 1
625907, 625908, 6
625914, 625913, 2
625914, 625912, 2
625912, 625913, 2
625912, 625914, 2
625912, 625910, 2
625912, 625911, 2
625912, 625908, 2
625911, 625913, 1
625911, 625912, 2
625911, 625910, 2
625908, 625907, 2
625908, 625912, 2
625908, 625909, 2
625908, 625910, 2
