333346, 333347, 1
333346, 333345, 2
333355, 333352, 2
333355, 333351, 2
333355, 333354, 2
333352, 333355, 2
333352, 333351, 2
333352, 333350, 2
333352, 333353, 2
333352, 333354, 2
333354, 333355, 1
333354, 333352, 2
333354, 333353, 2
333354, 333351, 2
333347, 333346, 2
333347, 333345, 2
333347, 333348, 1
333350, 333351, 1
333350, 333353, 2
333350, 333349, 2
333350, 333352, 2
333350, 333348, 2
333351, 333355, 2
333351, 333352, 0
333351, 333350, 2
333351, 333353, 1
333351, 333354, 2
333349, 333350, 2
333349, 333348, 2
333353, 333352, 2
333353, 333350, 2
333353, 333351, 2
333353, 333354, 1
333345, 333346, 1
333345, 333347, 2
333348, 333347, 2
333348, 333350, 1
333348, 333349, 0
