379110, 379109, 2
379105, 379106, 1
379105, 379107, 2
379109, 379110, 1
379109, 379108, 2
379109, 379107, 2
379108, 379109, 1
379108, 379107, 2
379106, 379105, 2
379106, 379107, 1
379107, 379106, 2
379107, 379109, 2
379107, 379105, 2
379107, 379108, 1
