571950, 571951, 3
571950, 571952, 2
571950, 571953, 0
571951, 571950, 2
571951, 571952, 1
571951, 571953, 2
571952, 571950, 2
571952, 571951, 2
571952, 571953, 2
571953, 571950, 2
571953, 571951, 2
571953, 571952, 2
