550358, 550357, 2
550358, 550359, 3
550346, 550348, 2
550346, 550345, 2
550346, 550347, 1
550353, 550350, 2
550353, 550356, 1
550353, 550352, 2
550353, 550355, 8
550353, 550354, 3
550352, 550349, 2
550352, 550351, 2
550352, 550353, 1
550359, 550358, 2
550359, 550356, 2
550354, 550350, 2
550354, 550356, 2
550354, 550351, 2
550354, 550355, 2
550354, 550353, 2
550356, 550354, 2
550356, 550359, 2
550356, 550357, 1
550356, 550355, 2
550356, 550353, 2
550347, 550349, 2
550347, 550348, 1
550347, 550345, 2
550347, 550346, 2
550351, 550352, 1
550351, 550350, 2
550351, 550349, 2
550351, 550354, 2
550350, 550349, 2
550350, 550354, 2
550350, 550351, 2
550350, 550353, 2
550348, 550349, 1
550348, 550346, 2
550348, 550347, 2
550345, 550346, 1
550345, 550347, 2
550349, 550350, 8
550349, 550348, 2
550349, 550352, 2
550349, 550351, 1
550349, 550347, 2
550355, 550356, 2
550355, 550354, 2
550355, 550353, 2
550357, 550358, 1
550357, 550356, 2
