624485, 624487, 2
624485, 624491, 2
624485, 624486, 1
624485, 624488, 2
624485, 624484, 2
624485, 624483, 2
624498, 624496, 2
624498, 624497, 2
624487, 624485, 2
624487, 624486, 2
624487, 624488, 1
624487, 624484, 2
624494, 624495, 1
624494, 624492, 2
624494, 624493, 2
624496, 624495, 2
624496, 624498, 1
624496, 624497, 6
624496, 624491, 2
624482, 624483, 1
624484, 624485, 2
624484, 624489, 2
624484, 624486, 2
624484, 624487, 2
624484, 624483, 2
624486, 624485, 2
624486, 624484, 2
624486, 624488, 2
624486, 624487, 1
624488, 624485, 2
624488, 624489, 3
624488, 624491, 2
624488, 624487, 2
624488, 624486, 2
624488, 624490, 1
624492, 624489, 2
624492, 624494, 2
624492, 624491, 2
624492, 624490, 2
624492, 624493, 1
624492, 624497, 2
624493, 624495, 2
624493, 624492, 2
624493, 624494, 1
624483, 624485, 1
624483, 624482, 2
624483, 624484, 3
624483, 624491, 2
624495, 624496, 1
624495, 624494, 2
624495, 624497, 2
624495, 624491, 2
624495, 624493, 2
624489, 624492, 2
624489, 624490, 2
624489, 624484, 2
624489, 624491, 2
624489, 624488, 2
624491, 624485, 2
624491, 624495, 2
624491, 624488, 2
624491, 624489, 2
624491, 624496, 2
624491, 624490, 2
624491, 624492, 2
624491, 624497, 2
624491, 624483, 2
624490, 624492, 1
624490, 624488, 2
624490, 624489, 2
624490, 624497, 2
624490, 624491, 6
624497, 624495, 2
624497, 624498, 2
624497, 624491, 2
624497, 624496, 2
624497, 624490, 2
624497, 624492, 2
