419027, 419032, 2
419027, 419025, 2
419027, 419026, 2
419027, 419036, 2
419027, 419028, 1
419027, 419031, 2
419027, 419029, 2
419027, 419023, 2
419027, 419030, 2
419027, 419035, 2
419043, 419028, 2
419043, 419044, 1
419043, 419039, 2
419024, 419025, 1
419024, 419022, 2
419024, 419021, 2
419024, 419023, 2
419050, 419048, 2
419050, 419051, 1
419050, 419049, 2
419039, 419028, 2
419039, 419037, 2
419039, 419043, 1
419039, 419036, 2
419039, 419044, 2
419049, 419051, 2
419049, 419052, 2
419049, 419050, 0
419049, 419048, 2
419051, 419048, 2
419051, 419052, 1
419051, 419050, 2
419051, 419049, 2
419052, 419048, 2
419052, 419051, 2
419052, 419049, 2
419040, 419028, 2
419040, 419038, 2
419040, 419041, 1
419048, 419044, 2
419048, 419046, 2
419048, 419050, 2
419048, 419041, 2
419048, 419028, 2
419048, 419045, 2
419048, 419042, 2
419048, 419052, 2
419048, 419047, 2
419048, 419051, 2
419048, 419049, 1
419022, 419023, 8
419022, 419021, 2
419022, 419024, 1
419034, 419028, 2
419034, 419038, 1
419034, 419033, 2
419028, 419027, 2
419028, 419043, 2
419028, 419046, 2
419028, 419036, 2
419028, 419033, 2
419028, 419039, 2
419028, 419038, 2
419028, 419041, 2
419028, 419040, 2
419028, 419030, 2
419028, 419031, 2
419028, 419032, 4
419028, 419048, 1
419028, 419044, 2
419028, 419034, 2
419028, 419037, 2
419028, 419035, 2
419028, 419045, 2
419028, 419042, 2
419028, 419047, 2
419028, 419029, 6
419045, 419028, 2
419045, 419041, 2
419045, 419042, 2
419045, 419046, 1
419045, 419048, 2
419042, 419046, 2
419042, 419041, 2
419042, 419028, 2
419042, 419045, 3
419042, 419047, 2
419042, 419048, 2
419038, 419028, 2
419038, 419040, 1
419038, 419033, 2
419038, 419034, 2
419025, 419027, 2
419025, 419023, 2
419025, 419026, 1
419025, 419024, 2
419026, 419027, 1
419026, 419025, 2
419046, 419028, 2
419046, 419045, 2
419046, 419042, 2
419046, 419047, 1
419046, 419048, 2
419033, 419028, 2
419033, 419038, 2
419033, 419034, 1
419033, 419031, 2
419032, 419028, 2
419032, 419027, 2
419032, 419036, 1
419032, 419035, 0
419041, 419028, 2
419041, 419045, 2
419041, 419042, 1
419041, 419040, 2
419041, 419048, 2
419021, 419019, 2
419021, 419023, 2
419021, 419022, 1
419021, 419024, 2
419021, 419020, 2
419030, 419028, 2
419030, 419027, 2
419030, 419031, 1
419030, 419029, 2
419035, 419028, 2
419035, 419027, 2
419035, 419036, 2
419035, 419032, 2
419019, 419021, 1
419019, 419020, 3
419037, 419028, 2
419037, 419036, 2
419037, 419039, 1
419023, 419027, 2
419023, 419025, 2
419023, 419022, 2
419023, 419021, 2
419023, 419024, 2
419036, 419027, 2
419036, 419032, 2
419036, 419039, 2
419036, 419028, 2
419036, 419037, 1
419036, 419035, 2
419020, 419019, 2
419020, 419021, 2
419031, 419028, 2
419031, 419027, 2
419031, 419033, 1
419031, 419030, 2
419047, 419028, 2
419047, 419042, 2
419047, 419046, 2
419047, 419048, 2
419044, 419028, 2
419044, 419048, 2
419044, 419043, 2
419044, 419039, 2
419029, 419028, 2
419029, 419027, 2
419029, 419030, 1
