376450, 376448, 2
376450, 376449, 2
376450, 376451, 8
376450, 376454, 2
376450, 376453, 2
376450, 376452, 1
376448, 376451, 2
376448, 376450, 1
376448, 376449, 8
376448, 376447, 2
376449, 376451, 2
376449, 376450, 2
376449, 376448, 2
376449, 376447, 2
376435, 376436, 2
376435, 376437, 2
376435, 376434, 2
376431, 376432, 1
376454, 376453, 2
376454, 376450, 2
376454, 376452, 2
376454, 376451, 2
376445, 376446, 2
376445, 376444, 2
376445, 376447, 2
376440, 376442, 2
376440, 376441, 2
376440, 376439, 2
376436, 376435, 2
376436, 376437, 1
376436, 376434, 2
376432, 376433, 1
376432, 376431, 2
376433, 376432, 2
376433, 376434, 1
376443, 376441, 2
376443, 376442, 2
376443, 376444, 1
376439, 376441, 1
376439, 376440, 8
376439, 376438, 2
376444, 376445, 8
376444, 376443, 2
376444, 376446, 1
376453, 376454, 1
376453, 376451, 2
376453, 376450, 2
376453, 376452, 2
376442, 376441, 2
376442, 376443, 1
376442, 376440, 2
376447, 376445, 2
376447, 376448, 1
376447, 376449, 2
376447, 376446, 2
376438, 376439, 1
376438, 376437, 2
376437, 376435, 2
376437, 376438, 1
376437, 376436, 2
376452, 376454, 2
376452, 376451, 2
376452, 376450, 2
376452, 376453, 1
376451, 376450, 2
376451, 376448, 2
376451, 376449, 2
376451, 376454, 2
376451, 376453, 2
376451, 376452, 2
376446, 376445, 2
376446, 376444, 2
376446, 376447, 1
376441, 376442, 1
376441, 376443, 2
376441, 376440, 2
376441, 376439, 2
376434, 376433, 2
376434, 376435, 8
376434, 376436, 1
