554728, 554727, 2
554728, 554730, 2
554728, 554729, 1
554730, 554728, 2
554730, 554732, 2
554730, 554731, 1
554730, 554729, 2
554735, 554734, 2
554733, 554734, 1
554733, 554732, 2
554729, 554728, 2
554729, 554730, 1
554727, 554728, 1
554732, 554733, 1
554732, 554730, 2
554732, 554731, 2
554731, 554730, 2
554731, 554732, 1
554734, 554733, 2
554734, 554735, 1
