536383, 536384, 1
536383, 536382, 2
536383, 536380, 2
536383, 536381, 2
536386, 536384, 2
536386, 536385, 2
536386, 536388, 2
536386, 536387, 1
536391, 536392, 2
536391, 536393, 2
536391, 536390, 2
536391, 536389, 2
536387, 536386, 2
536387, 536388, 3
536387, 536389, 1
536379, 536381, 1
536379, 536382, 2
536379, 536380, 3
536379, 536378, 2
536395, 536393, 2
536395, 536398, 2
536395, 536394, 2
536395, 536397, 2
536395, 536396, 2
536395, 536399, 2
536381, 536383, 2
536381, 536382, 1
536381, 536378, 2
536381, 536379, 2
536381, 536380, 2
536388, 536386, 2
536388, 536384, 2
536388, 536387, 2
536388, 536389, 2
536377, 536378, 1
536377, 536376, 2
536399, 536400, 1
536399, 536398, 2
536399, 536395, 2
536399, 536401, 2
536399, 536397, 2
536399, 536396, 2
536364, 536367, 2
536364, 536365, 1
536364, 536363, 2
536364, 536362, 2
536364, 536366, 2
536384, 536386, 2
536384, 536383, 2
536384, 536385, 1
536384, 536388, 2
536396, 536393, 2
536396, 536398, 2
536396, 536395, 2
536396, 536394, 2
536396, 536397, 2
536396, 536399, 2
536394, 536395, 3
536394, 536393, 2
536394, 536396, 0
536394, 536397, 1
536394, 536398, 2
536368, 536367, 2
536368, 536365, 2
536368, 536370, 1
536368, 536369, 8
536368, 536366, 2
536389, 536393, 2
536389, 536391, 2
536389, 536387, 2
536389, 536390, 1
536389, 536388, 2
536400, 536401, 3
536400, 536402, 1
536400, 536399, 2
536402, 536400, 2
536402, 536401, 2
536382, 536383, 1
536382, 536380, 2
536382, 536378, 2
536382, 536379, 2
536382, 536381, 2
536365, 536364, 2
536365, 536367, 0
536365, 536368, 1
536365, 536366, 3
536362, 536364, 2
536362, 536363, 1
536362, 536366, 2
536378, 536381, 2
536378, 536382, 2
536378, 536379, 1
536378, 536380, 2
536378, 536377, 2
536392, 536393, 1
536392, 536391, 2
536392, 536390, 2
536385, 536386, 1
536385, 536384, 2
536390, 536392, 1
536390, 536393, 2
536390, 536391, 3
536390, 536389, 2
536375, 536370, 2
536375, 536372, 2
536375, 536371, 2
536375, 536367, 2
536375, 536373, 2
536375, 536376, 2
536375, 536374, 2
536370, 536375, 2
536370, 536368, 2
536370, 536369, 2
536370, 536371, 1
536370, 536367, 2
536370, 536372, 2
536370, 536374, 2
536372, 536374, 2
536372, 536371, 2
536372, 536375, 2
536372, 536373, 1
536372, 536370, 2
536393, 536392, 2
536393, 536396, 2
536393, 536391, 2
536393, 536390, 2
536393, 536389, 2
536393, 536395, 2
536393, 536394, 1
536367, 536364, 2
536367, 536375, 2
536367, 536370, 2
536367, 536368, 2
536367, 536366, 2
536367, 536365, 2
536367, 536363, 2
536397, 536395, 2
536397, 536394, 2
536397, 536396, 2
536397, 536398, 1
536397, 536399, 2
536371, 536375, 2
536371, 536370, 2
536371, 536372, 1
536373, 536375, 0
536373, 536374, 3
536373, 536372, 2
536373, 536376, 1
536398, 536395, 2
536398, 536394, 2
536398, 536396, 2
536398, 536397, 2
536398, 536399, 1
536369, 536370, 2
536369, 536368, 2
536366, 536367, 2
536366, 536364, 2
536366, 536365, 2
536366, 536362, 2
536366, 536368, 2
536401, 536400, 2
536401, 536402, 2
536401, 536399, 2
536380, 536381, 2
536380, 536382, 2
536380, 536383, 2
536380, 536378, 2
536380, 536379, 2
536363, 536364, 1
536363, 536367, 2
536363, 536362, 2
536374, 536376, 2
536374, 536375, 2
536374, 536370, 2
536374, 536372, 2
536374, 536373, 2
536376, 536375, 2
536376, 536373, 2
536376, 536377, 1
536376, 536374, 2
