455624, 455625, 3
455624, 455627, 1
455628, 455626, 2
455628, 455627, 2
455625, 455624, 2
455625, 455626, 2
455625, 455627, 2
455626, 455628, 2
455626, 455625, 2
455626, 455627, 2
455627, 455624, 2
455627, 455628, 3
455627, 455625, 2
455627, 455626, 2
