449328, 449329, 1
449328, 449327, 2
449329, 449328, 2
449329, 449330, 1
449327, 449328, 1
449327, 449326, 2
449326, 449327, 1
449336, 449335, 2
449333, 449332, 2
449333, 449334, 1
449334, 449333, 2
449334, 449335, 1
449335, 449336, 1
449335, 449334, 2
449332, 449333, 1
449332, 449331, 2
449332, 449330, 2
449330, 449331, 1
449330, 449332, 2
449330, 449329, 2
449331, 449332, 1
449331, 449330, 2
