658021, 658023, 3
658021, 658020, 2
658021, 658022, 2
658022, 658021, 2
658022, 658020, 2
658022, 658023, 2
658020, 658022, 0
658020, 658021, 3
658020, 658023, 2
658023, 658021, 2
658023, 658020, 2
658023, 658022, 2
