522793, 522791, 2
522793, 522792, 2
522793, 522794, 2
522788, 522791, 2
522788, 522785, 2
522788, 522786, 2
522788, 522789, 2
522788, 522787, 2
522788, 522790, 2
522779, 522782, 2
522779, 522781, 2
522779, 522780, 2
522779, 522777, 2
522779, 522778, 2
522779, 522776, 2
522783, 522782, 2
522783, 522784, 1
522783, 522781, 2
522783, 522774, 2
522783, 522780, 2
522783, 522792, 2
522769, 522768, 2
522769, 522771, 1
522769, 522770, 3
522774, 522771, 2
522774, 522773, 2
522774, 522772, 2
522774, 522783, 2
522774, 522775, 1
522776, 522777, 1
522776, 522779, 2
522776, 522775, 2
522776, 522773, 2
522790, 522791, 1
522790, 522792, 2
522790, 522788, 2
522790, 522789, 2
522782, 522784, 2
522782, 522779, 2
522782, 522783, 0
522782, 522780, 2
522782, 522785, 1
522782, 522781, 2
522784, 522785, 2
522784, 522786, 2
522784, 522783, 2
522784, 522782, 2
522770, 522767, 2
522770, 522768, 2
522770, 522771, 2
522770, 522773, 2
522770, 522769, 2
522785, 522782, 2
522785, 522784, 2
522785, 522786, 1
522785, 522788, 2
522772, 522774, 2
522772, 522771, 2
522772, 522773, 1
522778, 522780, 1
522778, 522777, 2
522778, 522779, 3
522773, 522776, 1
522773, 522772, 2
522773, 522770, 2
522773, 522774, 0
522773, 522771, 2
522773, 522775, 2
522765, 522767, 2
522765, 522768, 2
522765, 522766, 1
522767, 522768, 1
522767, 522766, 2
522767, 522770, 2
522767, 522765, 2
522771, 522774, 2
522771, 522773, 2
522771, 522772, 1
522771, 522770, 2
522771, 522769, 2
522781, 522780, 2
522781, 522779, 2
522781, 522783, 2
522781, 522782, 1
522777, 522779, 2
522777, 522776, 2
522777, 522778, 1
522777, 522775, 2
522766, 522767, 1
522766, 522768, 2
522766, 522765, 2
522791, 522793, 2
522791, 522794, 1
522791, 522792, 0
522791, 522788, 2
522791, 522789, 2
522791, 522790, 2
522768, 522767, 2
522768, 522766, 2
522768, 522770, 2
522768, 522769, 1
522768, 522765, 2
522775, 522774, 2
522775, 522776, 2
522775, 522777, 2
522775, 522773, 2
522780, 522778, 2
522780, 522782, 2
522780, 522779, 2
522780, 522783, 2
522780, 522781, 1
522792, 522793, 1
522792, 522783, 2
522792, 522791, 2
522792, 522789, 2
522792, 522790, 2
522786, 522785, 2
522786, 522784, 2
522786, 522787, 1
522786, 522788, 2
522789, 522791, 2
522789, 522792, 2
522789, 522788, 2
522789, 522787, 2
522789, 522790, 1
522787, 522786, 2
522787, 522789, 1
522787, 522788, 3
522794, 522793, 2
522794, 522791, 2
