432358, 432360, 2
432358, 432361, 2
432358, 432357, 2
432358, 432359, 1
432356, 432354, 2
432356, 432357, 2
432356, 432355, 2
432345, 432348, 2
432345, 432346, 3
432345, 432350, 2
432345, 432347, 1
432363, 432362, 2
432363, 432364, 3
432355, 432356, 3
432355, 432354, 2
432355, 432357, 2
432355, 432353, 2
432348, 432351, 2
432348, 432347, 2
432348, 432346, 2
432348, 432350, 2
432348, 432345, 2
432348, 432349, 1
432348, 432352, 2
432349, 432351, 1
432349, 432353, 2
432349, 432348, 2
432349, 432352, 2
432349, 432354, 2
432349, 432350, 2
432361, 432360, 2
432361, 432358, 2
432361, 432362, 1
432361, 432359, 2
432359, 432358, 2
432359, 432360, 1
432359, 432362, 2
432359, 432361, 2
432347, 432348, 1
432347, 432346, 2
432347, 432345, 2
432357, 432358, 1
432357, 432356, 2
432357, 432354, 2
432357, 432355, 2
432351, 432348, 2
432351, 432349, 2
432351, 432352, 1
432351, 432350, 2
432351, 432353, 2
432360, 432358, 2
432360, 432361, 1
432360, 432362, 2
432360, 432359, 2
432362, 432360, 2
432362, 432361, 2
432362, 432364, 2
432362, 432363, 0
432362, 432359, 2
432364, 432362, 2
432364, 432363, 2
432353, 432351, 2
432353, 432355, 2
432353, 432349, 2
432353, 432352, 2
432353, 432354, 2
432353, 432350, 2
432346, 432348, 2
432346, 432345, 2
432346, 432347, 2
432352, 432351, 2
432352, 432353, 0
432352, 432348, 2
432352, 432350, 2
432352, 432354, 1
432352, 432349, 2
432354, 432353, 2
432354, 432355, 0
432354, 432349, 2
432354, 432352, 2
432354, 432356, 2
432354, 432350, 2
432354, 432357, 1
432350, 432351, 2
432350, 432354, 2
432350, 432353, 2
432350, 432348, 2
432350, 432352, 2
432350, 432345, 2
432350, 432349, 2
