523386, 523387, 3
523386, 523383, 2
523386, 523385, 2
523386, 523384, 2
523386, 523388, 1
523387, 523386, 2
523387, 523390, 2
523387, 523385, 2
523387, 523384, 2
523387, 523388, 2
523383, 523386, 2
523383, 523385, 1
523383, 523384, 3
523383, 523388, 2
523385, 523386, 1
523385, 523387, 2
523385, 523383, 2
523385, 523388, 2
523385, 523384, 2
523384, 523386, 2
523384, 523387, 2
523384, 523383, 2
523384, 523385, 2
523390, 523391, 2
523390, 523389, 2
523390, 523388, 2
523390, 523387, 2
523391, 523389, 2
523391, 523390, 2
523389, 523391, 1
523389, 523388, 2
523389, 523390, 3
523388, 523386, 2
523388, 523387, 2
523388, 523383, 2
523388, 523385, 2
523388, 523390, 2
523388, 523389, 1
