534628, 534629, 3
534628, 534632, 1
534628, 534622, 2
534628, 534624, 2
534628, 534630, 8
534628, 534627, 2
534628, 534631, 2
534628, 534625, 2
534628, 534623, 2
534628, 534626, 2
534629, 534628, 2
534629, 534630, 2
534629, 534627, 2
534629, 534632, 2
534629, 534631, 2
534632, 534628, 2
534632, 534629, 2
534632, 534623, 2
534632, 534631, 2
534632, 534630, 2
534622, 534628, 2
534622, 534623, 1
534622, 534626, 2
534622, 534624, 2
534624, 534628, 2
534624, 534622, 2
534624, 534623, 2
534624, 534625, 2
534624, 534627, 2
534624, 534626, 2
534630, 534629, 2
534630, 534628, 2
534630, 534632, 2
534630, 534631, 1
534623, 534628, 1
534623, 534632, 2
534623, 534626, 2
534623, 534622, 2
534623, 534624, 3
534631, 534630, 2
534631, 534629, 2
534631, 534632, 2
534631, 534628, 2
534625, 534628, 2
534625, 534627, 2
534625, 534626, 1
534625, 534624, 2
534627, 534628, 2
534627, 534629, 2
534627, 534625, 2
534627, 534626, 2
534627, 534624, 2
534626, 534628, 2
534626, 534622, 2
534626, 534624, 2
534626, 534627, 1
534626, 534625, 2
534626, 534623, 2
