553681, 553683, 1
553681, 553684, 2
553681, 553680, 2
553681, 553682, 0
553684, 553683, 2
553684, 553681, 2
553684, 553682, 2
553683, 553684, 1
553683, 553681, 2
553683, 553682, 2
553679, 553680, 1
553680, 553679, 2
553680, 553681, 1
553682, 553683, 2
553682, 553684, 2
553682, 553681, 2
