522514, 522515, 3
522514, 522516, 2
522514, 522513, 2
522502, 522501, 2
522502, 522500, 2
522502, 522503, 1
522502, 522504, 2
522502, 522499, 2
522513, 522514, 1
522513, 522512, 2
522513, 522516, 2
522513, 522508, 2
522501, 522500, 2
522501, 522499, 2
522501, 522502, 2
522501, 522503, 2
522508, 522512, 2
522508, 522516, 2
522508, 522513, 2
522508, 522510, 2
522508, 522506, 2
522508, 522509, 2
522508, 522507, 2
522506, 522508, 2
522506, 522505, 2
522506, 522509, 1
522506, 522507, 3
522511, 522510, 2
522511, 522512, 1
522500, 522501, 3
522500, 522499, 2
522500, 522502, 1
522510, 522508, 2
522510, 522511, 1
522510, 522509, 2
522510, 522507, 2
522512, 522508, 2
522512, 522511, 2
522512, 522513, 1
522509, 522510, 1
522509, 522508, 2
522509, 522506, 2
522509, 522507, 2
522516, 522508, 2
522516, 522515, 2
522516, 522513, 2
522516, 522514, 2
522505, 522506, 1
522505, 522504, 2
522499, 522501, 2
522499, 522500, 1
522499, 522502, 2
522499, 522498, 2
522503, 522501, 2
522503, 522502, 2
522503, 522504, 1
522504, 522502, 2
522504, 522505, 1
522504, 522503, 2
522515, 522514, 2
522515, 522516, 3
522498, 522499, 1
522507, 522510, 2
522507, 522508, 3
522507, 522506, 2
522507, 522509, 2
