495885, 495886, 1
495885, 495884, 2
495885, 495883, 2
495879, 495882, 2
495879, 495881, 1
495879, 495884, 2
495879, 495880, 3
495882, 495881, 2
495882, 495879, 2
495882, 495884, 0
495882, 495883, 3
495882, 495886, 2
495881, 495882, 1
495881, 495879, 2
495881, 495883, 2
495881, 495880, 2
495886, 495882, 2
495886, 495885, 2
495886, 495883, 2
495884, 495882, 2
495884, 495879, 2
495884, 495885, 1
495884, 495883, 2
495883, 495885, 2
495883, 495882, 2
495883, 495881, 2
495883, 495886, 2
495883, 495884, 2
495883, 495880, 2
495880, 495881, 2
495880, 495879, 2
495880, 495883, 2
