658473, 658472, 2
658473, 658471, 2
658467, 658466, 2
658467, 658468, 1
658470, 658469, 2
658470, 658471, 1
658466, 658468, 2
658466, 658467, 1
658466, 658469, 2
658472, 658473, 0
658472, 658471, 2
658468, 658466, 2
658468, 658467, 2
658468, 658469, 1
658469, 658470, 1
658469, 658466, 2
658469, 658468, 2
658471, 658470, 2
658471, 658473, 2
658471, 658472, 1
