550482, 550483, 2
550482, 550481, 2
550490, 550492, 2
550490, 550493, 2
550490, 550491, 2
550490, 550489, 2
550491, 550492, 1
550491, 550489, 2
550491, 550490, 2
550491, 550493, 2
550491, 550487, 2
550488, 550484, 2
550488, 550486, 2
550488, 550487, 2
550488, 550489, 2
550488, 550483, 2
550483, 550485, 2
550483, 550482, 2
550483, 550484, 1
550483, 550481, 2
550483, 550488, 2
550492, 550487, 2
550492, 550490, 2
550492, 550493, 3
550492, 550491, 2
550492, 550494, 1
550485, 550486, 1
550485, 550483, 2
550485, 550484, 2
550493, 550492, 2
550493, 550490, 2
550493, 550491, 2
550493, 550494, 2
550487, 550486, 2
550487, 550489, 2
550487, 550488, 2
550487, 550491, 2
550487, 550492, 2
550486, 550487, 0
550486, 550489, 1
550486, 550485, 2
550486, 550488, 8
550481, 550483, 1
550481, 550482, 3
550481, 550479, 2
550481, 550480, 2
550479, 550481, 2
550479, 550480, 1
550484, 550483, 2
550484, 550485, 1
550484, 550488, 2
550480, 550481, 1
550480, 550479, 2
550489, 550486, 2
550489, 550487, 2
550489, 550490, 3
550489, 550491, 1
550489, 550488, 2
550494, 550492, 2
550494, 550493, 2
