572395, 572394, 2
572395, 572392, 2
572395, 572393, 2
572395, 572396, 3
572392, 572395, 1
572392, 572393, 3
572393, 572395, 2
572393, 572394, 2
572393, 572392, 2
572396, 572395, 2
572396, 572394, 2
572396, 572397, 1
572394, 572395, 2
572394, 572393, 2
572394, 572396, 2
572397, 572396, 2
