643836, 643837, 2
643836, 643835, 2
643837, 643836, 2
643837, 643835, 2
643833, 643834, 8
643833, 643835, 1
643834, 643833, 2
643834, 643835, 2
643835, 643837, 1
643835, 643833, 2
643835, 643834, 2
643835, 643836, 8
