590997, 590995, 2
590997, 590998, 2
590997, 590996, 2
591004, 591003, 2
590989, 590988, 2
590989, 590990, 1
590993, 590995, 1
590993, 590992, 2
590993, 590994, 8
590993, 590996, 2
590993, 590991, 2
590993, 590990, 2
591003, 591004, 0
591003, 591002, 2
590995, 590993, 2
590995, 590996, 1
590995, 590994, 2
590995, 590997, 2
590995, 590990, 2
590998, 590996, 2
590998, 590999, 1
590998, 590997, 7
591001, 591002, 1
591001, 591000, 2
590994, 590995, 2
590994, 590996, 2
590994, 590992, 2
590994, 590993, 2
590999, 590998, 2
590999, 591000, 1
590996, 590995, 2
590996, 590998, 1
590996, 590994, 2
590996, 590997, 2
590996, 590993, 2
591002, 591001, 2
591002, 591003, 1
591000, 591001, 1
591000, 590999, 2
590988, 590989, 1
590992, 590993, 2
590992, 590994, 2
590992, 590991, 2
590991, 590992, 8
590991, 590993, 1
590991, 590990, 2
590990, 590995, 2
590990, 590993, 2
590990, 590989, 2
590990, 590991, 1
