625715, 625718, 2
625715, 625717, 2
625715, 625716, 1
625721, 625719, 2
625721, 625720, 2
625720, 625719, 2
625720, 625718, 2
625720, 625721, 1
625719, 625718, 2
625719, 625717, 2
625719, 625721, 2
625719, 625720, 8
625718, 625719, 2
625718, 625715, 2
625718, 625716, 2
625718, 625717, 2
625718, 625720, 2
625717, 625719, 1
625717, 625718, 8
625717, 625715, 2
625717, 625716, 2
625716, 625718, 2
625716, 625715, 2
625716, 625717, 1
