374201, 374202, 1
374201, 374200, 2
374201, 374199, 2
374205, 374203, 2
374205, 374204, 2
374200, 374201, 2
374200, 374199, 2
374204, 374203, 2
374204, 374205, 2
374202, 374203, 1
374202, 374201, 2
374202, 374199, 2
374196, 374197, 1
374196, 374198, 2
374196, 374195, 2
374196, 374199, 2
374203, 374205, 1
374203, 374204, 3
374203, 374202, 2
374198, 374197, 2
374198, 374196, 2
374198, 374199, 2
374197, 374199, 1
374197, 374198, 3
374197, 374196, 2
374195, 374196, 1
374199, 374201, 1
374199, 374202, 2
374199, 374196, 2
374199, 374197, 2
374199, 374200, 8
374199, 374198, 2
