658444, 658442, 2
658444, 658445, 1
658444, 658443, 2
658445, 658447, 2
658445, 658446, 1
658445, 658444, 2
658449, 658447, 2
658449, 658448, 2
658447, 658446, 2
658447, 658449, 2
658447, 658445, 2
658447, 658448, 2
658442, 658444, 2
658442, 658443, 1
658446, 658447, 8
658446, 658445, 2
658446, 658448, 1
658443, 658442, 2
658443, 658444, 1
658448, 658447, 2
658448, 658446, 2
658448, 658449, 1
