593056, 593054, 2
593056, 593055, 2
593056, 593057, 1
593058, 593059, 1
593058, 593057, 2
593059, 593058, 2
593054, 593053, 2
593054, 593055, 0
593054, 593056, 1
593055, 593054, 2
593055, 593056, 2
593053, 593054, 1
593057, 593056, 2
593057, 593058, 1
