590699, 590702, 2
590699, 590698, 2
590699, 590701, 2
590699, 590700, 1
590701, 590702, 2
590701, 590699, 2
590701, 590700, 2
590700, 590702, 1
590700, 590699, 2
590700, 590701, 8
590700, 590703, 2
590702, 590699, 2
590702, 590701, 2
590702, 590700, 2
590702, 590703, 1
590707, 590709, 1
590707, 590706, 2
590707, 590708, 8
590703, 590702, 2
590703, 590704, 1
590703, 590700, 2
590709, 590707, 2
590709, 590710, 1
590709, 590706, 2
590709, 590708, 2
590705, 590704, 2
590705, 590706, 1
590704, 590703, 2
590704, 590706, 2
590704, 590705, 1
590698, 590699, 1
590710, 590709, 2
590706, 590704, 2
590706, 590707, 1
590706, 590709, 2
590706, 590705, 2
590708, 590709, 2
590708, 590707, 2
