341578, 341579, 1
341582, 341584, 1
341582, 341579, 2
341582, 341581, 2
341582, 341583, 8
341582, 341580, 2
341583, 341582, 2
341583, 341581, 2
341583, 341584, 2
341583, 341585, 2
341583, 341580, 2
341580, 341582, 1
341580, 341579, 2
341580, 341583, 2
341580, 341581, 8
341584, 341582, 2
341584, 341583, 2
341584, 341585, 1
341584, 341579, 2
341579, 341578, 2
341579, 341582, 2
341579, 341581, 2
341579, 341584, 2
341579, 341580, 1
341585, 341583, 2
341585, 341584, 2
341585, 341586, 1
341586, 341585, 2
341581, 341582, 2
341581, 341579, 2
341581, 341583, 2
341581, 341580, 2
