537537, 537535, 2
537537, 537534, 2
537537, 537538, 2
537537, 537539, 2
537537, 537536, 2
537537, 537540, 2
537535, 537537, 2
537535, 537534, 2
537535, 537536, 2
537534, 537537, 2
537534, 537535, 2
537534, 537532, 2
537534, 537536, 2
537534, 537533, 2
537532, 537540, 2
537532, 537534, 2
537532, 537536, 2
537532, 537533, 1
537538, 537537, 2
537538, 537539, 1
537538, 537540, 2
537540, 537538, 2
537540, 537537, 2
537540, 537539, 2
537540, 537536, 2
537540, 537532, 2
537539, 537538, 2
537539, 537537, 2
537539, 537536, 2
537539, 537540, 2
537533, 537532, 2
537533, 537534, 3
537533, 537536, 1
537536, 537537, 3
537536, 537535, 2
537536, 537534, 2
537536, 537532, 2
537536, 537539, 2
537536, 537533, 2
537536, 537540, 1
