406312, 406310, 2
406312, 406313, 1
406312, 406311, 2
406313, 406316, 2
406313, 406312, 2
406313, 406310, 2
406313, 406314, 1
406311, 406312, 1
406311, 406310, 2
406314, 406316, 1
406314, 406313, 2
406314, 406315, 8
406316, 406313, 2
406316, 406317, 1
406316, 406315, 2
406316, 406314, 2
406310, 406312, 2
406310, 406313, 2
406310, 406311, 1
406315, 406316, 2
406315, 406317, 2
406315, 406314, 2
406317, 406316, 2
406317, 406315, 2
