449807, 449806, 2
449807, 449808, 1
449807, 449805, 2
449802, 449803, 1
449802, 449804, 2
449814, 449812, 2
449814, 449813, 2
449811, 449810, 2
449811, 449812, 1
449811, 449809, 2
449804, 449803, 2
449804, 449805, 1
449804, 449802, 2
449808, 449806, 2
449808, 449807, 2
449808, 449809, 2
449809, 449806, 2
449809, 449810, 1
449809, 449808, 2
449809, 449811, 2
449810, 449811, 1
449810, 449809, 2
449805, 449806, 1
449805, 449807, 2
449805, 449804, 2
449813, 449812, 2
449813, 449814, 1
449803, 449802, 2
449803, 449804, 1
449806, 449807, 3
449806, 449808, 2
449806, 449805, 2
449806, 449809, 1
449812, 449813, 1
449812, 449811, 2
449812, 449814, 2
