642149, 642150, 1
642149, 642151, 2
642150, 642149, 2
642150, 642151, 1
642153, 642151, 2
642153, 642152, 2
642153, 642157, 2
642153, 642159, 2
642153, 642155, 2
642153, 642154, 2
642156, 642158, 2
642156, 642157, 2
642156, 642155, 2
642156, 642154, 2
642158, 642156, 2
642158, 642157, 2
642158, 642159, 2
642159, 642158, 2
642159, 642157, 2
642159, 642155, 2
642159, 642160, 1
642159, 642153, 2
642152, 642151, 2
642152, 642155, 2
642152, 642153, 3
642152, 642157, 1
642151, 642149, 2
642151, 642150, 2
642151, 642153, 2
642151, 642152, 1
642151, 642155, 2
642151, 642157, 2
642162, 642161, 2
642154, 642156, 2
642154, 642157, 2
642154, 642155, 1
642154, 642153, 2
642161, 642162, 0
642161, 642160, 2
642155, 642156, 1
642155, 642157, 2
642155, 642153, 2
642155, 642152, 2
642155, 642159, 2
642155, 642151, 2
642155, 642154, 2
642160, 642161, 1
642160, 642159, 2
642157, 642156, 2
642157, 642151, 2
642157, 642153, 2
642157, 642154, 2
642157, 642158, 3
642157, 642159, 1
642157, 642155, 2
642157, 642152, 2
