495671, 495672, 1
495671, 495673, 2
495674, 495673, 2
495674, 495676, 2
495674, 495675, 1
495674, 495677, 2
495672, 495671, 2
495672, 495673, 1
495673, 495671, 2
495673, 495676, 2
495673, 495674, 1
495673, 495672, 2
495673, 495677, 2
495676, 495673, 2
495676, 495674, 2
495676, 495675, 2
495676, 495677, 1
495675, 495676, 0
495675, 495674, 2
495675, 495677, 2
495677, 495676, 2
495677, 495673, 2
495677, 495674, 2
495677, 495675, 2
