553503, 553502, 2
553503, 553504, 1
553502, 553503, 1
553502, 553501, 2
553504, 553503, 2
553499, 553500, 1
553499, 553501, 2
553500, 553499, 2
553500, 553501, 1
553501, 553502, 1
553501, 553499, 2
553501, 553500, 2
