421245, 421246, 3
421245, 421249, 2
421245, 421248, 1
421245, 421247, 8
421249, 421245, 2
421249, 421251, 2
421249, 421250, 2
421249, 421246, 2
421249, 421248, 2
421249, 421247, 2
421251, 421249, 2
421251, 421250, 2
421250, 421246, 2
421250, 421249, 2
421250, 421248, 2
421250, 421251, 3
421250, 421247, 2
421246, 421245, 2
421246, 421247, 2
421246, 421249, 2
421246, 421248, 2
421246, 421250, 2
421248, 421245, 2
421248, 421247, 2
421248, 421249, 8
421248, 421246, 2
421248, 421250, 1
421247, 421246, 2
421247, 421249, 2
421247, 421245, 2
421247, 421248, 2
421247, 421250, 2
