549592, 549591, 2
549592, 549593, 1
549590, 549591, 1
549590, 549589, 2
549589, 549590, 1
549599, 549598, 2
549593, 549592, 2
549593, 549594, 8
549593, 549595, 1
549595, 549596, 1
549595, 549594, 2
549595, 549593, 2
549591, 549592, 1
549591, 549590, 2
549598, 549597, 2
549598, 549599, 1
549596, 549595, 2
549596, 549597, 1
549596, 549594, 2
549597, 549598, 1
549597, 549596, 2
549594, 549595, 2
549594, 549596, 2
549594, 549593, 2
