572660, 572659, 2
572660, 572661, 3
572657, 572658, 3
572657, 572655, 2
572657, 572659, 1
572657, 572656, 2
572661, 572660, 2
572659, 572658, 2
572659, 572657, 2
572659, 572660, 1
572658, 572657, 2
572658, 572659, 2
572655, 572657, 2
572655, 572656, 1
572656, 572657, 1
572656, 572655, 2
