449192, 449191, 2
449192, 449190, 2
449191, 449192, 1
449191, 449190, 2
449189, 449184, 2
449189, 449190, 1
449189, 449188, 2
449190, 449192, 2
449190, 449191, 1
449190, 449189, 2
449188, 449189, 1
449188, 449187, 2
449186, 449183, 2
449186, 449187, 1
449186, 449184, 2
449186, 449185, 2
449183, 449184, 1
449183, 449186, 2
449183, 449185, 2
449187, 449184, 2
449187, 449186, 2
449187, 449188, 1
449187, 449185, 2
449184, 449183, 2
449184, 449189, 2
449184, 449187, 2
449184, 449186, 1
449184, 449185, 0
449185, 449184, 2
449185, 449183, 2
449185, 449187, 2
449185, 449186, 2
