523085, 523090, 2
523085, 523086, 1
523085, 523088, 2
523085, 523087, 2
523086, 523085, 2
523086, 523088, 2
523086, 523087, 1
523089, 523090, 2
523089, 523088, 2
523089, 523087, 2
523087, 523085, 2
523087, 523090, 1
523087, 523086, 2
523087, 523088, 0
523087, 523089, 2
523090, 523085, 2
523090, 523089, 2
523090, 523087, 2
523088, 523085, 2
523088, 523086, 2
523088, 523089, 1
523088, 523087, 2
