554002, 554004, 2
554002, 554003, 1
554002, 554001, 2
554000, 553999, 2
554000, 554001, 1
553999, 554000, 1
554004, 554002, 2
554004, 554003, 2
554003, 554002, 2
554003, 554004, 1
554001, 554002, 1
554001, 554000, 2
