550593, 550591, 2
550593, 550594, 1
550593, 550592, 2
550593, 550595, 2
550595, 550593, 2
550595, 550594, 2
550595, 550596, 2
550589, 550591, 2
550589, 550588, 2
550589, 550590, 1
550594, 550593, 2
550594, 550595, 3
550594, 550596, 1
550586, 550584, 2
550586, 550588, 2
550586, 550583, 2
550586, 550587, 1
550586, 550585, 2
550587, 550586, 2
550587, 550588, 1
550596, 550594, 2
550596, 550598, 2
550596, 550595, 2
550596, 550597, 1
550598, 550596, 2
550598, 550597, 2
550583, 550586, 2
550583, 550585, 2
550583, 550584, 1
550583, 550582, 2
550584, 550586, 1
550584, 550585, 0
550584, 550583, 2
550597, 550598, 1
550597, 550596, 2
550582, 550583, 1
550590, 550588, 2
550590, 550591, 1
550590, 550589, 2
550588, 550586, 2
550588, 550587, 2
550588, 550590, 2
550588, 550589, 1
550592, 550593, 1
550592, 550591, 2
550591, 550592, 1
550591, 550590, 2
550591, 550589, 2
550591, 550593, 2
550585, 550586, 2
550585, 550584, 2
550585, 550583, 2
