644296, 644297, 3
644296, 644298, 1
644300, 644299, 2
644300, 644301, 1
644300, 644298, 2
644301, 644300, 2
644301, 644302, 0
644298, 644299, 3
644298, 644296, 2
644298, 644300, 1
644298, 644297, 2
644302, 644301, 2
644299, 644297, 2
644299, 644300, 2
644299, 644298, 2
644297, 644299, 2
644297, 644296, 2
644297, 644298, 2
