537053, 537052, 2
537053, 537054, 1
537053, 537055, 2
537053, 537051, 2
537055, 537054, 2
537055, 537053, 2
537055, 537056, 2
537056, 537054, 2
537056, 537055, 2
537054, 537053, 2
537054, 537055, 3
537054, 537056, 0
537052, 537051, 2
537052, 537053, 2
537051, 537052, 3
537051, 537053, 1
