374868, 374865, 2
374868, 374867, 2
374868, 374866, 2
374868, 374869, 1
374859, 374861, 2
374859, 374860, 1
374864, 374863, 2
374864, 374867, 2
374864, 374865, 1
374867, 374868, 2
374867, 374869, 2
374867, 374866, 2
374867, 374864, 2
374867, 374865, 2
374861, 374862, 1
374861, 374863, 2
374861, 374859, 2
374861, 374860, 2
374865, 374863, 2
374865, 374867, 8
374865, 374868, 1
374865, 374864, 2
374865, 374866, 0
374862, 374863, 1
374862, 374861, 2
374863, 374862, 2
374863, 374861, 2
374863, 374864, 1
374863, 374865, 2
374871, 374870, 2
374866, 374870, 2
374866, 374868, 2
374866, 374867, 2
374866, 374869, 2
374866, 374865, 2
374870, 374871, 1
374870, 374866, 2
374870, 374869, 2
374860, 374859, 2
374860, 374861, 1
374869, 374870, 1
374869, 374868, 2
374869, 374867, 2
374869, 374866, 2
