451937, 451938, 2
451937, 451936, 2
451945, 451950, 2
451945, 451955, 2
451945, 451940, 2
451945, 451943, 2
451945, 451956, 2
451945, 451960, 2
451945, 451952, 2
451945, 451942, 2
451945, 451953, 2
451945, 451947, 2
451945, 451957, 2
451945, 451941, 2
451945, 451961, 2
451945, 451946, 2
451945, 451944, 2
451945, 451948, 2
451949, 451951, 1
451949, 451950, 8
451949, 451948, 2
451940, 451945, 2
451940, 451938, 2
451940, 451942, 2
451940, 451943, 2
451940, 451939, 2
451940, 451941, 1
451946, 451947, 3
451946, 451945, 2
451946, 451943, 2
451946, 451944, 2
451946, 451948, 1
451961, 451958, 2
451961, 451945, 2
451961, 451960, 2
451961, 451959, 2
451959, 451958, 2
451959, 451957, 2
451959, 451956, 2
451959, 451960, 3
451959, 451961, 1
451952, 451945, 2
451952, 451951, 2
451952, 451950, 2
451952, 451953, 2
451958, 451957, 2
451958, 451961, 2
451958, 451960, 2
451958, 451959, 2
451942, 451940, 2
451942, 451945, 2
451942, 451943, 4
451942, 451944, 1
451942, 451941, 2
451951, 451948, 2
451951, 451953, 1
451951, 451950, 2
451951, 451949, 2
451951, 451952, 3
451947, 451943, 2
451947, 451946, 2
451947, 451945, 2
451947, 451944, 2
451947, 451948, 2
451957, 451958, 8
451957, 451945, 2
451957, 451959, 1
451957, 451956, 2
451948, 451945, 2
451948, 451950, 2
451948, 451949, 1
451948, 451951, 2
451948, 451947, 2
451948, 451946, 2
451948, 451944, 2
451950, 451952, 2
451950, 451945, 2
451950, 451949, 2
451950, 451953, 2
451950, 451951, 2
451950, 451948, 2
451938, 451940, 2
451938, 451943, 2
451938, 451939, 1
451938, 451936, 2
451938, 451937, 2
451936, 451938, 1
451936, 451937, 3
451943, 451945, 2
451943, 451938, 2
451943, 451942, 2
451943, 451947, 2
451943, 451940, 2
451943, 451946, 2
451943, 451939, 2
451943, 451941, 2
451943, 451944, 2
451955, 451945, 2
451955, 451954, 2
451955, 451956, 2
451960, 451958, 2
451960, 451945, 2
451960, 451959, 2
451960, 451961, 2
451941, 451940, 2
451941, 451945, 2
451941, 451943, 2
451941, 451942, 1
451956, 451957, 1
451956, 451945, 2
451956, 451959, 2
451956, 451954, 2
451956, 451955, 2
451953, 451950, 2
451953, 451945, 2
451953, 451951, 2
451953, 451954, 1
451953, 451952, 2
451939, 451940, 1
451939, 451943, 2
451939, 451938, 2
451954, 451955, 3
451954, 451953, 2
451954, 451956, 1
451944, 451945, 4
451944, 451942, 2
451944, 451947, 2
451944, 451946, 1
451944, 451943, 2
451944, 451948, 2
