490854, 490860, 2
490854, 490855, 1
490854, 490853, 2
490854, 490852, 2
490856, 490857, 1
490856, 490855, 2
490846, 490848, 2
490846, 490849, 2
490846, 490845, 2
490846, 490847, 2
490859, 490858, 2
490859, 490860, 3
490858, 490859, 1
490858, 490857, 2
490855, 490854, 2
490855, 490856, 1
490849, 490851, 1
490849, 490848, 2
490849, 490847, 2
490849, 490850, 3
490849, 490846, 2
490847, 490848, 1
490847, 490849, 2
490847, 490845, 2
490847, 490846, 2
490848, 490851, 2
490848, 490847, 2
490848, 490845, 2
490848, 490849, 1
490848, 490846, 2
490860, 490859, 2
490860, 490854, 2
490850, 490851, 2
490850, 490849, 2
490845, 490848, 2
490845, 490847, 1
490845, 490846, 3
490852, 490854, 1
490852, 490851, 2
490852, 490853, 3
490851, 490848, 2
490851, 490850, 2
490851, 490853, 2
490851, 490849, 2
490851, 490852, 1
490857, 490858, 1
490857, 490856, 2
490853, 490854, 2
490853, 490851, 2
490853, 490852, 2
