450114, 450113, 2
450114, 450115, 1
450114, 450112, 2
450119, 450120, 1
450119, 450118, 2
450118, 450120, 2
450118, 450117, 2
450118, 450119, 1
450118, 450116, 2
450108, 450110, 1
450108, 450107, 2
450108, 450112, 2
450108, 450109, 3
450113, 450114, 1
450113, 450112, 2
450115, 450114, 2
450115, 450116, 1
450116, 450117, 1
450116, 450115, 2
450116, 450118, 2
450109, 450108, 2
450109, 450110, 2
450109, 450107, 2
450109, 450111, 2
450110, 450108, 2
450110, 450107, 2
450110, 450112, 1
450110, 450111, 3
450110, 450109, 2
450112, 450114, 2
450112, 450108, 2
450112, 450113, 1
450112, 450110, 2
450112, 450111, 2
450120, 450119, 2
450120, 450118, 2
450117, 450116, 2
450117, 450118, 1
450107, 450108, 1
450107, 450110, 2
450107, 450109, 2
450111, 450110, 2
450111, 450112, 2
450111, 450109, 2
