419615, 419616, 1
419615, 419613, 2
419615, 419614, 2
419615, 419612, 2
419620, 419616, 2
419620, 419622, 2
419620, 419619, 2
419620, 419612, 2
419620, 419617, 2
419620, 419610, 2
419610, 419611, 3
419610, 419620, 2
419610, 419612, 1
419619, 419616, 2
419619, 419622, 1
419619, 419618, 4
419619, 419621, 2
419619, 419617, 2
419619, 419620, 6
419635, 419634, 2
419635, 419636, 1
419612, 419615, 2
419612, 419610, 2
419612, 419618, 2
419612, 419611, 2
419612, 419613, 1
419612, 419614, 2
419612, 419620, 2
419640, 419639, 2
419640, 419641, 1
419645, 419646, 1
419645, 419644, 2
419645, 419642, 2
419622, 419616, 2
419622, 419619, 2
419622, 419626, 2
419622, 419624, 2
419622, 419618, 2
419622, 419621, 2
419622, 419623, 1
419622, 419617, 2
419622, 419625, 2
419622, 419627, 2
419622, 419631, 2
419622, 419629, 2
419622, 419630, 2
419622, 419620, 2
419631, 419622, 2
419631, 419628, 2
419631, 419636, 2
419631, 419626, 2
419631, 419632, 1
419631, 419623, 2
419631, 419629, 2
419631, 419625, 2
419631, 419627, 2
419631, 419637, 2
419631, 419630, 2
419631, 419624, 2
419638, 419637, 2
419638, 419639, 1
419638, 419636, 2
419642, 419643, 0
419642, 419646, 2
419642, 419644, 2
419642, 419645, 2
419642, 419648, 1
419642, 419641, 2
419628, 419623, 2
419628, 419631, 2
419628, 419629, 1
419628, 419625, 2
419628, 419626, 2
419627, 419623, 2
419627, 419622, 2
419627, 419630, 1
419627, 419631, 2
419627, 419624, 2
419643, 419642, 2
419643, 419644, 1
419643, 419648, 2
419643, 419641, 2
419641, 419640, 2
419641, 419648, 2
419641, 419643, 2
419641, 419642, 1
419611, 419618, 2
419611, 419610, 2
419611, 419612, 2
419637, 419638, 1
419637, 419631, 2
419637, 419636, 2
419630, 419623, 2
419630, 419622, 2
419630, 419627, 2
419630, 419631, 2
419648, 419642, 2
419648, 419643, 2
419648, 419646, 2
419648, 419644, 2
419648, 419647, 2
419648, 419641, 2
419623, 419622, 2
419623, 419628, 2
419623, 419627, 2
419623, 419626, 2
419623, 419631, 1
419623, 419625, 6
419623, 419630, 2
419623, 419624, 4
419623, 419629, 2
419629, 419623, 2
419629, 419622, 2
419629, 419628, 2
419629, 419625, 2
419629, 419631, 2
419636, 419634, 2
419636, 419638, 2
419636, 419631, 2
419636, 419637, 1
419636, 419635, 2
419624, 419623, 2
419624, 419622, 2
419624, 419627, 1
419624, 419631, 2
419613, 419615, 1
419613, 419614, 8
419613, 419612, 2
419644, 419642, 2
419644, 419645, 1
419644, 419648, 2
419644, 419643, 2
419625, 419623, 2
419625, 419622, 2
419625, 419628, 2
419625, 419626, 0
419625, 419631, 2
419625, 419629, 2
419647, 419646, 2
419647, 419648, 2
419632, 419631, 2
419632, 419633, 1
419616, 419615, 2
419616, 419622, 2
419616, 419619, 2
419616, 419618, 2
419616, 419621, 2
419616, 419614, 2
419616, 419617, 1
419616, 419620, 2
419634, 419635, 1
419634, 419633, 2
419634, 419636, 2
419646, 419642, 2
419646, 419645, 2
419646, 419648, 2
419646, 419647, 1
419618, 419616, 2
419618, 419622, 2
419618, 419619, 2
419618, 419612, 2
419618, 419611, 2
419618, 419621, 0
419618, 419614, 2
419618, 419617, 2
419621, 419616, 2
419621, 419618, 2
419621, 419622, 2
419621, 419619, 2
419621, 419617, 2
419614, 419615, 2
419614, 419613, 2
419614, 419616, 2
419614, 419612, 2
419614, 419618, 2
419617, 419616, 2
419617, 419622, 2
419617, 419619, 1
419617, 419618, 2
419617, 419621, 2
419617, 419620, 2
419639, 419638, 2
419639, 419640, 1
419626, 419623, 2
419626, 419631, 2
419626, 419628, 1
419626, 419625, 2
419626, 419622, 2
419633, 419634, 1
419633, 419632, 2
