549766, 549767, 2
549766, 549761, 2
549766, 549762, 2
549766, 549760, 2
549766, 549757, 2
549766, 549763, 2
549766, 549765, 2
549767, 549766, 2
549767, 549764, 2
549767, 549761, 2
549767, 549762, 2
549767, 549758, 2
549767, 549760, 2
549767, 549759, 2
549767, 549763, 2
549767, 549765, 2
549761, 549766, 2
549761, 549767, 2
549761, 549764, 2
549761, 549758, 2
549761, 549765, 2
549761, 549760, 2
549761, 549759, 2
549761, 549763, 2
549761, 549757, 2
549764, 549767, 2
549764, 549761, 2
549764, 549762, 2
549764, 549760, 2
549764, 549757, 2
549764, 549763, 2
549764, 549765, 2
549762, 549757, 2
549762, 549766, 2
549762, 549767, 2
549762, 549764, 2
549762, 549758, 2
549762, 549760, 2
549762, 549759, 2
549762, 549763, 2
549762, 549765, 2
549758, 549767, 2
549758, 549761, 2
549758, 549762, 2
549758, 549760, 2
549758, 549757, 2
549758, 549763, 2
549758, 549765, 2
549759, 549767, 2
549759, 549761, 2
549759, 549762, 2
549759, 549760, 2
549759, 549757, 2
549759, 549763, 2
549759, 549765, 2
549760, 549766, 2
549760, 549764, 2
549760, 549761, 2
549760, 549762, 2
549760, 549758, 2
549760, 549767, 2
549760, 549759, 2
549760, 549763, 2
549760, 549757, 2
549757, 549766, 2
549757, 549764, 2
549757, 549761, 2
549757, 549762, 2
549757, 549758, 2
549757, 549760, 2
549757, 549759, 2
549757, 549763, 2
549757, 549765, 2
549763, 549757, 2
549763, 549766, 2
549763, 549767, 2
549763, 549764, 2
549763, 549762, 2
549763, 549758, 2
549763, 549761, 2
549763, 549760, 2
549763, 549759, 2
549763, 549765, 2
549765, 549766, 2
549765, 549767, 2
549765, 549761, 2
549765, 549764, 2
549765, 549762, 2
549765, 549758, 2
549765, 549759, 2
549765, 549763, 2
549765, 549757, 2
