431847, 431848, 1
431847, 431846, 2
431847, 431849, 2
431846, 431847, 1
431846, 431844, 2
431846, 431848, 2
431846, 431845, 2
431846, 431849, 2
431850, 431848, 2
431850, 431849, 2
431850, 431851, 1
431845, 431844, 2
431845, 431846, 1
431849, 431847, 2
431849, 431846, 2
431849, 431850, 2
431849, 431851, 2
431849, 431853, 2
431849, 431844, 2
431849, 431848, 2
431849, 431854, 2
431852, 431853, 1
431852, 431854, 2
431852, 431851, 2
431853, 431852, 2
431853, 431854, 0
431853, 431851, 2
431853, 431849, 2
431844, 431846, 2
431844, 431845, 1
431844, 431849, 2
431848, 431847, 2
431848, 431846, 2
431848, 431850, 1
431848, 431851, 2
431848, 431849, 0
431854, 431853, 2
431854, 431852, 2
431854, 431851, 2
431854, 431849, 2
431851, 431852, 1
431851, 431849, 2
431851, 431853, 2
431851, 431850, 2
431851, 431848, 2
431851, 431854, 2
