421404, 421403, 2
421404, 421402, 2
421404, 421401, 2
421404, 421405, 1
421406, 421405, 2
421403, 421404, 2
421403, 421402, 2
421403, 421401, 2
421403, 421405, 2
421402, 421404, 1
421402, 421403, 8
421402, 421401, 2
421399, 421400, 3
421399, 421401, 1
421401, 421404, 2
421401, 421403, 2
421401, 421402, 1
421401, 421399, 2
421401, 421400, 2
421405, 421404, 2
421405, 421403, 2
421405, 421406, 1
421400, 421399, 2
421400, 421401, 2
