377902, 377904, 1
377902, 377903, 0
377902, 377905, 2
377904, 377902, 2
377904, 377903, 2
377904, 377905, 1
377903, 377902, 2
377903, 377904, 2
377903, 377905, 2
377905, 377902, 2
377905, 377904, 2
377905, 377903, 2
