570428, 570429, 3
570428, 570430, 0
570430, 570429, 2
570430, 570428, 2
570430, 570431, 2
570430, 570432, 2
570435, 570434, 2
570435, 570437, 2
570435, 570436, 1
570435, 570433, 2
570429, 570428, 2
570429, 570433, 2
570429, 570430, 2
570429, 570431, 2
570429, 570432, 2
570432, 570429, 2
570432, 570434, 0
570432, 570433, 3
570432, 570430, 2
570432, 570431, 2
570434, 570437, 2
570434, 570432, 2
570434, 570435, 2
570434, 570436, 2
570434, 570433, 2
570437, 570434, 2
570437, 570433, 2
570437, 570436, 2
570437, 570435, 2
570436, 570437, 1
570436, 570434, 2
570436, 570433, 2
570436, 570435, 2
570433, 570437, 2
570433, 570429, 2
570433, 570432, 2
570433, 570434, 2
570433, 570435, 2
570433, 570436, 2
570431, 570429, 2
570431, 570432, 1
570431, 570430, 2
