451836, 451834, 2
451836, 451837, 1
451836, 451833, 2
451836, 451835, 2
451833, 451834, 1
451833, 451832, 2
451833, 451836, 2
451833, 451831, 2
451833, 451835, 2
451835, 451834, 2
451835, 451837, 2
451835, 451833, 2
451835, 451836, 2
451837, 451836, 2
451837, 451838, 1
451837, 451839, 2
451837, 451835, 2
451855, 451854, 2
451855, 451853, 2
451855, 451852, 2
451842, 451843, 1
451842, 451844, 2
451842, 451840, 2
451842, 451839, 2
451842, 451841, 2
451854, 451855, 4
451854, 451853, 2
451854, 451856, 6
451854, 451852, 2
451839, 451837, 2
451839, 451841, 2
451839, 451840, 1
451839, 451842, 2
451839, 451838, 2
451843, 451842, 2
451843, 451844, 1
451846, 451845, 2
451846, 451847, 2
451846, 451844, 2
451856, 451854, 2
451856, 451847, 2
451856, 451853, 2
451856, 451852, 2
451834, 451836, 1
451834, 451833, 2
451834, 451835, 8
451845, 451846, 1
451845, 451847, 2
451845, 451844, 2
451832, 451833, 2
451832, 451831, 2
451838, 451837, 2
451838, 451839, 1
451844, 451843, 2
451844, 451846, 2
451844, 451845, 0
451844, 451847, 1
451844, 451842, 2
451851, 451848, 2
451851, 451850, 2
451851, 451849, 2
451851, 451852, 1
451852, 451855, 2
451852, 451856, 2
451852, 451849, 2
451852, 451854, 2
451852, 451850, 2
451852, 451853, 1
451852, 451851, 2
451840, 451841, 1
451840, 451839, 2
451840, 451842, 2
451849, 451847, 2
451849, 451848, 2
451849, 451850, 2
451849, 451851, 2
451849, 451852, 2
451848, 451850, 8
451848, 451847, 2
451848, 451849, 0
451848, 451851, 1
451847, 451846, 2
451847, 451856, 2
451847, 451849, 2
451847, 451848, 1
451847, 451845, 2
451847, 451850, 2
451847, 451844, 2
451841, 451840, 2
451841, 451842, 1
451841, 451839, 2
451850, 451848, 2
451850, 451847, 2
451850, 451849, 2
451850, 451851, 2
451850, 451852, 2
451853, 451855, 2
451853, 451854, 1
451853, 451856, 2
451853, 451852, 2
451831, 451833, 1
451831, 451832, 3
