494406, 494407, 1
494406, 494408, 2
494406, 494405, 2
494409, 494407, 2
494409, 494408, 2
494407, 494406, 2
494407, 494409, 0
494407, 494408, 3
494408, 494406, 2
494408, 494409, 2
494408, 494407, 2
494405, 494406, 1
