495326, 495327, 1
495328, 495327, 2
495328, 495330, 2
495328, 495331, 2
495328, 495329, 3
495331, 495330, 2
495331, 495328, 2
495329, 495327, 2
495329, 495328, 2
495329, 495330, 1
495327, 495326, 2
495327, 495328, 1
495327, 495329, 2
495330, 495328, 2
495330, 495331, 1
495330, 495329, 2
