339734, 339735, 1
339734, 339733, 2
339735, 339734, 2
339735, 339736, 0
339735, 339733, 2
339737, 339738, 1
339737, 339736, 2
339738, 339737, 2
339736, 339735, 2
339736, 339737, 1
339736, 339733, 2
339733, 339734, 1
339733, 339735, 2
339733, 339736, 2
