554284, 554283, 2
554284, 554285, 2
554284, 554282, 2
554284, 554286, 2
554283, 554284, 2
554283, 554285, 2
554283, 554282, 2
554283, 554286, 2
554283, 554281, 2
554285, 554284, 2
554285, 554283, 2
554285, 554286, 3
554285, 554287, 1
554285, 554282, 2
554285, 554281, 2
554281, 554283, 2
554281, 554285, 2
554281, 554282, 1
554281, 554280, 2
554287, 554285, 2
554287, 554286, 2
554287, 554282, 2
554282, 554284, 8
554282, 554283, 3
554282, 554285, 1
554282, 554287, 2
554282, 554281, 2
554280, 554281, 1
554286, 554284, 2
554286, 554287, 2
554286, 554285, 2
554286, 554283, 2
