590885, 590886, 1
590885, 590884, 2
590888, 590889, 2
590888, 590887, 2
590890, 590889, 2
590890, 590887, 2
590886, 590885, 2
590886, 590887, 1
590882, 590881, 2
590882, 590883, 1
590882, 590880, 2
590881, 590882, 1
590881, 590883, 2
590881, 590880, 2
590889, 590888, 2
590889, 590890, 1
590889, 590887, 2
590884, 590885, 1
590884, 590883, 2
590887, 590886, 2
590887, 590890, 2
590887, 590888, 8
590887, 590889, 1
590879, 590878, 2
590879, 590880, 1
590879, 590876, 2
590879, 590877, 2
590875, 590876, 1
590876, 590878, 2
590876, 590879, 2
590876, 590875, 2
590876, 590877, 1
590878, 590879, 2
590878, 590877, 2
590878, 590876, 2
590883, 590881, 2
590883, 590882, 2
590883, 590880, 2
590883, 590884, 1
590880, 590881, 1
590880, 590879, 2
590880, 590883, 2
590880, 590882, 2
590877, 590878, 8
590877, 590879, 1
590877, 590876, 2
