553544, 553545, 2
553544, 553546, 2
553544, 553543, 2
553544, 553542, 2
553544, 553541, 2
553545, 553544, 2
553545, 553546, 2
553545, 553543, 2
553541, 553544, 2
553541, 553543, 2
553541, 553542, 1
553546, 553544, 2
553546, 553545, 2
553546, 553543, 2
553543, 553544, 2
553543, 553545, 2
553543, 553541, 2
553543, 553542, 2
553543, 553546, 2
553542, 553544, 2
553542, 553541, 2
553542, 553543, 2
