641881, 641880, 2
641874, 641872, 2
641874, 641876, 2
641874, 641875, 1
641874, 641871, 2
641874, 641873, 2
641876, 641874, 2
641876, 641878, 2
641876, 641875, 2
641876, 641871, 2
641876, 641880, 1
641876, 641873, 2
641876, 641877, 3
641876, 641872, 2
641876, 641879, 2
641875, 641874, 2
641875, 641876, 2
641875, 641877, 2
641875, 641873, 2
641871, 641874, 2
641871, 641876, 1
641871, 641872, 3
641878, 641876, 2
641878, 641877, 2
641878, 641879, 1
641880, 641881, 1
641880, 641876, 2
641880, 641877, 2
641880, 641879, 2
641879, 641876, 2
641879, 641877, 2
641879, 641878, 2
641879, 641880, 2
641877, 641880, 2
641877, 641876, 2
641877, 641875, 2
641877, 641878, 1
641877, 641879, 2
641872, 641874, 2
641872, 641876, 2
641872, 641871, 2
641872, 641873, 2
641873, 641874, 1
641873, 641876, 2
641873, 641875, 2
641873, 641872, 2
