641483, 641482, 2
641483, 641484, 1
641482, 641483, 1
641482, 641481, 2
641487, 641486, 2
641487, 641488, 1
641487, 641484, 2
641485, 641486, 1
641485, 641484, 2
641479, 641480, 1
641486, 641487, 1
641486, 641485, 2
641486, 641484, 2
641480, 641481, 1
641480, 641479, 2
641488, 641487, 2
641484, 641483, 2
641484, 641486, 2
641484, 641487, 2
641484, 641485, 1
641481, 641480, 2
641481, 641482, 1
