608304, 608305, 1
608307, 608308, 3
608307, 608310, 1
608307, 608309, 2
608307, 608306, 2
608306, 608308, 2
608306, 608307, 1
608306, 608305, 2
608310, 608308, 2
608310, 608307, 2
608310, 608309, 2
608308, 608307, 2
608308, 608309, 6
608308, 608306, 2
608308, 608310, 2
608305, 608304, 2
608305, 608306, 1
608309, 608308, 2
608309, 608307, 2
608309, 608310, 2
