625428, 625424, 2
625428, 625425, 2
625428, 625427, 2
625426, 625424, 2
625426, 625425, 2
625426, 625427, 2
625424, 625428, 2
625424, 625426, 3
625424, 625427, 1
625424, 625425, 0
625425, 625426, 2
625425, 625424, 2
625425, 625428, 2
625425, 625427, 2
625427, 625428, 1
625427, 625426, 2
625427, 625424, 2
625427, 625425, 2
