334100, 334098, 2
334100, 334099, 2
334100, 334097, 2
334100, 334101, 1
334103, 334104, 1
334103, 334102, 2
334099, 334098, 2
334099, 334100, 2
334099, 334097, 2
334106, 334109, 2
334106, 334107, 8
334106, 334108, 1
334106, 334105, 2
334105, 334106, 1
334105, 334107, 2
334105, 334108, 2
334105, 334104, 2
334098, 334100, 2
334098, 334097, 2
334098, 334099, 2
334107, 334106, 2
334107, 334108, 2
334107, 334105, 2
334108, 334106, 2
334108, 334107, 2
334108, 334105, 2
334108, 334109, 1
334104, 334103, 2
334104, 334105, 1
334102, 334103, 1
334102, 334101, 2
334109, 334106, 2
334109, 334108, 2
334101, 334100, 2
334101, 334102, 1
334097, 334098, 6
334097, 334100, 1
334097, 334099, 3
