537243, 537242, 2
537243, 537244, 3
537243, 537245, 1
537247, 537245, 2
537247, 537246, 2
537245, 537244, 2
537245, 537246, 1
537245, 537243, 2
537245, 537242, 2
537245, 537247, 2
537241, 537242, 1
537244, 537245, 2
537244, 537243, 2
537244, 537242, 2
537242, 537245, 2
537242, 537241, 2
537242, 537243, 1
537242, 537244, 2
537246, 537245, 2
537246, 537247, 1
