339740, 339739, 2
339740, 339741, 1
339744, 339742, 2
339744, 339743, 2
339743, 339744, 3
339743, 339742, 2
339743, 339741, 2
339739, 339740, 1
339739, 339741, 2
339741, 339740, 2
339741, 339739, 2
339741, 339742, 3
339741, 339743, 1
339742, 339741, 2
339742, 339744, 2
339742, 339743, 2
