549957, 549958, 1
549957, 549956, 2
549957, 549950, 2
549957, 549955, 2
549951, 549949, 2
549951, 549952, 2
549959, 549958, 2
549959, 549960, 1
549958, 549955, 2
549958, 549957, 2
549958, 549960, 2
549958, 549959, 1
549956, 549955, 2
549956, 549957, 1
549953, 549952, 2
549953, 549954, 1
549954, 549955, 1
549954, 549953, 2
549954, 549950, 2
549954, 549952, 2
549960, 549958, 2
549960, 549961, 1
549960, 549959, 2
549955, 549958, 2
549955, 549956, 1
549955, 549957, 2
549955, 549950, 2
549955, 549954, 2
549952, 549954, 2
549952, 549953, 1
549952, 549950, 2
549952, 549949, 2
549952, 549951, 2
549949, 549952, 1
549949, 549951, 3
549949, 549950, 6
549961, 549950, 2
549961, 549960, 2
549950, 549955, 2
549950, 549957, 2
549950, 549952, 2
549950, 549949, 2
549950, 549961, 2
549950, 549954, 2
