432650, 432647, 2
432650, 432651, 1
432650, 432648, 2
432650, 432652, 2
432650, 432653, 2
432650, 432649, 2
432656, 432657, 3
432656, 432658, 1
432656, 432659, 2
432656, 432655, 2
432656, 432654, 2
432651, 432650, 2
432651, 432654, 2
432651, 432653, 2
432651, 432652, 1
432638, 432640, 1
432638, 432639, 3
432638, 432641, 2
432645, 432647, 1
432645, 432642, 2
432645, 432646, 8
432645, 432644, 2
432645, 432643, 2
432645, 432648, 2
432662, 432660, 2
432662, 432661, 2
432662, 432659, 2
432662, 432663, 1
432649, 432650, 1
432649, 432647, 2
432649, 432648, 2
432663, 432661, 2
432663, 432662, 2
432663, 432660, 2
432639, 432640, 2
432639, 432638, 2
432639, 432641, 2
432643, 432644, 1
432643, 432641, 2
432643, 432645, 2
432643, 432642, 2
432655, 432657, 2
432655, 432656, 2
432655, 432654, 2
432657, 432656, 2
432657, 432658, 2
432657, 432659, 2
432657, 432655, 2
432657, 432654, 2
432658, 432657, 2
432658, 432656, 2
432658, 432659, 1
432641, 432638, 2
432641, 432640, 2
432641, 432639, 2
432641, 432643, 2
432641, 432644, 2
432641, 432642, 1
432646, 432645, 2
432646, 432647, 2
432646, 432648, 2
432640, 432641, 1
432640, 432639, 2
432640, 432638, 2
432644, 432645, 1
432644, 432643, 2
432644, 432641, 2
432644, 432642, 2
432660, 432661, 1
432660, 432662, 2
432660, 432659, 2
432660, 432663, 2
432653, 432650, 2
432653, 432651, 2
432653, 432652, 2
432653, 432654, 1
432647, 432646, 2
432647, 432650, 2
432647, 432645, 2
432647, 432648, 3
432647, 432649, 1
432659, 432657, 2
432659, 432656, 2
432659, 432658, 2
432659, 432661, 2
432659, 432660, 1
432659, 432662, 2
432648, 432646, 2
432648, 432650, 2
432648, 432645, 2
432648, 432647, 2
432648, 432649, 2
432652, 432650, 2
432652, 432651, 2
432652, 432653, 1
432652, 432654, 2
432654, 432657, 2
432654, 432656, 1
432654, 432651, 2
432654, 432653, 2
432654, 432652, 2
432654, 432655, 8
432661, 432659, 2
432661, 432662, 1
432661, 432660, 2
432661, 432663, 2
432642, 432644, 2
432642, 432643, 1
432642, 432641, 2
432642, 432645, 2
