453807, 453806, 2
453807, 453808, 1
453807, 453809, 2
453807, 453800, 2
453816, 453815, 2
453816, 453812, 2
453816, 453814, 2
453816, 453817, 2
453816, 453813, 2
453814, 453825, 2
453814, 453816, 2
453814, 453815, 2
453814, 453812, 2
453814, 453826, 2
453814, 453823, 2
453814, 453820, 2
453814, 453821, 2
453814, 453817, 2
453814, 453813, 2
453803, 453805, 1
453803, 453800, 2
453803, 453802, 2
453803, 453804, 8
453806, 453807, 1
453806, 453808, 2
453806, 453798, 2
453806, 453800, 2
453806, 453805, 2
453806, 453804, 2
453794, 453795, 1
453794, 453793, 2
453813, 453825, 2
453813, 453816, 2
453813, 453819, 2
453813, 453814, 2
453813, 453818, 2
453813, 453823, 2
453813, 453820, 2
453813, 453815, 2
453813, 453812, 2
453813, 453817, 2
453813, 453827, 2
453813, 453798, 2
453813, 453824, 2
453813, 453821, 2
453800, 453807, 2
453800, 453809, 2
453800, 453797, 2
453800, 453803, 2
453800, 453806, 2
453800, 453796, 2
453800, 453801, 2
453800, 453805, 2
453800, 453799, 2
453800, 453812, 2
453800, 453795, 2
453800, 453798, 2
453800, 453811, 2
453800, 453802, 2
453823, 453822, 2
453823, 453824, 1
453823, 453814, 2
453823, 453813, 2
453819, 453820, 2
453819, 453818, 2
453819, 453821, 2
453819, 453813, 2
453827, 453826, 2
453827, 453813, 2
453817, 453816, 2
453817, 453815, 2
453817, 453812, 2
453817, 453814, 2
453817, 453818, 1
453817, 453820, 2
453817, 453813, 2
453810, 453811, 1
453810, 453809, 2
453822, 453823, 1
453822, 453821, 2
453811, 453810, 2
453811, 453798, 2
453811, 453812, 1
453811, 453800, 2
453824, 453825, 1
453824, 453823, 2
453824, 453813, 2
453821, 453814, 2
453821, 453822, 1
453821, 453819, 2
453821, 453820, 2
453821, 453813, 2
453795, 453799, 1
453795, 453801, 2
453795, 453797, 0
453795, 453793, 2
453795, 453796, 3
453795, 453798, 2
453795, 453794, 2
453795, 453802, 2
453795, 453800, 2
453825, 453814, 2
453825, 453824, 2
453825, 453826, 1
453825, 453813, 2
453799, 453795, 2
453799, 453797, 2
453799, 453798, 2
453799, 453796, 2
453799, 453801, 3
453799, 453800, 2
453799, 453802, 1
453809, 453807, 2
453809, 453810, 1
453809, 453808, 2
453809, 453798, 2
453809, 453800, 2
453797, 453799, 2
453797, 453798, 2
453797, 453805, 2
453797, 453795, 2
453797, 453796, 2
453797, 453801, 2
453797, 453800, 1
453797, 453802, 2
453791, 453792, 1
453791, 453790, 2
453791, 453793, 2
453801, 453799, 2
453801, 453798, 2
453801, 453797, 2
453801, 453796, 2
453801, 453795, 2
453801, 453800, 2
453801, 453802, 2
453818, 453820, 1
453818, 453819, 8
453818, 453817, 2
453818, 453813, 2
453815, 453816, 3
453815, 453812, 2
453815, 453814, 2
453815, 453817, 1
453815, 453813, 2
453805, 453797, 2
453805, 453803, 2
453805, 453806, 1
453805, 453800, 2
453805, 453802, 2
453805, 453804, 2
453804, 453803, 2
453804, 453806, 2
453804, 453798, 2
453804, 453802, 2
453804, 453805, 2
453790, 453791, 1
453808, 453807, 2
453808, 453806, 2
453808, 453809, 1
453808, 453798, 2
453812, 453816, 2
453812, 453815, 1
453812, 453798, 2
453812, 453814, 0
453812, 453817, 2
453812, 453811, 2
453812, 453800, 2
453812, 453813, 3
453826, 453825, 2
453826, 453827, 1
453826, 453814, 2
453793, 453794, 1
453793, 453795, 2
453793, 453792, 2
453793, 453791, 2
453820, 453819, 2
453820, 453814, 2
453820, 453817, 2
453820, 453818, 2
453820, 453821, 1
453820, 453813, 2
453798, 453809, 2
453798, 453797, 2
453798, 453806, 2
453798, 453796, 2
453798, 453801, 2
453798, 453804, 2
453798, 453799, 2
453798, 453808, 2
453798, 453812, 2
453798, 453795, 2
453798, 453811, 2
453798, 453813, 2
453798, 453800, 2
453798, 453802, 2
453792, 453793, 1
453792, 453791, 2
453796, 453799, 2
453796, 453798, 1
453796, 453797, 2
453796, 453802, 2
453796, 453801, 2
453796, 453800, 2
453796, 453795, 2
453802, 453799, 2
453802, 453801, 2
453802, 453797, 2
453802, 453795, 2
453802, 453803, 1
453802, 453796, 2
453802, 453798, 2
453802, 453800, 2
453802, 453805, 2
453802, 453804, 2
