490139, 490138, 2
490139, 490141, 2
490139, 490136, 2
490139, 490144, 2
490139, 490137, 2
490139, 490140, 1
490139, 490135, 2
490136, 490137, 1
490136, 490138, 2
490136, 490135, 2
490136, 490139, 2
490145, 490147, 2
490145, 490143, 2
490145, 490146, 2
490145, 490144, 2
490144, 490141, 2
490144, 490139, 2
490144, 490135, 2
490144, 490145, 2
490144, 490143, 2
490144, 490142, 2
490144, 490146, 2
490137, 490138, 6
490137, 490139, 1
490137, 490136, 2
490137, 490135, 2
490142, 490141, 2
490142, 490143, 1
490142, 490146, 2
490142, 490144, 2
490138, 490137, 2
490138, 490139, 2
490138, 490136, 2
490138, 490135, 2
490135, 490137, 2
490135, 490138, 2
490135, 490136, 1
490135, 490144, 2
490135, 490139, 2
490143, 490147, 2
490143, 490145, 0
490143, 490142, 2
490143, 490146, 3
490143, 490144, 6
490147, 490145, 2
490147, 490143, 2
490147, 490146, 2
490140, 490141, 1
490140, 490139, 2
490141, 490139, 2
490141, 490140, 2
490141, 490142, 1
490141, 490146, 2
490141, 490144, 2
490146, 490141, 2
490146, 490145, 2
490146, 490143, 2
490146, 490144, 2
490146, 490147, 3
490146, 490142, 2
