456741, 456740, 2
456741, 456743, 2
456741, 456742, 1
456741, 456739, 2
456739, 456741, 2
456739, 456740, 1
456739, 456737, 2
456739, 456738, 2
456742, 456741, 2
456742, 456743, 1
456740, 456741, 1
456740, 456739, 2
456743, 456741, 2
456743, 456742, 2
456736, 456737, 1
456737, 456739, 2
456737, 456736, 2
456737, 456738, 1
456738, 456739, 1
456738, 456737, 2
