553120, 553118, 2
553120, 553121, 2
553118, 553120, 3
553118, 553121, 1
553118, 553119, 6
553121, 553120, 2
553121, 553118, 2
553121, 553122, 3
553121, 553119, 2
553122, 553121, 2
553119, 553118, 2
553119, 553121, 2
