607682, 607681, 2
607682, 607679, 2
607682, 607683, 1
607682, 607684, 2
607682, 607680, 2
607682, 607671, 2
607654, 607684, 2
607654, 607653, 2
607654, 607655, 1
607654, 607671, 2
607653, 607654, 1
607678, 607684, 2
607678, 607680, 2
607678, 607679, 1
607678, 607677, 2
607678, 607671, 2
607661, 607663, 2
607661, 607659, 2
607661, 607657, 2
607661, 607671, 2
607661, 607660, 2
607661, 607684, 2
607661, 607662, 1
607661, 607667, 2
607661, 607658, 2
607683, 607682, 2
607683, 607684, 4
607683, 607671, 2
607683, 607680, 2
607683, 607685, 1
607665, 607664, 2
607665, 607666, 1
607665, 607667, 2
607665, 607671, 2
607664, 607663, 2
607664, 607665, 1
607664, 607671, 2
607676, 607677, 1
607676, 607684, 2
607676, 607675, 2
607676, 607671, 2
607676, 607680, 2
607676, 607674, 2
607667, 607663, 2
607667, 607671, 2
607667, 607666, 2
607667, 607661, 2
607667, 607668, 2
607667, 607670, 2
607667, 607665, 2
607667, 607669, 2
607667, 607680, 2
607667, 607658, 2
607658, 607659, 2
607658, 607661, 2
607658, 607660, 2
607658, 607656, 2
607658, 607667, 2
607658, 607657, 2
607655, 607656, 1
607655, 607654, 2
607666, 607665, 2
607666, 607669, 2
607666, 607667, 0
607666, 607668, 1
607666, 607671, 2
607668, 607669, 1
607668, 607666, 2
607668, 607667, 2
607668, 607671, 2
607674, 607673, 2
607674, 607672, 2
607674, 607684, 2
607674, 607675, 1
607674, 607680, 2
607674, 607676, 2
607674, 607671, 2
607673, 607671, 2
607673, 607672, 2
607673, 607674, 1
607657, 607659, 1
607657, 607661, 2
607657, 607660, 2
607657, 607656, 2
607657, 607671, 2
607657, 607658, 0
607659, 607657, 2
607659, 607661, 2
607659, 607660, 1
607659, 607658, 2
607681, 607682, 1
607681, 607684, 2
607681, 607680, 2
607681, 607679, 2
607662, 607663, 1
607662, 607661, 2
607672, 607670, 2
607672, 607674, 2
607672, 607673, 1
607672, 607671, 2
607684, 607682, 2
607684, 607681, 2
607684, 607678, 2
607684, 607661, 2
607684, 607683, 2
607684, 607670, 2
607684, 607676, 2
607684, 607674, 2
607684, 607663, 2
607684, 607679, 2
607684, 607677, 2
607684, 607685, 2
607684, 607654, 2
607684, 607680, 2
607684, 607671, 2
607675, 607676, 1
607675, 607674, 2
607663, 607664, 1
607663, 607661, 2
607663, 607684, 2
607663, 607662, 2
607663, 607667, 2
607663, 607671, 2
607679, 607682, 2
607679, 607681, 1
607679, 607678, 2
607679, 607684, 2
607679, 607680, 0
607679, 607671, 2
607677, 607684, 2
607677, 607678, 1
607677, 607676, 2
607677, 607671, 2
607670, 607672, 1
607670, 607684, 2
607670, 607669, 2
607670, 607680, 2
607670, 607667, 2
607670, 607671, 4
607656, 607671, 2
607656, 607657, 1
607656, 607655, 2
607656, 607658, 2
607660, 607659, 2
607660, 607661, 1
607660, 607657, 2
607660, 607658, 2
607669, 607670, 1
607669, 607666, 2
607669, 607667, 2
607669, 607668, 2
607669, 607671, 2
607680, 607682, 2
607680, 607681, 2
607680, 607678, 2
607680, 607679, 2
607680, 607683, 2
607680, 607670, 2
607680, 607684, 2
607680, 607676, 2
607680, 607667, 2
607680, 607674, 2
607685, 607684, 2
607685, 607683, 2
607671, 607682, 2
607671, 607654, 2
607671, 607678, 2
607671, 607661, 2
607671, 607683, 2
607671, 607665, 2
607671, 607664, 2
607671, 607676, 2
607671, 607667, 2
607671, 607674, 2
607671, 607666, 2
607671, 607668, 2
607671, 607673, 2
607671, 607657, 2
607671, 607672, 2
607671, 607670, 2
607671, 607663, 2
607671, 607679, 2
607671, 607677, 2
607671, 607684, 2
607671, 607656, 2
607671, 607669, 2
