592438, 592439, 2
592438, 592437, 2
592438, 592435, 2
592438, 592436, 2
592439, 592438, 2
592439, 592436, 2
592437, 592438, 2
592437, 592436, 2
592435, 592438, 2
592435, 592436, 1
592436, 592438, 1
592436, 592439, 2
592436, 592437, 0
592436, 592435, 2
