452298, 452299, 1
452298, 452297, 2
452298, 452288, 2
452298, 452287, 2
452296, 452295, 2
452296, 452297, 1
452296, 452288, 2
452296, 452287, 2
452296, 452294, 2
452297, 452298, 1
452297, 452296, 2
452288, 452295, 2
452288, 452290, 2
452288, 452298, 2
452288, 452296, 2
452288, 452300, 2
452288, 452293, 2
452288, 452301, 2
452288, 452286, 2
452288, 452289, 2
452288, 452287, 2
452285, 452284, 2
452285, 452286, 1
452287, 452294, 2
452287, 452290, 2
452287, 452298, 2
452287, 452296, 2
452287, 452300, 2
452287, 452293, 2
452287, 452286, 2
452287, 452288, 2
452287, 452289, 2
452287, 452302, 2
452287, 452292, 2
452291, 452293, 1
452291, 452295, 2
452291, 452290, 2
452291, 452292, 8
452295, 452290, 2
452295, 452296, 1
452295, 452293, 2
452295, 452286, 2
452295, 452288, 2
452295, 452291, 2
452295, 452294, 2
452275, 452277, 2
452275, 452276, 1
452275, 452274, 2
452279, 452280, 1
452279, 452277, 2
452279, 452278, 2
452300, 452299, 2
452300, 452301, 1
452300, 452288, 2
452300, 452302, 2
452300, 452287, 2
452294, 452295, 2
452294, 452293, 2
452294, 452296, 2
452294, 452287, 2
452277, 452275, 2
452277, 452279, 2
452277, 452276, 2
452277, 452280, 2
452277, 452278, 1
452284, 452282, 2
452284, 452285, 1
452284, 452283, 2
452284, 452286, 2
452290, 452295, 2
452290, 452292, 2
452290, 452288, 2
452290, 452289, 2
452290, 452287, 2
452290, 452291, 1
452281, 452282, 8
452281, 452280, 2
452281, 452283, 1
452299, 452298, 2
452299, 452300, 1
452280, 452282, 2
452280, 452279, 2
452280, 452278, 2
452280, 452283, 2
452280, 452281, 1
452280, 452277, 2
452276, 452275, 2
452276, 452277, 1
452282, 452284, 2
452282, 452283, 2
452282, 452286, 2
452282, 452280, 2
452282, 452281, 2
452293, 452295, 1
452293, 452292, 2
452293, 452288, 2
452293, 452291, 2
452293, 452287, 2
452293, 452294, 8
452292, 452293, 2
452292, 452290, 2
452292, 452287, 2
452292, 452291, 2
452278, 452280, 2
452278, 452279, 1
452278, 452277, 2
452289, 452286, 2
452289, 452288, 2
452289, 452290, 1
452289, 452287, 2
452301, 452288, 2
452301, 452302, 1
452301, 452300, 2
452286, 452295, 2
452286, 452282, 2
452286, 452284, 2
452286, 452288, 0
452286, 452285, 2
452286, 452287, 3
452286, 452289, 1
452283, 452282, 2
452283, 452284, 1
452283, 452281, 2
452283, 452280, 2
452274, 452275, 1
452302, 452301, 2
452302, 452287, 2
452302, 452300, 2
