537511, 537510, 2
537511, 537513, 2
537511, 537512, 1
537511, 537509, 2
537507, 537510, 2
537507, 537508, 2
537507, 537506, 2
537507, 537509, 2
537507, 537505, 2
537513, 537511, 2
537513, 537510, 2
537513, 537512, 2
537513, 537509, 2
537512, 537511, 2
537512, 537510, 2
537512, 537513, 2
537512, 537509, 2
537505, 537507, 2
537505, 537506, 1
537506, 537507, 3
537506, 537508, 8
537506, 537505, 2
537506, 537509, 1
537508, 537506, 2
537508, 537507, 2
537508, 537510, 2
537508, 537509, 2
537510, 537511, 2
537510, 537507, 2
537510, 537513, 2
537510, 537512, 2
537510, 537508, 2
537510, 537509, 2
537509, 537511, 8
537509, 537507, 2
537509, 537513, 1
537509, 537512, 2
537509, 537506, 2
537509, 537508, 2
537509, 537510, 3
