573132, 573131, 2
573127, 573128, 1
573127, 573126, 2
573126, 573127, 1
573129, 573130, 1
573129, 573128, 2
573130, 573131, 1
573130, 573128, 2
573130, 573129, 2
573131, 573132, 1
573131, 573130, 2
573128, 573130, 2
573128, 573127, 2
573128, 573129, 1
