491450, 491448, 2
491450, 491447, 2
491450, 491449, 2
491450, 491451, 1
491450, 491441, 2
491439, 491440, 1
491439, 491438, 2
491439, 491441, 2
491439, 491443, 2
491439, 491437, 2
491436, 491437, 2
491436, 491441, 2
491436, 491434, 2
491436, 491435, 2
491437, 491439, 2
491437, 491436, 2
491437, 491434, 2
491437, 491438, 1
491437, 491441, 2
491437, 491435, 2
491445, 491444, 2
491445, 491440, 2
491445, 491446, 1
491445, 491448, 2
491445, 491442, 2
491445, 491443, 2
491441, 491436, 2
491441, 491439, 2
491441, 491443, 2
491441, 491440, 2
491441, 491447, 2
491441, 491438, 2
491441, 491450, 2
491441, 491452, 2
491441, 491442, 2
491441, 491437, 2
491452, 491451, 2
491452, 491441, 2
491446, 491447, 1
491446, 491445, 2
491444, 491448, 2
491444, 491440, 2
491444, 491443, 2
491444, 491442, 2
491444, 491445, 2
491451, 491452, 1
491451, 491450, 2
491443, 491439, 2
491443, 491444, 3
491443, 491440, 2
491443, 491441, 2
491443, 491442, 2
491443, 491445, 2
491434, 491437, 1
491434, 491436, 2
491434, 491435, 0
491447, 491448, 3
491447, 491449, 2
491447, 491441, 2
491447, 491446, 2
491447, 491450, 1
491448, 491447, 2
491448, 491449, 3
491448, 491444, 2
491448, 491445, 2
491448, 491450, 2
491438, 491439, 1
491438, 491441, 2
491438, 491437, 2
491435, 491436, 1
491435, 491434, 2
491435, 491437, 2
491449, 491448, 2
491449, 491447, 2
491449, 491450, 2
491442, 491443, 2
491442, 491444, 2
491442, 491445, 2
491442, 491440, 2
491442, 491441, 2
491440, 491439, 2
491440, 491444, 2
491440, 491443, 3
491440, 491441, 6
491440, 491442, 0
491440, 491445, 1
