451755, 451754, 2
451755, 451756, 1
451760, 451759, 2
451760, 451761, 1
451775, 451776, 1
451775, 451774, 2
451764, 451765, 1
451764, 451763, 2
451753, 451754, 1
451770, 451767, 2
451770, 451769, 2
451770, 451768, 2
451770, 451771, 1
451763, 451764, 1
451763, 451761, 2
451763, 451762, 2
451765, 451766, 1
451765, 451764, 2
451765, 451767, 2
451756, 451755, 2
451756, 451757, 1
451756, 451754, 2
451778, 451768, 2
451778, 451777, 2
451754, 451753, 2
451754, 451755, 1
451754, 451756, 2
451774, 451768, 2
451774, 451775, 1
451774, 451773, 2
451762, 451761, 2
451762, 451763, 1
451757, 451758, 1
451757, 451756, 2
451772, 451768, 2
451772, 451773, 1
451772, 451771, 2
451759, 451758, 2
451759, 451761, 2
451759, 451760, 1
451758, 451759, 1
451758, 451757, 2
451761, 451759, 2
451761, 451762, 1
451761, 451760, 2
451761, 451763, 2
451777, 451776, 2
451777, 451778, 1
451768, 451767, 2
451768, 451774, 2
451768, 451776, 2
451768, 451769, 2
451768, 451770, 2
451768, 451772, 2
451768, 451771, 2
451768, 451778, 2
451771, 451770, 2
451771, 451768, 2
451771, 451772, 1
451767, 451766, 2
451767, 451765, 2
451767, 451770, 2
451767, 451768, 3
451767, 451769, 1
451766, 451767, 1
451766, 451765, 2
451776, 451768, 2
451776, 451775, 2
451776, 451777, 1
451769, 451767, 2
451769, 451770, 1
451769, 451768, 2
451773, 451774, 1
451773, 451772, 2
