572821, 572820, 2
572821, 572822, 1
572818, 572817, 2
572818, 572820, 2
572818, 572819, 1
572820, 572821, 1
572820, 572818, 2
572820, 572819, 2
572817, 572816, 2
572817, 572818, 1
572816, 572817, 1
572822, 572821, 2
572819, 572818, 2
572819, 572820, 1
