378265, 378267, 2
378265, 378264, 2
378265, 378266, 1
378268, 378267, 2
378268, 378266, 2
378267, 378268, 2
378267, 378265, 2
378267, 378266, 2
378264, 378265, 1
378266, 378265, 2
378266, 378268, 1
378266, 378267, 3
