553513, 553512, 2
553513, 553514, 1
553513, 553511, 2
553516, 553515, 2
553511, 553513, 2
553511, 553512, 1
553515, 553516, 1
553515, 553514, 2
553512, 553513, 1
553512, 553511, 2
553514, 553513, 2
553514, 553515, 1
