450475, 450477, 2
450475, 450478, 2
450475, 450476, 1
450475, 450473, 2
450475, 450474, 2
450466, 450470, 1
450466, 450468, 0
450466, 450467, 3
450466, 450469, 8
450469, 450466, 2
450469, 450468, 2
450469, 450473, 2
450469, 450471, 2
450469, 450470, 2
450469, 450467, 2
450471, 450472, 2
450471, 450470, 2
450471, 450469, 2
450471, 450473, 2
450471, 450474, 2
450472, 450471, 2
450472, 450468, 2
450472, 450473, 2
450472, 450474, 2
450472, 450470, 2
450472, 450467, 2
450478, 450475, 2
450478, 450477, 2
450478, 450474, 2
450478, 450476, 2
450478, 450479, 2
450470, 450466, 2
450470, 450472, 0
450470, 450468, 2
450470, 450473, 8
450470, 450471, 3
450470, 450474, 1
450470, 450469, 2
450470, 450467, 2
450476, 450475, 2
450476, 450478, 2
450476, 450474, 2
450476, 450477, 2
450476, 450482, 2
450476, 450479, 2
450467, 450466, 2
450467, 450472, 2
450467, 450468, 2
450467, 450469, 2
450467, 450470, 2
450479, 450478, 2
450479, 450480, 3
450479, 450474, 2
450479, 450477, 2
450479, 450476, 2
450479, 450482, 0
450468, 450466, 2
450468, 450472, 2
450468, 450469, 2
450468, 450470, 2
450468, 450467, 2
450473, 450475, 2
450473, 450472, 2
450473, 450471, 2
450473, 450470, 2
450473, 450474, 2
450473, 450469, 2
450477, 450475, 2
450477, 450481, 2
450477, 450478, 2
450477, 450474, 2
450477, 450476, 2
450477, 450482, 2
450477, 450479, 2
450481, 450477, 2
450481, 450480, 2
450481, 450482, 2
450474, 450475, 3
450474, 450478, 8
450474, 450473, 2
450474, 450471, 2
450474, 450472, 2
450474, 450477, 0
450474, 450470, 2
450474, 450476, 2
450474, 450479, 1
450482, 450481, 2
450482, 450477, 2
450482, 450476, 2
450482, 450480, 2
450482, 450479, 2
450480, 450481, 1
450480, 450482, 2
450480, 450479, 2
