374979, 374976, 2
374979, 374981, 2
374979, 374980, 2
374979, 374978, 2
374979, 374977, 2
374981, 374976, 2
374981, 374979, 2
374981, 374980, 2
374981, 374982, 1
374981, 374978, 2
374987, 374986, 2
374987, 374985, 2
374986, 374987, 2
374986, 374984, 2
374986, 374985, 2
374977, 374976, 2
374977, 374979, 2
374977, 374978, 2
374977, 374975, 2
374982, 374981, 2
374982, 374983, 1
374975, 374976, 1
374975, 374974, 2
374975, 374977, 2
374984, 374986, 2
374984, 374983, 2
374984, 374985, 1
374983, 374984, 1
374983, 374982, 2
374985, 374987, 1
374985, 374986, 3
374985, 374984, 2
374980, 374979, 2
374980, 374981, 1
374980, 374978, 2
374976, 374975, 2
374976, 374979, 2
374976, 374981, 2
374976, 374977, 8
374976, 374978, 1
374974, 374975, 1
374978, 374976, 2
374978, 374979, 8
374978, 374981, 2
374978, 374977, 2
374978, 374980, 1
