432308, 432309, 1
432308, 432310, 2
432308, 432307, 2
432319, 432320, 1
432319, 432318, 2
432313, 432314, 1
432313, 432312, 2
432320, 432324, 2
432320, 432317, 2
432320, 432319, 2
432320, 432323, 2
432320, 432321, 0
432320, 432322, 1
432320, 432318, 2
432323, 432320, 2
432323, 432324, 0
432323, 432321, 2
432323, 432322, 2
432316, 432315, 2
432316, 432314, 2
432316, 432317, 0
432316, 432318, 1
432307, 432309, 2
432307, 432308, 1
432307, 432305, 2
432307, 432306, 2
432322, 432320, 2
432322, 432324, 2
432322, 432323, 1
432322, 432321, 2
432306, 432309, 2
432306, 432305, 2
432306, 432307, 2
432306, 432310, 2
432315, 432314, 2
432315, 432317, 2
432315, 432316, 1
432314, 432315, 1
432314, 432313, 2
432314, 432317, 2
432314, 432316, 2
432310, 432309, 2
432310, 432308, 2
432310, 432311, 1
432310, 432306, 2
432309, 432308, 2
432309, 432310, 1
432309, 432307, 2
432309, 432306, 2
432311, 432310, 2
432311, 432312, 1
432312, 432313, 1
432312, 432311, 2
432312, 432317, 2
432305, 432307, 1
432305, 432306, 3
432318, 432320, 2
432318, 432316, 2
432318, 432321, 2
432318, 432317, 2
432318, 432319, 1
432321, 432324, 2
432321, 432317, 2
432321, 432320, 2
432321, 432323, 2
432321, 432322, 2
432321, 432318, 2
432324, 432320, 2
432324, 432323, 2
432324, 432321, 2
432324, 432322, 2
432317, 432315, 2
432317, 432314, 2
432317, 432316, 2
432317, 432320, 2
432317, 432312, 2
432317, 432321, 2
432317, 432318, 2
