537164, 537167, 2
537164, 537165, 1
537164, 537166, 2
537164, 537163, 2
537168, 537167, 2
537168, 537169, 1
537165, 537164, 2
537165, 537167, 1
537165, 537166, 3
537169, 537167, 2
537169, 537168, 2
537167, 537164, 2
537167, 537168, 1
537167, 537165, 2
537167, 537169, 2
537167, 537166, 2
537163, 537164, 1
537166, 537167, 2
537166, 537164, 2
537166, 537165, 2
