552722, 552734, 2
552722, 552723, 1
552722, 552732, 2
552722, 552721, 2
552722, 552724, 2
552722, 552726, 2
552722, 552725, 2
552722, 552728, 2
552722, 552733, 2
552718, 552724, 2
552718, 552719, 1
552718, 552725, 2
552718, 552716, 2
552718, 552717, 2
552718, 552710, 2
552748, 552746, 2
552748, 552745, 2
552748, 552747, 2
552748, 552749, 2
552744, 552746, 1
552744, 552745, 0
552744, 552747, 2
552744, 552743, 2
552739, 552738, 2
552739, 552737, 2
552739, 552732, 2
552739, 552740, 1
552739, 552741, 2
552729, 552723, 2
552729, 552732, 1
552729, 552728, 2
552716, 552718, 2
552716, 552715, 2
552716, 552724, 2
552716, 552714, 2
552716, 552717, 1
552716, 552712, 2
552716, 552710, 2
552741, 552737, 2
552741, 552739, 2
552741, 552742, 1
552741, 552733, 2
552741, 552740, 2
552730, 552731, 1
552730, 552723, 2
552730, 552727, 2
552730, 552733, 2
552743, 552744, 1
552743, 552742, 2
552743, 552745, 2
552734, 552722, 2
552734, 552723, 2
552734, 552732, 2
552734, 552735, 1
552734, 552733, 2
552734, 552726, 2
552734, 552721, 2
552736, 552735, 2
552736, 552733, 2
552736, 552737, 1
552723, 552722, 2
552723, 552729, 2
552723, 552733, 2
552723, 552730, 2
552723, 552734, 1
552723, 552732, 2
552723, 552724, 4
552723, 552726, 2
552723, 552731, 2
552723, 552725, 6
552723, 552727, 2
552723, 552728, 2
552723, 552721, 2
552732, 552722, 2
552732, 552729, 2
552732, 552735, 2
552732, 552742, 2
552732, 552738, 2
552732, 552739, 2
552732, 552737, 2
552732, 552734, 2
552732, 552723, 2
552732, 552745, 2
552732, 552728, 2
552732, 552740, 2
552732, 552749, 2
552709, 552711, 1
552709, 552708, 2
552709, 552710, 6
552724, 552722, 2
552724, 552718, 2
552724, 552723, 2
552724, 552708, 2
552724, 552721, 2
552724, 552719, 2
552724, 552726, 1
552724, 552713, 2
552724, 552711, 2
552724, 552716, 2
552740, 552737, 2
552740, 552732, 2
552740, 552739, 2
552740, 552742, 2
552740, 552741, 2
552714, 552715, 2
552714, 552716, 2
552714, 552713, 2
552714, 552712, 2
552731, 552723, 2
552731, 552733, 2
552731, 552730, 2
552725, 552722, 2
552725, 552718, 2
552725, 552723, 2
552725, 552721, 2
552725, 552719, 2
552725, 552728, 1
552725, 552710, 2
552727, 552726, 2
552727, 552723, 2
552727, 552733, 1
552727, 552730, 3
552728, 552722, 2
552728, 552729, 1
552728, 552723, 2
552728, 552732, 2
552728, 552721, 2
552728, 552725, 2
552728, 552710, 2
552742, 552732, 2
552742, 552733, 2
552742, 552740, 2
552742, 552743, 1
552742, 552741, 2
552742, 552745, 2
552738, 552735, 2
552738, 552732, 2
552738, 552739, 1
552738, 552737, 2
552712, 552714, 8
552712, 552711, 2
552712, 552713, 3
552712, 552715, 1
552712, 552716, 2
552713, 552714, 2
552713, 552712, 2
552713, 552715, 2
552713, 552711, 2
552713, 552724, 2
552735, 552734, 2
552735, 552736, 1
552735, 552732, 2
552735, 552733, 2
552735, 552738, 2
552735, 552737, 2
552733, 552722, 2
552733, 552735, 2
552733, 552742, 2
552733, 552741, 2
552733, 552730, 2
552733, 552737, 2
552733, 552734, 2
552733, 552736, 2
552733, 552723, 2
552733, 552726, 2
552733, 552731, 2
552733, 552727, 2
552733, 552749, 2
552717, 552718, 1
552717, 552716, 2
552715, 552714, 2
552715, 552712, 2
552715, 552716, 1
552715, 552713, 2
552715, 552711, 2
552720, 552721, 1
552720, 552719, 2
552737, 552738, 0
552737, 552736, 2
552737, 552732, 2
552737, 552735, 2
552737, 552733, 2
552737, 552739, 2
552737, 552741, 1
552737, 552740, 2
552711, 552712, 1
552711, 552709, 2
552711, 552724, 2
552711, 552713, 2
552711, 552715, 2
552711, 552710, 2
552708, 552710, 2
552708, 552724, 2
552708, 552709, 1
552721, 552722, 1
552721, 552734, 2
552721, 552723, 2
552721, 552724, 2
552721, 552719, 2
552721, 552726, 2
552721, 552725, 2
552721, 552728, 2
552721, 552720, 2
552719, 552718, 2
552719, 552725, 2
552719, 552720, 1
552719, 552724, 2
552719, 552721, 2
552726, 552722, 2
552726, 552734, 2
552726, 552723, 2
552726, 552733, 2
552726, 552724, 2
552726, 552727, 1
552726, 552721, 2
552745, 552732, 2
552745, 552742, 2
552745, 552748, 2
552745, 552744, 2
552745, 552749, 2
552745, 552747, 2
552745, 552746, 2
552745, 552743, 2
552747, 552744, 2
552747, 552748, 1
552747, 552749, 2
552747, 552746, 2
552747, 552745, 2
552710, 552718, 2
552710, 552711, 2
552710, 552708, 2
552710, 552709, 2
552710, 552725, 2
552710, 552716, 2
552710, 552728, 2
552746, 552744, 2
552746, 552749, 1
552746, 552748, 2
552746, 552747, 0
552746, 552745, 2
552749, 552746, 2
552749, 552733, 2
552749, 552732, 2
552749, 552747, 2
552749, 552748, 2
552749, 552745, 2
