573226, 573229, 2
573226, 573224, 2
573226, 573227, 1
573226, 573225, 2
573228, 573225, 2
573228, 573231, 2
573228, 573227, 2
573228, 573229, 2
573228, 573230, 2
573223, 573224, 1
573229, 573226, 2
573229, 573228, 2
573229, 573230, 1
573229, 573227, 2
573225, 573226, 2
573225, 573224, 2
573225, 573227, 2
573225, 573228, 2
573224, 573226, 1
573224, 573223, 2
573224, 573225, 3
573231, 573228, 2
573231, 573230, 2
573230, 573228, 2
573230, 573231, 1
573230, 573229, 2
573227, 573226, 2
573227, 573228, 3
573227, 573225, 2
573227, 573229, 1
