572517, 572516, 2
572512, 572513, 1
572515, 572513, 2
572515, 572516, 1
572515, 572514, 2
572513, 572515, 2
572513, 572512, 2
572513, 572514, 1
572516, 572515, 2
572516, 572517, 1
572514, 572515, 1
572514, 572513, 2
