490717, 490719, 1
490717, 490716, 2
490717, 490718, 3
490715, 490716, 1
490722, 490721, 2
490722, 490723, 1
490721, 490722, 1
490721, 490720, 2
490724, 490725, 0
490724, 490726, 1
490724, 490723, 2
490720, 490721, 1
490720, 490719, 2
490730, 490729, 2
490729, 490728, 2
490729, 490730, 1
490729, 490727, 2
490716, 490715, 2
490716, 490718, 2
490716, 490717, 1
490716, 490719, 2
490719, 490720, 1
490719, 490717, 2
490719, 490716, 2
490719, 490718, 2
490725, 490724, 2
490725, 490726, 2
490725, 490727, 2
490718, 490717, 2
490718, 490716, 2
490718, 490719, 2
490727, 490725, 2
490727, 490729, 1
490727, 490726, 2
490727, 490728, 3
490728, 490729, 2
490728, 490727, 2
490726, 490723, 2
490726, 490725, 2
490726, 490724, 2
490726, 490727, 1
490723, 490722, 2
490723, 490724, 1
490723, 490726, 2
