549145, 549140, 2
549145, 549143, 2
549145, 549144, 2
549145, 549146, 1
549142, 549139, 2
549142, 549143, 3
549142, 549140, 2
549142, 549144, 1
549142, 549141, 2
549140, 549145, 2
549140, 549142, 2
549140, 549144, 2
549140, 549139, 2
549140, 549148, 2
549140, 549146, 2
549139, 549142, 1
549139, 549140, 6
549139, 549141, 3
549147, 549148, 1
549147, 549146, 2
549143, 549145, 2
549143, 549142, 2
549143, 549146, 2
549143, 549144, 2
549144, 549145, 1
549144, 549143, 2
549144, 549146, 2
549144, 549142, 2
549144, 549140, 2
549148, 549147, 2
549148, 549140, 2
549146, 549145, 2
549146, 549147, 1
549146, 549143, 2
549146, 549144, 2
549146, 549140, 2
549141, 549142, 2
549141, 549139, 2
