515001, 515000, 2
515001, 514999, 2
515001, 514998, 2
515001, 515002, 1
514998, 515001, 2
514998, 515000, 1
514998, 514999, 0
515010, 515009, 2
515008, 515007, 2
515008, 514999, 2
515008, 515009, 1
515002, 515001, 2
515002, 514999, 2
515002, 515003, 1
515009, 515008, 2
515009, 514999, 2
515009, 515010, 1
515005, 514999, 2
515005, 515004, 2
515005, 515006, 1
515000, 515001, 1
515000, 514999, 2
515000, 514998, 2
515003, 514999, 2
515003, 515004, 1
515003, 515002, 2
515007, 515008, 1
515007, 514999, 2
515007, 515006, 2
515006, 515007, 1
515006, 514999, 2
515006, 515005, 2
515004, 514999, 2
515004, 515005, 1
515004, 515003, 2
514999, 515001, 2
514999, 515008, 2
514999, 514998, 2
514999, 515003, 2
514999, 515000, 2
514999, 515007, 2
514999, 515006, 2
514999, 515004, 2
514999, 515005, 2
514999, 515009, 2
514999, 515002, 2
