489587, 489589, 2
489587, 489586, 2
489587, 489588, 1
489581, 489582, 1
489581, 489580, 2
489589, 489590, 1
489589, 489588, 2
489589, 489587, 2
489586, 489584, 2
489586, 489585, 2
489586, 489587, 1
489591, 489590, 2
489591, 489592, 0
489590, 489591, 1
489590, 489589, 2
489588, 489589, 1
489588, 489587, 2
489592, 489591, 2
489584, 489585, 1
489584, 489586, 2
489584, 489583, 2
489585, 489584, 2
489585, 489586, 1
489585, 489583, 2
489582, 489580, 2
489582, 489583, 1
489582, 489581, 2
489583, 489584, 1
489583, 489585, 2
489583, 489582, 2
489580, 489582, 2
489580, 489581, 1
