590530, 590531, 1
590530, 590529, 2
590530, 590528, 2
590524, 590525, 1
590529, 590528, 2
590529, 590527, 2
590529, 590530, 1
590527, 590526, 2
590527, 590529, 2
590527, 590528, 1
590525, 590526, 1
590525, 590524, 2
590533, 590532, 2
590533, 590534, 1
590534, 590533, 2
590526, 590527, 1
590526, 590525, 2
590531, 590532, 1
590531, 590530, 2
590532, 590533, 1
590532, 590531, 2
590528, 590529, 0
590528, 590527, 2
590528, 590530, 2
