376314, 376315, 1
376327, 376324, 2
376327, 376328, 2
376327, 376326, 2
376327, 376323, 2
376333, 376332, 2
376333, 376334, 0
376333, 376335, 1
376319, 376318, 2
376319, 376317, 2
376319, 376316, 2
376319, 376320, 1
376315, 376314, 2
376315, 376316, 1
376332, 376333, 1
376332, 376334, 2
376332, 376331, 2
376332, 376330, 2
376332, 376335, 2
376325, 376324, 2
376325, 376326, 2
376325, 376323, 2
376331, 376332, 1
376331, 376330, 2
376331, 376329, 2
376328, 376327, 2
376328, 376326, 2
376328, 376329, 1
376328, 376324, 2
376329, 376324, 2
376329, 376330, 1
376329, 376331, 2
376329, 376328, 2
376323, 376322, 2
376323, 376327, 2
376323, 376325, 8
376323, 376326, 1
376323, 376324, 0
376321, 376322, 2
376321, 376320, 2
376320, 376322, 1
376320, 376317, 2
376320, 376321, 8
376320, 376319, 2
376322, 376324, 2
376322, 376320, 2
376322, 376326, 2
376322, 376321, 2
376322, 376323, 1
376326, 376322, 2
376326, 376327, 0
376326, 376324, 2
376326, 376328, 1
376326, 376325, 2
376326, 376323, 2
376318, 376317, 2
376318, 376319, 2
376324, 376322, 2
376324, 376327, 2
376324, 376326, 2
376324, 376329, 2
376324, 376328, 2
376324, 376325, 2
376324, 376323, 2
376334, 376332, 2
376334, 376333, 2
376334, 376335, 2
376316, 376317, 1
376316, 376315, 2
376316, 376319, 2
376335, 376332, 2
376335, 376334, 2
376335, 376333, 2
376317, 376320, 2
376317, 376316, 2
376317, 376319, 1
376317, 376318, 8
376330, 376332, 2
376330, 376331, 1
376330, 376329, 2
