625449, 625451, 8
625449, 625453, 2
625449, 625452, 1
625449, 625450, 3
625451, 625449, 2
625451, 625453, 2
625451, 625452, 2
625451, 625450, 2
625453, 625449, 2
625453, 625451, 2
625453, 625452, 2
625453, 625450, 2
625452, 625449, 2
625452, 625451, 2
625452, 625453, 3
625452, 625450, 2
625450, 625449, 2
625450, 625451, 2
625450, 625452, 2
625450, 625453, 2
