523183, 523182, 2
523183, 523184, 3
523183, 523181, 2
523183, 523186, 1
523184, 523182, 2
523184, 523186, 2
523184, 523183, 2
523184, 523181, 2
523184, 523185, 2
523180, 523182, 2
523180, 523181, 1
523182, 523183, 3
523182, 523181, 2
523182, 523184, 2
523182, 523180, 2
523182, 523186, 2
523185, 523184, 2
523185, 523186, 2
523181, 523182, 1
523181, 523183, 2
523181, 523180, 2
523181, 523184, 2
523186, 523182, 2
523186, 523183, 2
523186, 523185, 2
523186, 523184, 2
