570871, 570872, 1
570881, 570880, 2
570881, 570882, 2
570881, 570879, 2
570873, 570872, 2
570873, 570874, 1
570876, 570875, 2
570876, 570874, 2
570876, 570877, 0
570876, 570878, 1
570878, 570876, 2
570878, 570877, 2
570878, 570879, 1
570883, 570884, 1
570883, 570882, 2
570872, 570871, 2
570872, 570873, 1
570872, 570874, 2
570884, 570883, 2
570882, 570881, 2
570882, 570880, 2
570882, 570879, 2
570882, 570883, 1
570874, 570876, 2
570874, 570873, 2
570874, 570872, 2
570874, 570875, 1
570880, 570881, 3
570880, 570882, 1
570880, 570879, 2
570875, 570876, 1
570875, 570874, 2
570877, 570876, 2
570877, 570878, 2
570879, 570881, 2
570879, 570880, 1
570879, 570878, 2
570879, 570882, 2
