495062, 495063, 2
495062, 495060, 2
495062, 495061, 2
495062, 495065, 2
495060, 495062, 0
495060, 495061, 3
495060, 495065, 2
495060, 495063, 1
495066, 495064, 2
495066, 495065, 2
495063, 495062, 2
495063, 495060, 2
495063, 495061, 2
495063, 495065, 2
495063, 495064, 1
495064, 495063, 2
495064, 495065, 6
495064, 495066, 1
495061, 495062, 2
495061, 495060, 2
495061, 495063, 2
495065, 495062, 2
495065, 495064, 2
495065, 495066, 2
495065, 495060, 2
495065, 495063, 2
