488979, 488981, 2
488979, 488980, 1
488979, 488982, 2
488980, 488979, 2
488980, 488982, 2
488980, 488981, 1
488984, 488981, 2
488984, 488985, 2
488984, 488982, 2
488984, 488983, 2
488984, 488987, 2
488985, 488984, 2
488985, 488987, 2
488985, 488981, 2
488985, 488986, 1
488985, 488982, 2
488985, 488983, 2
488981, 488979, 2
488981, 488980, 2
488981, 488984, 2
488981, 488985, 1
488981, 488987, 2
488981, 488982, 8
488981, 488983, 2
488986, 488987, 1
488986, 488985, 2
488982, 488979, 2
488982, 488980, 2
488982, 488984, 2
488982, 488985, 2
488982, 488981, 2
488982, 488983, 1
488987, 488981, 2
488987, 488986, 2
488987, 488984, 2
488987, 488985, 2
488983, 488981, 2
488983, 488982, 2
488983, 488984, 1
488983, 488985, 2
