551407, 551408, 1
551407, 551406, 2
551417, 551416, 2
551417, 551418, 1
551404, 551403, 2
551404, 551405, 2
551406, 551407, 1
551406, 551405, 2
551419, 551420, 2
551419, 551418, 2
551410, 551411, 1
551410, 551408, 2
551410, 551409, 2
551410, 551412, 2
551409, 551408, 2
551409, 551410, 2
551411, 551410, 2
551411, 551412, 1
551416, 551417, 1
551416, 551415, 2
551399, 551400, 1
551399, 551398, 2
551399, 551401, 2
551414, 551415, 1
551414, 551413, 2
551405, 551402, 2
551405, 551403, 2
551405, 551406, 1
551405, 551404, 2
551402, 551403, 1
551402, 551401, 2
551402, 551405, 2
551412, 551411, 2
551412, 551410, 2
551412, 551413, 1
551413, 551414, 1
551413, 551412, 2
551403, 551402, 2
551403, 551405, 1
551403, 551404, 3
551418, 551417, 2
551418, 551419, 3
551418, 551420, 1
551408, 551407, 2
551408, 551410, 1
551408, 551409, 3
551400, 551399, 2
551400, 551401, 1
551420, 551419, 2
551420, 551418, 2
551398, 551399, 1
551415, 551416, 1
551415, 551414, 2
551401, 551402, 1
551401, 551399, 2
551401, 551400, 2
