656435, 656434, 2
656435, 656436, 1
656428, 656427, 2
656428, 656429, 1
656432, 656431, 2
656432, 656433, 1
656433, 656434, 1
656433, 656432, 2
656430, 656431, 1
656430, 656429, 2
656434, 656435, 1
656434, 656436, 2
656434, 656433, 2
656437, 656438, 1
656437, 656436, 2
656427, 656428, 1
656427, 656429, 2
656429, 656430, 1
656429, 656428, 2
656429, 656427, 2
656438, 656437, 2
656431, 656430, 2
656431, 656432, 1
656436, 656435, 2
656436, 656434, 2
656436, 656437, 1
