550300, 550301, 1
550300, 550302, 2
550300, 550303, 2
550300, 550299, 2
550300, 550298, 2
550301, 550300, 2
550301, 550302, 1
550310, 550311, 2
550310, 550309, 2
550298, 550300, 2
550298, 550299, 1
550298, 550297, 2
550297, 550298, 1
550308, 550309, 1
550308, 550307, 2
550302, 550300, 2
550302, 550301, 2
550302, 550303, 3
550302, 550304, 1
550304, 550306, 2
550304, 550305, 1
550304, 550303, 2
550304, 550302, 2
550299, 550300, 1
550299, 550298, 2
550311, 550309, 2
550311, 550310, 2
550309, 550308, 2
550309, 550311, 3
550309, 550310, 0
550309, 550307, 2
550306, 550305, 2
550306, 550304, 2
550306, 550307, 1
550305, 550306, 1
550305, 550304, 2
550303, 550300, 2
550303, 550302, 2
550303, 550304, 2
550307, 550308, 1
550307, 550306, 2
550307, 550309, 2
