644389, 644390, 1
644389, 644387, 2
644389, 644386, 2
644389, 644388, 2
644390, 644389, 2
644390, 644387, 2
644384, 644385, 1
644384, 644386, 2
644384, 644383, 2
644383, 644384, 1
644385, 644384, 2
644385, 644386, 1
644387, 644389, 1
644387, 644390, 2
644387, 644386, 2
644387, 644388, 8
644386, 644389, 2
644386, 644385, 2
644386, 644384, 2
644386, 644387, 1
644386, 644388, 2
644388, 644389, 2
644388, 644387, 2
644388, 644386, 2
