590211, 590210, 2
590211, 590212, 1
590219, 590218, 2
590219, 590217, 2
590216, 590217, 1
590216, 590214, 2
590216, 590215, 2
590210, 590211, 1
590213, 590214, 1
590213, 590212, 2
590218, 590219, 1
590218, 590217, 2
590217, 590218, 1
590217, 590219, 2
590217, 590216, 2
590214, 590213, 2
590214, 590216, 2
590214, 590212, 2
590214, 590215, 1
590212, 590213, 1
590212, 590211, 2
590212, 590214, 2
590215, 590214, 2
590215, 590216, 1
