405117, 405116, 2
405117, 405121, 2
405117, 405118, 2
405117, 405119, 2
405115, 405114, 2
405115, 405116, 1
405110, 405109, 2
405110, 405113, 2
405110, 405111, 1
405137, 405133, 2
405137, 405131, 2
405137, 405136, 2
405137, 405135, 2
405137, 405140, 2
405137, 405134, 2
405137, 405127, 2
405137, 405126, 2
405137, 405132, 2
405137, 405138, 1
405140, 405138, 2
405140, 405136, 2
405140, 405134, 2
405140, 405137, 2
405140, 405129, 2
405140, 405131, 2
405140, 405139, 2
405140, 405132, 2
405140, 405135, 2
405118, 405117, 2
405118, 405120, 2
405118, 405121, 2
405118, 405116, 2
405118, 405119, 1
405111, 405109, 2
405111, 405112, 3
405111, 405113, 1
405111, 405110, 2
405133, 405136, 2
405133, 405125, 2
405133, 405123, 2
405133, 405137, 2
405133, 405124, 2
405133, 405127, 2
405133, 405126, 2
405133, 405128, 2
405133, 405135, 1
405133, 405122, 2
405133, 405129, 2
405133, 405131, 2
405133, 405132, 2
405133, 405130, 2
405123, 405133, 2
405123, 405122, 2
405123, 405125, 2
405123, 405124, 2
405123, 405129, 2
405123, 405127, 2
405123, 405121, 2
405136, 405133, 2
405136, 405128, 2
405136, 405135, 2
405136, 405137, 2
405136, 405126, 2
405136, 405140, 2
405136, 405139, 2
405136, 405132, 2
405136, 405138, 2
405116, 405117, 0
405116, 405115, 2
405116, 405120, 2
405116, 405121, 2
405116, 405118, 1
405116, 405119, 2
405125, 405133, 2
405125, 405123, 2
405125, 405130, 2
405125, 405122, 2
405125, 405128, 2
405125, 405124, 2
405125, 405129, 2
405125, 405126, 1
405125, 405121, 2
405109, 405110, 1
405109, 405111, 2
405129, 405140, 2
405129, 405125, 2
405129, 405128, 2
405129, 405124, 2
405129, 405127, 2
405129, 405126, 2
405129, 405121, 2
405129, 405133, 2
405129, 405123, 2
405129, 405130, 8
405129, 405122, 2
405129, 405134, 2
405129, 405131, 1
405135, 405133, 2
405135, 405128, 2
405135, 405136, 3
405135, 405137, 2
405135, 405140, 2
405135, 405139, 2
405135, 405132, 2
405135, 405138, 2
405131, 405133, 2
405131, 405128, 2
405131, 405140, 2
405131, 405134, 2
405131, 405132, 1
405131, 405137, 2
405131, 405129, 2
405131, 405127, 2
405131, 405126, 2
405131, 405121, 2
405131, 405130, 2
405134, 405140, 2
405134, 405137, 2
405134, 405124, 2
405134, 405127, 2
405134, 405126, 2
405134, 405121, 2
405134, 405130, 2
405134, 405122, 2
405134, 405129, 2
405134, 405139, 2
405134, 405132, 2
405134, 405131, 2
405128, 405133, 2
405128, 405132, 2
405128, 405136, 2
405128, 405130, 2
405128, 405125, 2
405128, 405135, 2
405128, 405124, 2
405128, 405129, 2
405128, 405126, 2
405128, 405121, 2
405128, 405131, 2
405124, 405133, 2
405124, 405123, 2
405124, 405122, 2
405124, 405125, 4
405124, 405128, 2
405124, 405129, 1
405124, 405127, 6
405124, 405126, 2
405124, 405121, 2
405124, 405134, 2
405127, 405133, 2
405127, 405123, 2
405127, 405130, 2
405127, 405122, 2
405127, 405132, 2
405127, 405137, 2
405127, 405124, 2
405127, 405129, 2
405127, 405134, 2
405127, 405121, 2
405127, 405131, 2
405126, 405133, 2
405126, 405128, 3
405126, 405136, 2
405126, 405134, 2
405126, 405125, 2
405126, 405137, 2
405126, 405124, 2
405126, 405129, 2
405126, 405131, 2
405126, 405132, 2
405126, 405130, 2
405121, 405117, 2
405121, 405122, 1
405121, 405134, 2
405121, 405123, 2
405121, 405124, 2
405121, 405127, 2
405121, 405118, 2
405121, 405120, 2
405121, 405128, 2
405121, 405116, 2
405121, 405125, 2
405121, 405129, 2
405121, 405119, 2
405121, 405131, 2
405114, 405113, 2
405114, 405115, 1
405113, 405112, 2
405113, 405114, 1
405113, 405110, 2
405113, 405111, 2
405120, 405116, 2
405120, 405121, 2
405120, 405118, 2
405120, 405119, 2
405122, 405133, 2
405122, 405123, 8
405122, 405134, 2
405122, 405125, 2
405122, 405124, 1
405122, 405129, 2
405122, 405127, 2
405122, 405121, 2
405112, 405113, 2
405112, 405111, 2
405130, 405133, 2
405130, 405128, 2
405130, 405134, 2
405130, 405125, 2
405130, 405129, 2
405130, 405127, 2
405130, 405126, 2
405130, 405131, 2
405138, 405137, 2
405138, 405136, 2
405138, 405139, 1
405138, 405135, 2
405138, 405140, 2
405139, 405138, 2
405139, 405140, 1
405139, 405135, 2
405139, 405136, 2
405139, 405134, 2
405132, 405133, 4
405132, 405128, 2
405132, 405136, 2
405132, 405134, 6
405132, 405140, 2
405132, 405137, 1
405132, 405127, 2
405132, 405126, 2
405132, 405135, 2
405132, 405131, 2
405119, 405117, 2
405119, 405121, 1
405119, 405120, 3
405119, 405118, 2
405119, 405116, 2
