455848, 455847, 2
455848, 455846, 2
455847, 455848, 1
455847, 455846, 2
455845, 455846, 1
455845, 455844, 2
455846, 455848, 2
455846, 455844, 2
455846, 455845, 2
455846, 455847, 1
455844, 455845, 1
455844, 455846, 2
