642205, 642207, 2
642205, 642206, 1
642218, 642217, 2
642206, 642205, 2
642206, 642207, 1
642208, 642209, 3
642208, 642207, 2
642208, 642213, 1
642208, 642211, 2
642207, 642209, 2
642207, 642205, 2
642207, 642206, 2
642207, 642208, 1
642216, 642217, 2
642216, 642215, 2
642216, 642214, 2
642216, 642213, 2
642213, 642212, 2
642213, 642210, 2
642213, 642215, 2
642213, 642208, 2
642213, 642217, 1
642213, 642209, 2
642213, 642211, 2
642213, 642216, 2
642213, 642214, 3
642214, 642212, 2
642214, 642215, 1
642214, 642216, 2
642214, 642213, 2
642214, 642217, 2
642212, 642211, 2
642212, 642210, 2
642212, 642214, 2
642212, 642213, 2
642210, 642212, 2
642210, 642209, 2
642210, 642213, 2
642210, 642211, 1
642215, 642217, 2
642215, 642216, 1
642215, 642213, 2
642215, 642214, 2
642217, 642215, 2
642217, 642218, 1
642217, 642216, 2
642217, 642213, 2
642217, 642214, 2
642209, 642211, 2
642209, 642210, 2
642209, 642213, 2
642209, 642208, 2
642209, 642207, 2
642211, 642212, 1
642211, 642210, 2
642211, 642213, 2
642211, 642208, 2
642211, 642209, 2
