455699, 455700, 3
455699, 455701, 1
455703, 455702, 2
455703, 455701, 2
455702, 455703, 1
455702, 455701, 2
455700, 455699, 2
455700, 455701, 2
455701, 455699, 2
455701, 455702, 1
455701, 455700, 2
455701, 455703, 2
