641494, 641492, 2
641494, 641495, 1
641494, 641493, 2
641493, 641492, 2
641493, 641491, 2
641493, 641495, 2
641493, 641494, 1
641497, 641498, 1
641497, 641496, 2
641492, 641491, 2
641492, 641493, 2
641492, 641494, 2
641490, 641491, 1
641490, 641489, 2
641498, 641497, 2
641491, 641492, 2
641491, 641490, 2
641491, 641493, 1
641495, 641496, 1
641495, 641494, 2
641495, 641493, 2
641496, 641497, 1
641496, 641495, 2
641489, 641490, 1
