374846, 374845, 2
374846, 374847, 1
374855, 374856, 2
374855, 374852, 2
374855, 374857, 2
374855, 374853, 2
374855, 374854, 2
374855, 374858, 2
374852, 374855, 2
374852, 374853, 8
374852, 374854, 1
374852, 374851, 2
374849, 374848, 2
374849, 374847, 2
374849, 374850, 2
374850, 374848, 2
374850, 374847, 2
374850, 374849, 2
374850, 374851, 1
374857, 374855, 2
374857, 374856, 2
374857, 374854, 2
374857, 374858, 1
374856, 374855, 2
374856, 374854, 2
374856, 374857, 1
374845, 374846, 1
374845, 374847, 2
374858, 374855, 2
374858, 374857, 2
374851, 374852, 1
374851, 374850, 2
374853, 374855, 2
374853, 374852, 2
374853, 374854, 2
374848, 374847, 2
374848, 374849, 0
374848, 374850, 1
374854, 374855, 3
374854, 374856, 1
374854, 374853, 2
374854, 374852, 2
374854, 374857, 2
374847, 374846, 2
374847, 374845, 2
374847, 374848, 1
374847, 374849, 2
374847, 374850, 2
