379094, 379092, 2
379094, 379095, 2
379094, 379093, 2
379091, 379092, 1
379091, 379095, 2
379095, 379094, 2
379095, 379092, 2
379095, 379091, 2
379095, 379096, 1
379095, 379093, 2
379093, 379094, 1
379093, 379092, 2
379093, 379095, 2
379097, 379096, 2
379092, 379094, 2
379092, 379091, 2
379092, 379095, 1
379092, 379093, 3
379096, 379097, 1
379096, 379095, 2
