404149, 404150, 1
404149, 404148, 2
404153, 404154, 1
404153, 404152, 2
404148, 404149, 1
404148, 404147, 2
404156, 404155, 2
404156, 404157, 1
404155, 404156, 1
404155, 404157, 2
404155, 404154, 2
404150, 404149, 2
404150, 404151, 1
404152, 404151, 2
404152, 404153, 1
404157, 404155, 2
404157, 404156, 2
404154, 404155, 1
404154, 404153, 2
404151, 404150, 2
404151, 404152, 1
404146, 404145, 2
404146, 404147, 1
404147, 404148, 1
404147, 404146, 2
404147, 404145, 2
404145, 404146, 1
404145, 404147, 2
