495665, 495666, 1
495665, 495664, 2
495665, 495667, 2
495665, 495663, 2
495667, 495665, 2
495667, 495666, 2
495667, 495664, 2
495667, 495668, 1
495668, 495669, 1
495668, 495667, 2
495663, 495665, 1
495663, 495664, 8
495666, 495665, 2
495666, 495667, 1
495666, 495664, 2
495669, 495668, 2
495664, 495665, 2
495664, 495666, 2
495664, 495667, 2
495664, 495663, 2
