489563, 489564, 2
489563, 489562, 2
489557, 489558, 2
489557, 489556, 2
489556, 489557, 3
489556, 489558, 1
489565, 489566, 3
489565, 489564, 2
489566, 489565, 2
489562, 489563, 3
489562, 489564, 1
489562, 489561, 2
489562, 489560, 2
489564, 489563, 2
489564, 489562, 2
489564, 489565, 1
489559, 489558, 2
489559, 489560, 1
489558, 489557, 2
489558, 489559, 1
489558, 489556, 2
489560, 489562, 2
489560, 489559, 2
489560, 489561, 1
489561, 489562, 1
489561, 489560, 2
