405430, 405423, 2
405430, 405434, 2
405430, 405428, 2
405430, 405431, 1
405430, 405417, 2
405430, 405422, 2
405423, 405433, 2
405423, 405430, 2
405423, 405427, 2
405423, 405432, 2
405423, 405426, 2
405423, 405439, 2
405423, 405425, 6
405423, 405422, 2
405423, 405428, 2
405423, 405429, 2
405423, 405435, 2
405423, 405421, 2
405423, 405434, 2
405423, 405431, 2
405423, 405424, 4
405423, 405437, 2
405423, 405436, 2
405423, 405438, 2
405409, 405405, 2
405409, 405413, 2
405409, 405416, 2
405409, 405402, 2
405409, 405411, 2
405409, 405414, 2
405409, 405406, 2
405409, 405407, 2
405409, 405410, 2
405409, 405417, 2
405409, 405412, 2
405426, 405423, 2
405426, 405428, 1
405426, 405422, 2
405426, 405424, 2
405411, 405415, 2
405411, 405409, 2
405411, 405408, 2
405411, 405414, 2
405411, 405406, 2
405411, 405407, 2
405411, 405410, 2
405411, 405412, 2
405425, 405423, 2
405425, 405422, 2
405425, 405427, 1
405425, 405421, 2
405407, 405405, 2
405407, 405413, 2
405407, 405409, 3
405407, 405414, 2
405407, 405411, 2
405407, 405415, 2
405407, 405406, 2
405407, 405410, 2
405407, 405417, 2
405407, 405412, 2
405407, 405418, 2
405416, 405413, 2
405416, 405409, 2
405416, 405421, 2
405416, 405414, 2
405416, 405418, 2
405416, 405417, 3
405416, 405420, 2
405416, 405419, 2
405401, 405402, 2
405401, 405400, 2
405428, 405430, 1
405428, 405423, 2
405428, 405422, 2
405428, 405426, 2
405419, 405418, 2
405419, 405416, 2
405419, 405417, 2
405419, 405420, 1
405419, 405421, 2
405438, 405435, 2
405438, 405439, 1
405438, 405423, 2
405438, 405422, 2
405439, 405423, 2
405439, 405422, 2
405439, 405438, 2
405402, 405405, 2
405402, 405409, 2
405402, 405403, 1
405402, 405400, 2
405402, 405415, 2
405402, 405406, 2
405402, 405404, 2
405402, 405410, 2
405402, 405401, 2
405402, 405412, 2
405402, 405408, 2
405432, 405433, 1
405432, 405422, 2
405432, 405423, 2
405432, 405436, 2
405432, 405429, 2
405421, 405413, 2
405421, 405423, 2
405421, 405415, 2
405421, 405422, 1
405421, 405416, 2
405421, 405425, 2
405421, 405420, 2
405421, 405419, 2
405421, 405418, 2
405421, 405424, 2
405421, 405410, 2
405421, 405417, 2
405421, 405412, 2
405434, 405435, 1
405434, 405430, 2
405434, 405423, 2
405434, 405431, 2
405434, 405422, 2
405418, 405413, 2
405418, 405408, 2
405418, 405421, 2
405418, 405415, 2
405418, 405414, 2
405418, 405407, 2
405418, 405416, 2
405418, 405417, 2
405418, 405412, 2
405418, 405419, 1
405404, 405405, 1
405404, 405415, 2
405404, 405402, 2
405404, 405403, 2
405404, 405414, 2
405404, 405406, 2
405404, 405410, 2
405404, 405417, 2
405404, 405408, 2
405417, 405413, 2
405417, 405404, 2
405417, 405409, 2
405417, 405421, 2
405417, 405414, 2
405417, 405418, 2
405417, 405407, 2
405417, 405416, 2
405417, 405430, 2
405417, 405420, 2
405417, 405419, 2
405400, 405402, 1
405400, 405401, 3
405436, 405433, 2
405436, 405423, 2
405436, 405437, 2
405436, 405432, 2
405436, 405422, 2
405433, 405423, 2
405433, 405437, 1
405433, 405432, 2
405433, 405436, 3
405413, 405415, 6
405413, 405409, 2
405413, 405408, 2
405413, 405421, 2
405413, 405414, 4
405413, 405418, 1
405413, 405407, 2
405413, 405416, 2
405413, 405417, 2
405413, 405412, 2
405427, 405423, 2
405427, 405425, 2
405427, 405422, 2
405427, 405429, 1
405410, 405409, 2
405410, 405408, 2
405410, 405411, 8
405410, 405415, 2
405410, 405406, 2
405410, 405407, 2
405410, 405412, 1
405410, 405405, 2
405410, 405414, 2
405410, 405402, 2
405410, 405421, 2
405410, 405404, 2
405408, 405405, 2
405408, 405413, 2
405408, 405402, 2
405408, 405403, 2
405408, 405411, 2
405408, 405415, 2
405408, 405414, 2
405408, 405404, 2
405408, 405410, 2
405408, 405412, 2
405408, 405418, 2
405414, 405413, 2
405414, 405409, 2
405414, 405408, 2
405414, 405411, 2
405414, 405406, 2
405414, 405407, 2
405414, 405416, 1
405414, 405412, 2
405414, 405405, 2
405414, 405418, 2
405414, 405404, 2
405414, 405410, 2
405414, 405417, 2
405406, 405405, 2
405406, 405409, 2
405406, 405403, 2
405406, 405411, 2
405406, 405414, 2
405406, 405402, 2
405406, 405407, 1
405406, 405410, 2
405406, 405404, 2
405422, 405430, 2
405422, 405423, 1
405422, 405432, 2
405422, 405436, 2
405422, 405426, 2
405422, 405439, 2
405422, 405428, 2
405422, 405425, 2
405422, 405427, 2
405422, 405429, 2
405422, 405421, 2
405422, 405434, 2
405422, 405424, 2
405422, 405431, 2
405422, 405438, 2
405420, 405415, 2
405420, 405421, 1
405420, 405416, 2
405420, 405417, 2
405420, 405419, 2
405429, 405423, 2
405429, 405422, 2
405429, 405432, 1
405429, 405427, 2
405405, 405415, 2
405405, 405402, 2
405405, 405408, 6
405405, 405414, 2
405405, 405406, 4
405405, 405407, 2
405405, 405410, 1
405405, 405409, 2
405405, 405404, 2
405415, 405413, 2
405415, 405408, 2
405415, 405411, 2
405415, 405407, 2
405415, 405412, 2
405415, 405420, 2
405415, 405405, 2
405415, 405402, 2
405415, 405403, 2
405415, 405421, 2
405415, 405418, 2
405415, 405404, 2
405415, 405410, 2
405403, 405415, 2
405403, 405406, 2
405403, 405404, 1
405403, 405402, 2
405403, 405408, 2
405435, 405434, 2
405435, 405423, 2
405435, 405438, 1
405431, 405434, 1
405431, 405430, 2
405431, 405423, 2
405431, 405422, 2
405437, 405433, 2
405437, 405423, 2
405437, 405436, 2
405424, 405423, 2
405424, 405422, 2
405424, 405426, 1
405424, 405421, 2
405412, 405415, 2
405412, 405413, 1
405412, 405409, 2
405412, 405408, 2
405412, 405418, 2
405412, 405411, 2
405412, 405414, 2
405412, 405402, 2
405412, 405407, 2
405412, 405410, 2
405412, 405421, 2
