421565, 421562, 2
421565, 421563, 2
421565, 421566, 1
421565, 421564, 2
421566, 421565, 2
421566, 421564, 2
421563, 421565, 1
421563, 421562, 2
421563, 421564, 8
421560, 421561, 2
421560, 421559, 2
421560, 421562, 2
421561, 421559, 2
421561, 421560, 2
421561, 421562, 2
421564, 421565, 2
421564, 421566, 2
421564, 421563, 2
421564, 421562, 2
421559, 421561, 0
421559, 421560, 3
421559, 421562, 1
421562, 421565, 2
421562, 421563, 1
421562, 421561, 2
421562, 421564, 2
421562, 421560, 2
421562, 421559, 2
