515624, 515625, 1
515624, 515623, 6
515627, 515629, 2
515627, 515628, 1
515627, 515626, 2
515627, 515623, 2
515625, 515624, 2
515625, 515626, 1
515625, 515623, 2
515628, 515627, 2
515628, 515629, 1
515626, 515627, 1
515626, 515625, 2
515626, 515623, 2
515623, 515624, 2
515623, 515627, 2
515623, 515625, 2
515623, 515629, 2
515623, 515626, 2
515629, 515627, 2
515629, 515628, 2
515629, 515623, 2
