378544, 378541, 2
378544, 378543, 2
378540, 378542, 1
378540, 378541, 3
378542, 378540, 2
378542, 378541, 2
378542, 378543, 1
378541, 378544, 2
378541, 378540, 2
378541, 378542, 2
378543, 378544, 3
378543, 378542, 2
