492122, 492121, 2
492122, 492123, 1
492122, 492119, 2
492122, 492120, 2
492125, 492124, 2
492125, 492126, 1
492132, 492133, 2
492132, 492131, 2
492132, 492130, 2
492130, 492133, 2
492130, 492127, 2
492130, 492132, 2
492130, 492131, 2
492130, 492129, 2
492130, 492128, 2
492115, 492114, 2
492115, 492113, 2
492115, 492111, 2
492115, 492116, 1
492115, 492112, 2
492115, 492118, 2
492118, 492117, 2
492118, 492119, 1
492118, 492115, 2
492118, 492116, 2
492128, 492131, 1
492128, 492130, 8
492128, 492129, 0
492128, 492127, 2
492129, 492131, 2
492129, 492130, 2
492129, 492128, 2
492114, 492111, 2
492114, 492115, 1
492114, 492112, 2
492114, 492110, 2
492114, 492113, 2
492113, 492114, 1
492113, 492115, 2
492113, 492112, 2
492113, 492110, 2
492113, 492111, 2
492126, 492124, 2
492126, 492125, 2
492126, 492127, 1
492121, 492122, 2
492121, 492119, 2
492121, 492120, 2
492123, 492124, 1
492123, 492122, 2
492112, 492114, 2
492112, 492115, 2
492112, 492113, 2
492112, 492111, 2
492124, 492123, 2
492124, 492125, 1
492124, 492126, 2
492111, 492114, 2
492111, 492115, 2
492111, 492112, 3
492111, 492110, 2
492111, 492113, 2
492117, 492116, 2
492117, 492119, 2
492117, 492118, 2
492119, 492121, 2
492119, 492122, 2
492119, 492117, 2
492119, 492120, 1
492119, 492118, 2
492127, 492131, 2
492127, 492130, 2
492127, 492126, 2
492127, 492128, 1
492110, 492111, 3
492110, 492113, 1
492110, 492114, 2
492133, 492131, 2
492133, 492130, 2
492133, 492132, 2
492120, 492121, 3
492120, 492122, 1
492120, 492119, 2
492131, 492133, 1
492131, 492127, 2
492131, 492132, 3
492131, 492130, 2
492131, 492129, 2
492131, 492128, 2
492116, 492115, 2
492116, 492117, 0
492116, 492118, 1
