379759, 379760, 1
379759, 379761, 2
379766, 379765, 2
379766, 379767, 1
379767, 379766, 2
379765, 379766, 1
379765, 379763, 2
379765, 379764, 2
379762, 379761, 2
379762, 379763, 1
379763, 379765, 1
379763, 379762, 2
379763, 379761, 2
379763, 379764, 3
379760, 379759, 2
379760, 379761, 1
379761, 379759, 2
379761, 379762, 1
379761, 379763, 2
379761, 379760, 2
379764, 379765, 2
379764, 379763, 2
