593437, 593439, 2
593437, 593438, 1
593439, 593437, 2
593439, 593440, 2
593439, 593438, 2
593439, 593441, 2
593438, 593437, 2
593438, 593440, 1
593438, 593439, 8
593438, 593441, 2
593443, 593444, 1
593443, 593442, 2
593441, 593440, 2
593441, 593439, 2
593441, 593438, 2
593441, 593442, 1
593440, 593441, 1
593440, 593439, 2
593440, 593438, 2
593444, 593445, 1
593444, 593443, 2
593442, 593441, 2
593442, 593443, 1
593445, 593444, 2
