455402, 455403, 1
455402, 455400, 2
455402, 455399, 2
455402, 455401, 2
455399, 455402, 2
455399, 455400, 1
455399, 455401, 2
455400, 455402, 1
455400, 455399, 2
455400, 455403, 2
455400, 455401, 8
455403, 455402, 2
455403, 455400, 2
455403, 455401, 2
455401, 455402, 2
455401, 455399, 2
455401, 455400, 2
455401, 455403, 2
