592890, 592889, 2
592890, 592888, 2
592890, 592891, 1
592887, 592886, 2
592887, 592888, 1
592888, 592886, 2
592888, 592889, 1
592888, 592887, 2
592888, 592890, 2
592891, 592890, 2
592891, 592892, 1
592886, 592887, 1
592886, 592888, 2
592892, 592891, 2
592889, 592890, 1
592889, 592888, 2
