488810, 488811, 1
488810, 488809, 2
488813, 488812, 2
488813, 488814, 1
488816, 488815, 2
488816, 488817, 1
488816, 488814, 2
488809, 488810, 1
488815, 488812, 2
488815, 488816, 2
488815, 488814, 2
488812, 488815, 2
488812, 488813, 1
488812, 488811, 2
488817, 488816, 2
488814, 488815, 3
488814, 488813, 2
488814, 488816, 1
488811, 488810, 2
488811, 488812, 1
