456292, 456291, 2
456292, 456293, 2
456292, 456290, 2
456290, 456291, 3
456290, 456292, 2
456290, 456293, 1
456294, 456295, 1
456294, 456293, 2
456291, 456292, 1
456291, 456290, 2
456293, 456292, 2
456293, 456290, 2
456293, 456294, 1
456295, 456294, 2
