341492, 341493, 1
341492, 341491, 2
341488, 341489, 1
341490, 341489, 2
341490, 341491, 1
341493, 341492, 2
341493, 341491, 2
341493, 341494, 1
341496, 341495, 2
341494, 341495, 1
341494, 341493, 2
341495, 341496, 1
341495, 341494, 2
341489, 341488, 2
341489, 341490, 1
341491, 341492, 1
341491, 341490, 2
341491, 341493, 2
