334563, 334564, 1
334575, 334574, 2
334575, 334573, 2
334575, 334576, 1
334565, 334566, 1
334565, 334564, 2
334569, 334567, 2
334569, 334568, 2
334569, 334570, 1
334573, 334572, 2
334573, 334574, 8
334573, 334571, 2
334573, 334575, 1
334568, 334569, 1
334568, 334567, 2
334570, 334569, 2
334570, 334572, 2
334570, 334571, 1
334566, 334565, 2
334566, 334567, 1
334574, 334572, 2
334574, 334573, 2
334574, 334576, 2
334574, 334575, 2
334564, 334563, 2
334564, 334565, 1
334572, 334570, 2
334572, 334574, 2
334572, 334573, 2
334572, 334571, 2
334567, 334566, 2
334567, 334569, 2
334567, 334568, 1
334576, 334574, 2
334576, 334575, 2
334571, 334572, 8
334571, 334573, 1
334571, 334570, 2
