417454, 417452, 2
417454, 417455, 1
417454, 417453, 2
417455, 417454, 2
417447, 417449, 1
417447, 417448, 3
417449, 417450, 1
417449, 417447, 2
417449, 417448, 2
417449, 417451, 2
417448, 417447, 2
417448, 417449, 2
417453, 417454, 1
417453, 417452, 2
417453, 417451, 2
417450, 417449, 2
417450, 417451, 1
417452, 417454, 2
417452, 417451, 2
417452, 417453, 2
417451, 417450, 2
417451, 417449, 2
417451, 417452, 8
417451, 417453, 1
