373973, 373971, 2
373973, 373975, 1
373973, 373972, 2
373973, 373974, 0
373975, 373976, 1
373975, 373972, 2
373975, 373973, 2
373975, 373974, 2
373969, 373971, 2
373969, 373972, 2
373969, 373970, 1
373969, 373968, 2
373968, 373967, 2
373968, 373969, 1
373974, 373971, 2
373974, 373975, 2
373974, 373972, 2
373974, 373973, 2
373971, 373969, 2
373971, 373972, 8
373971, 373970, 2
373971, 373973, 1
373971, 373974, 2
373967, 373968, 1
373972, 373971, 2
373972, 373975, 2
373972, 373969, 2
373972, 373973, 2
373972, 373974, 2
373976, 373975, 2
373970, 373971, 1
373970, 373969, 2
