553209, 553208, 2
553209, 553210, 1
553208, 553209, 1
553208, 553211, 2
553212, 553211, 2
553212, 553210, 2
553210, 553209, 2
553210, 553212, 0
553210, 553211, 3
553211, 553212, 2
553211, 553208, 2
553211, 553210, 2
