337733, 337734, 1
337733, 337732, 2
337733, 337735, 2
337735, 337734, 2
337735, 337732, 2
337735, 337728, 2
337735, 337733, 2
337735, 337736, 1
337722, 337720, 2
337722, 337723, 3
337722, 337721, 2
337722, 337724, 1
337729, 337728, 2
337729, 337737, 2
337729, 337724, 2
337729, 337727, 2
337729, 337725, 2
337729, 337730, 1
337738, 337734, 2
337738, 337737, 2
337738, 337739, 1
337738, 337736, 2
337723, 337722, 2
337723, 337724, 2
337741, 337740, 2
337741, 337739, 2
337741, 337742, 2
337736, 337734, 2
337736, 337738, 2
337736, 337735, 2
337736, 337737, 0
337747, 337746, 2
337747, 337748, 2
337747, 337749, 2
337720, 337721, 1
337720, 337722, 2
337737, 337729, 2
337737, 337738, 2
337737, 337728, 2
337737, 337736, 2
337746, 337747, 0
337746, 337748, 1
337746, 337749, 2
337746, 337745, 2
337726, 337727, 1
337726, 337725, 2
337726, 337724, 2
337725, 337726, 0
337725, 337727, 2
337725, 337729, 1
337725, 337724, 2
337731, 337732, 1
337731, 337730, 2
337734, 337733, 2
337734, 337738, 1
337734, 337735, 0
337734, 337736, 2
337745, 337746, 1
337745, 337743, 2
337745, 337742, 2
337745, 337744, 2
337732, 337733, 1
337732, 337735, 2
337732, 337731, 2
337739, 337738, 2
337739, 337740, 1
337739, 337741, 2
337728, 337727, 2
337728, 337729, 2
337728, 337735, 2
337728, 337737, 2
337721, 337720, 2
337721, 337722, 1
337744, 337745, 2
337744, 337743, 2
337744, 337742, 2
337730, 337729, 2
337730, 337731, 1
337740, 337739, 2
337740, 337741, 0
337740, 337742, 1
337742, 337745, 2
337742, 337744, 2
337742, 337740, 2
337742, 337741, 2
337742, 337743, 1
337743, 337745, 1
337743, 337742, 2
337743, 337744, 0
337724, 337726, 2
337724, 337729, 2
337724, 337723, 2
337724, 337722, 2
337724, 337725, 1
337727, 337726, 2
337727, 337729, 2
337727, 337728, 0
337727, 337725, 2
337748, 337747, 2
337748, 337749, 1
337748, 337746, 2
337749, 337747, 2
337749, 337748, 2
337749, 337746, 2
