418216, 418220, 1
418216, 418219, 2
418216, 418214, 2
418216, 418217, 6
418216, 418215, 2
418216, 418218, 4
418212, 418214, 2
418212, 418213, 2
418212, 418210, 2
418212, 418211, 2
418228, 418229, 1
418228, 418227, 2
418222, 418215, 2
418222, 418221, 2
418222, 418223, 1
418222, 418218, 2
418222, 418219, 2
418210, 418212, 2
418210, 418211, 1
418210, 418209, 2
418210, 418218, 2
418210, 418213, 2
418210, 418217, 2
418221, 418220, 2
418221, 418219, 2
418221, 418215, 2
418221, 418222, 1
418221, 418218, 2
418209, 418217, 2
418209, 418210, 1
418215, 418220, 2
418215, 418219, 2
418215, 418222, 2
418215, 418221, 2
418215, 418214, 2
418215, 418218, 2
418215, 418216, 1
418215, 418217, 2
418215, 418223, 2
418224, 418225, 2
418224, 418223, 2
418223, 418219, 2
418223, 418222, 2
418223, 418218, 2
418223, 418225, 1
418223, 418224, 4
418223, 418215, 2
418220, 418219, 2
418220, 418221, 1
418220, 418214, 2
418220, 418215, 2
418220, 418216, 2
418220, 418218, 2
418220, 418217, 2
418219, 418220, 2
418219, 418221, 2
418219, 418222, 2
418219, 418215, 2
418219, 418216, 2
418219, 418223, 2
418219, 418217, 2
418219, 418218, 2
418227, 418229, 2
418227, 418228, 1
418227, 418226, 2
418211, 418213, 1
418211, 418212, 8
418211, 418210, 2
418214, 418220, 2
418214, 418212, 2
418214, 418217, 2
418214, 418213, 2
418214, 418216, 2
418214, 418215, 1
418214, 418218, 2
418213, 418214, 1
418213, 418212, 2
418213, 418217, 2
418213, 418210, 2
418213, 418211, 2
418229, 418228, 2
418229, 418227, 2
418218, 418220, 2
418218, 418219, 2
418218, 418210, 2
418218, 418222, 2
418218, 418221, 2
418218, 418214, 2
418218, 418223, 2
418218, 418216, 2
418218, 418215, 2
418225, 418224, 2
418225, 418223, 2
418225, 418226, 1
418217, 418220, 2
418217, 418219, 1
418217, 418214, 2
418217, 418210, 2
418217, 418209, 2
418217, 418213, 2
418217, 418216, 2
418217, 418215, 2
418226, 418225, 2
418226, 418227, 1
