417595, 417598, 1
417595, 417596, 4
417595, 417597, 6
417604, 417597, 2
417604, 417602, 2
417604, 417603, 2
417604, 417596, 2
417596, 417595, 2
417596, 417604, 2
417596, 417602, 2
417596, 417599, 2
417596, 417601, 2
417596, 417598, 2
417599, 417596, 2
417599, 417601, 1
417599, 417600, 0
417599, 417598, 2
417599, 417597, 2
417599, 417602, 2
417601, 417603, 2
417601, 417602, 1
417601, 417599, 2
417601, 417596, 2
417601, 417600, 2
417600, 417599, 2
417600, 417597, 2
417600, 417603, 2
417600, 417601, 2
417598, 417595, 2
417598, 417597, 2
417598, 417596, 2
417598, 417599, 1
417603, 417604, 2
417603, 417602, 2
417603, 417597, 2
417603, 417601, 2
417603, 417600, 2
417597, 417595, 2
417597, 417604, 2
417597, 417602, 2
417597, 417599, 2
417597, 417600, 2
417597, 417598, 2
417597, 417603, 2
417602, 417604, 1
417602, 417596, 2
417602, 417603, 0
417602, 417601, 2
417602, 417599, 2
417602, 417597, 2
