334957, 334954, 2
334957, 334960, 2
334957, 334955, 2
334957, 334956, 2
334957, 334958, 1
334957, 334959, 2
334961, 334962, 1
334961, 334960, 2
334956, 334955, 2
334956, 334957, 2
334952, 334951, 2
334952, 334954, 2
334952, 334955, 2
334952, 334953, 1
334959, 334958, 2
334959, 334957, 2
334959, 334960, 1
334954, 334955, 2
334954, 334953, 2
334954, 334952, 2
334954, 334957, 2
334951, 334952, 1
334962, 334961, 2
334962, 334965, 2
334962, 334963, 0
334962, 334964, 2
334953, 334954, 8
334953, 334955, 1
334953, 334952, 2
334960, 334961, 1
334960, 334959, 2
334960, 334957, 2
334965, 334962, 2
334965, 334964, 2
334958, 334959, 1
334958, 334957, 2
334964, 334965, 1
334964, 334962, 2
334964, 334963, 2
334955, 334954, 2
334955, 334956, 0
334955, 334953, 2
334955, 334952, 2
334955, 334957, 1
334963, 334962, 2
334963, 334964, 1
