489549, 489548, 2
489549, 489550, 1
489544, 489545, 1
489545, 489544, 2
489545, 489546, 1
489555, 489554, 2
489553, 489551, 2
489553, 489552, 2
489553, 489554, 2
489551, 489553, 2
489551, 489554, 1
489551, 489552, 3
489551, 489550, 2
489548, 489549, 1
489548, 489547, 2
489548, 489546, 2
489548, 489550, 2
489546, 489548, 1
489546, 489547, 3
489546, 489545, 2
489552, 489553, 6
489552, 489551, 2
489552, 489554, 2
489550, 489549, 2
489550, 489551, 1
489550, 489548, 2
489547, 489548, 2
489547, 489546, 2
489554, 489555, 1
489554, 489553, 2
489554, 489551, 2
489554, 489552, 2
