489371, 489368, 2
489371, 489369, 2
489371, 489372, 1
489371, 489373, 2
489371, 489370, 2
489371, 489374, 2
489368, 489369, 8
489368, 489367, 2
489368, 489370, 1
489368, 489371, 2
489365, 489364, 2
489365, 489366, 1
489372, 489373, 1
489372, 489374, 2
489372, 489371, 2
489369, 489367, 2
489369, 489368, 2
489369, 489370, 2
489369, 489371, 2
489367, 489369, 2
489367, 489368, 1
489367, 489370, 2
489367, 489366, 2
489364, 489365, 1
489364, 489366, 2
489370, 489369, 2
489370, 489367, 2
489370, 489368, 2
489370, 489371, 1
489373, 489372, 2
489373, 489374, 0
489373, 489371, 2
489366, 489367, 1
489366, 489365, 2
489366, 489364, 2
489374, 489372, 2
489374, 489373, 2
489374, 489371, 2
