644329, 644330, 1
644329, 644328, 2
644329, 644327, 2
644328, 644329, 2
644328, 644325, 2
644328, 644327, 2
644327, 644324, 2
644327, 644329, 1
644327, 644328, 0
644327, 644325, 2
644327, 644326, 2
644324, 644325, 0
644324, 644326, 1
644324, 644327, 2
644330, 644329, 2
644325, 644324, 2
644325, 644328, 2
644325, 644327, 2
644325, 644326, 2
644326, 644324, 2
644326, 644325, 2
644326, 644327, 1
