536596, 536597, 1
536596, 536598, 2
536596, 536595, 2
536596, 536594, 2
536597, 536596, 2
536597, 536598, 3
536597, 536595, 2
536597, 536594, 2
536598, 536596, 2
536598, 536595, 2
536598, 536597, 2
536598, 536594, 2
536595, 536596, 2
536595, 536598, 2
536595, 536597, 2
536595, 536594, 2
536594, 536596, 1
536594, 536598, 2
536594, 536595, 3
536594, 536597, 2
