494987, 494984, 2
494987, 494986, 2
494987, 494988, 2
494998, 495000, 2
494998, 494997, 2
494998, 494999, 1
494998, 494996, 2
494957, 494954, 2
494957, 494958, 1
494957, 494956, 2
494957, 494955, 2
495000, 494999, 2
495000, 494998, 2
495000, 495001, 1
495001, 495000, 2
495001, 495002, 1
494964, 494963, 2
494964, 494962, 2
494964, 494965, 1
494971, 494970, 2
494971, 494969, 2
494971, 494972, 1
494977, 494978, 1
494977, 494976, 2
494951, 494952, 2
494951, 494953, 2
494951, 494950, 2
495014, 495016, 2
495014, 495015, 1
495014, 495013, 2
494952, 494953, 2
494952, 494950, 2
494952, 494951, 2
494970, 494969, 2
494970, 494971, 2
494970, 494967, 2
494992, 494994, 0
494992, 494993, 3
494992, 494995, 1
494992, 494991, 2
494981, 494980, 2
494981, 494979, 2
494981, 494982, 1
494995, 494994, 2
494995, 494993, 2
494995, 494992, 2
494995, 494996, 1
494958, 494957, 2
494958, 494959, 1
494958, 494956, 2
494958, 494955, 2
494961, 494963, 2
494961, 494962, 1
494961, 494960, 2
494967, 494968, 1
494967, 494966, 2
494967, 494970, 2
494994, 494992, 2
494994, 494993, 2
494994, 494995, 2
494994, 494989, 2
494994, 494991, 2
495010, 495011, 1
495010, 495009, 2
495004, 495003, 2
495004, 495006, 1
495004, 495005, 3
494996, 494997, 1
494996, 494998, 2
494996, 494995, 2
494990, 494989, 2
494990, 494991, 2
494990, 494988, 2
494969, 494968, 2
494969, 494970, 3
494969, 494971, 1
495005, 495003, 2
495005, 495006, 2
495005, 495004, 2
494959, 494960, 1
494959, 494958, 2
494993, 494994, 2
494993, 494995, 2
494993, 494992, 2
494993, 494991, 2
494997, 494998, 1
494997, 494996, 2
494984, 494987, 2
494984, 494983, 2
494984, 494985, 1
494972, 494975, 1
494972, 494971, 2
494972, 494973, 0
494972, 494974, 2
495009, 495010, 1
495009, 495008, 2
494985, 494984, 2
494985, 494986, 1
494976, 494975, 2
494976, 494977, 1
494976, 494974, 2
494986, 494987, 3
494986, 494985, 2
494986, 494988, 1
494988, 494990, 2
494988, 494987, 2
494988, 494989, 0
494988, 494986, 2
494988, 494991, 1
494966, 494965, 2
494966, 494967, 1
494980, 494981, 2
494980, 494978, 2
494980, 494979, 2
494965, 494966, 1
494965, 494964, 2
495016, 495014, 2
495016, 495015, 2
495016, 495013, 2
494954, 494957, 2
494954, 494953, 2
494954, 494956, 2
494954, 494955, 1
495013, 495014, 0
495013, 495016, 1
495013, 495011, 2
495013, 495015, 2
495013, 495012, 2
494979, 494981, 1
494979, 494978, 2
494979, 494980, 3
494963, 494964, 2
494963, 494962, 2
494963, 494961, 2
494989, 494994, 2
494989, 494990, 1
494989, 494991, 2
494989, 494988, 2
495015, 495014, 2
495015, 495016, 2
495015, 495013, 2
494983, 494984, 1
494983, 494982, 2
494955, 494954, 2
494955, 494958, 2
494955, 494957, 2
494955, 494956, 1
495002, 495003, 1
495002, 495001, 2
494973, 494975, 2
494973, 494972, 2
494973, 494974, 1
494999, 495000, 1
494999, 494998, 2
494956, 494954, 2
494956, 494958, 2
494956, 494957, 1
494956, 494955, 2
495008, 495007, 2
495008, 495009, 1
494974, 494975, 2
494974, 494973, 2
494974, 494972, 2
494974, 494976, 2
494960, 494961, 1
494960, 494959, 2
495003, 495005, 2
495003, 495004, 1
495003, 495002, 2
494950, 494952, 0
494950, 494953, 1
494950, 494951, 3
495012, 495011, 2
495012, 495013, 2
494968, 494969, 1
494968, 494967, 2
494978, 494979, 1
494978, 494977, 2
494978, 494980, 2
494953, 494954, 1
494953, 494952, 2
494953, 494950, 2
494953, 494951, 2
494991, 494990, 2
494991, 494988, 2
494991, 494994, 2
494991, 494989, 2
494991, 494993, 2
494991, 494992, 1
494975, 494974, 2
494975, 494976, 1
494975, 494972, 2
494975, 494973, 2
495007, 495008, 1
495007, 495006, 2
495011, 495012, 3
495011, 495010, 2
495011, 495013, 1
494962, 494963, 3
494962, 494964, 1
494962, 494961, 2
495006, 495005, 2
495006, 495004, 2
495006, 495007, 1
494982, 494981, 2
494982, 494983, 1
