549270, 549271, 1
549276, 549274, 2
549276, 549275, 2
549276, 549277, 1
549272, 549274, 2
549272, 549273, 1
549272, 549271, 2
549279, 549280, 1
549279, 549278, 2
549278, 549279, 1
549278, 549277, 2
549277, 549276, 2
549277, 549275, 2
549277, 549278, 1
549274, 549276, 1
549274, 549275, 8
549274, 549273, 2
549274, 549272, 2
549280, 549279, 2
549275, 549274, 2
549275, 549276, 2
549275, 549277, 2
549273, 549274, 1
549273, 549272, 2
549271, 549270, 2
549271, 549272, 1
