333771, 333770, 2
333771, 333769, 2
333768, 333769, 2
333768, 333767, 2
333768, 333766, 2
333760, 333761, 1
333762, 333763, 1
333762, 333761, 2
333769, 333764, 2
333769, 333770, 1
333769, 333767, 2
333769, 333771, 2
333769, 333768, 2
333766, 333767, 2
333766, 333765, 2
333766, 333768, 2
333767, 333768, 3
333767, 333764, 2
333767, 333769, 1
333767, 333765, 2
333767, 333766, 2
333767, 333763, 2
333764, 333765, 3
333764, 333769, 2
333764, 333767, 1
333764, 333763, 2
333770, 333769, 2
333770, 333771, 1
333765, 333764, 2
333765, 333767, 2
333765, 333766, 2
333763, 333762, 2
333763, 333764, 1
333763, 333767, 2
333761, 333762, 1
333761, 333760, 2
