494565, 494566, 1
494565, 494563, 2
494565, 494564, 2
494562, 494561, 2
494562, 494563, 1
494562, 494564, 2
494566, 494565, 2
494566, 494563, 2
494566, 494564, 2
494561, 494563, 2
494561, 494562, 1
494561, 494564, 2
494563, 494561, 2
494563, 494565, 1
494563, 494564, 6
494563, 494562, 2
494563, 494566, 2
494564, 494561, 2
494564, 494565, 2
494564, 494562, 2
494564, 494563, 2
494564, 494566, 2
