488833, 488831, 2
488833, 488832, 2
488833, 488834, 1
488835, 488836, 1
488835, 488837, 2
488835, 488834, 2
488836, 488835, 2
488836, 488837, 1
488834, 488833, 2
488834, 488835, 1
488831, 488833, 1
488831, 488829, 2
488831, 488832, 3
488831, 488830, 2
488832, 488831, 2
488832, 488833, 2
488829, 488831, 2
488829, 488830, 1
488837, 488836, 2
488837, 488835, 2
488830, 488831, 1
488830, 488829, 2
