549721, 549722, 3
549721, 549724, 1
549721, 549723, 8
549724, 549721, 2
549724, 549723, 2
549724, 549725, 3
549724, 549722, 2
549724, 549726, 1
549727, 549728, 1
549727, 549725, 2
549727, 549726, 2
549729, 549728, 2
549729, 549730, 1
549729, 549725, 2
549728, 549727, 2
549728, 549725, 2
549728, 549729, 1
549723, 549722, 2
549723, 549724, 2
549723, 549721, 2
549722, 549721, 2
549722, 549724, 2
549722, 549723, 2
549731, 549730, 2
549730, 549731, 1
549730, 549729, 2
549725, 549724, 2
549725, 549727, 2
549725, 549728, 2
549725, 549729, 2
549725, 549726, 2
549726, 549724, 2
549726, 549727, 1
549726, 549725, 2
