625921, 625920, 2
625921, 625922, 2
625917, 625916, 2
625917, 625919, 2
625917, 625918, 1
625919, 625920, 1
625919, 625917, 2
625919, 625918, 2
625916, 625920, 2
625916, 625915, 2
625916, 625917, 1
625920, 625916, 2
625920, 625922, 1
625920, 625921, 3
625920, 625919, 2
625922, 625920, 2
625922, 625921, 2
625915, 625916, 1
625918, 625919, 1
625918, 625917, 2
