572998, 573001, 2
572998, 573000, 1
572998, 572999, 3
573002, 572999, 2
573002, 573001, 2
573002, 573003, 2
573001, 572998, 2
573001, 573002, 3
573001, 573003, 1
573001, 573000, 2
573001, 572999, 2
573001, 573004, 2
573003, 573002, 2
573003, 573001, 2
573003, 573004, 1
573000, 572998, 2
573000, 572999, 2
573000, 573001, 1
572999, 572998, 2
572999, 573002, 2
572999, 573000, 2
572999, 573001, 2
573004, 573001, 2
573004, 573003, 2
