658100, 658101, 8
658100, 658099, 2
658100, 658102, 1
658100, 658103, 2
658101, 658100, 2
658101, 658099, 2
658101, 658102, 2
658101, 658103, 2
658099, 658100, 1
658099, 658101, 2
658099, 658098, 2
658103, 658100, 2
658103, 658101, 2
658103, 658102, 2
658102, 658100, 2
658102, 658101, 2
658102, 658103, 1
658098, 658099, 1
