656330, 656329, 2
656330, 656334, 2
656330, 656328, 2
656330, 656335, 2
656330, 656331, 1
656330, 656336, 2
656335, 656334, 2
656335, 656330, 2
656335, 656332, 2
656335, 656333, 2
656335, 656336, 2
656333, 656335, 2
656333, 656337, 2
656333, 656334, 1
656333, 656332, 2
656333, 656331, 2
656333, 656336, 2
656329, 656330, 1
656329, 656328, 2
656337, 656338, 2
656337, 656333, 2
656337, 656336, 2
656334, 656330, 2
656334, 656335, 1
656334, 656333, 2
656334, 656338, 2
656334, 656332, 2
656334, 656331, 2
656334, 656336, 2
656338, 656334, 2
656338, 656331, 2
656338, 656337, 2
656338, 656336, 2
656328, 656330, 2
656328, 656329, 1
656332, 656334, 2
656332, 656335, 2
656332, 656333, 2
656332, 656331, 2
656332, 656336, 2
656331, 656330, 2
656331, 656333, 8
656331, 656334, 2
656331, 656338, 2
656331, 656332, 3
656331, 656336, 1
656336, 656330, 2
656336, 656332, 2
656336, 656338, 1
656336, 656337, 3
656336, 656334, 2
656336, 656333, 2
656336, 656335, 2
656336, 656331, 2
