570249, 570250, 0
570249, 570251, 1
570257, 570256, 2
570255, 570254, 2
570255, 570256, 1
570250, 570249, 2
570250, 570251, 2
570253, 570254, 1
570253, 570252, 2
570256, 570257, 1
570256, 570255, 2
570252, 570253, 1
570252, 570251, 2
570254, 570253, 2
570254, 570255, 1
570251, 570250, 2
570251, 570252, 1
570251, 570249, 2
