336784, 336782, 2
336784, 336785, 1
336784, 336783, 2
336784, 336786, 2
336781, 336782, 1
336781, 336780, 2
336773, 336774, 1
336773, 336772, 2
336765, 336766, 2
336765, 336764, 2
336771, 336770, 2
336771, 336772, 1
336785, 336784, 2
336785, 336787, 1
336785, 336786, 3
336776, 336778, 2
336776, 336775, 2
336776, 336777, 1
336768, 336767, 2
336768, 336769, 2
336768, 336766, 2
336764, 336766, 1
336764, 336765, 3
336778, 336780, 2
336778, 336776, 2
336778, 336777, 2
336778, 336779, 2
336770, 336769, 2
336770, 336771, 1
336769, 336770, 1
336769, 336768, 2
336769, 336767, 2
336787, 336785, 2
336787, 336786, 2
336786, 336784, 2
336786, 336785, 2
336786, 336787, 2
336775, 336774, 2
336775, 336776, 1
336766, 336767, 1
336766, 336768, 2
336766, 336764, 2
336766, 336765, 2
336767, 336769, 1
336767, 336768, 3
336767, 336766, 2
336783, 336784, 2
336783, 336782, 2
336780, 336778, 2
336780, 336781, 1
336780, 336779, 2
336774, 336775, 1
336774, 336773, 2
336782, 336784, 1
336782, 336781, 2
336782, 336783, 3
336772, 336773, 1
336772, 336771, 2
336777, 336778, 8
336777, 336776, 2
336777, 336779, 1
336779, 336778, 2
336779, 336777, 2
336779, 336780, 1
