643970, 643967, 2
643970, 643969, 2
643970, 643968, 2
643970, 643966, 2
643936, 643938, 1
643936, 643935, 2
643936, 643937, 3
643936, 643939, 2
643950, 643951, 1
643950, 643949, 2
643950, 643941, 2
643950, 643940, 2
643950, 643944, 2
643950, 643945, 2
643960, 643961, 1
643960, 643959, 2
643960, 643958, 2
643944, 643940, 2
643944, 643941, 2
643944, 643943, 2
643944, 643950, 2
643944, 643945, 1
643944, 643939, 2
643962, 643961, 2
643962, 643964, 2
643962, 643963, 2
643926, 643931, 1
643926, 643924, 2
643926, 643923, 2
643926, 643927, 3
643926, 643929, 2
643926, 643933, 2
643926, 643922, 2
643926, 643925, 2
643926, 643928, 2
643926, 643921, 2
643926, 643920, 2
643946, 643947, 1
643946, 643948, 2
643946, 643941, 2
643946, 643945, 2
643933, 643932, 2
643933, 643926, 2
643933, 643931, 2
643933, 643935, 2
643933, 643934, 1
643933, 643930, 2
643937, 643936, 2
643937, 643940, 2
643937, 643938, 2
643937, 643941, 2
643937, 643935, 2
643934, 643933, 2
643934, 643935, 1
643940, 643938, 2
643940, 643949, 2
643940, 643941, 3
643940, 643942, 0
643940, 643952, 2
643940, 643944, 2
643940, 643943, 2
643940, 643950, 1
643940, 643937, 2
643940, 643945, 2
643940, 643939, 2
643958, 643969, 2
643958, 643960, 2
643958, 643959, 3
643958, 643954, 2
643958, 643957, 2
643958, 643955, 2
643958, 643956, 2
643958, 643952, 2
643958, 643963, 1
643958, 643961, 2
643958, 643968, 2
643958, 643953, 2
643948, 643946, 2
643948, 643947, 2
643948, 643945, 2
643948, 643949, 1
643928, 643926, 2
643928, 643927, 2
643928, 643929, 1
643957, 643956, 2
643957, 643958, 2
643957, 643955, 2
643957, 643959, 2
643955, 643956, 1
643955, 643954, 2
643955, 643957, 2
643955, 643958, 2
643953, 643952, 2
643953, 643956, 2
643953, 643968, 2
643953, 643958, 1
643953, 643954, 3
643932, 643933, 2
643932, 643930, 2
643932, 643931, 2
643966, 643967, 3
643966, 643969, 2
643966, 643965, 2
643966, 643970, 1
643966, 643963, 2
643966, 643968, 0
643966, 643964, 2
643919, 643920, 1
643954, 643953, 2
643954, 643956, 2
643954, 643958, 2
643954, 643955, 2
643954, 643952, 2
643961, 643962, 2
643961, 643958, 2
643961, 643960, 2
643961, 643959, 2
643961, 643963, 2
643969, 643967, 2
643969, 643949, 2
643969, 643966, 2
643969, 643952, 2
643969, 643970, 2
643969, 643963, 2
643969, 643968, 2
643969, 643958, 2
643968, 643967, 2
643968, 643969, 1
643968, 643966, 2
643968, 643958, 2
643968, 643970, 2
643968, 643963, 2
643968, 643949, 2
643968, 643953, 2
643968, 643952, 2
643967, 643969, 2
643967, 643965, 2
643967, 643966, 2
643967, 643968, 2
643967, 643970, 2
643938, 643936, 2
643938, 643940, 1
643938, 643937, 2
643938, 643941, 2
643938, 643939, 0
643924, 643920, 2
643924, 643923, 2
643924, 643926, 2
643924, 643925, 1
643924, 643922, 2
643924, 643921, 2
643941, 643938, 2
643941, 643940, 2
643941, 643942, 2
643941, 643949, 2
643941, 643943, 2
643941, 643950, 2
643941, 643947, 2
643941, 643944, 2
643941, 643952, 2
643941, 643946, 2
643941, 643937, 2
643941, 643945, 2
643929, 643931, 2
643929, 643928, 2
643929, 643927, 2
643929, 643930, 2
643929, 643926, 2
643931, 643933, 1
643931, 643929, 2
643931, 643930, 2
643931, 643926, 2
643931, 643932, 3
643922, 643920, 2
643922, 643924, 2
643922, 643921, 2
643922, 643926, 2
643922, 643923, 2
643963, 643969, 2
643963, 643964, 3
643963, 643962, 2
643963, 643958, 2
643963, 643966, 1
643963, 643961, 2
643963, 643968, 2
643963, 643965, 8
643935, 643936, 1
643935, 643933, 2
643935, 643937, 2
643935, 643934, 2
643935, 643939, 2
643951, 643949, 2
643951, 643950, 2
643951, 643952, 1
643964, 643965, 2
643964, 643962, 2
643964, 643966, 2
643964, 643963, 2
643952, 643951, 2
643952, 643940, 2
643952, 643956, 2
643952, 643958, 2
643952, 643969, 2
643952, 643954, 2
643952, 643968, 2
643952, 643953, 1
643952, 643941, 2
643925, 643924, 2
643925, 643927, 2
643925, 643926, 2
643925, 643923, 2
643939, 643938, 2
643939, 643940, 2
643939, 643942, 2
643939, 643936, 2
643939, 643943, 2
643939, 643944, 2
643939, 643935, 2
643949, 643947, 2
643949, 643940, 2
643949, 643951, 2
643949, 643941, 2
643949, 643948, 2
643949, 643969, 2
643949, 643950, 2
643949, 643968, 2
643965, 643967, 2
643965, 643964, 2
643965, 643966, 2
643965, 643963, 2
643942, 643943, 1
643942, 643940, 2
643942, 643941, 2
643942, 643939, 2
643923, 643922, 2
643923, 643924, 1
643923, 643926, 2
643923, 643925, 2
643927, 643928, 1
643927, 643925, 2
643927, 643926, 2
643927, 643929, 2
643943, 643944, 1
643943, 643940, 2
643943, 643942, 2
643943, 643941, 2
643943, 643939, 2
643959, 643961, 2
643959, 643960, 1
643959, 643958, 2
643959, 643957, 2
643930, 643931, 2
643930, 643933, 2
643930, 643932, 2
643930, 643929, 2
643921, 643920, 2
643921, 643922, 3
643921, 643924, 2
643921, 643926, 1
643947, 643946, 2
643947, 643948, 1
643947, 643941, 2
643947, 643945, 2
643947, 643949, 2
643920, 643921, 1
643920, 643922, 2
643920, 643924, 2
643920, 643919, 2
643920, 643926, 2
643956, 643958, 2
643956, 643952, 2
643956, 643954, 2
643956, 643953, 2
643956, 643955, 2
643956, 643957, 1
643945, 643947, 2
643945, 643940, 2
643945, 643941, 2
643945, 643948, 2
643945, 643946, 1
643945, 643944, 2
643945, 643950, 2
