378721, 378720, 2
378721, 378722, 1
378722, 378723, 1
378722, 378720, 2
378722, 378721, 2
378723, 378724, 1
378723, 378722, 2
378724, 378723, 2
378724, 378725, 1
378720, 378721, 1
378720, 378722, 2
378725, 378724, 2
