433086, 433084, 2
433086, 433088, 2
433086, 433085, 2
433086, 433087, 2
433084, 433086, 2
433084, 433085, 1
433088, 433086, 2
433088, 433085, 2
433088, 433087, 2
433085, 433086, 8
433085, 433084, 2
433085, 433088, 2
433085, 433087, 1
433087, 433086, 2
433087, 433088, 1
433087, 433085, 2
