495049, 495047, 2
495049, 495051, 2
495049, 495052, 2
495049, 495050, 1
495049, 495048, 2
495051, 495049, 2
495051, 495052, 1
495051, 495050, 2
495046, 495047, 1
495050, 495049, 2
495050, 495051, 1
495050, 495052, 2
495047, 495049, 2
495047, 495046, 2
495047, 495048, 1
495048, 495049, 1
495048, 495047, 2
495052, 495049, 2
495052, 495051, 2
495052, 495050, 2
