450375, 450376, 2
450375, 450372, 2
450375, 450374, 2
450375, 450373, 2
450379, 450380, 8
450379, 450383, 2
450379, 450381, 1
450379, 450378, 2
450381, 450380, 2
450381, 450379, 2
450381, 450384, 2
450381, 450378, 2
450381, 450382, 1
450381, 450383, 2
450378, 450380, 2
450378, 450379, 1
450378, 450381, 2
450378, 450377, 2
450382, 450380, 2
450382, 450383, 8
450382, 450384, 1
450382, 450381, 2
450372, 450371, 2
450372, 450375, 2
450372, 450373, 1
450376, 450375, 2
450376, 450377, 1
450376, 450374, 2
450376, 450373, 2
450385, 450383, 2
450385, 450384, 2
450374, 450376, 1
450374, 450375, 8
450374, 450377, 2
450374, 450373, 2
450384, 450382, 2
450384, 450385, 1
450384, 450383, 2
450384, 450381, 2
450373, 450376, 2
450373, 450375, 2
450373, 450372, 2
450373, 450374, 1
450373, 450377, 2
450371, 450372, 1
450380, 450377, 2
450380, 450381, 2
450380, 450378, 2
450380, 450382, 2
450380, 450383, 2
450380, 450379, 2
450383, 450380, 2
450383, 450385, 2
450383, 450379, 2
450383, 450381, 2
450383, 450382, 2
450383, 450384, 2
450377, 450376, 2
450377, 450373, 2
450377, 450378, 1
450377, 450374, 2
450377, 450380, 2
