378641, 378640, 2
378636, 378638, 2
378636, 378637, 1
378636, 378639, 2
378637, 378638, 3
378637, 378636, 2
378637, 378639, 1
378640, 378641, 1
378640, 378639, 2
378638, 378636, 2
378638, 378637, 2
378638, 378639, 2
378639, 378638, 2
378639, 378636, 2
378639, 378637, 2
378639, 378640, 1
