536841, 536839, 2
536841, 536838, 2
536841, 536840, 2
536839, 536841, 2
536839, 536838, 2
536839, 536840, 1
536839, 536837, 2
536837, 536839, 1
536837, 536838, 3
536840, 536841, 3
536840, 536839, 2
536840, 536838, 2
536838, 536841, 2
536838, 536839, 2
536838, 536837, 2
536838, 536840, 2
