378388, 378386, 2
378388, 378389, 1
378388, 378387, 2
378384, 378385, 1
378386, 378388, 1
378386, 378385, 2
378386, 378387, 8
378389, 378388, 2
378387, 378388, 2
378387, 378386, 2
378387, 378385, 2
378385, 378384, 2
378385, 378386, 1
378385, 378387, 2
