537295, 537292, 2
537295, 537293, 2
537295, 537294, 2
537290, 537293, 2
537290, 537291, 2
537290, 537292, 2
537290, 537289, 2
537293, 537291, 2
537293, 537295, 2
537293, 537292, 2
537293, 537290, 2
537293, 537294, 2
537294, 537295, 1
537294, 537292, 2
537294, 537293, 2
537291, 537289, 2
537291, 537293, 2
537291, 537290, 2
537291, 537292, 2
537289, 537291, 8
537289, 537292, 1
537289, 537290, 3
537292, 537295, 2
537292, 537290, 2
537292, 537293, 3
537292, 537294, 8
537292, 537291, 2
537292, 537289, 2
