380237, 380239, 2
380237, 380238, 1
380237, 380236, 2
380244, 380239, 2
380244, 380243, 2
380236, 380237, 1
380236, 380239, 2
380243, 380239, 2
380243, 380242, 2
380243, 380244, 1
380240, 380241, 2
380240, 380238, 2
380239, 380237, 2
380239, 380238, 2
380239, 380236, 2
380239, 380243, 2
380239, 380242, 2
380239, 380241, 2
380239, 380244, 2
380242, 380239, 2
380242, 380241, 2
380242, 380243, 1
380241, 380240, 2
380241, 380239, 2
380241, 380242, 1
380241, 380238, 2
380238, 380237, 2
380238, 380240, 3
380238, 380239, 6
380238, 380241, 1
