453234, 453233, 2
453234, 453235, 1
453221, 453222, 2
453221, 453220, 2
453221, 453225, 2
453221, 453219, 2
453221, 453217, 2
453221, 453218, 2
453221, 453223, 1
453232, 453233, 2
453232, 453231, 2
453241, 453222, 2
453241, 453240, 2
453241, 453242, 1
453218, 453222, 2
453218, 453220, 1
453218, 453221, 2
453218, 453219, 2
453218, 453217, 2
453218, 453224, 2
453218, 453223, 2
453227, 453228, 1
453227, 453226, 2
453227, 453229, 2
453222, 453220, 2
453222, 453233, 2
453222, 453221, 2
453222, 453247, 2
453222, 453249, 2
453222, 453241, 2
453222, 453219, 2
453222, 453242, 2
453222, 453218, 2
453222, 453229, 2
453222, 453248, 2
453222, 453228, 2
453222, 453226, 2
453222, 453246, 2
453222, 453237, 2
453222, 453225, 2
453222, 453235, 2
453222, 453240, 2
453222, 453217, 2
453222, 453224, 2
453222, 453223, 2
453245, 453246, 1
453245, 453244, 2
453242, 453222, 2
453242, 453243, 8
453242, 453246, 2
453242, 453244, 1
453242, 453241, 2
453242, 453240, 2
453246, 453222, 2
453246, 453245, 2
453246, 453220, 2
453246, 453248, 2
453246, 453244, 2
453246, 453247, 1
453246, 453242, 2
453237, 453222, 2
453237, 453220, 2
453237, 453236, 2
453237, 453235, 2
453237, 453240, 2
453237, 453238, 1
453236, 453237, 1
453236, 453235, 2
453235, 453222, 2
453235, 453234, 2
453235, 453220, 2
453235, 453237, 2
453235, 453236, 1
453217, 453222, 2
453217, 453220, 2
453217, 453221, 1
453217, 453219, 0
453217, 453218, 3
453217, 453224, 2
453217, 453225, 2
453224, 453222, 2
453224, 453220, 2
453224, 453225, 1
453224, 453219, 2
453224, 453217, 2
453224, 453218, 2
453224, 453226, 2
453224, 453223, 2
453223, 453222, 2
453223, 453220, 2
453223, 453221, 2
453223, 453226, 2
453223, 453219, 2
453223, 453218, 2
453223, 453224, 1
453223, 453225, 2
453243, 453242, 2
453243, 453244, 2
453220, 453224, 2
453220, 453221, 2
453220, 453231, 2
453220, 453219, 2
453220, 453244, 2
453220, 453230, 2
453220, 453218, 2
453220, 453222, 2
453220, 453233, 2
453220, 453225, 2
453220, 453246, 2
453220, 453237, 2
453220, 453235, 2
453220, 453240, 2
453220, 453217, 2
453220, 453226, 2
453220, 453223, 2
453240, 453222, 2
453240, 453220, 2
453240, 453242, 2
453240, 453241, 1
453240, 453238, 2
453240, 453237, 2
453240, 453239, 2
453231, 453232, 1
453231, 453230, 2
453231, 453220, 2
453219, 453222, 1
453219, 453220, 2
453219, 453221, 2
453219, 453225, 2
453219, 453217, 2
453219, 453218, 2
453219, 453224, 2
453219, 453223, 2
453244, 453243, 2
453244, 453245, 1
453244, 453242, 2
453244, 453246, 2
453244, 453220, 2
453230, 453220, 2
453230, 453229, 2
453230, 453226, 2
453230, 453231, 1
453229, 453222, 2
453229, 453228, 2
453229, 453233, 1
453229, 453230, 3
453229, 453226, 2
453229, 453227, 2
453248, 453222, 2
453248, 453247, 2
453248, 453249, 1
453248, 453246, 2
453238, 453237, 2
453238, 453240, 2
453238, 453239, 1
453228, 453222, 2
453228, 453229, 2
453228, 453226, 2
453228, 453227, 2
453225, 453222, 2
453225, 453220, 2
453225, 453221, 2
453225, 453226, 1
453225, 453219, 2
453225, 453217, 2
453225, 453224, 2
453225, 453223, 2
453249, 453222, 2
453249, 453248, 2
453233, 453222, 2
453233, 453234, 1
453233, 453220, 2
453233, 453232, 2
453233, 453229, 2
453239, 453240, 1
453239, 453238, 2
453226, 453222, 2
453226, 453220, 2
453226, 453228, 2
453226, 453225, 2
453226, 453229, 1
453226, 453227, 0
453226, 453230, 2
453226, 453224, 2
453226, 453223, 2
453247, 453222, 2
453247, 453248, 1
453247, 453246, 2
