573175, 573174, 2
573175, 573176, 2
573171, 573169, 2
573171, 573172, 1
573171, 573170, 2
573174, 573175, 3
573174, 573176, 1
573174, 573173, 2
573170, 573171, 2
573170, 573172, 2
573170, 573169, 2
573173, 573174, 1
573173, 573172, 2
573176, 573174, 2
573176, 573175, 2
573172, 573169, 2
573172, 573171, 2
573172, 573170, 2
573172, 573173, 1
573169, 573171, 1
573169, 573172, 2
573169, 573170, 3
