456675, 456673, 2
456675, 456674, 2
456673, 456675, 2
456673, 456672, 2
456673, 456671, 2
456673, 456674, 2
456669, 456671, 1
456669, 456670, 0
456671, 456672, 1
456671, 456669, 2
456671, 456673, 2
456671, 456670, 2
456671, 456674, 2
456674, 456675, 1
456674, 456673, 2
456674, 456672, 2
456674, 456671, 2
456670, 456669, 2
456670, 456671, 2
456672, 456673, 8
456672, 456671, 2
456672, 456674, 1
