550624, 550621, 2
550624, 550625, 1
550624, 550623, 2
550624, 550620, 2
550630, 550631, 1
550630, 550629, 2
550630, 550626, 2
550630, 550627, 2
550630, 550625, 2
550630, 550632, 2
550634, 550635, 1
550634, 550632, 2
550634, 550633, 2
550622, 550621, 2
550622, 550623, 1
550622, 550620, 2
550621, 550624, 2
550621, 550622, 1
550621, 550619, 2
550621, 550618, 2
550621, 550623, 2
550621, 550620, 2
550619, 550621, 2
550619, 550618, 2
550619, 550620, 1
550625, 550624, 2
550625, 550630, 1
550625, 550627, 2
550625, 550626, 3
550625, 550629, 2
550625, 550623, 2
550625, 550628, 2
550625, 550631, 2
550625, 550620, 2
550632, 550631, 2
550632, 550630, 2
550632, 550634, 2
550632, 550629, 2
550632, 550633, 1
550620, 550624, 1
550620, 550622, 2
550620, 550621, 3
550620, 550619, 2
550620, 550625, 2
550620, 550623, 2
550631, 550630, 2
550631, 550625, 2
550631, 550632, 1
550631, 550633, 2
550631, 550629, 2
550629, 550631, 2
550629, 550630, 2
550629, 550628, 2
550629, 550626, 2
550629, 550627, 2
550629, 550625, 2
550629, 550632, 2
550627, 550629, 2
550627, 550625, 2
550627, 550628, 1
550627, 550626, 2
550627, 550630, 2
550626, 550630, 2
550626, 550628, 2
550626, 550627, 1
550626, 550629, 2
550626, 550625, 2
550626, 550623, 2
550635, 550634, 2
550628, 550629, 1
550628, 550625, 2
550628, 550626, 2
550628, 550627, 2
550618, 550621, 2
550618, 550619, 1
550623, 550624, 2
550623, 550626, 2
550623, 550622, 2
550623, 550621, 2
550623, 550625, 2
550623, 550620, 2
550633, 550631, 2
550633, 550634, 1
550633, 550632, 2
