608085, 608084, 2
608085, 608083, 2
608085, 608086, 1
608084, 608085, 2
608084, 608083, 2
608084, 608086, 2
608081, 608082, 1
608083, 608085, 1
608083, 608084, 3
608083, 608086, 2
608083, 608082, 2
608086, 608085, 2
608086, 608084, 2
608086, 608083, 2
608082, 608083, 1
608082, 608081, 2
