339897, 339898, 1
339897, 339895, 2
339897, 339896, 2
339898, 339897, 2
339898, 339900, 2
339898, 339899, 1
339900, 339898, 2
339900, 339899, 2
339896, 339897, 2
339896, 339895, 2
339895, 339897, 1
339895, 339896, 0
339899, 339898, 2
339899, 339900, 1
