551729, 551730, 1
551729, 551728, 2
551711, 551712, 2
551711, 551713, 2
551711, 551714, 2
551711, 551710, 2
551734, 551714, 2
551734, 551732, 2
551734, 551733, 2
551721, 551723, 2
551721, 551720, 2
551721, 551714, 2
551721, 551722, 1
551714, 551718, 2
551714, 551710, 2
551714, 551721, 2
551714, 551711, 2
551714, 551732, 2
551714, 551713, 2
551714, 551725, 2
551714, 551719, 2
551714, 551712, 2
551714, 551734, 2
551714, 551727, 2
551714, 551716, 2
551714, 551724, 2
551719, 551718, 2
551719, 551714, 2
551719, 551720, 1
551709, 551710, 1
551709, 551708, 2
551724, 551723, 2
551724, 551714, 2
551724, 551725, 1
551731, 551730, 2
551731, 551732, 1
551733, 551734, 1
551733, 551732, 2
551730, 551729, 2
551730, 551731, 1
551730, 551728, 2
551718, 551717, 2
551718, 551714, 2
551718, 551716, 2
551718, 551719, 1
551715, 551712, 2
551715, 551713, 2
551715, 551716, 2
551715, 551710, 2
551715, 551708, 2
551710, 551713, 2
551710, 551714, 2
551710, 551715, 2
551710, 551712, 1
551710, 551709, 2
551710, 551711, 0
551722, 551721, 2
551722, 551723, 1
551717, 551718, 1
551717, 551716, 2
551720, 551721, 1
551720, 551719, 2
551732, 551734, 2
551732, 551731, 2
551732, 551714, 2
551732, 551733, 1
551726, 551727, 1
551726, 551725, 2
551728, 551729, 1
551728, 551730, 2
551728, 551727, 2
551728, 551725, 2
551713, 551711, 2
551713, 551715, 3
551713, 551710, 2
551713, 551712, 2
551713, 551716, 1
551713, 551714, 6
551723, 551721, 2
551723, 551724, 1
551723, 551722, 2
551725, 551727, 2
551725, 551714, 2
551725, 551724, 2
551725, 551726, 1
551725, 551728, 2
551712, 551713, 1
551712, 551711, 2
551712, 551715, 2
551712, 551710, 2
551712, 551714, 2
551727, 551725, 2
551727, 551714, 2
551727, 551726, 2
551727, 551728, 1
551716, 551717, 1
551716, 551718, 2
551716, 551714, 2
551716, 551715, 2
551716, 551713, 2
551708, 551709, 1
551708, 551715, 2
