572246, 572244, 2
572246, 572245, 2
572244, 572246, 1
572244, 572243, 2
572244, 572245, 4
572245, 572246, 2
572245, 572244, 2
572245, 572243, 2
572242, 572243, 1
572243, 572244, 1
572243, 572242, 2
572243, 572245, 2
