490943, 490945, 2
490943, 490944, 2
490943, 490942, 2
490949, 490948, 2
490937, 490938, 1
490937, 490939, 2
490937, 490935, 2
490937, 490936, 2
490946, 490947, 3
490946, 490945, 2
490946, 490948, 1
490942, 490943, 0
490942, 490940, 2
490942, 490941, 2
490942, 490939, 2
490942, 490944, 1
490942, 490945, 2
490947, 490946, 2
490947, 490948, 2
490941, 490940, 2
490941, 490942, 2
490948, 490949, 0
490948, 490947, 2
490948, 490945, 2
490948, 490946, 2
490934, 490933, 2
490934, 490935, 1
490940, 490941, 3
490940, 490939, 2
490940, 490942, 1
490939, 490940, 1
490939, 490937, 2
490939, 490938, 2
490939, 490942, 2
490935, 490934, 2
490935, 490937, 2
490935, 490936, 1
490933, 490934, 1
490945, 490943, 2
490945, 490944, 2
490945, 490946, 1
490945, 490948, 2
490945, 490942, 2
490944, 490943, 2
490944, 490945, 1
490944, 490942, 2
490938, 490937, 2
490938, 490939, 1
490936, 490937, 1
490936, 490935, 2
