378236, 378237, 1
378236, 378234, 2
378236, 378235, 2
378234, 378236, 2
378234, 378235, 1
378235, 378236, 1
378235, 378234, 2
378238, 378237, 2
378238, 378239, 1
378237, 378236, 2
378237, 378238, 1
378239, 378238, 2
