491577, 491576, 2
491577, 491578, 2
491585, 491586, 1
491585, 491583, 2
491585, 491587, 2
491585, 491584, 2
491575, 491576, 1
491575, 491578, 2
491582, 491584, 2
491582, 491580, 2
491582, 491581, 2
491582, 491583, 1
491588, 491589, 1
491588, 491587, 2
491593, 491592, 2
491593, 491594, 1
491586, 491585, 2
491586, 491587, 1
491592, 491593, 1
491592, 491591, 2
491592, 491594, 2
491592, 491590, 2
491583, 491585, 1
491583, 491584, 3
491583, 491582, 2
491591, 491592, 2
491591, 491590, 2
491591, 491589, 2
491576, 491577, 3
491576, 491575, 2
491576, 491578, 1
491590, 491592, 1
491590, 491591, 3
491590, 491589, 2
491579, 491580, 1
491579, 491578, 2
491584, 491585, 2
491584, 491582, 2
491584, 491583, 2
491581, 491580, 2
491581, 491582, 1
491589, 491587, 2
491589, 491588, 2
491589, 491591, 2
491589, 491590, 1
491580, 491579, 2
491580, 491582, 2
491580, 491581, 1
491580, 491578, 2
491587, 491585, 2
491587, 491586, 2
491587, 491588, 1
491587, 491589, 2
491594, 491592, 2
491594, 491593, 2
491578, 491577, 2
491578, 491579, 1
491578, 491580, 2
491578, 491575, 2
491578, 491576, 2
