449370, 449371, 1
449373, 449374, 1
449373, 449375, 2
449373, 449372, 2
449377, 449379, 2
449377, 449378, 2
449377, 449375, 2
449377, 449380, 2
449377, 449376, 2
449376, 449379, 2
449376, 449378, 2
449376, 449377, 2
449376, 449380, 2
449376, 449375, 2
449374, 449373, 2
449374, 449375, 2
449375, 449379, 2
449375, 449373, 2
449375, 449377, 2
449375, 449376, 2
449375, 449374, 2
449375, 449378, 2
449375, 449380, 2
449378, 449379, 2
449378, 449375, 2
449378, 449377, 2
449378, 449380, 2
449378, 449376, 2
449371, 449370, 2
449371, 449372, 1
449379, 449378, 2
449379, 449375, 2
449379, 449377, 2
449379, 449380, 2
449379, 449376, 2
449380, 449379, 2
449380, 449378, 2
449380, 449375, 2
449380, 449377, 2
449380, 449376, 2
449372, 449373, 1
449372, 449371, 2
