656979, 656980, 2
656979, 656976, 2
656979, 656977, 2
656979, 656978, 2
656979, 656981, 2
656980, 656979, 2
656980, 656978, 2
656980, 656976, 2
656980, 656982, 1
656980, 656977, 2
656980, 656981, 3
656972, 656970, 2
656972, 656978, 2
656972, 656973, 2
656972, 656974, 2
656972, 656971, 2
656972, 656977, 2
656972, 656975, 2
656974, 656976, 2
656974, 656972, 2
656974, 656975, 1
656974, 656973, 2
656974, 656978, 2
656976, 656979, 2
656976, 656980, 2
656976, 656978, 2
656976, 656973, 2
656976, 656971, 2
656976, 656974, 2
656976, 656982, 2
656976, 656977, 2
656976, 656968, 2
656976, 656983, 2
656976, 656975, 2
656977, 656979, 8
656977, 656980, 1
656977, 656972, 2
656977, 656978, 3
656977, 656976, 6
656977, 656975, 2
656975, 656974, 2
656975, 656976, 2
656975, 656972, 2
656975, 656977, 1
656975, 656978, 2
656969, 656971, 2
656969, 656968, 2
656969, 656970, 2
656984, 656981, 2
656984, 656983, 2
656970, 656971, 2
656970, 656972, 2
656970, 656968, 2
656970, 656969, 2
656978, 656979, 2
656978, 656980, 2
656978, 656972, 2
656978, 656973, 2
656978, 656974, 2
656978, 656976, 2
656978, 656977, 2
656978, 656975, 2
656978, 656981, 2
656973, 656974, 1
656973, 656976, 2
656973, 656972, 2
656973, 656978, 2
656973, 656971, 2
656982, 656980, 2
656982, 656976, 2
656982, 656981, 2
656982, 656983, 1
656968, 656976, 2
656968, 656969, 3
656968, 656970, 8
656968, 656971, 1
656971, 656972, 3
656971, 656970, 2
656971, 656973, 1
656971, 656976, 2
656971, 656968, 2
656971, 656969, 2
656981, 656979, 2
656981, 656980, 2
656981, 656984, 2
656981, 656978, 2
656981, 656982, 2
656981, 656983, 2
656983, 656984, 3
656983, 656976, 2
656983, 656981, 2
656983, 656982, 2
