334976, 334973, 2
334976, 334977, 1
334976, 334974, 2
334976, 334975, 2
334970, 334971, 1
334970, 334969, 2
334970, 334967, 2
334974, 334973, 2
334974, 334976, 2
334974, 334977, 2
334974, 334975, 1
334968, 334966, 2
334968, 334969, 1
334968, 334967, 2
334978, 334979, 1
334978, 334977, 2
334978, 334980, 2
334978, 334975, 2
334973, 334971, 2
334973, 334976, 2
334973, 334972, 2
334973, 334977, 2
334973, 334974, 1
334977, 334973, 2
334977, 334976, 2
334977, 334978, 1
334977, 334974, 2
334977, 334975, 2
334975, 334978, 2
334975, 334976, 1
334975, 334977, 2
334975, 334974, 2
334971, 334973, 1
334971, 334972, 3
334971, 334970, 2
334969, 334968, 2
334969, 334966, 2
334969, 334970, 1
334969, 334967, 2
334980, 334979, 2
334980, 334978, 2
334979, 334978, 2
334979, 334980, 3
334966, 334968, 2
334966, 334969, 2
334966, 334967, 1
334972, 334971, 2
334972, 334973, 2
334967, 334968, 1
334967, 334966, 2
334967, 334969, 2
334967, 334970, 2
