495021, 495023, 2
495021, 495022, 1
495021, 495019, 2
495021, 495020, 2
495024, 495022, 2
495024, 495023, 2
495023, 495021, 2
495023, 495022, 2
495023, 495024, 1
495022, 495021, 2
495022, 495023, 1
495022, 495024, 2
495018, 495019, 1
495019, 495021, 2
495019, 495018, 2
495019, 495020, 1
495020, 495021, 1
495020, 495019, 2
