496046, 496047, 2
496046, 496045, 2
496046, 496042, 2
496042, 496046, 2
496042, 496041, 2
496042, 496043, 1
496042, 496044, 2
496042, 496039, 2
496042, 496040, 2
496041, 496042, 2
496041, 496039, 2
496041, 496040, 2
496043, 496042, 2
496043, 496044, 1
496045, 496047, 1
496045, 496044, 2
496045, 496046, 3
496047, 496045, 2
496047, 496046, 2
496044, 496042, 2
496044, 496043, 2
496044, 496045, 1
496039, 496042, 1
496039, 496041, 2
496039, 496040, 0
496040, 496042, 2
496040, 496041, 1
496040, 496039, 2
