554018, 554016, 2
554018, 554017, 2
554017, 554018, 1
554017, 554016, 2
554014, 554013, 2
554014, 554015, 1
554015, 554016, 1
554015, 554013, 2
554015, 554014, 2
554016, 554018, 2
554016, 554017, 1
554016, 554015, 2
554013, 554014, 1
554013, 554015, 2
