644544, 644545, 1
644544, 644543, 2
644542, 644543, 1
644542, 644541, 2
644546, 644545, 2
644540, 644539, 2
644540, 644541, 1
644539, 644538, 2
644539, 644541, 2
644539, 644540, 1
644538, 644539, 1
644545, 644544, 2
644545, 644543, 2
644545, 644546, 1
644541, 644539, 2
644541, 644542, 1
644541, 644540, 2
644543, 644544, 1
644543, 644542, 2
644543, 644545, 2
