644195, 644194, 2
644195, 644193, 2
644195, 644197, 1
644195, 644196, 8
644191, 644192, 8
644191, 644193, 1
644196, 644195, 2
644196, 644197, 2
644194, 644195, 2
644194, 644193, 2
644194, 644197, 2
644193, 644195, 1
644193, 644194, 8
644193, 644192, 2
644193, 644191, 2
644192, 644193, 2
644192, 644191, 2
644197, 644195, 2
644197, 644194, 2
644197, 644196, 2
