515540, 515538, 2
515540, 515537, 2
515540, 515539, 2
515540, 515541, 1
515539, 515540, 1
515539, 515538, 2
515539, 515536, 2
515539, 515537, 2
515537, 515539, 2
515537, 515540, 2
515537, 515538, 2
515537, 515536, 2
515538, 515540, 2
515538, 515539, 2
515538, 515536, 2
515538, 515537, 2
515541, 515540, 2
515536, 515539, 1
515536, 515538, 8
515536, 515537, 0
