404895, 404896, 1
404895, 404893, 2
404895, 404894, 2
404906, 404904, 2
404906, 404905, 2
404906, 404903, 2
404906, 404907, 1
404906, 404908, 2
404894, 404893, 2
404894, 404892, 2
404894, 404895, 1
404910, 404911, 1
404910, 404909, 2
404904, 404903, 2
404904, 404905, 0
404904, 404906, 1
404905, 404904, 2
404905, 404906, 2
404911, 404913, 2
404911, 404910, 2
404911, 404912, 1
404914, 404913, 2
404914, 404915, 1
404912, 404911, 2
404912, 404913, 1
404915, 404916, 1
404915, 404914, 2
404902, 404901, 2
404902, 404899, 2
404902, 404903, 1
404908, 404906, 2
404908, 404907, 2
404908, 404909, 1
404907, 404906, 2
404907, 404908, 1
404901, 404899, 2
404901, 404900, 2
404901, 404902, 1
404892, 404893, 1
404892, 404894, 2
404913, 404911, 2
404913, 404914, 1
404913, 404912, 2
404900, 404901, 1
404900, 404899, 2
404900, 404898, 2
404909, 404910, 1
404909, 404908, 2
404893, 404892, 2
404893, 404894, 1
404893, 404895, 2
404898, 404899, 0
404898, 404897, 2
404898, 404900, 1
404897, 404896, 2
404897, 404898, 1
404916, 404915, 2
404896, 404895, 2
404896, 404897, 1
404899, 404901, 2
404899, 404898, 2
404899, 404902, 2
404899, 404900, 2
404903, 404904, 1
404903, 404906, 2
404903, 404902, 2
