421398, 421396, 2
421398, 421397, 2
421392, 421391, 2
421392, 421394, 2
421392, 421393, 2
421393, 421391, 2
421393, 421392, 2
421393, 421394, 2
421395, 421396, 8
421395, 421397, 1
421395, 421394, 2
421391, 421392, 3
421391, 421394, 1
421391, 421393, 0
421396, 421395, 2
421396, 421398, 2
421396, 421397, 2
421396, 421394, 2
421397, 421395, 2
421397, 421398, 1
421397, 421396, 2
421397, 421394, 2
421394, 421392, 2
421394, 421393, 2
421394, 421395, 1
421394, 421391, 2
421394, 421396, 2
421394, 421397, 2
