431768, 431761, 2
431768, 431767, 2
431768, 431766, 2
431762, 431765, 2
431762, 431761, 2
431762, 431763, 0
431762, 431760, 2
431762, 431764, 1
431760, 431761, 8
431760, 431763, 2
431760, 431762, 1
431764, 431765, 1
431764, 431761, 2
431764, 431763, 2
431764, 431762, 2
431765, 431766, 1
431765, 431763, 2
431765, 431762, 2
431765, 431764, 2
431761, 431766, 2
431761, 431768, 2
431761, 431762, 2
431761, 431760, 2
431761, 431764, 2
431763, 431765, 2
431763, 431762, 2
431763, 431760, 2
431763, 431764, 2
431767, 431768, 3
431767, 431766, 2
431766, 431765, 2
431766, 431768, 2
431766, 431767, 1
431766, 431761, 2
