449386, 449384, 2
449386, 449389, 2
449386, 449388, 1
449386, 449385, 2
449386, 449387, 8
449384, 449386, 1
449384, 449383, 2
449384, 449381, 2
449384, 449385, 8
449384, 449382, 2
449384, 449387, 2
449383, 449384, 1
449383, 449382, 2
449383, 449381, 2
449383, 449385, 2
449391, 449389, 2
449391, 449390, 2
449391, 449388, 2
449381, 449384, 2
449381, 449383, 2
449381, 449382, 1
449381, 449385, 2
449385, 449386, 2
449385, 449384, 2
449385, 449383, 2
449385, 449381, 2
449385, 449382, 2
449385, 449387, 2
449388, 449386, 2
449388, 449389, 8
449388, 449391, 2
449388, 449390, 1
449388, 449387, 2
449389, 449386, 2
449389, 449391, 2
449389, 449390, 2
449389, 449388, 2
449389, 449387, 2
449382, 449384, 2
449382, 449383, 1
449382, 449381, 2
449382, 449385, 2
449390, 449389, 2
449390, 449391, 1
449390, 449388, 2
449387, 449386, 2
449387, 449384, 2
449387, 449388, 2
449387, 449385, 2
449387, 449389, 2
