405863, 405865, 2
405863, 405864, 1
405863, 405862, 2
405860, 405865, 2
405860, 405862, 1
405860, 405861, 8
405862, 405865, 2
405862, 405863, 1
405862, 405860, 2
405862, 405861, 2
405865, 405863, 2
405865, 405862, 2
405865, 405860, 2
405865, 405864, 2
405861, 405860, 2
405861, 405862, 2
405864, 405865, 6
405864, 405863, 2
