553197, 553196, 2
553197, 553195, 2
553194, 553193, 2
553194, 553195, 1
553193, 553194, 1
553193, 553196, 2
553195, 553197, 0
553195, 553194, 2
553195, 553196, 3
553196, 553197, 2
553196, 553193, 2
553196, 553195, 2
