570558, 570559, 1
570558, 570557, 2
570554, 570553, 2
570554, 570555, 1
570549, 570550, 1
570549, 570551, 2
570556, 570555, 2
570556, 570557, 2
570553, 570554, 1
570553, 570552, 2
570555, 570554, 2
570555, 570556, 3
570555, 570557, 1
570550, 570549, 2
570550, 570551, 1
570559, 570558, 2
570559, 570560, 1
570552, 570553, 1
570552, 570551, 2
570560, 570559, 2
570551, 570550, 2
570551, 570549, 2
570551, 570552, 1
570557, 570558, 1
570557, 570555, 2
570557, 570556, 2
