451330, 451329, 2
451330, 451331, 1
451332, 451333, 1
451332, 451334, 2
451332, 451331, 2
451323, 451324, 1
451323, 451322, 2
451317, 451318, 1
451317, 451316, 2
451321, 451320, 2
451321, 451322, 1
451319, 451320, 1
451319, 451318, 2
451333, 451332, 2
451333, 451334, 1
451316, 451318, 2
451316, 451317, 1
451334, 451333, 2
451334, 451332, 2
451334, 451335, 1
451331, 451330, 2
451331, 451332, 1
451328, 451329, 1
451328, 451327, 2
451320, 451318, 2
451320, 451322, 2
451320, 451321, 1
451320, 451319, 2
451318, 451320, 2
451318, 451317, 2
451318, 451316, 2
451318, 451319, 1
451326, 451324, 2
451326, 451327, 1
451326, 451325, 2
451322, 451320, 2
451322, 451323, 1
451322, 451324, 2
451322, 451321, 2
451336, 451335, 2
451329, 451330, 1
451329, 451328, 2
451324, 451325, 1
451324, 451326, 2
451324, 451322, 2
451324, 451323, 2
451324, 451327, 2
451335, 451334, 2
451335, 451336, 1
451327, 451326, 2
451327, 451324, 2
451327, 451328, 1
451327, 451325, 2
451325, 451326, 1
451325, 451324, 2
451325, 451327, 2
