404268, 404269, 1
404268, 404267, 2
404264, 404262, 2
404264, 404263, 2
404264, 404265, 1
404273, 404274, 1
404273, 404272, 2
404262, 404264, 2
404262, 404263, 1
404270, 404271, 1
404270, 404269, 2
404263, 404262, 2
404263, 404264, 1
404271, 404270, 2
404271, 404272, 1
404274, 404272, 2
404274, 404273, 2
404266, 404267, 1
404266, 404265, 2
404269, 404268, 2
404269, 404270, 1
404272, 404271, 2
404272, 404274, 2
404272, 404273, 1
404265, 404264, 2
404265, 404266, 1
404267, 404268, 1
404267, 404266, 2
