374278, 374279, 2
374278, 374277, 2
374283, 374281, 2
374283, 374282, 2
374280, 374281, 8
374280, 374279, 2
374280, 374282, 1
374277, 374279, 1
374277, 374278, 2
374277, 374276, 2
374277, 374275, 2
374276, 374277, 1
374276, 374275, 2
374282, 374281, 2
374282, 374280, 2
374282, 374283, 1
374282, 374279, 2
374281, 374279, 2
374281, 374280, 2
374281, 374282, 2
374281, 374283, 2
374273, 374272, 2
374273, 374274, 2
374273, 374275, 2
374272, 374274, 1
374272, 374273, 0
374272, 374275, 2
374279, 374281, 2
374279, 374277, 2
374279, 374280, 1
374279, 374278, 2
374279, 374282, 2
374274, 374272, 2
374274, 374273, 2
374274, 374275, 1
374275, 374272, 2
374275, 374277, 2
374275, 374274, 2
374275, 374276, 1
374275, 374273, 2
