522274, 522276, 2
522274, 522277, 2
522274, 522281, 1
522274, 522275, 3
522280, 522279, 2
522280, 522282, 2
522280, 522281, 2
522280, 522278, 2
522277, 522281, 2
522277, 522278, 2
522277, 522276, 2
522277, 522279, 2
522277, 522274, 2
522277, 522275, 2
522281, 522277, 2
522281, 522278, 2
522281, 522283, 2
522281, 522279, 2
522281, 522282, 3
522281, 522274, 2
522281, 522284, 2
522281, 522280, 2
522278, 522280, 2
522278, 522277, 2
522278, 522281, 2
522278, 522279, 1
522283, 522281, 2
522283, 522284, 1
522283, 522282, 2
522276, 522277, 1
522276, 522275, 2
522276, 522274, 2
522279, 522280, 1
522279, 522277, 2
522279, 522281, 2
522279, 522278, 2
522275, 522276, 1
522275, 522277, 2
522275, 522274, 2
522284, 522283, 2
522284, 522281, 2
522284, 522282, 2
522282, 522283, 1
522282, 522281, 2
522282, 522284, 2
522282, 522280, 2
