608194, 608196, 1
608194, 608195, 3
608194, 608193, 2
608196, 608194, 2
608196, 608197, 1
608196, 608198, 2
608196, 608195, 2
608197, 608196, 2
608197, 608198, 1
608193, 608192, 2
608193, 608194, 1
608193, 608195, 2
608192, 608193, 1
608198, 608196, 2
608198, 608197, 2
608195, 608194, 2
608195, 608196, 2
608195, 608193, 2
