553781, 553782, 1
553784, 553782, 2
553784, 553783, 2
553784, 553785, 2
553786, 553785, 2
553782, 553781, 2
553782, 553783, 1
553782, 553785, 2
553782, 553784, 2
553783, 553784, 3
553783, 553782, 2
553783, 553785, 1
553785, 553784, 2
553785, 553782, 2
553785, 553783, 2
553785, 553786, 1
