451428, 451427, 2
451428, 451429, 1
451428, 451418, 2
451428, 451425, 2
451416, 451419, 2
451416, 451418, 1
451416, 451415, 2
451416, 451417, 2
451416, 451420, 2
451416, 451421, 2
451412, 451415, 2
451412, 451414, 2
451412, 451411, 2
451412, 451413, 1
451429, 451428, 2
451429, 451427, 2
451429, 451419, 2
451429, 451418, 2
451429, 451430, 1
451426, 451427, 2
451426, 451425, 2
451414, 451415, 1
451414, 451412, 2
451414, 451413, 2
451421, 451419, 2
451421, 451418, 2
451421, 451417, 2
451421, 451422, 1
451421, 451416, 2
451421, 451420, 2
451424, 451423, 2
451424, 451425, 1
451424, 451418, 2
451424, 451419, 2
451410, 451411, 1
451410, 451409, 2
451422, 451423, 1
451422, 451417, 2
451422, 451421, 2
451422, 451418, 2
451422, 451419, 2
451413, 451415, 2
451413, 451414, 1
451413, 451412, 2
451431, 451430, 2
451431, 451419, 2
451411, 451412, 1
451411, 451410, 2
451409, 451408, 2
451409, 451410, 1
451417, 451419, 1
451417, 451418, 2
451417, 451415, 2
451417, 451416, 2
451417, 451422, 2
451417, 451421, 2
451417, 451420, 2
451430, 451431, 1
451430, 451429, 2
451427, 451429, 2
451427, 451428, 1
451427, 451425, 2
451427, 451426, 2
451427, 451419, 2
451408, 451409, 1
451423, 451422, 2
451423, 451424, 1
451425, 451428, 2
451425, 451424, 2
451425, 451418, 2
451425, 451427, 1
451425, 451426, 0
451425, 451419, 2
451418, 451424, 2
451418, 451417, 2
451418, 451428, 2
451418, 451421, 2
451418, 451425, 2
451418, 451415, 2
451418, 451416, 2
451418, 451422, 2
451418, 451420, 2
451418, 451429, 2
451418, 451419, 2
451415, 451414, 2
451415, 451420, 1
451415, 451419, 2
451415, 451418, 2
451415, 451416, 3
451415, 451412, 2
451415, 451417, 0
451415, 451413, 2
451420, 451419, 2
451420, 451418, 2
451420, 451415, 2
451420, 451417, 2
451420, 451416, 2
451420, 451421, 1
451419, 451431, 2
451419, 451416, 2
451419, 451427, 2
451419, 451417, 2
451419, 451424, 2
451419, 451429, 2
451419, 451420, 2
451419, 451425, 2
451419, 451418, 2
451419, 451415, 2
451419, 451422, 2
451419, 451421, 2
