379805, 379804, 2
379805, 379806, 1
379812, 379810, 2
379812, 379811, 2
379810, 379812, 2
379810, 379808, 2
379810, 379811, 1
379810, 379809, 2
379806, 379804, 2
379806, 379805, 2
379806, 379807, 1
379804, 379805, 1
379804, 379806, 2
379808, 379807, 2
379808, 379810, 2
379808, 379809, 1
379807, 379808, 1
379807, 379806, 2
379809, 379808, 2
379809, 379810, 1
379811, 379810, 2
379811, 379812, 1
