625537, 625536, 2
625537, 625535, 2
625537, 625538, 1
625540, 625536, 2
625540, 625539, 2
625536, 625537, 2
625536, 625535, 2
625536, 625540, 2
625536, 625538, 2
625536, 625539, 2
625535, 625537, 1
625535, 625536, 6
625538, 625537, 2
625538, 625536, 2
625538, 625539, 1
625539, 625536, 2
625539, 625538, 2
625539, 625540, 1
