624399, 624400, 1
624399, 624397, 2
624399, 624398, 2
624394, 624393, 2
624394, 624396, 2
624394, 624395, 2
624395, 624393, 2
624395, 624396, 1
624395, 624394, 2
624386, 624387, 1
624396, 624398, 2
624396, 624394, 2
624396, 624397, 1
624396, 624395, 2
624398, 624399, 2
624398, 624396, 2
624398, 624397, 2
624391, 624393, 1
624391, 624389, 2
624391, 624390, 2
624391, 624392, 3
624392, 624391, 2
624392, 624393, 2
624392, 624389, 2
624392, 624390, 2
624389, 624391, 1
624389, 624392, 2
624389, 624390, 8
624389, 624388, 2
624397, 624399, 1
624397, 624396, 2
624397, 624398, 3
624387, 624388, 1
624387, 624386, 2
624393, 624391, 2
624393, 624395, 1
624393, 624392, 2
624393, 624394, 8
624400, 624399, 2
624390, 624391, 2
624390, 624392, 2
624390, 624389, 2
624390, 624388, 2
624388, 624387, 2
624388, 624389, 1
624388, 624390, 2
