334506, 334505, 2
334506, 334504, 2
334504, 334505, 1
334504, 334506, 2
334504, 334502, 2
334504, 334501, 2
334504, 334503, 2
334500, 334501, 1
334500, 334499, 2
334505, 334506, 1
334505, 334504, 2
334498, 334496, 2
334498, 334497, 2
334498, 334495, 2
334498, 334499, 1
334497, 334498, 2
334497, 334495, 2
334497, 334496, 2
334493, 334494, 3
334493, 334495, 1
334503, 334504, 2
334503, 334502, 2
334503, 334501, 2
334502, 334504, 1
334502, 334501, 2
334502, 334503, 3
334501, 334500, 2
334501, 334504, 2
334501, 334502, 1
334501, 334503, 2
334496, 334498, 1
334496, 334497, 3
334496, 334495, 2
334494, 334493, 2
334494, 334495, 2
334499, 334498, 2
334499, 334500, 1
334495, 334494, 2
334495, 334496, 1
334495, 334497, 2
334495, 334493, 2
334495, 334498, 2
