496190, 496191, 1
496190, 496189, 2
496185, 496183, 2
496185, 496184, 2
496185, 496186, 1
496186, 496187, 1
496186, 496185, 2
496186, 496184, 2
496186, 496183, 2
496188, 496187, 2
496188, 496189, 1
496183, 496185, 2
496183, 496186, 2
496183, 496184, 1
496191, 496190, 2
496191, 496189, 2
496187, 496186, 2
496187, 496188, 1
496184, 496185, 1
496184, 496186, 2
496184, 496183, 2
496189, 496190, 1
496189, 496191, 2
496189, 496188, 2
