590449, 590448, 2
590449, 590450, 1
590454, 590452, 2
590454, 590455, 2
590454, 590453, 2
590454, 590450, 2
590447, 590448, 1
590451, 590452, 8
590451, 590455, 2
590451, 590453, 1
590451, 590450, 2
590448, 590449, 1
590448, 590447, 2
590456, 590455, 2
590456, 590457, 2
590455, 590454, 2
590455, 590451, 2
590455, 590457, 1
590455, 590456, 3
590455, 590452, 2
590455, 590453, 2
590455, 590450, 2
590452, 590454, 2
590452, 590455, 2
590452, 590451, 2
590452, 590453, 2
590452, 590450, 2
590457, 590455, 2
590457, 590456, 2
590453, 590454, 8
590453, 590455, 1
590453, 590452, 2
590453, 590451, 2
590453, 590450, 2
590450, 590449, 2
590450, 590454, 2
590450, 590451, 1
590450, 590455, 2
590450, 590452, 2
590450, 590453, 2
