522563, 522561, 2
522563, 522564, 1
522563, 522562, 2
522563, 522566, 2
522567, 522564, 2
522567, 522568, 1
522567, 522565, 2
522567, 522566, 2
522564, 522563, 2
522564, 522567, 2
522564, 522566, 2
522564, 522561, 2
522564, 522562, 2
522564, 522565, 1
522575, 522574, 2
522575, 522573, 2
522556, 522557, 2
522556, 522555, 2
522556, 522558, 2
522566, 522563, 2
522566, 522567, 1
522566, 522564, 2
522566, 522565, 2
522573, 522574, 1
522573, 522571, 2
522573, 522575, 2
522573, 522572, 2
522573, 522569, 2
522568, 522567, 2
522568, 522572, 2
522568, 522569, 1
522574, 522573, 2
522574, 522575, 1
522574, 522572, 2
522559, 522560, 1
522559, 522558, 2
522571, 522573, 1
522571, 522572, 3
522571, 522569, 2
522571, 522570, 2
522560, 522561, 1
522560, 522559, 2
522560, 522558, 2
522555, 522557, 1
522555, 522556, 3
522572, 522571, 2
522572, 522574, 2
522572, 522573, 2
522572, 522568, 2
522572, 522569, 2
522572, 522570, 2
522561, 522563, 2
522561, 522562, 1
522561, 522564, 2
522561, 522560, 2
522557, 522555, 2
522557, 522556, 2
522557, 522558, 1
522558, 522557, 2
522558, 522560, 2
522558, 522556, 2
522558, 522559, 1
522562, 522563, 1
522562, 522561, 2
522562, 522564, 2
522569, 522571, 2
522569, 522573, 2
522569, 522568, 2
522569, 522572, 2
522569, 522570, 1
522565, 522567, 2
522565, 522564, 2
522565, 522566, 1
522570, 522571, 1
522570, 522572, 2
522570, 522569, 2
