490521, 490523, 2
490521, 490522, 2
490521, 490515, 2
490521, 490525, 2
490521, 490520, 2
490516, 490517, 1
490516, 490514, 2
490516, 490515, 2
490516, 490513, 2
490520, 490521, 3
490520, 490519, 2
490520, 490523, 1
490526, 490527, 1
490526, 490525, 2
490519, 490520, 1
490519, 490517, 2
490519, 490523, 2
490519, 490514, 2
490519, 490515, 2
490519, 490513, 2
490519, 490518, 2
490524, 490523, 2
490524, 490525, 2
490522, 490521, 2
490522, 490515, 2
490522, 490523, 2
490527, 490526, 2
490525, 490521, 2
490525, 490523, 2
490525, 490515, 2
490525, 490524, 2
490525, 490526, 1
490517, 490515, 2
490517, 490516, 2
490517, 490518, 1
490517, 490519, 2
490523, 490521, 2
490523, 490522, 2
490523, 490520, 2
490523, 490525, 1
490523, 490515, 2
490523, 490524, 3
490523, 490519, 2
490514, 490515, 3
490514, 490513, 2
490514, 490516, 0
490514, 490519, 2
490515, 490521, 2
490515, 490522, 2
490515, 490516, 2
490515, 490525, 2
490515, 490517, 2
490515, 490523, 2
490515, 490514, 2
490515, 490519, 2
490515, 490518, 2
490513, 490514, 3
490513, 490516, 2
490513, 490518, 2
490513, 490519, 1
490518, 490517, 2
490518, 490515, 2
490518, 490513, 2
490518, 490519, 2
