571518, 571515, 2
571518, 571521, 2
571518, 571517, 2
571518, 571516, 2
571518, 571519, 1
571536, 571535, 2
571536, 571537, 1
571523, 571525, 2
571523, 571522, 2
571523, 571524, 1
571530, 571533, 2
571530, 571532, 2
571530, 571529, 2
571530, 571531, 1
571525, 571528, 2
571525, 571527, 2
571525, 571523, 2
571525, 571526, 1
571525, 571521, 2
571525, 571522, 2
571525, 571524, 2
571521, 571518, 2
571521, 571515, 2
571521, 571519, 2
571521, 571525, 2
571521, 571520, 2
571521, 571522, 1
571526, 571525, 2
571526, 571527, 1
571526, 571524, 2
571535, 571534, 2
571535, 571537, 2
571535, 571536, 1
571533, 571534, 1
571533, 571532, 2
571533, 571530, 2
571540, 571538, 2
571540, 571537, 2
571540, 571539, 2
571519, 571518, 2
571519, 571520, 3
571519, 571521, 1
571519, 571522, 2
571537, 571538, 1
571537, 571540, 2
571537, 571539, 2
571537, 571535, 2
571537, 571536, 2
571538, 571537, 2
571538, 571539, 1
571538, 571540, 2
571529, 571528, 2
571529, 571531, 2
571529, 571532, 2
571529, 571530, 1
571534, 571535, 1
571534, 571533, 2
571527, 571525, 2
571527, 571528, 1
571527, 571526, 2
571522, 571523, 3
571522, 571519, 2
571522, 571525, 1
571522, 571520, 2
571522, 571521, 2
571522, 571524, 2
571524, 571525, 2
571524, 571522, 2
571524, 571526, 2
571524, 571523, 2
571516, 571518, 1
571516, 571515, 2
571516, 571517, 3
571528, 571525, 2
571528, 571527, 2
571528, 571529, 1
571517, 571518, 2
571517, 571516, 2
571515, 571518, 2
571515, 571521, 2
571515, 571516, 1
571520, 571521, 2
571520, 571522, 2
571520, 571519, 2
571539, 571538, 2
571539, 571537, 2
571539, 571540, 1
571532, 571531, 2
571532, 571533, 1
571532, 571529, 2
571532, 571530, 2
571531, 571532, 1
571531, 571529, 2
571531, 571530, 2
