494051, 494052, 3
494051, 494054, 1
494051, 494050, 2
494051, 494053, 2
494052, 494051, 2
494052, 494054, 2
494052, 494050, 2
494052, 494053, 1
494054, 494051, 2
494054, 494052, 2
494054, 494053, 2
494050, 494051, 1
494050, 494052, 2
494050, 494053, 2
494053, 494051, 2
494053, 494052, 2
494053, 494054, 2
494053, 494050, 2
