378014, 378015, 2
378014, 378012, 2
378014, 378013, 2
378014, 378016, 2
378016, 378014, 2
378016, 378015, 2
378013, 378014, 8
378013, 378012, 2
378013, 378015, 1
378012, 378014, 2
378012, 378013, 1
378012, 378015, 2
378015, 378014, 2
378015, 378012, 2
378015, 378013, 2
378015, 378016, 1
