495127, 495125, 2
495127, 495128, 1
495127, 495126, 2
495127, 495123, 2
495125, 495127, 2
495125, 495123, 2
495125, 495126, 1
495125, 495124, 2
495129, 495128, 2
495126, 495127, 1
495126, 495125, 2
495126, 495124, 2
495123, 495127, 2
495123, 495125, 1
495123, 495124, 3
495128, 495127, 2
495128, 495129, 3
495124, 495125, 2
495124, 495126, 2
495124, 495123, 2
