376210, 376211, 1
376210, 376212, 2
376210, 376209, 2
376212, 376211, 2
376212, 376210, 2
376212, 376213, 1
376205, 376206, 1
376205, 376204, 2
376209, 376210, 1
376209, 376208, 2
376216, 376217, 3
376216, 376218, 1
376216, 376215, 2
376224, 376222, 2
376224, 376223, 2
376222, 376224, 2
376222, 376223, 1
376222, 376221, 2
376223, 376224, 1
376223, 376222, 2
376219, 376220, 1
376219, 376218, 2
376211, 376210, 2
376211, 376212, 1
376220, 376217, 2
376220, 376219, 2
376220, 376221, 1
376220, 376218, 2
376208, 376206, 2
376208, 376209, 1
376208, 376207, 2
376218, 376220, 2
376218, 376217, 2
376218, 376216, 2
376218, 376219, 1
376213, 376212, 2
376213, 376214, 1
376213, 376215, 2
376207, 376206, 2
376207, 376208, 1
376204, 376206, 2
376204, 376205, 1
376206, 376204, 2
376206, 376205, 2
376206, 376207, 1
376206, 376208, 2
376221, 376220, 2
376221, 376222, 1
376214, 376213, 2
376214, 376215, 1
376217, 376220, 2
376217, 376215, 2
376217, 376216, 2
376217, 376218, 2
376215, 376216, 1
376215, 376217, 2
376215, 376214, 2
376215, 376213, 2
