375508, 375510, 2
375508, 375509, 1
375514, 375516, 1
375514, 375515, 0
375514, 375517, 2
375514, 375512, 2
375514, 375513, 2
375512, 375514, 2
375512, 375511, 2
375512, 375513, 2
375520, 375521, 1
375520, 375519, 2
375517, 375514, 2
375517, 375516, 2
375517, 375515, 2
375517, 375519, 1
375517, 375518, 0
375510, 375511, 1
375510, 375508, 2
375510, 375509, 2
375523, 375521, 2
375523, 375524, 0
375523, 375522, 2
375521, 375523, 1
375521, 375520, 2
375521, 375522, 0
375511, 375512, 0
375511, 375510, 2
375511, 375513, 1
375509, 375508, 2
375509, 375510, 1
375513, 375514, 1
375513, 375512, 2
375513, 375511, 2
375516, 375514, 2
375516, 375515, 2
375516, 375517, 1
375524, 375523, 2
375519, 375520, 1
375519, 375517, 2
375519, 375518, 2
375515, 375514, 2
375515, 375516, 2
375515, 375517, 2
375522, 375523, 2
375522, 375521, 2
375518, 375519, 2
375518, 375517, 2
