657149, 657148, 2
657149, 657150, 1
657154, 657152, 2
657154, 657153, 2
657154, 657156, 2
657154, 657155, 1
657154, 657150, 2
657161, 657162, 1
657161, 657160, 2
657161, 657163, 2
657146, 657145, 2
657146, 657147, 1
657150, 657148, 2
657150, 657149, 2
657150, 657154, 1
657150, 657147, 2
657150, 657152, 2
657150, 657153, 8
657150, 657151, 0
657160, 657158, 2
657160, 657162, 2
657160, 657163, 1
657160, 657161, 0
657160, 657159, 2
657157, 657158, 1
657157, 657156, 2
657148, 657153, 2
657148, 657150, 2
657148, 657149, 1
657148, 657147, 2
657145, 657146, 1
657155, 657156, 1
657155, 657154, 2
657163, 657162, 2
657163, 657160, 2
657163, 657161, 2
657147, 657148, 1
657147, 657146, 2
657147, 657153, 2
657147, 657150, 2
657159, 657158, 2
657159, 657160, 1
657152, 657153, 2
657152, 657154, 2
657152, 657151, 2
657152, 657150, 2
657158, 657157, 2
657158, 657159, 1
657158, 657156, 2
657158, 657160, 2
657153, 657148, 2
657153, 657154, 2
657153, 657147, 2
657153, 657152, 2
657153, 657156, 2
657153, 657151, 2
657153, 657150, 2
657162, 657160, 2
657162, 657163, 2
657162, 657161, 2
657151, 657152, 1
657151, 657153, 2
657151, 657150, 2
657156, 657157, 1
657156, 657158, 2
657156, 657153, 2
657156, 657154, 2
657156, 657155, 2
