590180, 590181, 1
590180, 590182, 2
590189, 590188, 2
590185, 590184, 2
590185, 590186, 1
590188, 590187, 2
590188, 590189, 1
590182, 590181, 2
590182, 590180, 2
590182, 590183, 1
590187, 590188, 1
590187, 590186, 2
590181, 590180, 2
590181, 590182, 1
590184, 590185, 1
590184, 590183, 2
590186, 590187, 1
590186, 590185, 2
590183, 590184, 1
590183, 590182, 2
