590321, 590320, 2
590321, 590322, 1
590320, 590321, 1
590329, 590328, 2
590328, 590329, 1
590328, 590327, 2
590327, 590326, 2
590327, 590328, 1
590322, 590321, 2
590322, 590323, 1
590323, 590322, 2
590323, 590324, 1
590324, 590326, 2
590324, 590323, 2
590324, 590325, 1
590325, 590326, 1
590325, 590324, 2
590326, 590325, 2
590326, 590324, 2
590326, 590327, 1
