375531, 375533, 2
375531, 375529, 2
375531, 375532, 2
375531, 375528, 2
375531, 375530, 2
375527, 375529, 2
375527, 375528, 1
375527, 375526, 2
375535, 375533, 2
375535, 375534, 2
375535, 375536, 1
375528, 375531, 2
375528, 375527, 2
375528, 375532, 2
375528, 375530, 1
375528, 375529, 8
375533, 375531, 2
375533, 375535, 2
375533, 375532, 2
375533, 375534, 1
375533, 375536, 2
375533, 375530, 2
375542, 375540, 2
375542, 375541, 2
375542, 375539, 2
375538, 375537, 2
375538, 375540, 2
375538, 375539, 2
375538, 375536, 2
375541, 375542, 1
375541, 375540, 2
375541, 375539, 2
375541, 375537, 2
375526, 375527, 1
375537, 375536, 2
375537, 375538, 8
375537, 375541, 2
375537, 375539, 1
375537, 375540, 2
375540, 375537, 2
375540, 375538, 2
375540, 375541, 2
375540, 375539, 2
375540, 375542, 2
375539, 375537, 2
375539, 375541, 1
375539, 375538, 2
375539, 375540, 8
375539, 375542, 2
375529, 375531, 2
375529, 375527, 2
375529, 375528, 2
375529, 375530, 2
375532, 375531, 2
375532, 375533, 1
375532, 375528, 2
375532, 375530, 2
375536, 375533, 2
375536, 375537, 1
375536, 375535, 2
375536, 375538, 2
375530, 375531, 8
375530, 375529, 2
375530, 375532, 1
375530, 375528, 2
375530, 375533, 2
375534, 375533, 2
375534, 375535, 1
