492100, 492099, 2
492100, 492101, 1
492095, 492096, 0
492095, 492094, 2
492095, 492098, 1
492095, 492097, 3
492108, 492107, 2
492108, 492105, 2
492106, 492107, 1
492106, 492105, 2
492106, 492104, 2
492102, 492103, 1
492102, 492105, 2
492102, 492101, 2
492091, 492089, 2
492091, 492090, 2
492091, 492093, 2
492091, 492088, 2
492091, 492092, 1
492092, 492091, 2
492092, 492093, 1
492092, 492094, 2
492087, 492086, 2
492087, 492088, 2
492098, 492096, 2
492098, 492099, 1
492098, 492097, 2
492098, 492095, 2
492090, 492091, 2
492090, 492089, 2
492097, 492096, 2
492097, 492094, 2
492097, 492098, 2
492097, 492095, 2
492097, 492099, 2
492101, 492102, 1
492101, 492100, 2
492086, 492087, 3
492086, 492088, 1
492096, 492095, 2
492096, 492098, 2
492096, 492097, 2
492096, 492099, 2
492103, 492102, 2
492103, 492104, 1
492103, 492105, 2
492099, 492096, 2
492099, 492100, 1
492099, 492098, 2
492099, 492097, 2
492093, 492091, 2
492093, 492094, 1
492093, 492092, 2
492104, 492103, 2
492104, 492106, 0
492104, 492105, 3
492094, 492093, 2
492094, 492097, 2
492094, 492095, 1
492094, 492092, 2
492089, 492091, 1
492089, 492090, 3
492089, 492088, 2
492107, 492108, 1
492107, 492106, 2
492107, 492105, 2
492105, 492103, 2
492105, 492106, 2
492105, 492102, 2
492105, 492107, 2
492105, 492104, 2
492105, 492108, 2
492088, 492091, 2
492088, 492089, 1
492088, 492086, 2
492088, 492087, 2
