657737, 657738, 2
657737, 657731, 2
657737, 657736, 2
657737, 657744, 2
657721, 657723, 2
657721, 657735, 2
657721, 657720, 2
657721, 657718, 2
657721, 657722, 1
657732, 657731, 2
657732, 657735, 2
657732, 657733, 1
657744, 657737, 2
657744, 657743, 2
657744, 657735, 2
657730, 657728, 2
657730, 657726, 2
657730, 657731, 1
657730, 657729, 2
657730, 657727, 2
657731, 657737, 2
657731, 657728, 2
657731, 657735, 2
657731, 657732, 1
657731, 657730, 2
657731, 657734, 2
657731, 657729, 2
657731, 657733, 2
657724, 657723, 2
657724, 657725, 1
657728, 657727, 2
657728, 657730, 2
657728, 657731, 2
657728, 657729, 1
657741, 657742, 2
657741, 657735, 2
657741, 657740, 2
657718, 657721, 2
657718, 657719, 2
657718, 657716, 2
657718, 657717, 2
657722, 657723, 1
657722, 657721, 2
657715, 657716, 1
657734, 657731, 2
657734, 657736, 1
657734, 657735, 2
657734, 657733, 2
657716, 657715, 2
657716, 657719, 2
657716, 657717, 1
657716, 657718, 2
657716, 657735, 2
657742, 657735, 2
657742, 657741, 2
657742, 657743, 1
657742, 657740, 2
657720, 657719, 2
657720, 657721, 1
657720, 657735, 2
657717, 657719, 1
657717, 657716, 2
657717, 657718, 8
657717, 657735, 2
657735, 657742, 2
657735, 657727, 2
657735, 657719, 2
657735, 657720, 2
657735, 657717, 2
657735, 657744, 2
657735, 657738, 2
657735, 657725, 2
657735, 657731, 2
657735, 657726, 2
657735, 657733, 2
657735, 657732, 2
657735, 657721, 2
657735, 657723, 2
657735, 657741, 2
657735, 657740, 2
657735, 657739, 2
657735, 657736, 2
657735, 657734, 2
657735, 657716, 2
657738, 657739, 1
657738, 657736, 2
657738, 657737, 2
657738, 657735, 2
657725, 657723, 2
657725, 657726, 1
657725, 657724, 2
657725, 657735, 2
657719, 657717, 2
657719, 657735, 2
657719, 657716, 2
657719, 657718, 2
657719, 657720, 1
657733, 657732, 2
657733, 657731, 2
657733, 657734, 1
657733, 657735, 2
657727, 657728, 1
657727, 657730, 2
657727, 657726, 2
657727, 657729, 2
657727, 657735, 2
657726, 657727, 1
657726, 657730, 2
657726, 657725, 2
657726, 657735, 2
657743, 657742, 2
657743, 657744, 1
657740, 657742, 1
657740, 657739, 2
657740, 657741, 0
657740, 657735, 2
657739, 657738, 2
657739, 657740, 1
657739, 657736, 2
657739, 657735, 2
657736, 657738, 1
657736, 657739, 2
657736, 657734, 2
657736, 657737, 8
657736, 657735, 6
657723, 657725, 2
657723, 657735, 2
657723, 657724, 1
657723, 657721, 2
657723, 657722, 2
657729, 657728, 2
657729, 657730, 1
657729, 657731, 2
657729, 657727, 2
