549504, 549505, 1
549504, 549503, 2
549504, 549501, 2
549504, 549502, 2
549508, 549506, 2
549508, 549509, 1
549508, 549505, 2
549508, 549507, 2
549505, 549504, 2
549505, 549508, 2
549505, 549506, 1
549505, 549502, 2
549505, 549501, 2
549505, 549503, 2
549502, 549504, 1
549502, 549505, 2
549502, 549503, 3
549502, 549501, 2
549507, 549508, 2
549507, 549506, 2
549507, 549509, 2
549510, 549509, 2
549501, 549504, 2
549501, 549505, 2
549501, 549502, 1
549509, 549508, 2
549509, 549507, 2
549509, 549510, 0
549506, 549508, 1
549506, 549505, 2
549506, 549503, 2
549506, 549507, 3
549503, 549504, 2
549503, 549506, 2
549503, 549505, 2
549503, 549502, 2
