571739, 571738, 2
571739, 571744, 2
571739, 571746, 2
571739, 571741, 2
571739, 571743, 2
571739, 571745, 2
571739, 571737, 2
571739, 571740, 2
571728, 571726, 2
571728, 571727, 2
571728, 571729, 1
571740, 571739, 2
571740, 571741, 1
571740, 571737, 2
571740, 571738, 2
571746, 571739, 2
571746, 571747, 1
571746, 571748, 2
571746, 571745, 2
571731, 571738, 2
571731, 571736, 2
571731, 571729, 2
571731, 571735, 2
571731, 571732, 2
571731, 571733, 2
571731, 571730, 2
571731, 571737, 2
571754, 571752, 2
571754, 571755, 1
571754, 571753, 2
571741, 571739, 2
571741, 571740, 2
571741, 571742, 1
571749, 571747, 2
571749, 571748, 2
571749, 571750, 1
571752, 571758, 2
571752, 571759, 2
571752, 571750, 2
571752, 571754, 2
571752, 571757, 2
571752, 571751, 2
571752, 571753, 2
571752, 571756, 2
571760, 571758, 2
571760, 571759, 2
571760, 571761, 2
571748, 571749, 2
571748, 571747, 2
571748, 571745, 2
571748, 571746, 2
571748, 571750, 2
571757, 571752, 2
571757, 571758, 1
571757, 571756, 2
571751, 571752, 1
571751, 571747, 2
571751, 571753, 2
571751, 571750, 2
571734, 571735, 1
571734, 571733, 2
571727, 571726, 2
571727, 571728, 2
571727, 571729, 2
571729, 571730, 3
571729, 571728, 2
571729, 571727, 2
571729, 571732, 0
571729, 571731, 2
571732, 571731, 2
571732, 571730, 2
571732, 571729, 2
571732, 571733, 1
571745, 571739, 2
571745, 571747, 2
571745, 571748, 0
571745, 571744, 2
571745, 571746, 3
571745, 571743, 2
571738, 571739, 1
571738, 571737, 2
571738, 571740, 2
571738, 571731, 2
571726, 571727, 0
571726, 571728, 1
571737, 571739, 2
571737, 571736, 2
571737, 571735, 2
571737, 571738, 3
571737, 571740, 0
571737, 571731, 2
571733, 571734, 1
571733, 571732, 2
571733, 571731, 2
571761, 571760, 2
571761, 571759, 2
571761, 571758, 2
571730, 571729, 2
571730, 571732, 2
571730, 571731, 1
571747, 571749, 2
571747, 571748, 2
571747, 571746, 2
571747, 571745, 2
571747, 571750, 2
571747, 571751, 2
571755, 571754, 2
571755, 571756, 1
571736, 571737, 1
571736, 571735, 2
571736, 571731, 2
571735, 571736, 2
571735, 571737, 2
571735, 571734, 2
571735, 571731, 2
571742, 571743, 1
571742, 571741, 2
571743, 571739, 2
571743, 571744, 2
571743, 571745, 2
571743, 571742, 2
571758, 571752, 2
571758, 571760, 2
571758, 571759, 3
571758, 571761, 0
571758, 571757, 2
571758, 571756, 2
571756, 571752, 2
571756, 571758, 2
571756, 571757, 2
571756, 571755, 2
571750, 571749, 2
571750, 571752, 2
571750, 571747, 2
571750, 571748, 2
571750, 571751, 3
571750, 571753, 0
571753, 571754, 1
571753, 571752, 2
571753, 571751, 2
571753, 571750, 2
571759, 571752, 2
571759, 571761, 2
571759, 571760, 1
571759, 571758, 2
571744, 571743, 2
571744, 571739, 2
571744, 571745, 1
