657007, 657008, 1
657007, 657009, 2
657007, 657006, 2
657013, 657015, 2
657013, 657014, 0
657013, 657012, 2
657013, 657011, 2
657013, 657016, 1
657018, 657016, 2
657018, 657017, 2
657018, 657020, 2
657018, 657019, 1
657005, 657004, 2
657005, 657006, 1
657014, 657013, 2
657014, 657012, 2
657014, 657015, 1
657014, 657016, 2
657020, 657018, 2
657020, 657021, 1
657020, 657019, 2
657015, 657013, 2
657015, 657014, 2
657015, 657016, 2
657019, 657018, 2
657019, 657020, 1
657008, 657007, 2
657008, 657009, 8
657008, 657010, 1
657008, 657011, 2
657009, 657008, 2
657009, 657010, 2
657009, 657011, 2
657009, 657007, 2
657004, 657005, 1
657004, 657006, 2
657011, 657008, 2
657011, 657009, 2
657011, 657012, 1
657011, 657010, 2
657011, 657013, 2
657022, 657021, 2
657012, 657013, 1
657012, 657014, 2
657012, 657011, 2
657010, 657008, 2
657010, 657009, 2
657010, 657011, 1
657016, 657013, 2
657016, 657018, 2
657016, 657014, 2
657016, 657015, 2
657016, 657017, 1
657021, 657022, 1
657021, 657020, 2
657006, 657007, 1
657006, 657005, 2
657006, 657004, 2
657017, 657018, 1
657017, 657016, 2
