644627, 644626, 2
644627, 644624, 2
644622, 644621, 2
644622, 644624, 2
644622, 644625, 2
644622, 644623, 2
644619, 644620, 1
644624, 644627, 2
644624, 644622, 2
644624, 644621, 2
644624, 644625, 2
644624, 644626, 2
644624, 644623, 2
644625, 644624, 2
644625, 644622, 2
644625, 644623, 2
644625, 644626, 2
644626, 644627, 1
644626, 644624, 2
644626, 644625, 2
644626, 644623, 2
644621, 644620, 2
644621, 644622, 3
644621, 644623, 1
644621, 644624, 2
644620, 644621, 1
644620, 644619, 2
644623, 644625, 3
644623, 644622, 2
644623, 644621, 2
644623, 644624, 6
644623, 644626, 1
