625595, 625596, 1
625595, 625597, 2
625597, 625595, 2
625597, 625596, 2
625597, 625598, 2
625597, 625599, 2
625596, 625595, 2
625596, 625597, 8
625596, 625598, 1
625600, 625598, 2
625600, 625599, 2
625598, 625596, 2
625598, 625597, 2
625598, 625600, 1
625598, 625599, 3
625599, 625597, 2
625599, 625600, 2
625599, 625598, 2
