496269, 496267, 2
496269, 496270, 1
496269, 496271, 2
496269, 496268, 2
496264, 496265, 1
496270, 496267, 2
496270, 496271, 2
496270, 496269, 2
496268, 496267, 2
496268, 496265, 2
496268, 496266, 2
496268, 496271, 2
496268, 496269, 1
496266, 496267, 3
496266, 496271, 1
496266, 496268, 0
496266, 496265, 2
496267, 496269, 2
496267, 496268, 2
496267, 496266, 2
496267, 496270, 2
496267, 496271, 2
496267, 496265, 2
496272, 496271, 2
496271, 496269, 2
496271, 496270, 2
496271, 496268, 2
496271, 496266, 2
496271, 496267, 2
496271, 496272, 1
496265, 496267, 2
496265, 496264, 2
496265, 496268, 2
496265, 496266, 1
