404129, 404128, 2
404129, 404130, 1
404125, 404123, 2
404125, 404126, 1
404125, 404124, 2
404124, 404123, 2
404124, 404125, 1
404122, 404123, 2
404122, 404121, 2
404131, 404130, 2
404128, 404129, 1
404128, 404127, 2
404123, 404122, 2
404123, 404125, 2
404123, 404121, 2
404123, 404124, 1
404127, 404128, 1
404127, 404126, 2
404126, 404127, 1
404126, 404125, 2
404121, 404122, 3
404121, 404123, 1
404130, 404129, 2
404130, 404131, 0
