374796, 374795, 2
374796, 374798, 2
374796, 374797, 2
374791, 374789, 2
374791, 374792, 1
374791, 374790, 2
374791, 374793, 2
374793, 374792, 2
374793, 374791, 2
374793, 374794, 1
374789, 374790, 1
374789, 374791, 2
374790, 374789, 2
374790, 374791, 1
374799, 374798, 2
374799, 374800, 1
374798, 374796, 2
374798, 374799, 1
374798, 374797, 2
374797, 374795, 2
374797, 374798, 1
374797, 374796, 2
374794, 374795, 1
374794, 374793, 2
374795, 374796, 8
374795, 374797, 1
374795, 374794, 2
374792, 374791, 2
374792, 374793, 1
374800, 374799, 2
374800, 374802, 2
374800, 374801, 1
374802, 374800, 2
374802, 374801, 2
374801, 374800, 2
374801, 374802, 1
