405605, 405607, 2
405605, 405606, 1
405608, 405609, 2
405608, 405610, 2
405608, 405607, 2
405607, 405609, 1
405607, 405608, 0
405607, 405610, 2
405607, 405606, 2
405607, 405605, 2
405609, 405608, 2
405609, 405610, 1
405609, 405607, 2
405610, 405609, 2
405610, 405608, 2
405610, 405607, 2
405606, 405605, 2
405606, 405607, 1
