377670, 377671, 2
377670, 377669, 2
377670, 377668, 2
377671, 377670, 2
377671, 377669, 2
377671, 377668, 2
377669, 377670, 3
377669, 377671, 1
377669, 377668, 2
377668, 377670, 2
377668, 377671, 2
377668, 377669, 1
