377116, 377115, 2
377116, 377118, 2
377116, 377117, 1
377116, 377114, 2
377105, 377106, 1
377105, 377107, 2
377121, 377122, 1
377121, 377120, 2
377108, 377107, 2
377108, 377110, 2
377108, 377109, 1
377118, 377116, 2
377118, 377119, 2
377118, 377117, 2
377114, 377115, 1
377114, 377116, 2
377114, 377112, 2
377114, 377113, 2
377135, 377134, 2
377135, 377136, 2
377111, 377113, 2
377111, 377110, 2
377111, 377112, 1
377131, 377132, 2
377131, 377130, 2
377109, 377108, 2
377109, 377110, 1
377130, 377132, 1
377130, 377128, 2
377130, 377129, 2
377130, 377131, 0
377136, 377135, 2
377136, 377134, 2
377136, 377137, 0
377128, 377127, 2
377128, 377129, 1
377128, 377130, 2
377133, 377132, 2
377133, 377134, 1
377107, 377106, 2
377107, 377108, 1
377107, 377105, 2
377127, 377126, 2
377127, 377125, 2
377127, 377128, 1
377117, 377116, 2
377117, 377118, 8
377117, 377119, 1
377115, 377116, 1
377115, 377114, 2
377113, 377111, 2
377113, 377110, 2
377113, 377114, 1
377113, 377112, 2
377119, 377118, 2
377119, 377120, 1
377119, 377117, 2
377123, 377122, 2
377123, 377124, 1
377125, 377124, 2
377125, 377127, 1
377125, 377126, 8
377124, 377126, 2
377124, 377123, 2
377124, 377125, 1
377132, 377130, 2
377132, 377133, 1
377132, 377131, 2
377137, 377136, 2
377112, 377113, 1
377112, 377111, 2
377112, 377110, 2
377112, 377114, 2
377122, 377121, 2
377122, 377120, 2
377122, 377123, 1
377134, 377135, 0
377134, 377136, 1
377134, 377133, 2
377110, 377108, 2
377110, 377111, 1
377110, 377113, 2
377110, 377109, 2
377110, 377112, 2
377120, 377121, 1
377120, 377122, 2
377120, 377119, 2
377106, 377107, 1
377106, 377105, 2
377126, 377124, 2
377126, 377127, 2
377126, 377125, 2
377129, 377128, 2
377129, 377130, 1
