534352, 534350, 2
534352, 534353, 1
534352, 534351, 2
534346, 534347, 1
534346, 534345, 2
534346, 534348, 2
534351, 534352, 1
534351, 534350, 2
534350, 534352, 2
534350, 534351, 1
534350, 534349, 2
534347, 534346, 2
534347, 534348, 1
534344, 534345, 1
534353, 534352, 2
534345, 534344, 2
534345, 534346, 1
534349, 534350, 1
534349, 534348, 2
534348, 534347, 2
534348, 534346, 2
534348, 534349, 1
