378370, 378371, 1
378370, 378369, 2
378368, 378367, 2
378368, 378369, 2
378368, 378366, 2
378367, 378369, 1
378367, 378368, 3
378367, 378366, 2
378371, 378370, 2
378369, 378370, 1
378369, 378367, 2
378369, 378368, 2
378366, 378367, 1
378366, 378368, 2
