607465, 607466, 1
607465, 607464, 2
607451, 607452, 1
607476, 607475, 2
607476, 607477, 1
607476, 607474, 2
607471, 607472, 1
607471, 607470, 2
607470, 607469, 2
607470, 607471, 1
607470, 607468, 2
607472, 607471, 2
607472, 607473, 1
607467, 607466, 2
607467, 607468, 1
607456, 607457, 1
607456, 607454, 2
607456, 607455, 2
607456, 607459, 2
607473, 607472, 2
607473, 607474, 1
607473, 607475, 2
607475, 607476, 2
607475, 607473, 2
607475, 607474, 2
607452, 607451, 2
607452, 607453, 1
607468, 607469, 3
607468, 607467, 2
607468, 607470, 1
607457, 607458, 1
607457, 607456, 2
607457, 607459, 2
607464, 607465, 1
607464, 607463, 2
607464, 607462, 2
607453, 607454, 1
607453, 607452, 2
607460, 607458, 2
607460, 607459, 2
607460, 607461, 1
607459, 607457, 2
607459, 607460, 2
607459, 607458, 2
607459, 607456, 2
607477, 607476, 2
607477, 607474, 2
607458, 607457, 2
607458, 607460, 1
607458, 607462, 2
607458, 607459, 0
607462, 607463, 1
607462, 607464, 2
607462, 607458, 2
607462, 607461, 2
607463, 607464, 1
607463, 607462, 2
607469, 607470, 2
607469, 607468, 2
607455, 607454, 2
607455, 607456, 1
607474, 607475, 3
607474, 607476, 1
607474, 607477, 2
607474, 607473, 2
607461, 607460, 2
607461, 607462, 1
607466, 607465, 2
607466, 607467, 1
607454, 607453, 2
607454, 607455, 1
607454, 607456, 2
