379033, 379032, 2
379033, 379031, 2
379033, 379029, 2
379032, 379033, 1
379032, 379031, 2
379030, 379028, 2
379030, 379031, 2
379028, 379031, 1
379028, 379029, 6
379028, 379030, 3
379031, 379033, 2
379031, 379032, 1
379031, 379028, 2
379031, 379029, 2
379031, 379030, 2
379029, 379033, 2
379029, 379028, 2
379029, 379031, 2
