378795, 378793, 2
378795, 378794, 2
378795, 378796, 1
378793, 378792, 2
378793, 378795, 1
378793, 378794, 8
378793, 378791, 2
378793, 378796, 2
378794, 378792, 2
378794, 378795, 2
378794, 378793, 2
378794, 378796, 2
378792, 378790, 2
378792, 378793, 2
378792, 378794, 2
378792, 378791, 2
378790, 378792, 2
378790, 378791, 1
378791, 378792, 8
378791, 378790, 2
378791, 378793, 1
378791, 378796, 2
378796, 378795, 2
378796, 378793, 2
378796, 378794, 2
378796, 378791, 2
