644233, 644234, 1
644239, 644237, 2
644239, 644238, 2
644236, 644237, 0
644236, 644238, 1
644236, 644235, 2
644236, 644234, 2
644235, 644234, 2
644235, 644236, 1
644238, 644237, 2
644238, 644239, 1
644238, 644236, 2
644234, 644233, 2
644234, 644235, 1
644234, 644236, 2
644237, 644238, 2
644237, 644239, 2
644237, 644236, 2
