625440, 625439, 2
625440, 625443, 2
625442, 625441, 2
625442, 625439, 2
625442, 625443, 1
625441, 625442, 1
625441, 625439, 2
625439, 625440, 6
625439, 625442, 2
625439, 625441, 3
625439, 625443, 2
625443, 625440, 2
625443, 625442, 2
625443, 625439, 2
