643775, 643776, 1
643775, 643774, 2
643775, 643773, 2
643773, 643775, 2
643773, 643776, 2
643773, 643774, 1
643774, 643773, 2
643774, 643775, 1
643774, 643776, 2
643774, 643777, 2
643776, 643775, 2
643776, 643773, 2
643776, 643774, 2
643776, 643777, 1
643777, 643776, 2
643777, 643774, 2
