573279, 573278, 2
573279, 573277, 2
573279, 573280, 1
573284, 573283, 2
573284, 573285, 1
573277, 573279, 1
573277, 573278, 0
573280, 573279, 2
573280, 573281, 1
573278, 573279, 2
573278, 573277, 2
573283, 573284, 1
573283, 573282, 2
573283, 573285, 2
573282, 573283, 1
573282, 573281, 2
573281, 573282, 1
573281, 573280, 2
573285, 573284, 2
573285, 573283, 2
