553657, 553656, 2
553657, 553658, 1
553657, 553655, 2
553658, 553657, 2
553658, 553659, 1
553660, 553659, 2
553655, 553657, 2
553655, 553656, 1
553656, 553657, 1
553656, 553655, 2
553659, 553658, 2
553659, 553660, 1
