491815, 491813, 2
491815, 491814, 2
491815, 491816, 1
491822, 491824, 2
491822, 491823, 2
491822, 491821, 2
491811, 491816, 2
491811, 491812, 1
491819, 491816, 2
491819, 491818, 2
491819, 491820, 1
491819, 491817, 2
491827, 491830, 1
491827, 491825, 2
491827, 491831, 2
491827, 491828, 3
491827, 491829, 2
491827, 491826, 2
491831, 491830, 2
491831, 491829, 2
491831, 491827, 2
491831, 491828, 2
491828, 491831, 2
491828, 491829, 6
491828, 491830, 2
491828, 491827, 2
491816, 491815, 2
491816, 491811, 2
491816, 491814, 2
491816, 491813, 2
491816, 491819, 2
491816, 491818, 2
491816, 491817, 1
491830, 491831, 1
491830, 491829, 2
491830, 491828, 2
491830, 491827, 2
491825, 491826, 3
491825, 491824, 2
491825, 491827, 1
491818, 491816, 2
491818, 491819, 2
491818, 491817, 2
491814, 491815, 2
491814, 491816, 2
491814, 491813, 2
491813, 491815, 1
491813, 491814, 8
491813, 491816, 2
491813, 491812, 2
491823, 491822, 2
491823, 491824, 2
491824, 491825, 1
491824, 491822, 2
491824, 491823, 2
491824, 491821, 2
491829, 491830, 2
491829, 491831, 2
491829, 491828, 2
491829, 491827, 2
491826, 491825, 2
491826, 491827, 2
491817, 491818, 3
491817, 491816, 2
491817, 491819, 1
491820, 491819, 2
491820, 491821, 1
491812, 491811, 2
491812, 491813, 1
491821, 491822, 3
491821, 491820, 2
491821, 491824, 1
