534965, 534962, 2
534965, 534966, 2
534965, 534964, 2
534965, 534963, 2
534965, 534961, 2
534967, 534968, 3
534967, 534966, 2
534960, 534958, 2
534960, 534962, 2
534960, 534961, 1
534960, 534963, 2
534960, 534959, 2
534956, 534958, 1
534956, 534955, 2
534956, 534957, 3
534964, 534962, 2
534964, 534965, 1
534964, 534966, 2
534964, 534963, 2
534959, 534958, 2
534959, 534962, 2
534959, 534960, 2
534959, 534957, 2
534958, 534956, 2
534958, 534957, 2
534958, 534960, 1
534958, 534959, 8
534968, 534966, 2
534968, 534967, 2
534961, 534962, 3
534961, 534965, 2
534961, 534966, 1
534961, 534960, 2
534961, 534963, 0
534954, 534955, 1
534954, 534963, 2
534954, 534953, 2
534953, 534955, 2
534953, 534954, 1
534953, 534963, 2
534957, 534958, 2
534957, 534956, 2
534957, 534959, 2
534962, 534965, 2
534962, 534961, 2
534962, 534960, 2
534962, 534966, 2
534962, 534964, 2
534962, 534963, 2
534962, 534959, 2
534966, 534965, 2
534966, 534961, 2
534966, 534968, 2
534966, 534962, 2
534966, 534964, 2
534966, 534963, 2
534966, 534967, 1
534955, 534956, 1
534955, 534954, 2
534955, 534953, 2
534963, 534965, 2
534963, 534961, 2
534963, 534960, 2
534963, 534953, 2
534963, 534962, 2
534963, 534954, 2
534963, 534966, 2
534963, 534964, 1
