421375, 421377, 0
421375, 421378, 1
421375, 421376, 3
421380, 421379, 2
421380, 421381, 2
421380, 421378, 2
421380, 421382, 2
421379, 421381, 1
421379, 421378, 2
421379, 421380, 8
421377, 421375, 2
421377, 421378, 2
421377, 421376, 2
421381, 421379, 2
421381, 421382, 1
421381, 421380, 2
421381, 421378, 2
421378, 421375, 2
421378, 421380, 2
421378, 421379, 1
421378, 421377, 2
421378, 421381, 2
421378, 421376, 2
421376, 421375, 2
421376, 421378, 2
421376, 421377, 2
421382, 421381, 2
421382, 421380, 2
