537287, 537286, 2
537287, 537285, 2
537283, 537281, 2
537283, 537282, 2
537283, 537284, 1
537281, 537285, 2
537281, 537284, 2
537281, 537282, 0
537281, 537283, 1
537284, 537282, 2
537284, 537285, 3
537284, 537281, 2
537284, 537286, 1
537284, 537283, 2
537282, 537284, 2
537282, 537281, 2
537282, 537286, 2
537282, 537283, 2
537286, 537287, 3
537286, 537284, 2
537286, 537282, 2
537286, 537285, 2
537285, 537287, 2
537285, 537281, 2
537285, 537286, 2
537285, 537284, 2
