493938, 493937, 2
493938, 493939, 2
493938, 493936, 2
493937, 493938, 3
493937, 493939, 1
493937, 493936, 2
493935, 493936, 1
493939, 493938, 2
493939, 493937, 2
493936, 493938, 2
493936, 493937, 1
493936, 493935, 2
