608301, 608300, 2
608301, 608302, 2
608301, 608299, 2
608297, 608298, 1
608300, 608301, 3
608300, 608302, 1
608300, 608299, 2
608298, 608297, 2
608298, 608299, 1
608299, 608301, 2
608299, 608300, 1
608299, 608298, 2
608302, 608301, 2
608302, 608300, 2
608302, 608303, 1
608303, 608302, 2
