522244, 522245, 1
522247, 522249, 2
522247, 522248, 1
522247, 522246, 2
522252, 522251, 2
522248, 522250, 2
522248, 522247, 2
522248, 522249, 2
522248, 522251, 2
522248, 522246, 2
522245, 522244, 2
522245, 522246, 1
522250, 522249, 2
522250, 522248, 2
522250, 522251, 1
522249, 522250, 1
522249, 522247, 2
522249, 522248, 2
522249, 522251, 2
522249, 522246, 2
522251, 522248, 2
522251, 522250, 2
522251, 522249, 2
522251, 522252, 3
522246, 522245, 2
522246, 522247, 3
522246, 522248, 2
522246, 522249, 1
