536534, 536536, 2
536534, 536535, 1
536534, 536537, 2
536535, 536534, 2
536535, 536536, 1
536538, 536536, 2
536538, 536537, 2
536536, 536534, 2
536536, 536535, 2
536536, 536538, 1
536536, 536537, 8
536537, 536536, 2
536537, 536538, 2
536537, 536534, 2
