452026, 452018, 2
452026, 452031, 2
452026, 452025, 2
452026, 452032, 2
452026, 452028, 2
452026, 452020, 2
452026, 452029, 1
452026, 452022, 2
452026, 452027, 2
452026, 452024, 2
452026, 452023, 2
452033, 452031, 2
452033, 452030, 2
452033, 452032, 2
452033, 452036, 2
452033, 452034, 1
452033, 452029, 2
452033, 452035, 2
452040, 452041, 2
452040, 452030, 2
452040, 452038, 2
452040, 452039, 2
452032, 452026, 2
452032, 452033, 2
452032, 452031, 2
452032, 452030, 2
452032, 452028, 2
452032, 452029, 2
452029, 452026, 2
452029, 452033, 2
452029, 452031, 2
452029, 452025, 2
452029, 452030, 1
452029, 452028, 2
452029, 452022, 2
452029, 452027, 2
452029, 452023, 2
452029, 452032, 2
452029, 452024, 2
452039, 452041, 1
452039, 452040, 3
452039, 452038, 2
452043, 452041, 2
452043, 452044, 2
452043, 452042, 2
452043, 452030, 2
452043, 452045, 2
452045, 452043, 2
452045, 452044, 2
452045, 452030, 2
452018, 452026, 2
452018, 452020, 1
452018, 452019, 3
452025, 452026, 4
452025, 452023, 2
452025, 452030, 2
452025, 452022, 2
452025, 452027, 1
452025, 452024, 2
452025, 452029, 2
452030, 452024, 2
452030, 452033, 2
452030, 452031, 2
452030, 452032, 2
452030, 452041, 2
452030, 452037, 2
452030, 452022, 2
452030, 452027, 2
452030, 452040, 2
452030, 452045, 2
452030, 452023, 2
452030, 452043, 2
452030, 452025, 2
452030, 452035, 2
452030, 452028, 2
452030, 452029, 2
452030, 452038, 2
452028, 452026, 2
452028, 452031, 1
452028, 452030, 2
452028, 452032, 2
452028, 452027, 2
452028, 452029, 2
452034, 452033, 2
452034, 452035, 8
452034, 452036, 1
452020, 452026, 2
452020, 452018, 2
452020, 452022, 2
452020, 452019, 2
452020, 452021, 1
452019, 452018, 2
452019, 452020, 2
452038, 452041, 2
452038, 452040, 2
452038, 452030, 2
452038, 452037, 2
452038, 452039, 1
452031, 452026, 2
452031, 452033, 1
452031, 452030, 2
452031, 452028, 2
452031, 452029, 2
452031, 452032, 3
452041, 452040, 2
452041, 452042, 1
452041, 452030, 2
452041, 452039, 2
452041, 452044, 2
452041, 452043, 2
452041, 452038, 2
452037, 452030, 2
452037, 452035, 2
452037, 452038, 1
452037, 452036, 2
452022, 452026, 2
452022, 452023, 1
452022, 452025, 2
452022, 452030, 2
452022, 452020, 2
452022, 452029, 2
452022, 452021, 2
452022, 452024, 2
452027, 452026, 2
452027, 452025, 2
452027, 452030, 2
452027, 452028, 1
452027, 452029, 2
452021, 452020, 2
452021, 452022, 1
452024, 452026, 2
452024, 452025, 1
452024, 452030, 2
452024, 452022, 2
452024, 452023, 2
452024, 452029, 2
452035, 452033, 2
452035, 452037, 2
452035, 452034, 2
452035, 452030, 2
452035, 452036, 2
452036, 452033, 2
452036, 452037, 1
452036, 452035, 2
452036, 452034, 2
452042, 452041, 2
452042, 452043, 8
452042, 452044, 1
452023, 452026, 2
452023, 452025, 2
452023, 452030, 2
452023, 452022, 2
452023, 452024, 1
452023, 452029, 2
452044, 452041, 2
452044, 452043, 2
452044, 452042, 2
452044, 452045, 1
