380135, 380132, 2
380135, 380134, 2
380130, 380129, 2
380130, 380128, 2
380130, 380131, 1
380128, 380130, 2
380128, 380129, 1
380128, 380131, 2
380131, 380130, 2
380131, 380132, 1
380131, 380128, 2
380134, 380135, 1
380134, 380133, 2
380132, 380135, 2
380132, 380133, 1
380132, 380131, 2
380129, 380130, 1
380129, 380128, 2
380133, 380132, 2
380133, 380134, 1
