455289, 455288, 2
455289, 455291, 2
455289, 455292, 2
455289, 455290, 1
455332, 455333, 1
455332, 455331, 2
455332, 455330, 2
455324, 455325, 1
455324, 455322, 2
455324, 455323, 2
455324, 455326, 2
455328, 455327, 2
455328, 455330, 1
455328, 455329, 3
455328, 455326, 2
455329, 455330, 2
455329, 455328, 2
455323, 455322, 2
455323, 455324, 2
455311, 455312, 1
455311, 455309, 2
455311, 455310, 2
455311, 455308, 2
455327, 455328, 1
455327, 455326, 2
455300, 455302, 2
455300, 455299, 2
455300, 455301, 2
455291, 455289, 2
455291, 455292, 2
455291, 455290, 2
455288, 455289, 1
455308, 455306, 2
455308, 455309, 1
455308, 455307, 2
455308, 455310, 2
455308, 455311, 2
455299, 455298, 2
455299, 455300, 8
455299, 455301, 1
455331, 455332, 1
455331, 455330, 2
455305, 455306, 1
455305, 455304, 2
455310, 455312, 2
455310, 455309, 2
455310, 455308, 2
455310, 455311, 2
455302, 455304, 2
455302, 455300, 2
455302, 455301, 2
455302, 455303, 2
455297, 455298, 1
455297, 455295, 2
455297, 455296, 2
455317, 455319, 2
455317, 455318, 2
455317, 455316, 2
455293, 455294, 2
455293, 455295, 2
455293, 455292, 2
455320, 455319, 2
455320, 455321, 1
455292, 455294, 1
455292, 455289, 2
455292, 455291, 2
455292, 455293, 8
455292, 455290, 2
455326, 455327, 1
455326, 455325, 2
455326, 455324, 2
455326, 455328, 2
455330, 455332, 2
455330, 455331, 1
455330, 455328, 2
455330, 455329, 2
455313, 455312, 2
455313, 455314, 3
455313, 455315, 1
455301, 455298, 2
455301, 455302, 8
455301, 455300, 2
455301, 455299, 2
455301, 455303, 1
455318, 455317, 2
455318, 455319, 1
455318, 455315, 2
455318, 455316, 2
455309, 455310, 8
455309, 455308, 2
455309, 455311, 1
455307, 455306, 2
455307, 455308, 2
455322, 455321, 2
455322, 455324, 1
455322, 455323, 3
455294, 455295, 1
455294, 455292, 2
455294, 455293, 2
455294, 455290, 2
455296, 455298, 2
455296, 455295, 2
455296, 455297, 1
455306, 455304, 2
455306, 455307, 3
455306, 455305, 2
455306, 455308, 1
455333, 455332, 2
455314, 455313, 2
455314, 455315, 2
455315, 455313, 2
455315, 455314, 2
455315, 455316, 1
455315, 455318, 2
455316, 455317, 8
455316, 455315, 2
455316, 455318, 1
455321, 455322, 1
455321, 455320, 2
455295, 455294, 2
455295, 455296, 1
455295, 455293, 2
455295, 455297, 2
455290, 455294, 2
455290, 455292, 1
455290, 455291, 8
455290, 455289, 2
455312, 455313, 1
455312, 455310, 2
455312, 455311, 2
455298, 455296, 2
455298, 455299, 1
455298, 455301, 2
455298, 455297, 2
455304, 455306, 2
455304, 455302, 2
455304, 455303, 2
455304, 455305, 1
455325, 455324, 2
455325, 455326, 1
455319, 455317, 2
455319, 455320, 1
455319, 455318, 2
455303, 455304, 1
455303, 455302, 2
455303, 455301, 2
