377015, 377014, 2
377015, 377016, 1
377033, 377034, 1
377033, 377032, 2
377034, 377035, 1
377034, 377033, 2
377006, 377005, 2
377006, 377007, 1
377013, 377012, 2
377013, 377014, 1
377013, 377011, 2
377019, 377020, 1
377019, 377018, 2
377010, 377012, 2
377010, 377011, 2
377010, 377009, 2
377005, 377006, 1
377024, 377023, 2
377024, 377025, 1
377016, 377015, 2
377016, 377017, 1
377031, 377032, 1
377031, 377030, 2
377014, 377015, 1
377014, 377013, 2
377026, 377027, 2
377026, 377025, 2
377026, 377028, 2
377029, 377028, 2
377029, 377030, 1
377027, 377026, 2
377027, 377025, 2
377027, 377028, 1
377009, 377012, 1
377009, 377008, 2
377009, 377010, 0
377009, 377011, 8
377030, 377029, 2
377030, 377031, 1
377012, 377013, 1
377012, 377008, 2
377012, 377010, 2
377012, 377009, 2
377012, 377011, 2
377021, 377023, 2
377021, 377020, 2
377021, 377022, 1
377035, 377034, 2
377035, 377036, 1
377032, 377033, 1
377032, 377031, 2
377022, 377023, 1
377022, 377021, 2
377007, 377006, 2
377007, 377008, 1
377020, 377021, 1
377020, 377019, 2
377017, 377018, 1
377017, 377016, 2
377025, 377026, 8
377025, 377024, 2
377025, 377027, 1
377028, 377029, 1
377028, 377026, 2
377028, 377027, 2
377023, 377024, 1
377023, 377021, 2
377023, 377022, 2
377008, 377012, 2
377008, 377011, 2
377008, 377009, 1
377008, 377007, 2
377018, 377017, 2
377018, 377019, 1
377011, 377012, 2
377011, 377013, 2
377011, 377008, 2
377011, 377010, 2
377011, 377009, 2
377036, 377035, 2
