549871, 549873, 1
549871, 549872, 3
549876, 549877, 1
549876, 549875, 2
549877, 549876, 2
549877, 549878, 1
549877, 549875, 2
549877, 549879, 2
549877, 549880, 2
549878, 549877, 2
549878, 549880, 1
549878, 549879, 8
549878, 549881, 2
549872, 549873, 2
549872, 549871, 2
549881, 549878, 2
549881, 549880, 2
549881, 549879, 2
549881, 549882, 3
549875, 549873, 2
549875, 549876, 1
549875, 549874, 2
549875, 549877, 2
549882, 549881, 2
549873, 549871, 2
549873, 549875, 2
549873, 549874, 1
549873, 549872, 2
549880, 549877, 2
549880, 549878, 2
549880, 549879, 2
549880, 549881, 1
549879, 549877, 2
549879, 549878, 2
549879, 549880, 2
549879, 549881, 2
549874, 549873, 2
549874, 549875, 1
