572694, 572692, 2
572694, 572695, 1
572694, 572693, 2
572691, 572690, 2
572691, 572692, 1
572696, 572695, 2
572690, 572692, 2
572690, 572691, 1
572692, 572694, 1
572692, 572690, 2
572692, 572691, 2
572692, 572693, 3
572693, 572694, 2
572693, 572692, 2
572695, 572694, 2
572695, 572696, 3
